<svg xmlns="http://www.w3.org/2000/svg" fill="none" viewBox="52 5 415.11 510">
<path d="M240.15 6.01678C211.972 9.01199 183.128 19.1073 160.165 34.0839C149.958 40.7401 146.408 45.7322 146.297 53.0542C146.297 59.0447 150.735 66.0338 156.282 68.9182C163.937 72.9119 169.483 71.9135 180.688 64.7025C195.886 54.9401 212.083 48.5057 232.273 44.0682C244.588 41.4057 274.318 41.4057 286.633 44.0682C306.823 48.5057 323.02 54.9401 338.218 64.7025C349.423 71.9135 354.97 72.9119 362.625 68.9182C368.171 66.0338 372.609 59.0447 372.609 53.0542C372.498 45.7322 368.838 40.7401 359.075 34.3057C324.351 11.7855 281.751 1.57929 240.15 6.01678Z" fill="black"/>
<path d="M241.593 77.4604C221.513 80.6776 200.99 89.7743 196.441 97.5395C193.113 103.198 193.446 112.516 197.218 117.731C203.097 126.051 212.305 127.049 225.173 120.948C237.598 114.957 245.919 113.071 259.453 113.071C272.988 113.071 281.308 114.957 293.733 120.948C310.818 129.157 323.686 123.832 324.573 108.079C325.35 96.2091 317.473 89.1091 295.73 81.8979C278.423 76.2401 259.675 74.687 241.593 77.4604Z" fill="black"/>
<path d="M90.828 148.793C72.1907 153.674 57.3251 169.427 53.2205 188.731C52.333 192.835 52.0002 227.559 52.0002 305.214C52.0002 424.25 51.8892 421.81 57.658 433.347C64.2032 446.327 76.2954 457.199 90.1628 462.413C94.8215 464.188 105.028 466.295 117.231 468.07C164.046 474.727 200.878 486.487 230.498 504.458C253.351 518.325 265.333 518.436 287.076 505.235C300.832 496.914 306.157 494.252 321.578 488.15C345.319 478.72 372.498 471.953 405.336 467.405C423.972 464.853 431.294 462.524 441.39 455.757C453.26 447.88 461.692 436.01 465.242 422.253C467.794 412.713 467.682 197.051 465.242 187.399C459.694 166.099 443.942 151.234 422.974 147.684C416.429 146.686 412.769 146.686 400.232 148.349C348.757 155.116 297.394 171.535 267.441 191.06C263.669 193.612 260.008 195.609 259.453 195.609C258.898 195.609 255.237 193.612 251.466 191.06C241.703 184.737 217.851 173.311 203.429 168.096C180.354 159.887 151.955 153.119 123.111 149.014C104.918 146.352 100.146 146.352 90.828 148.793ZM130.321 187.289C173.144 194.499 205.204 205.926 236.378 225.117L241.592 228.335L241.703 347.814C241.703 413.6 241.481 467.405 241.148 467.405C240.816 467.405 236.599 465.408 231.719 462.967C201.876 447.99 159.831 436.232 115.789 430.685C103.808 429.242 96.7079 425.803 92.2699 419.369L89.1644 414.932L88.8313 305.769C88.6095 198.16 88.6095 196.607 90.828 192.281C92.1595 189.618 94.7112 186.956 97.2628 185.624C102.033 183.072 105.694 183.184 130.321 187.289ZM421.421 185.624C424.306 187.066 426.636 189.396 428.077 192.281C430.296 196.607 430.296 198.049 430.074 305.769L429.742 414.932L426.635 419.369C421.865 426.358 415.319 429.132 399.234 431.35C356.079 437.119 316.253 448.324 287.187 462.967C282.306 465.408 278.091 467.405 277.758 467.405C277.424 467.405 277.203 413.6 277.203 347.814L277.314 228.335L284.858 223.564C314.367 205.26 352.529 192.502 398.124 185.624C415.986 182.962 416.319 182.962 421.421 185.624Z" fill="black"/>
</svg>