<svg xmlns="http://www.w3.org/2000/svg" fill="none" viewBox="3.96 12.96 64.04 45.13">
<g id="customer-analysis">
<g id="Group 1171275533">
<circle id="Ellipse 19" cx="41.692" cy="22.2446" r="6.3999" fill="#BE1A2E"/>
<g id="Group 159079">
<path id="Subtract" fill-rule="evenodd" clip-rule="evenodd" d="M26.7566 47.1325C27.7047 44.5251 30.7387 39.0259 35.2898 37.8882C36.9383 37.4761 38.2285 37.0042 39.3509 36.5938C42.1014 35.5879 43.8432 34.9509 47.3785 36.466C48.0434 36.751 48.7044 37.1589 49.3509 37.654C46.8627 39.4638 45.2452 42.3982 45.2452 45.7103C45.2452 46.1932 45.2796 46.668 45.346 47.1325H26.7566Z" fill="#BE1A2E"/>
<g id="Group 159034">
<path id="Vector" d="M61.7344 46.3418C61.7344 44.8325 61.198 43.5415 60.1252 42.4686C59.0524 41.3958 57.7613 40.8594 56.252 40.8594C54.7427 40.8594 53.4516 41.3958 52.3788 42.4686C51.306 43.5415 50.7696 44.8325 50.7696 46.3418C50.7696 47.8511 51.306 49.1422 52.3788 50.215C53.4516 51.2878 54.7427 51.8242 56.252 51.8242C57.7613 51.8242 59.0524 51.2878 60.1252 50.215C61.198 49.1422 61.7344 47.8511 61.7344 46.3418ZM68.0001 56.5235C68.0001 56.9477 67.8451 57.3148 67.535 57.6249C67.225 57.9349 66.8579 58.0899 66.4337 58.0899C65.9931 58.0899 65.626 57.9349 65.3323 57.6249L61.1348 53.4396C59.6744 54.4512 58.0468 54.9571 56.252 54.9571C55.0854 54.9571 53.9697 54.7307 52.905 54.2779C51.8404 53.8251 50.9225 53.2132 50.1516 52.4422C49.3806 51.6713 48.7687 50.7535 48.3159 49.6888C47.8631 48.6241 47.6367 47.5085 47.6367 46.3418C47.6367 45.1752 47.8631 44.0595 48.3159 42.9948C48.7687 41.9302 49.3806 41.0124 50.1516 40.2414C50.9225 39.4704 51.8404 38.8585 52.905 38.4057C53.9697 37.953 55.0854 37.7266 56.252 37.7266C57.4187 37.7266 58.5343 37.953 59.599 38.4057C60.6636 38.8585 61.5815 39.4704 62.3524 40.2414C63.1234 41.0124 63.7353 41.9302 64.1881 42.9948C64.6409 44.0595 64.8673 45.1752 64.8673 46.3418C64.8673 48.1367 64.3614 49.7643 63.3498 51.2246L67.5473 55.4221C67.8491 55.724 68.0001 56.0911 68.0001 56.5235Z" fill="#4D0000"/>
<g id="Subtract_2">
<path fill-rule="evenodd" clip-rule="evenodd" d="M51.6521 22.4186C51.6521 27.7368 47.6996 32.0604 42.8194 32.0604C37.9594 32.0604 34.0069 27.7571 33.9867 22.4591C33.9867 17.2424 37.9796 13 42.8194 13C47.7197 13 51.6521 17.1815 51.6521 22.4186ZM27.1303 24.0424C27.1303 28.7314 23.7021 32.5273 19.4471 32.5273C15.2123 32.5273 11.7639 28.7517 11.7639 24.0627C11.7437 19.5361 15.2324 15.7809 19.4471 15.7809C23.7021 15.7809 27.1303 19.4753 27.1303 24.0424ZM37.6771 22.4388C37.6771 25.8693 40.0365 28.5081 42.8194 28.5081C45.6225 28.5081 47.9617 25.8287 47.9617 22.4186C47.9617 19.0896 45.6426 16.5523 42.8194 16.5523C40.0164 16.5523 37.6771 19.1302 37.6771 22.4388ZM15.2324 24.0627C15.2324 26.8233 17.1684 29.0156 19.4471 29.0156C21.746 29.0156 23.6819 26.8233 23.6819 24.0424C23.6819 21.3833 21.7864 19.2723 19.4471 19.2723C17.1482 19.2723 15.2324 21.4239 15.2324 24.0627ZM24.0248 51.1817H8.35584C5.45195 51.1817 4 49.9435 4 47.5076C4 40.7685 10.8967 34.6383 19.4269 34.6383C22.5728 34.6383 25.759 35.4908 28.3201 37.0741C27.211 37.8049 26.364 38.6574 25.6784 39.6521C23.9441 38.6777 21.6855 38.1094 19.4269 38.1094C13.0343 38.1094 7.62987 42.5345 7.62987 47.1828C7.62987 47.5279 7.79119 47.7106 8.17435 47.7106H22.3107C22.1695 49.0503 22.9156 50.5321 24.0248 51.1817ZM47.343 51.1817H30.256C26.7673 51.1817 25.0734 50.0652 25.0734 47.67C25.0734 42.0879 32.0105 34.6586 42.8194 34.6586C46.5993 34.6586 49.9057 35.5671 52.6076 36.9875C51.285 37.5126 50.0985 38.3069 49.1158 39.3027C47.313 38.6298 45.2071 38.2109 42.8194 38.2109C33.9464 38.2109 28.9654 43.996 28.9654 47.1016C28.9654 47.467 29.1469 47.6294 29.6107 47.6294H46.2484C46.3943 48.8993 46.7739 50.098 47.343 51.1817Z" fill="#4D0000"/>
<path d="M33.9867 22.4591H33.9482L33.9482 22.4593L33.9867 22.4591ZM11.7639 24.0627H11.8025L11.8025 24.0626L11.7639 24.0627ZM24.0248 51.1817V51.2202H24.167L24.0443 51.1484L24.0248 51.1817ZM28.3201 37.0741L28.3413 37.1063L28.3918 37.0731L28.3404 37.0413L28.3201 37.0741ZM25.6784 39.6521L25.6595 39.6857L25.6902 39.7029L25.7101 39.674L25.6784 39.6521ZM22.3107 47.7106L22.349 47.7146L22.3535 47.672H22.3107V47.7106ZM47.343 51.1817V51.2202H47.4068L47.3772 51.1637L47.343 51.1817ZM52.6076 36.9875L52.6218 37.0234L52.6998 36.9924L52.6255 36.9534L52.6076 36.9875ZM49.1158 39.3027L49.1023 39.3388L49.1257 39.3475L49.1432 39.3298L49.1158 39.3027ZM46.2484 47.6294L46.2867 47.625L46.2828 47.5908H46.2484V47.6294ZM42.8194 32.099C47.724 32.099 51.6907 27.7548 51.6907 22.4186H51.6135C51.6135 27.7188 47.6751 32.0218 42.8194 32.0218V32.099ZM33.9482 22.4593C33.9684 27.7752 37.9351 32.099 42.8194 32.099V32.0218C37.9838 32.0218 34.0454 27.7389 34.0253 22.459L33.9482 22.4593ZM42.8194 12.9614C37.9559 12.9614 33.9482 17.2235 33.9482 22.4591H34.0253C34.0253 17.2613 38.0033 13.0386 42.8194 13.0386V12.9614ZM51.6907 22.4186C51.6907 17.1625 47.7433 12.9614 42.8194 12.9614V13.0386C47.6962 13.0386 51.6135 17.2005 51.6135 22.4186H51.6907ZM19.4471 32.5658C23.727 32.5658 27.1689 28.749 27.1689 24.0424H27.0918C27.0918 28.7138 23.6773 32.4887 19.4471 32.4887V32.5658ZM11.7253 24.0627C11.7253 28.7695 15.1876 32.5658 19.4471 32.5658V32.4887C15.2369 32.4887 11.8025 28.7339 11.8025 24.0627H11.7253ZM19.4471 15.7423C15.2085 15.7423 11.7051 19.5175 11.7253 24.0629L11.8025 24.0626C11.7824 19.5547 15.2563 15.8195 19.4471 15.8195V15.7423ZM27.1689 24.0424C27.1689 19.4567 23.726 15.7423 19.4471 15.7423V15.8195C23.6782 15.8195 27.0918 19.4938 27.0918 24.0424H27.1689ZM42.8194 28.4696C40.063 28.4696 37.7157 25.8536 37.7157 22.4388H37.6385C37.6385 25.885 40.01 28.5467 42.8194 28.5467V28.4696ZM47.9232 22.4186C47.9232 25.8134 45.5957 28.4696 42.8194 28.4696V28.5467C45.6493 28.5467 48.0003 25.844 48.0003 22.4186H47.9232ZM42.8194 16.5908C45.6172 16.5908 47.9232 19.1064 47.9232 22.4186H48.0003C48.0003 19.0727 45.6681 16.5137 42.8194 16.5137V16.5908ZM37.7157 22.4388C37.7157 19.1469 40.042 16.5908 42.8194 16.5908V16.5137C39.9907 16.5137 37.6385 19.1135 37.6385 22.4388H37.7157ZM19.4471 28.977C17.1949 28.977 15.271 26.8077 15.271 24.0627H15.1939C15.1939 26.839 17.1418 29.0542 19.4471 29.0542V28.977ZM23.6434 24.0424C23.6434 26.8077 21.7195 28.977 19.4471 28.977V29.0542C21.7725 29.0542 23.7205 26.839 23.7205 24.0424H23.6434ZM19.4471 19.3108C21.761 19.3108 23.6434 21.4003 23.6434 24.0424H23.7205C23.7205 21.3663 21.8117 19.2337 19.4471 19.2337V19.3108ZM15.271 24.0627C15.271 21.4406 17.1739 19.3108 19.4471 19.3108V19.2337C17.1225 19.2337 15.1939 21.4073 15.1939 24.0627H15.271ZM8.35584 51.2202H24.0248V51.1431H8.35584V51.2202ZM3.96143 47.5076C3.96143 48.7334 4.32708 49.6642 5.06405 50.2875C5.79981 50.9098 6.89931 51.2202 8.35584 51.2202V51.1431C6.90848 51.1431 5.83006 50.8344 5.11387 50.2286C4.3989 49.6239 4.03857 48.7176 4.03857 47.5076H3.96143ZM19.4269 34.5997C10.8815 34.5997 3.96143 40.7416 3.96143 47.5076H4.03857C4.03857 40.7954 10.912 34.6769 19.4269 34.6769V34.5997ZM28.3404 37.0413C25.7727 35.454 22.5794 34.5997 19.4269 34.5997V34.6769C22.5663 34.6769 25.7453 35.5277 28.2998 37.1069L28.3404 37.0413ZM25.7101 39.674C26.393 38.6833 27.2364 37.8343 28.3413 37.1063L28.2989 37.0419C27.1855 37.7755 26.335 38.6315 25.6466 39.6302L25.7101 39.674ZM19.4269 38.1479C21.6796 38.1479 23.9316 38.7149 25.6595 39.6857L25.6973 39.6184C23.9567 38.6405 21.6914 38.0708 19.4269 38.0708V38.1479ZM7.66844 47.1828C7.66844 44.8739 9.01107 42.6157 11.155 40.9333C13.2984 39.2513 16.2393 38.1479 19.4269 38.1479V38.0708C16.2219 38.0708 13.2643 39.18 11.1074 40.8726C8.9509 42.5649 7.5913 44.8434 7.5913 47.1828H7.66844ZM8.17435 47.672C7.98824 47.672 7.86397 47.6276 7.78579 47.5489C7.70757 47.4702 7.66844 47.3501 7.66844 47.1828H7.5913C7.5913 47.3607 7.63283 47.5044 7.73106 47.6033C7.82933 47.7022 7.9773 47.7492 8.17435 47.7492V47.672ZM22.3107 47.672H8.17435V47.7492H22.3107V47.672ZM24.0443 51.1484C22.9486 50.5067 22.2094 49.0397 22.349 47.7146L22.2723 47.7066C22.1296 49.0609 22.8827 50.5575 24.0053 51.215L24.0443 51.1484ZM30.256 51.2202H47.343V51.1431H30.256V51.2202ZM25.0348 47.67C25.0348 48.8781 25.4629 49.7691 26.3349 50.3561C27.204 50.9409 28.5089 51.2202 30.256 51.2202V51.1431C28.5144 51.1431 27.2281 50.8642 26.378 50.2921C25.5309 49.7219 25.112 48.8572 25.112 47.67H25.0348ZM42.8194 34.62C37.4059 34.62 32.9607 36.4805 29.8685 39.0413C26.7773 41.6012 25.0348 44.864 25.0348 47.67H25.112C25.112 44.8939 26.838 41.651 29.9177 39.1007C32.9962 36.5513 37.424 34.6972 42.8194 34.6972V34.62ZM52.6255 36.9534C49.9182 35.5301 46.6056 34.62 42.8194 34.62V34.6972C46.5931 34.6972 49.8933 35.6042 52.5896 37.0216L52.6255 36.9534ZM49.1432 39.3298C50.1223 38.3377 51.3043 37.5465 52.6218 37.0234L52.5933 36.9517C51.2657 37.4788 50.0748 38.276 49.0883 39.2756L49.1432 39.3298ZM42.8194 38.2494C45.2025 38.2494 47.3038 38.6675 49.1023 39.3388L49.1293 39.2665C47.3221 38.592 45.2117 38.1723 42.8194 38.1723V38.2494ZM29.004 47.1016C29.004 46.3348 29.3118 45.3979 29.9151 44.4225C30.5181 43.4477 31.4148 42.4368 32.5887 41.522C34.9364 39.6928 38.3915 38.2494 42.8194 38.2494V38.1723C38.3743 38.1723 34.9024 39.6215 32.5413 41.4612C31.3609 42.381 30.4578 43.3986 29.8495 44.382C29.2416 45.3648 28.9269 46.3157 28.9269 47.1016H29.004ZM29.6107 47.5908C29.3817 47.5908 29.2317 47.5504 29.1389 47.4729C29.0478 47.3969 29.004 47.2784 29.004 47.1016H28.9269C28.9269 47.2903 28.9738 47.4357 29.0894 47.5322C29.2033 47.6272 29.3759 47.668 29.6107 47.668V47.5908ZM46.2484 47.5908H29.6107V47.668H46.2484V47.5908ZM47.3772 51.1637C46.8102 50.0842 46.4321 48.89 46.2867 47.625L46.2101 47.6338C46.3566 48.9085 46.7376 50.1118 47.3089 51.1996L47.3772 51.1637Z" fill="#4D0000"/>
</g>
</g>
</g>
</g>
</g>
</svg>