<svg xmlns="http://www.w3.org/2000/svg" fill="none" viewBox="11 4 49.34 64">
<g id="sales-forecast">
<g id="Group 1171275243">
<g id="Group">
<path id="Vector 685" d="M44 6.5H14V66H57.5V20.5H44V6.5Z" fill="#BE1A2E"/>
<path id="Vector" d="M14.6313 4.20019C13.2948 4.60367 12.0591 5.70062 11.4035 7.02453L11 7.8567V36.0371V64.2174L11.4035 65.0496C11.933 66.1087 12.8913 67.067 13.9504 67.5965L14.7826 68H35.6499H56.5173L57.2486 67.6596C58.2699 67.1804 59.392 66.0709 59.8964 65.0496L60.2998 64.2174L60.3377 42.2783C60.3503 30.2119 60.3377 20.2006 60.2998 20.0241C60.2116 19.671 45.1442 4.49019 44.5769 4.18758C44.0851 3.93541 15.4509 3.93541 14.6313 4.20019ZM41.8534 14.5267C41.8912 21.2471 41.8912 21.3984 42.156 21.7514C42.7486 22.5584 42.5847 22.5458 49.9986 22.5458H56.7064V42.8709C56.7064 62.8178 56.7064 63.2213 56.4542 63.6122C55.9373 64.4696 57.5259 64.4065 35.6499 64.4065C13.7739 64.4065 15.3626 64.4696 14.8456 63.6122C14.5935 63.2213 14.5935 62.7674 14.5935 36.0623C14.5935 6.06627 14.5304 8.4367 15.3878 7.91975C15.7787 7.68018 16.1191 7.66757 28.8034 7.66757H41.8282L41.8534 14.5267ZM49.8347 14.6023L54.1216 18.8893H49.7968H45.4847V14.6023C45.4847 12.2445 45.4973 10.3154 45.5225 10.3154C45.5351 10.3154 47.4768 12.2445 49.8347 14.6023Z" fill="#4D0000"/>
</g>
</g>
<g id="Group 1171275578">
<path id="Vector_2" d="M49.5046 55.0104H49.0643V39.5977C49.0643 39.0183 48.829 38.4505 48.4192 38.0407C48.0083 37.6308 47.4416 37.3955 46.8621 37.3955H43.9265C43.348 37.3955 42.7802 37.6299 42.3694 38.0407C41.9596 38.4505 41.7242 39.0183 41.7242 39.5977V55.0104H39.6701V48.992C39.6701 47.7782 38.6817 46.7898 37.4678 46.7898H34.5322C33.3183 46.7898 32.3299 47.7782 32.3299 48.992V55.0104H30.2748V41.9461C30.2748 41.3666 30.0404 40.7989 29.6296 40.389C29.2198 39.9801 28.652 39.7438 28.0735 39.7438H25.1379C24.5584 39.7438 23.9907 39.9792 23.5808 40.389C23.171 40.7998 22.9357 41.3666 22.9357 41.9461V55.0104H22.4954C21.1188 55.0104 20 56.1292 20 57.5058C20 58.8815 21.1188 60.0012 22.4954 60.0012H49.5046C50.8812 60.0012 52 58.8815 52 57.5058C52 56.1292 50.8812 55.0104 49.5046 55.0104ZM43.193 39.5977C43.193 39.4046 43.2715 39.2153 43.4078 39.0781C43.5441 38.9418 43.7333 38.8633 43.9265 38.8633H46.8621C47.0553 38.8633 47.2445 38.9418 47.3808 39.0781C47.5181 39.2153 47.5965 39.4046 47.5965 39.5977V55.0104H43.193V39.5977ZM33.7978 48.992C33.7978 48.5871 34.1272 48.2576 34.5322 48.2576H37.4678C37.8718 48.2576 38.2022 48.5871 38.2022 48.992V55.0104H33.7978V48.992ZM24.4035 41.9461C24.4035 41.7529 24.4819 41.5637 24.6182 41.4274C24.7555 41.2901 24.9447 41.2117 25.1379 41.2117H28.0735C28.2667 41.2117 28.4559 41.2901 28.5922 41.4274C28.7285 41.5637 28.807 41.7529 28.807 41.9461V55.0104H24.4035V41.9461ZM49.5046 58.5334H22.4954C21.9287 58.5334 21.4678 58.0725 21.4678 57.5058C21.4678 56.9391 21.9287 56.4782 22.4954 56.4782H49.5046C50.0713 56.4782 50.5322 56.9391 50.5322 57.5058C50.5322 58.0725 50.0713 58.5334 49.5046 58.5334Z" fill="#4D0000"/>
<path id="Vector_3" d="M26.6056 37.6884C27.3459 37.6884 28.0274 37.4257 28.5588 36.9884L33.1643 40.4427C33.0055 40.8143 32.9172 41.2232 32.9172 41.6517C32.9172 43.3509 34.2997 44.7344 35.9999 44.7344C37.7001 44.7344 39.0827 43.3509 39.0827 41.6517C39.0827 41.0271 38.8954 40.4466 38.5757 39.9603L43.9715 33.8154C44.398 34.039 44.8814 34.1655 45.3942 34.1655C47.0944 34.1655 48.477 32.782 48.477 31.0827C48.477 29.3825 47.0944 28 45.3942 28C43.695 28 42.3115 29.3825 42.3115 31.0827C42.3115 31.7377 42.5184 32.3466 42.8684 32.8457L37.5001 38.9592C37.0559 38.7101 36.5441 38.568 35.9999 38.568C35.2597 38.568 34.5782 38.8307 34.0458 39.268L29.4403 35.8147C29.6001 35.4431 29.6874 35.0342 29.6874 34.6057C29.6874 32.9055 28.3049 31.523 26.6056 31.523C24.9054 31.523 23.5229 32.9055 23.5229 34.6057C23.5229 36.3049 24.9054 37.6884 26.6056 37.6884ZM45.3942 29.4688C46.2845 29.4688 47.0091 30.1934 47.0091 31.0827C47.0091 31.973 46.2845 32.6976 45.3942 32.6976C44.5039 32.6976 43.7793 31.973 43.7793 31.0827C43.7793 30.1934 44.5039 29.4688 45.3942 29.4688ZM35.9999 40.0378C36.8902 40.0378 37.6148 40.7614 37.6148 41.6517C37.6148 42.542 36.8902 43.2666 35.9999 43.2666C35.1096 43.2666 34.385 42.542 34.385 41.6517C34.385 40.7614 35.1096 40.0378 35.9999 40.0378ZM26.6056 32.9918C27.496 32.9918 28.2196 33.7154 28.2196 34.6057C28.2196 35.496 27.496 36.2206 26.6056 36.2206C25.7153 36.2206 24.9907 35.496 24.9907 34.6057C24.9907 33.7154 25.7153 32.9918 26.6056 32.9918Z" fill="#4D0000"/>
</g>
</g>
</svg>