<svg xmlns="http://www.w3.org/2000/svg" fill="none" viewBox="6.69 7.2 23.14 21.39">
<g id="customer">
<g id="Group 1000001521">
<path id="Vector" d="M19.6311 8.02185C22.2614 8.02185 24.8967 11.2464 24.7006 13.5659C24.6528 14.0653 24.4796 14.5436 24.1977 14.9544C23.985 15.5031 23.7044 16.0216 23.3628 16.4973C22.8868 17.1539 22.2448 17.6656 21.5058 17.9772C20.7668 18.2889 19.9588 18.3889 19.1684 18.2664C18.541 18.1998 17.9335 18.0026 17.3834 17.6868C16.8333 17.371 16.3522 16.9435 15.9698 16.4304C15.2463 15.6628 14.7812 14.6791 14.6421 13.6224C14.4963 11.1076 17.0913 8.02185 19.6311 8.02185Z" fill="#FFA600"/>
<path id="Vector_2" d="M24.9475 10.7887C24.3547 9.38041 23.2569 8.25779 21.8796 7.65159C20.8355 7.20391 19.6843 7.08565 18.574 7.312C17.4637 7.53835 16.4448 8.09898 15.6484 8.92188C15.1258 9.45988 14.7062 10.093 14.4112 10.7887C14.1159 11.504 13.9637 12.2726 13.9637 13.049C13.9637 13.8254 14.1159 14.594 14.4112 15.3093C15.004 16.7176 16.1018 17.8403 17.479 18.4464C18.1794 18.7486 18.9318 18.9042 19.6919 18.9042C20.452 18.9042 21.2044 18.7486 21.9048 18.4464C23.2798 17.8387 24.3756 16.7164 24.9676 15.3093C25.2629 14.594 25.4151 13.8254 25.4151 13.049C25.4151 12.2726 25.2629 11.504 24.9676 10.7887H24.9475ZM24.012 14.903C23.7792 15.4799 23.4374 16.0042 23.0062 16.4459C22.5731 16.8854 22.0607 17.2347 21.4974 17.4744C20.9282 17.7196 20.3173 17.8475 19.6996 17.8509C19.082 17.8543 18.4698 17.7331 17.898 17.4943C17.3262 17.2554 16.8061 16.9036 16.3675 16.459C15.9288 16.0143 15.5802 15.4856 15.3416 14.903C14.8637 13.7064 14.8637 12.3659 15.3416 11.1693C15.5761 10.5933 15.9177 10.0693 16.3475 9.62645C16.7822 9.18903 17.2942 8.83999 17.8562 8.59788C19.0077 8.11128 20.3007 8.11128 21.4522 8.59788C22.5836 9.09086 23.4847 10.0123 23.9668 11.1693C24.443 12.3556 24.443 13.6859 23.9668 14.8722L24.012 14.903Z" fill="black"/>
<path id="Vector_3" d="M16.9457 15.7876C16.8956 15.7217 16.8705 15.6394 16.8753 15.5561C16.8921 15.3475 16.9503 15.1445 17.0463 14.9596C17.175 14.6889 17.3447 14.4407 17.5492 14.2241C17.7968 13.9608 18.0924 13.7494 18.4192 13.6018C18.9719 13.3427 19.5891 13.2634 20.1872 13.3747C20.7854 13.486 21.3357 13.7825 21.7637 14.2241C21.968 14.4408 22.1377 14.689 22.2666 14.9596C22.3609 15.1449 22.4173 15.3478 22.4326 15.5561C22.4366 15.6386 22.4136 15.72 22.3672 15.7876C22.3395 15.8173 22.3058 15.8405 22.2685 15.8556C22.2311 15.8707 22.191 15.8773 22.1509 15.875H17.1569C17.1175 15.878 17.0779 15.8717 17.0413 15.8566C17.0046 15.8414 16.9719 15.8178 16.9457 15.7876Z" fill="black"/>
<path id="Vector_4" d="M18.9626 12.6916C18.7531 12.5535 18.5803 12.3644 18.4597 12.1413C18.3333 11.8957 18.2693 11.6216 18.2736 11.3442C18.2723 11.0824 18.3345 10.8245 18.4546 10.5933C18.5754 10.3662 18.7479 10.1721 18.9576 10.0276C19.1679 9.89302 19.411 9.82166 19.6591 9.82166C19.9073 9.82166 20.1504 9.89302 20.3607 10.0276C20.5702 10.1657 20.743 10.3548 20.8636 10.5779C20.9869 10.8117 21.0509 11.0734 21.0497 11.339C21.0555 11.6161 20.9933 11.8901 20.8687 12.1362C20.7521 12.3623 20.5785 12.5523 20.3657 12.6865C20.1558 12.8234 19.9106 12.8933 19.6616 12.887C19.4151 12.8923 19.1723 12.8244 18.9626 12.6916Z" fill="black"/>
<path id="Vector_5" d="M7.57135 20.1951H10.2469V26.6236H7.57135V20.1951Z" fill="#FFA600"/>
<path id="Vector_6" d="M19.5759 28.5934C18.5982 28.572 17.6317 28.3771 16.7193 28.0174L12.1929 26.6134H11.1619V26.9528C11.1541 27.1197 11.0831 27.2769 10.9639 27.3912C10.8446 27.5054 10.6866 27.5677 10.5232 27.5648H7.3196C7.15373 27.5662 6.99405 27.5005 6.87535 27.382C6.75665 27.2635 6.68856 27.1019 6.68591 26.9323V19.9688C6.68856 19.7992 6.75665 19.6376 6.87535 19.5191C6.99405 19.4006 7.15373 19.3349 7.3196 19.3363H10.5232C10.6058 19.3349 10.6878 19.3502 10.7646 19.3812C10.8414 19.4123 10.9114 19.4585 10.9707 19.5173C11.03 19.576 11.0775 19.6461 11.1103 19.7236C11.1431 19.8011 11.1606 19.8844 11.1619 19.9688V20.2928H12.1678L12.7663 20.0306C13.5016 19.713 14.2916 19.5486 15.0898 19.5471C16.2559 19.5348 17.3938 19.9142 18.3286 20.6271C18.394 20.6765 18.4503 20.7374 18.4946 20.8071C18.5277 20.8669 18.575 20.9171 18.6321 20.953C18.6893 20.989 18.7545 21.0096 18.8215 21.0128H22.5381C22.9092 21.0169 23.2686 21.1461 23.5606 21.3804C23.8525 21.6148 24.0606 21.9411 24.1525 22.3088L27.1399 19.9483C27.4604 19.68 27.8691 19.5471 28.2823 19.5768C28.6955 19.6064 29.082 19.7963 29.3628 20.1077C29.6507 20.4257 29.816 20.8397 29.8281 21.2729C29.8401 21.706 29.698 22.129 29.4282 22.4631C29.4006 22.4965 29.3703 22.5275 29.3377 22.5557L22.9354 27.6523C22.815 27.7469 22.6872 27.8312 22.5532 27.9043C22.391 27.9917 22.2229 28.0673 22.0503 28.1305L21.8189 28.2077C21.094 28.4489 20.3381 28.5789 19.5759 28.5934ZM12.2885 25.3277C12.3534 25.3275 12.4179 25.3379 12.4796 25.3586L17.1166 26.7985C17.9012 27.1137 18.7333 27.2876 19.5759 27.3128C20.0041 27.3117 20.4309 27.2617 20.8483 27.1637C21.4619 27.0241 22.0374 26.7465 22.5331 26.3511L28.4626 21.6248C28.5266 21.5249 28.5564 21.406 28.5473 21.2869C28.5382 21.1678 28.4907 21.0551 28.4123 20.9665C28.3805 20.9302 28.3418 20.901 28.2986 20.8807C28.2553 20.8603 28.2084 20.8493 28.1608 20.8483C28.0797 20.8471 28.001 20.8764 27.9395 20.9306L24.3838 23.7386C23.9646 24.0787 23.4681 24.3052 22.9405 24.3968C22.8155 24.4289 22.687 24.4444 22.5582 24.4431H18.2532C18.1673 24.4432 18.0822 24.426 18.0028 24.3925C17.9234 24.359 17.8513 24.3098 17.7905 24.2477C17.6763 24.1282 17.6131 23.9673 17.6145 23.8003C17.621 23.6311 17.692 23.4713 17.8124 23.355C17.9327 23.2387 18.0927 23.1752 18.2582 23.178H22.3872C22.4866 23.1773 22.5859 23.1687 22.684 23.1523C22.7178 23.1311 22.7498 23.1071 22.7795 23.0803C22.8254 23.0332 22.8611 22.9769 22.8845 22.9149C22.9079 22.8529 22.9184 22.7866 22.9153 22.7203C22.9194 22.6101 22.8812 22.5027 22.8089 22.4209C22.7365 22.3392 22.6357 22.2898 22.5281 22.2831H18.8114C18.5526 22.2825 18.2975 22.2204 18.0662 22.1017C17.8349 21.983 17.6338 21.811 17.4787 21.5991C16.7453 21.1009 15.8848 20.8344 15.0043 20.8328C14.4061 20.8333 13.8142 20.9575 13.2642 21.198L12.545 21.5117C12.4637 21.546 12.3765 21.5635 12.2885 21.5631H11.1619V25.3328L12.2885 25.3277ZM9.88452 26.3048V20.6014H7.95831V26.3048H9.88452Z" fill="black"/>
<path id="Vector_7" d="M29.1718 20.2824C28.9325 20.0177 28.6031 19.8569 28.2514 19.833C27.8996 19.8091 27.5523 19.9239 27.2808 20.1539L23.9364 22.7973V22.6996C23.9311 22.3203 23.7808 21.9582 23.5175 21.6909C23.2543 21.4237 22.8991 21.2725 22.5282 21.2699H18.8116C18.7026 21.2661 18.5962 21.2344 18.5022 21.1778C18.4082 21.1212 18.3296 21.0415 18.2734 20.9459C18.2449 20.9022 18.2092 20.8639 18.1678 20.8327C17.4081 20.2721 16.518 19.9249 15.5861 19.8256C14.6543 19.7264 13.7133 19.8786 12.8569 20.267L12.2082 20.5499H10.9106V19.9687C10.9067 19.8669 10.864 19.7706 10.7917 19.7005C10.7193 19.6303 10.623 19.5919 10.5234 19.5933H7.31972C7.22054 19.5919 7.12481 19.6305 7.05327 19.7008C6.98173 19.7711 6.94014 19.8673 6.9375 19.9687V26.9373C6.94014 27.0387 6.98173 27.135 7.05327 27.2052C7.12481 27.2755 7.22054 27.3141 7.31972 27.3127H10.5234C10.623 27.3141 10.7193 27.2757 10.7917 27.2056C10.864 27.1354 10.9067 27.0392 10.9106 26.9373V26.3407H12.2283L16.8049 27.7602C17.6904 28.1078 18.6277 28.2974 19.576 28.3207C20.3154 28.3125 21.0494 28.1911 21.7537 27.9607L21.975 27.8887C22.1328 27.8312 22.2859 27.7607 22.4326 27.6779C22.5556 27.6128 22.6719 27.5353 22.7796 27.4464L29.1718 22.355L29.2271 22.2984C29.456 22.0115 29.5764 21.65 29.5662 21.2799C29.556 20.9098 29.4161 20.5558 29.1718 20.2824ZM10.116 26.5619H7.70698V20.3647H10.116V26.5619ZM28.6287 21.7996L22.6891 26.5362C22.162 26.9505 21.5526 27.2419 20.9037 27.3899C19.6194 27.6853 18.2771 27.5667 17.0614 27.0504L12.4194 25.6104C12.3812 25.6027 12.3419 25.6027 12.3037 25.6104H10.9106V21.3007H12.2886C12.3421 21.3014 12.3952 21.2909 12.4445 21.2699L13.1687 20.9562C13.8936 20.6401 14.6842 20.5145 15.4687 20.5909C16.2531 20.6672 17.0064 20.9431 17.6599 21.3933C17.7886 21.5839 17.9607 21.7396 18.1613 21.8471C18.3619 21.9546 18.5851 22.0107 18.8116 22.0104H22.5282C22.6171 22.0104 22.7051 22.0286 22.787 22.064C22.8688 22.0994 22.9429 22.1513 23.0049 22.2165C23.0668 22.2817 23.1152 22.359 23.1474 22.4438C23.1796 22.5285 23.1947 22.619 23.192 22.7099C23.1965 22.8108 23.18 22.9116 23.1436 23.0056C23.1072 23.0996 23.0517 23.1846 22.9808 23.255C22.9171 23.3226 22.8374 23.3722 22.7495 23.399C22.6383 23.4197 22.5255 23.43 22.4125 23.4299H18.2583C18.1586 23.427 18.0618 23.4642 17.9885 23.5334C17.9152 23.6026 17.8713 23.6983 17.8661 23.8002C17.8667 23.8513 17.8773 23.9017 17.8972 23.9486C17.917 23.9955 17.9458 24.0378 17.9819 24.0733C18.0179 24.1087 18.0604 24.1364 18.107 24.1548C18.1536 24.1733 18.2034 24.1821 18.2533 24.1807H22.5584C22.6739 24.1809 22.7889 24.1653 22.9003 24.1344C23.386 24.0482 23.8436 23.8416 24.2331 23.5327L27.7536 20.735C27.8711 20.6339 28.0226 20.5837 28.1757 20.5952C28.3289 20.6068 28.4716 20.6791 28.5733 20.7967C28.6942 20.931 28.7673 21.1029 28.781 21.2848C28.7947 21.4667 28.7481 21.648 28.6488 21.7996H28.6287Z" fill="black"/>
</g>
</g>
</svg>