<svg xmlns="http://www.w3.org/2000/svg" fill="none" viewBox="8 7 56 54">
<g id="block">
<g id="Group 1171275561">
<rect id="Rectangle 34624910" x="9.5" y="8.5" width="21" height="21" rx="2.5" fill="#2894B4" stroke="#0D313B" stroke-width="3"/>
<rect id="Rectangle 34624912" x="9.5" y="38.5" width="21" height="21" rx="2.5" fill="#2894B4" stroke="#0D313B" stroke-width="3"/>
<rect id="Rectangle 34624911" x="41.5" y="8.5" width="21" height="21" rx="2.5" fill="#2894B4" stroke="#0D313B" stroke-width="3"/>
<rect id="Rectangle 34624913" x="41.5" y="38.5" width="21" height="21" rx="2.5" stroke="#0D313B" stroke-width="3"/>
<line id="Line 11" x1="31" y1="19.5" x2="42" y2="19.5" stroke="#0D313B" stroke-width="3"/>
<line id="Line 12" x1="31" y1="48.5" x2="42" y2="48.5" stroke="#0D313B" stroke-width="3"/>
<line id="Line 13" x1="20.5" y1="40" x2="20.5" y2="29" stroke="#0D313B" stroke-width="3"/>
<line id="Line 14" x1="51.5" y1="40" x2="51.5" y2="29" stroke="#0D313B" stroke-width="3"/>
</g>
</g>
</svg>