<svg xmlns="http://www.w3.org/2000/svg" fill="none" viewBox="8 4 55.06 64">
<g id="harvest-analysis-report">
<g id="Group 1171275468">
<g id="Group">
<g id="Vector">
<path d="M25.626 4.07152C23.8179 4.37482 21.9282 5.2847 20.68 6.45121L19.8168 7.25611H16.3172C12.5027 7.25611 11.9778 7.31443 10.8813 7.86269C9.56313 8.52761 8.45494 9.96242 8.13998 11.4322C7.95334 12.3071 7.95334 58.6644 8.13998 59.5393C8.32662 60.4025 8.86322 61.429 9.48147 62.0823C10.0881 62.7238 11.2896 63.4004 12.1878 63.5871C13.0627 63.7737 50.3211 63.7737 51.196 63.5871C53.1791 63.1671 54.8239 61.5107 55.2438 59.5393C55.4305 58.6527 55.4305 12.3071 55.2438 11.4322C54.8239 9.46082 53.1558 7.7927 51.196 7.38442C50.8227 7.30276 49.1896 7.25611 47.0666 7.25611H43.5553L42.7738 6.50954C41.8872 5.68131 41.0007 5.10972 39.8108 4.64312C38.2827 4.02486 37.7694 3.98987 31.5986 4.00153C28.4723 4.0132 25.7893 4.04819 25.626 4.07152ZM37.7461 7.66439C38.1544 7.76937 38.8193 8.01434 39.2042 8.21265C40.3708 8.8309 41.6773 10.3124 42.0155 11.4206L42.0855 11.6889H31.6919H21.2983L21.3682 11.4206C21.5666 10.8023 22.1148 9.95076 22.7797 9.27418C23.5496 8.49261 24.7628 7.80437 25.7543 7.61773C26.0343 7.5594 28.6823 7.51274 31.6336 7.50108C36.043 7.48941 37.1279 7.52441 37.7461 7.66439ZM17.7287 11.5372C17.6354 11.9805 17.5771 12.7504 17.6004 13.287C17.6354 14.3135 17.822 14.6518 18.5336 15.0251C19.0002 15.2701 44.3836 15.2701 44.8502 15.0251C45.5617 14.6518 45.7484 14.3135 45.7834 13.287C45.8067 12.7504 45.7484 11.9805 45.6551 11.5372L45.4918 10.7556H47.9531C50.7761 10.7556 51.1493 10.849 51.616 11.6772L51.8726 12.1321V35.4857V58.8394L51.6276 59.2826C51.4876 59.5276 51.1843 59.8309 50.9394 59.9709L50.4961 60.2158H31.6919H12.8877L12.4444 59.9709C12.1995 59.8309 11.8962 59.5276 11.7562 59.2826L11.5112 58.8394V35.4857V12.1321L11.7678 11.6772C12.2344 10.849 12.5961 10.7556 15.4307 10.7556H17.892L17.7287 11.5372Z" fill="#4D0000"/>
<path d="M37.7461 7.66439C38.1544 7.76937 38.8193 8.01434 39.2042 8.21265C40.3708 8.8309 41.6773 10.3124 42.0155 11.4206L42.0855 11.6889H31.6919H21.2983L21.3682 11.4206C21.5666 10.8023 22.1148 9.95076 22.7797 9.27418C23.5496 8.49261 24.7628 7.80437 25.7543 7.61773C26.0343 7.5594 28.6823 7.51274 31.6336 7.50108C36.043 7.48941 37.1279 7.52441 37.7461 7.66439Z" fill="#E60000"/>
</g>
<path id="Vector_2" d="M24.1681 48.3757C24.1098 48.399 23.8998 48.4457 23.7132 48.4923C23.4916 48.539 22.8616 49.0639 21.9401 49.9738L20.5053 51.3853L20.0737 51.0003C19.5954 50.5804 19.0005 50.3004 18.6039 50.3004C18.1139 50.3004 17.4024 50.7437 17.1341 51.222C16.5858 52.2018 16.8191 52.7734 18.4289 54.3599C19.7121 55.6197 20.027 55.783 20.9369 55.608C21.2985 55.5381 21.7068 55.1881 23.5032 53.415C24.6814 52.2485 25.7313 51.1286 25.8246 50.942C26.2329 50.1721 25.9412 49.0639 25.218 48.6556C24.8447 48.4457 24.3548 48.3173 24.1681 48.3757Z" fill="#4D0000"/>
<path id="Vector_3" d="M29.484 49.6581C28.9125 49.9148 28.5625 50.498 28.5625 51.2096C28.5625 51.8628 28.7725 52.2595 29.3674 52.6911C29.6824 52.936 29.799 52.936 37.3114 52.936C44.8237 52.936 44.9404 52.936 45.2553 52.6911C45.8502 52.2595 46.0602 51.8628 46.0602 51.2096C46.0602 50.4864 45.7103 49.9031 45.1153 49.6581C44.5554 49.4248 30.0206 49.4248 29.484 49.6581Z" fill="#4D0000"/>
</g>
<g id="Vector_4">
<path d="M51.2472 67.9909C44.6799 68.2509 39.0724 62.8329 38.8058 55.9825C38.5494 49.3049 43.8294 43.4489 50.3357 43.2045C57.1175 42.9523 62.7961 48.2221 63.0513 55.0036C63.3141 62.0114 58.123 67.7231 51.2472 67.9909ZM60.3878 55.6068C60.3888 53.0445 59.3975 50.5863 57.6313 48.7712C55.865 46.9561 53.4678 45.9321 50.9654 45.9239C45.7273 45.9161 41.4668 50.2447 41.4592 55.5821C41.4515 60.9195 45.726 65.278 50.9387 65.2728C53.4424 65.268 55.8424 64.2486 57.6142 62.4373C59.386 60.6261 60.3855 58.1703 60.3942 55.6068H60.3878Z" fill="#4D0000"/>
<path d="M60.3878 55.6068C60.3888 53.0445 59.3975 50.5863 57.6313 48.7712C55.865 46.9561 53.4678 45.9321 50.9654 45.9239C45.7273 45.9161 41.4668 50.2447 41.4592 55.5821C41.4515 60.9195 45.726 65.278 50.9387 65.2728C53.4424 65.268 55.8424 64.2486 57.6142 62.4373C59.386 60.6261 60.3855 58.1703 60.3942 55.6068H60.3878Z" fill="#FFCDCD"/>
</g>
<path id="Vector_5" d="M52.0895 60.8608C52.0895 61.2391 52.1035 61.5783 52.0895 61.9163C52.0501 62.6963 51.5131 63.2396 50.8289 63.224C50.1446 63.2084 49.638 62.6625 49.6203 61.8747C49.6139 61.5692 49.6203 61.2651 49.6203 60.8881C49.0744 60.8881 48.5729 60.9102 48.0727 60.8881C47.184 60.84 46.6305 60.0744 46.8755 59.2489C47.0368 58.7056 47.4735 58.3767 48.1045 58.3702C49.214 58.3572 50.3236 58.3702 51.4344 58.3702C51.5767 58.3779 51.7193 58.3691 51.8597 58.3442C52.2114 58.261 52.4196 58.0309 52.3955 57.6527C52.3974 57.5704 52.383 57.4886 52.3531 57.4123C52.3232 57.3359 52.2784 57.2666 52.2215 57.2085C52.1647 57.1504 52.0969 57.1047 52.0222 57.0742C51.9476 57.0438 51.8677 57.0292 51.7874 57.0313C51.2491 57.0092 50.7095 57.0313 50.1712 57.0196C48.4079 57.0027 47.0711 55.8107 46.8425 54.052C46.6216 52.4102 47.6373 50.8841 49.2877 50.4265C49.5746 50.3473 49.6342 50.2199 49.6215 49.9612C49.6088 49.6857 49.6114 49.4097 49.6292 49.1345C49.6466 48.8403 49.7656 48.5621 49.9649 48.3494C50.1642 48.1368 50.4308 48.0036 50.7171 47.9736C51.0116 47.9351 51.3095 48.0114 51.5516 48.1875C51.7936 48.3635 51.9621 48.6264 52.0235 48.9239C52.106 49.3476 52.092 49.7922 52.1263 50.3057C52.6125 50.3057 53.1115 50.3057 53.6117 50.3057C54.4876 50.3122 55.0513 50.8074 55.0539 51.5679C55.0564 52.3283 54.4927 52.8236 53.6193 52.8314C52.5084 52.8314 51.3989 52.8314 50.288 52.8314C49.6723 52.8314 49.3105 53.1303 49.2978 53.6308C49.2851 54.1313 49.6609 54.4705 50.2969 54.4757C50.773 54.4757 51.2491 54.4757 51.7239 54.4757C53.3743 54.503 54.6844 55.6807 54.8622 57.2796C55.0437 58.9214 54.0319 60.3798 52.4259 60.7893C52.3345 60.8166 52.2418 60.8309 52.0895 60.8608Z" fill="#4D0000"/>
</g>
<g id="Group_2">
<path id="Vector_6" d="M34.1 19.1071C33.7839 19.3 33.7143 19.4875 33.7143 20.1357V20.7143H32.4125C30.9875 20.7143 30.7571 20.7464 30.1304 21.0357C29.0804 21.5286 27.9554 22.5946 27.3071 23.7196L27.0607 24.1429H26.1018H25.1429V23.9929C25.1429 23.7946 24.9661 23.5214 24.7571 23.3929C24.5911 23.2911 24.4839 23.2857 22.5714 23.2857C20.6589 23.2857 20.5518 23.2911 20.3857 23.3929C20.2893 23.4518 20.1661 23.575 20.1071 23.6714C20.0054 23.8429 20 23.95 20 28.4286C20 32.9071 20.0054 33.0143 20.1071 33.1857C20.1661 33.2821 20.2893 33.4054 20.3857 33.4643C20.5518 33.5661 20.6589 33.5714 22.5714 33.5714C24.4839 33.5714 24.5911 33.5661 24.7571 33.4643C25.0732 33.2714 25.1429 33.0839 25.1429 32.4304V31.8571H26.2571H27.3714L27.7946 32.2107C28.6464 32.9179 29.0911 33.1857 29.7768 33.4161C30.1304 33.5339 30.2429 33.5393 31.9357 33.5607L33.7143 33.5768V34.0429L33.7089 34.5089L33.2429 34.7339C32.2946 35.1839 31.6571 35.9982 31.2982 37.225C31.1321 37.7982 31.1 39.2875 31.2339 40.4393L31.3304 41.2857H25.9464C20.6696 41.2857 20.5571 41.2857 20.3857 41.3929C20.1286 41.5536 20 41.7946 20 42.1429C20 42.4911 20.1286 42.7321 20.3857 42.8929C20.5625 43 20.6804 43 32 43C43.3196 43 43.4375 43 43.6143 42.8929C43.8714 42.7321 44 42.4911 44 42.1429C44 41.7946 43.8714 41.5536 43.6143 41.3929C43.4429 41.2911 43.3357 41.2857 40.625 41.2857H37.8125L37.9036 40.4982C38.0214 39.4589 38.0268 38.1679 37.9143 37.5839C37.7375 36.6571 37.2821 35.7839 36.6821 35.2321C36.5 35.0714 36.1893 34.8679 35.9054 34.7339L35.4339 34.5089L35.4286 34.0482V33.5821L36.1143 33.5607C36.7679 33.5446 36.8054 33.5339 37.1321 33.3625C37.55 33.1321 37.9571 32.6982 38.0964 32.3232C38.1554 32.1732 38.4821 30.7804 38.8304 29.2321C39.4036 26.6661 39.4518 26.3875 39.4304 26.0286C39.3768 25.2946 38.9268 24.6357 38.2732 24.3196C38.0375 24.2071 37.8661 24.1696 37.5071 24.1536C37.2446 24.1429 37.0357 24.1161 37.0357 24.1054C37.0357 24.0143 37.6036 23.3071 37.9464 22.9643C38.4554 22.45 38.9 22.1339 39.6982 21.7161C40.4482 21.3196 40.5714 21.1804 40.5714 20.7196C40.5714 20.1786 40.2554 19.8571 39.7143 19.8571C39.4679 19.8571 39.3339 19.9 38.9 20.1196C37.5607 20.7946 36.4786 21.7321 35.6911 22.9L35.4286 23.2964V21.4268C35.4286 19.6589 35.4232 19.5518 35.3214 19.3857C35.1607 19.1286 34.9196 19 34.5714 19C34.3732 19 34.2179 19.0321 34.1 19.1071ZM33.7143 23.2857V24.1429H33.1411C32.6589 24.1429 32.5357 24.1589 32.3857 24.25C31.8768 24.5607 31.8554 25.4071 32.3589 25.7339C32.4929 25.8196 32.7125 25.8304 34.9839 25.8571C37.4482 25.8839 37.4643 25.8839 37.5768 26.0018L37.6946 26.1196L37.0893 28.8679C36.6446 30.8768 36.4571 31.6429 36.3821 31.7232C36.2857 31.8304 36.2107 31.8304 33.4839 31.8304C30.9232 31.8304 30.6607 31.8196 30.3661 31.7339C29.9482 31.6054 29.6321 31.4071 28.9679 30.8661C28.6732 30.6196 28.3357 30.3571 28.2232 30.2821L28.0196 30.1429H26.5839H25.1429V28V25.8571H26.5625C28.3357 25.8571 28.3143 25.8625 28.6196 25.1179C28.85 24.5393 29.0857 24.1857 29.5571 23.6821C30.1893 23.0018 30.8429 22.5732 31.3839 22.4768C31.5018 22.4607 32.075 22.4393 32.6589 22.4339L33.7143 22.4286V23.2857ZM23.4286 28.4286V31.8571H22.5714H21.7143V28.4286V25H22.5714H23.4286V28.4286ZM35.1393 36.3036C35.5946 36.5286 35.9643 37.0643 36.1518 37.7768C36.2911 38.3125 36.2375 39.8446 36.0393 41.0821L36.0071 41.2857H34.5714H33.1357L33.1089 41.1089C33.0929 41.0179 33.05 40.6964 33.0179 40.4018C32.9857 40.1071 32.9482 39.8018 32.9375 39.7161L32.9161 39.5714H33.575C34.1696 39.5714 34.25 39.5607 34.4107 39.4482C34.9357 39.1 34.9357 38.3286 34.4107 37.9804C34.25 37.8679 34.1696 37.8571 33.6018 37.8571H32.975L33.0286 37.6536C33.1893 37.075 33.5643 36.5446 33.9768 36.3304C34.3036 36.1589 34.8125 36.1482 35.1393 36.3036Z" fill="#4D0000"/>
</g>
</g>
</svg>