<svg xmlns="http://www.w3.org/2000/svg" fill="none" viewBox="6.53 8.74 23.3 18.56">
<path fill-rule="evenodd" clip-rule="evenodd" d="M15.0388 24.3094C15.1482 23.9225 15.2068 23.5142 15.2068 23.0922C15.2068 21.8132 14.6688 20.6599 13.8069 19.8462H28.5964V24.3094H15.0388Z" fill="#FFA600"/>
<path d="M28.596 10.1082H9.93164V14.5714H28.596V10.1082Z" fill="#FFA600"/>
<path fill-rule="evenodd" clip-rule="evenodd" d="M8.69922 19.1234V11.6493C8.69922 9.73252 9.70666 8.74292 11.6324 8.74292H26.8866C28.8212 8.74292 29.8286 9.74144 29.8286 11.6493V22.4993C29.8286 24.4072 28.8212 25.4057 26.8866 25.4057H14.5607C14.8821 24.8765 15.0966 24.2751 15.1741 23.6315H26.7707C27.5909 23.6315 28.0455 23.2036 28.0455 22.3388V20.2526H14.1868C13.5909 19.5308 12.7724 18.9994 11.8363 18.7638H28.0455V15.3849H10.4734V18.6369C9.83688 18.6749 9.2363 18.8462 8.69922 19.1234ZM11.7483 10.5171C10.9281 10.5171 10.4734 10.945 10.4734 11.8098V13.896H28.0455V11.8098C28.0455 10.945 27.5909 10.5171 26.7707 10.5171H11.7483ZM26.1644 12.211C26.1644 12.7994 25.6741 13.2897 25.0857 13.2987C24.4972 13.3076 23.9891 12.7994 23.9891 12.211C23.9891 11.6137 24.4972 11.1144 25.0857 11.1144C25.6741 11.1144 26.1644 11.6137 26.1644 12.211ZM26.1644 17.0609C26.1644 17.6494 25.6741 18.1397 25.0857 18.1486C24.4972 18.1575 23.9891 17.6494 23.9891 17.0609C23.9891 16.4636 24.4972 15.9554 25.0857 15.9554C25.6741 15.9554 26.1644 16.4636 26.1644 17.0609ZM26.1644 21.902C26.1644 22.4904 25.6741 22.9807 25.0857 22.9896C24.4972 23.0075 23.9891 22.4904 23.9891 21.902C23.9891 21.3136 24.4972 20.8054 25.0857 20.8054C25.6741 20.8054 26.1644 21.3046 26.1644 21.902Z" fill="black"/>
<path d="M10.5385 27.1496C12.6512 27.1496 14.395 25.405 14.395 23.295C14.395 21.1851 12.6475 19.4404 10.5348 19.4404C8.42586 19.4404 6.68579 21.1851 6.68579 23.295C6.68579 25.405 8.42958 27.1496 10.5385 27.1496ZM9.55485 22.5345C9.53622 22.3929 9.47288 22.2661 9.376 22.1692C9.69271 21.3715 10.192 20.652 10.8403 20.0593C10.8813 20.063 10.926 20.0704 10.9708 20.0742C10.5124 20.8757 10.2367 21.7666 10.1659 22.6911C9.95726 22.6538 9.75233 22.6016 9.55485 22.5345ZM7.85577 21.4796C8.36624 20.734 9.17479 20.2046 10.1026 20.0742C9.58466 20.6408 9.17479 21.2894 8.89907 21.994C8.79101 22.0015 8.69413 22.035 8.61216 22.0872C8.34016 21.9157 8.08679 21.7107 7.85577 21.4796ZM11.7309 21.5019C11.7271 21.1105 11.7756 20.7191 11.8836 20.3426C12.573 20.6632 13.1393 21.2186 13.4672 21.9045C13.1058 22.1804 12.7034 22.3892 12.2786 22.5345C12.1668 22.4003 12.0029 22.3146 11.8203 22.3109C11.7644 22.0462 11.7346 21.7778 11.7309 21.5019ZM11.2204 21.5019C11.2241 21.8486 11.2651 22.1916 11.3434 22.5196C11.2875 22.583 11.2428 22.6613 11.2204 22.7433C11.1235 22.7508 11.0304 22.7545 10.9335 22.7545C10.8478 22.7545 10.7584 22.7545 10.6727 22.747C10.7323 21.953 10.9521 21.1851 11.321 20.4954C11.2502 20.8197 11.2167 21.159 11.2204 21.5019ZM7.29314 23.295C7.29314 22.8141 7.39747 22.3593 7.59122 21.9455C7.81851 22.1618 8.06816 22.3556 8.33271 22.5196C8.32898 22.5495 8.32525 22.5756 8.32525 22.6054C8.32525 22.8067 8.42213 22.9893 8.5749 23.1012C8.5041 23.4628 8.46684 23.8356 8.46312 24.2084C8.04953 24.0071 7.65829 23.7498 7.29686 23.4441C7.29314 23.3957 7.29314 23.3435 7.29314 23.295ZM13.7876 23.295C13.7876 23.5895 13.7467 23.8766 13.6721 24.1487C13.4635 24.2605 13.2511 24.3575 13.035 24.4395C12.6996 24.1301 12.4239 23.7722 12.2115 23.377C12.3084 23.2876 12.3792 23.1683 12.4053 23.0304C12.8524 22.885 13.2734 22.6762 13.661 22.4041C13.7429 22.6874 13.7876 22.9856 13.7876 23.295ZM8.97359 24.432C8.96241 24.0182 8.99594 23.6082 9.07046 23.2093C9.19715 23.1832 9.31266 23.1161 9.39836 23.0229C9.64055 23.1012 9.8902 23.1646 10.1473 23.2056C10.151 23.6641 10.2032 24.1152 10.3001 24.555C10.2367 24.6072 10.1846 24.6706 10.1473 24.7414C9.74861 24.6818 9.35364 24.5774 8.97359 24.432ZM10.9335 23.2652C11.0527 23.2652 11.172 23.2615 11.2912 23.2503C11.3843 23.3957 11.5371 23.4963 11.7122 23.5262C11.9172 23.925 12.178 24.2904 12.491 24.6147C12.0886 24.7228 11.675 24.7862 11.2614 24.8048C11.1831 24.6072 11.008 24.4618 10.7994 24.4283C10.7137 24.0481 10.6652 23.6566 10.6615 23.2578C10.7509 23.2652 10.8441 23.2652 10.9335 23.2652ZM7.41982 24.186C7.75144 24.4208 8.10914 24.6184 8.4743 24.7824C8.49665 25.1701 8.55627 25.5541 8.65687 25.9306C8.06816 25.5094 7.62476 24.8943 7.41982 24.186ZM10.5385 26.5457C10.1063 26.5457 9.69271 26.4562 9.31266 26.2997C9.15244 25.8784 9.04811 25.4385 9.0034 24.9875C9.36482 25.1105 9.73743 25.2 10.11 25.2522C10.1957 25.4796 10.4081 25.6398 10.6615 25.651C10.7844 25.9418 10.9335 26.2251 11.1049 26.4935C10.9223 26.5271 10.7323 26.5457 10.5385 26.5457ZM11.1384 25.4609C11.1794 25.4199 11.2129 25.3677 11.239 25.3155C11.8128 25.2932 12.3792 25.1962 12.9307 25.0173C13.0089 25.0807 13.0871 25.1366 13.1654 25.1925C12.7816 25.7219 12.2451 26.1319 11.6228 26.3556C11.4328 26.0723 11.2726 25.7741 11.1384 25.4609Z" fill="black" stroke="black" stroke-width="0.308571"/>
</svg>