<svg xmlns="http://www.w3.org/2000/svg" fill="none" viewBox="6.5 7 23.7 21.9">
<path d="M17.9998 20.3C19.4998 20.3 20.6998 19.3 20.6998 18C20.6998 16.7 19.4998 15.7 17.9998 15.7C16.4998 15.7 15.2998 16.7 15.2998 18C15.2998 19.3 16.4998 20.3 17.9998 20.3Z" fill="#FFA600"/>
<path d="M24.8998 21.1L25.1998 20.3L26.7998 21.3L27.8998 20.8L28.3998 21.6L27.5998 22.4V25L28.3998 25.5L27.8998 26.5L26.7998 26L24.8998 27.3V28L23.7998 28.3L23.5998 27L21.6998 26L20.5998 26.5L19.7998 25.5L21.8998 24.7001L22.6998 25.5L23.9998 26L25.0998 25.7001L26.1998 24.9L26.6998 23.9V22.9L25.8998 21.9L24.8998 21.1Z" fill="#FFA600"/>
<path d="M23.5999 28.6L23.3999 27.1L21.6999 26.2L20.4999 26.7L19.3999 25.3L21.9999 24.3L22.8999 25.2L24.0999 25.7L25.0999 25.4L26.0999 24.7L26.4999 23.8V23L25.7999 22.1L24.6999 21.2L25.1999 19.9L26.9999 21L28.1999 20.5L28.8999 21.7L27.9999 22.6V25L28.8999 25.5L27.9999 26.8L26.7999 26.3L25.0999 27.4V28.2L23.5999 28.6ZM21.6999 25.7L23.7999 26.8L23.9999 28L24.5999 27.8V27.2L26.6999 25.7L27.6999 26.2L27.9999 25.6L27.2999 25.1V22.3L27.9999 21.6L27.6999 21.2L26.6999 21.7L25.2999 20.8L25.1999 21L26.0999 21.7L26.9999 22.8V24L26.3999 25.1L25.1999 25.9L23.9999 26.3L22.4999 25.7L21.7999 25L20.1999 25.6L20.6999 26.2L21.6999 25.7Z" fill="#FFA600"/>
<path d="M11.5999 14.7L11.0999 16L9.1999 15.5L8.6999 15.8L7.3999 14.3L8.6999 13.5V11.7L7.3999 10.4L8.6999 9L9.9999 9.5L10.7999 8.5L11.0999 7.5H13.1999V9L14.4999 9.5H16.3999L16.6999 10.3L14.2999 11.3L12.9999 10.3L11.0999 10.6L9.9999 12.6L11.5999 14.7Z" fill="#FFA600"/>
<path d="M11.3 16.3L9.3 15.8L8.7 16.2L7 14.2L8.4 13.3V11.7L7 10.4L8.6 8.69999L9.9 9.19999L10.6 8.39999L10.9 7.29999H13.4V8.89999L14.5 9.29999H16.5L17 10.5L14.2 11.7L12.9 10.7L11.2 11L10.2 12.7L11.8 14.8L11.3 16.3ZM9.2 15.2L11 15.7L11.4 14.7L9.8 12.6L11 10.3L13.1 9.99999L14.4 11L16.4 10.2L16.2 9.79999H14.4L12.9 9.19999V7.79999H11.2L11 8.69999L10.1 9.79999L8.8 9.29999L7.8 10.4L9 11.6V13.7L7.8 14.4L8.8 15.5L9.2 15.2Z" fill="#FFA600"/>
<path d="M7.50021 11.3L7.90021 11.5C7.80021 11.7 7.80021 12.9 7.90021 13.2V13.3L7.50021 13.5C7.10021 13.8 6.90021 13.9 6.90021 14.1C6.90021 14.3 7.00021 14.4 7.50021 15.2C7.80021 15.6 8.10021 16.1 8.20021 16.2C8.50021 16.6 8.90021 16.4 9.30021 16.1L9.60021 15.9V16C9.90021 16.2 10.6002 16.5 10.8002 16.6H10.9002C11.0002 16.6 11.1002 16.6 11.2002 16.5C11.4002 16.3 11.4002 16 11.3002 15.9C11.3002 15.9 11.2002 15.8 10.7002 15.6C10.4002 15.5 10.1002 15.3 10.0002 15.2C9.80021 15 9.60021 15 9.50021 15C9.40021 15 9.30021 15 8.90021 15.3C8.80021 15.4 8.70021 15.4 8.60021 15.4C8.40021 15.2 8.10021 14.7 8.00021 14.5C8.10021 14.5 8.20021 14.4 8.30021 14.3C8.80021 14 8.80021 13.9 8.80021 13.8C8.80021 13.7 8.80021 13.5 8.80021 13.2C8.70021 12.8 8.70021 12.1 8.80021 11.7C8.80021 11.6 8.90021 11.3 8.80021 11.1C8.80021 11.1 8.70021 11 8.30021 10.7C8.20021 10.6 8.10021 10.6 8.00021 10.5C8.10021 10.3 8.50021 9.8 8.60021 9.6C8.70021 9.6 8.80021 9.7 8.90021 9.8C9.40021 10.1 9.60021 10.2 10.0002 9.9C10.3002 9.7 10.7002 9.5 11.0002 9.4C11.5002 9.2 11.5002 9.1 11.5002 8.5V8H12.7002V8.3C12.7002 8.8 12.7002 8.9 12.8002 9C12.9002 9.1 13.2002 9.2 13.3002 9.3C13.6002 9.4 14.1002 9.7 14.4002 9.9C14.5002 10 14.7002 10.1 14.8002 10.1C15.0002 10.1 15.3002 9.9 15.4002 9.8C15.5002 9.7 15.6002 9.7 15.7002 9.6C15.8002 9.7 15.9002 9.8 16.0002 10.1C16.4002 10.6 16.5002 10.8 16.7002 10.9C16.8002 10.9 17.0002 10.9 17.0002 10.8C17.4002 10.5 17.2002 10.2 16.7002 9.5C16.2002 8.7 16.0002 8.5 15.8002 8.5C15.8002 8.5 15.7002 8.5 15.1002 8.8L14.7002 9H14.6002C14.4002 8.8 13.8002 8.6 13.6002 8.5V8C13.6002 7.7 13.6002 7.5 13.5002 7.4C13.5002 7 13.2002 7 12.5002 7H12.2002C11.0002 7 10.9002 7 10.8002 7.1C10.7002 7.2 10.7002 7.4 10.7002 7.9V8.3L10.5002 8.4C10.3002 8.5 10.0002 8.6 9.80021 8.8L9.60021 8.9L9.20021 8.7C8.70021 8.4 8.50021 8.3 8.20021 8.5C8.10021 8.6 6.90021 10.4 6.80021 10.5C6.70021 10.8 7.10021 11.1 7.50021 11.3Z" fill="black"/>
<path d="M29.8998 17C29.4998 16.7 29.1998 17 28.8998 17.2C28.6998 14.8 27.5998 12.5 25.7998 10.7C23.8998 8.90001 21.3998 7.80001 18.7998 7.70001C18.0998 7.70001 17.9998 7.70001 17.8998 7.80001C17.7998 7.90001 17.7998 8.00001 17.7998 8.10001C17.7998 8.30001 17.8998 8.40001 17.9998 8.50001C18.0998 8.60001 18.1998 8.60001 18.4998 8.60001C19.1998 8.60001 20.2998 8.80001 21.0998 9.00001C24.0998 9.80001 26.5998 12.1 27.5998 15C27.7998 15.6 27.9998 16.4 27.9998 17V17.1C27.5998 16.8 27.4998 16.8 27.4998 16.8C27.1998 16.8 26.9998 17 26.9998 17.3C26.9998 17.5 27.0998 17.7 27.6998 18.2C28.1998 18.7 28.3998 18.9 28.5998 18.9C28.7998 18.9 28.8998 18.8 29.4998 18.2C29.9998 17.7 30.1998 17.5 30.1998 17.3C29.9998 17.1 29.8998 17 29.8998 17Z" fill="black"/>
<path d="M11.4998 10.9C11.6998 10.8 11.6998 10.8 12.1998 10.8C12.5998 10.8 12.6998 10.8 12.8998 10.9C13.1998 11 13.4998 11.3 13.6998 11.5C13.7998 11.7 13.8998 11.8 14.1998 11.8C14.4998 11.8 14.6998 11.6 14.6998 11.3C14.6998 11 14.0998 10.3 13.6998 10.1C13.0998 9.80001 12.2998 9.70001 11.6998 9.80001C10.2998 10.1 9.39979 11.5 9.69979 12.8C9.79979 13.4 9.99979 13.8 10.3998 14.2C10.7998 14.6 11.2998 14.9 11.6998 14.9C11.7998 14.9 11.9998 14.9 11.9998 14.8C12.0998 14.7 12.1998 14.6 12.1998 14.4C12.1998 14.3 12.0998 14.1 11.9998 14C11.8998 13.9 11.6998 13.9 11.5998 13.8C11.1998 13.6 10.8998 13.4 10.6998 12.9C10.5998 12.7 10.5998 12.7 10.5998 12.3C10.5998 11.9 10.5998 11.9 10.7998 11.6C10.8998 11.4 11.1998 11.1 11.4998 10.9Z" fill="black"/>
<path d="M24.2998 14C24.2998 13.8 24.1998 13.7 23.4998 13C22.7998 12.3 22.6998 12.2 22.4998 12.2C22.3998 12.2 22.1998 12.3 21.6998 12.6L21.2998 12.9L20.9998 12.8C20.7998 12.7 20.2998 12.5 19.8998 12.4C19.8998 12.3 19.7998 12.1 19.7998 11.9C19.6998 11.3 19.6998 11.2 19.4998 11C19.3998 10.9 19.1998 10.9 18.1998 10.9C17.0998 10.9 16.9998 11 16.9998 11C16.7998 11.1 16.7998 11.3 16.5998 12L16.4998 12.4L16.1998 12.5C15.9998 12.6 15.5998 12.7 15.3998 12.8L15.0998 12.9L14.6998 12.6C14.1998 12.3 13.9998 12.2 13.8998 12.2C13.6998 12.2 13.4998 12.3 12.8998 13C12.1998 13.7 12.0998 13.8 12.0998 14C12.0998 14.1 12.1998 14.3 12.4998 14.8L12.7998 15.2L12.6998 15.5C12.5998 15.8 12.3998 16.2 12.2998 16.5C12.1998 16.5 11.9998 16.5 11.7998 16.6C11.1998 16.7 10.9998 16.7 10.8998 16.9C10.7998 17 10.7998 17.2 10.7998 18.2C10.7998 19.2 10.7998 19.3 10.8998 19.5C10.9998 19.6 11.1998 19.7 11.5998 19.7H11.7998C11.9998 19.7 12.1998 19.8 12.2998 19.8C12.2998 19.8 12.2998 19.8 12.2998 19.9V20C12.3998 20.2 12.4998 20.5 12.5998 20.8L12.7998 21.1L12.4998 21.5C12.0998 22 12.0998 22.1 12.0998 22.3C12.0998 22.5 12.1998 22.7 12.8998 23.3C13.5998 24 13.6998 24.1 13.8998 24.1C13.9998 24.1 14.1998 24 14.6998 23.7L15.0998 23.4L15.4998 23.6C15.7998 23.7 16.0998 23.9 16.2998 23.9H16.4998L16.5998 24.4C16.6998 25 16.6998 25.2 16.8998 25.2C16.9998 25.3 17.1998 25.3 18.1998 25.3C19.2998 25.3 19.3998 25.3 19.3998 25.2C19.5998 25.1 19.6998 24.9 19.7998 24.1L19.8998 23.7H20.0998C20.2998 23.6 20.5998 23.5 20.8998 23.4L21.2998 23.2L21.6998 23.5C22.1998 23.9 22.3998 23.9 22.4998 23.9C22.6998 23.9 22.8998 23.8 23.4998 23.1C24.1998 22.4 24.2998 22.3 24.2998 22.1C24.2998 21.9 24.1998 21.8 23.8998 21.3L23.5998 20.9L23.6998 20.7C23.7998 20.5 23.8998 20.2 23.9998 19.9L24.0998 19.6C24.1998 19.6 24.3998 19.6 24.5998 19.5C25.1998 19.4 25.4998 19.4 25.5998 19.1C25.5998 19 25.5998 18.4 25.5998 17.9C25.5998 16.9 25.5998 16.8 25.4998 16.7C25.3998 16.6 25.1998 16.5 24.5998 16.4C24.3998 16.4 24.1998 16.3 24.0998 16.3C23.9998 16 23.7998 15.5 23.6998 15.3L23.5998 15.1L23.8998 14.7C24.1998 14.3 24.2998 14.1 24.2998 14ZM23.0998 19.3C23.0998 19.5 22.8998 19.9 22.6998 20.2C22.4998 20.6 22.3998 20.8 22.3998 20.9C22.3998 20.9 22.3998 21.1 22.7998 21.6C22.8998 21.8 22.9998 21.9 23.0998 22C22.9998 22.1 22.8998 22.2 22.6998 22.4L22.5998 22.5C22.4998 22.6 22.3998 22.7 22.2998 22.7C22.2998 22.7 22.0998 22.6 21.9998 22.5L21.7998 22.4C21.3998 22 21.2998 22 21.2998 22C21.1998 22 20.8998 22.1 20.7998 22.2C20.4998 22.4 20.0998 22.5 19.5998 22.7C19.0998 22.8 19.0998 22.9 18.9998 23C18.8998 23.1 18.8998 23.5 18.7998 23.7L18.6998 24.1H17.5998L17.4998 23.7C17.4998 23.5 17.3998 23.1 17.2998 23C17.2998 23 17.1998 22.9 16.6998 22.7C16.1998 22.5 15.8998 22.4 15.4998 22.2C15.4998 22.2 15.1998 22 14.9998 22C14.8998 22 14.7998 22 14.2998 22.4C14.0998 22.5 13.9998 22.6 13.8998 22.7C13.7998 22.6 13.6998 22.5 13.4998 22.3L13.3998 22.2C13.2998 22.1 13.1998 22 13.1998 22C13.1998 22 13.2998 21.8 13.3998 21.7L13.4998 21.5C13.8998 21 13.8998 20.9 13.8998 20.8C13.8998 20.6 13.6998 20.4 13.6998 20.3C13.4998 20 13.2998 19.5 13.1998 19.1C13.0998 18.6 12.8998 18.6 12.1998 18.5L11.6998 18.4V17.4L12.1998 17.3C12.3998 17.3 12.8998 17.2 12.9998 17.1C12.9998 17.1 13.0998 17 13.2998 16.6C13.4998 16.1 13.5998 15.8 13.7998 15.5C13.7998 15.5 13.9998 15.2 13.9998 15C13.9998 14.9 13.9998 14.8 13.5998 14.3L13.4998 14.1C13.3998 14 13.2998 13.9 13.2998 13.8C13.2998 13.8 13.3998 13.7 13.4998 13.6L13.5998 13.5C13.7998 13.3 13.8998 13.2 13.9998 13.1C14.0998 13.2 14.1998 13.3 14.3998 13.4C14.9998 13.8 15.0998 13.8 15.0998 13.8C15.1998 13.8 15.5998 13.6 15.7998 13.5C16.0998 13.4 16.4998 13.2 16.6998 13.1C16.9998 13 17.1998 12.9 17.2998 12.8C17.3998 12.7 17.4998 12.1 17.4998 12.1C17.4998 11.9 17.5998 11.7 17.5998 11.6C17.6998 11.6 17.9998 11.6 18.1998 11.6H18.6998L18.7998 12C18.8998 12.7 18.9998 12.8 18.9998 12.8C19.0998 12.9 19.2998 13 19.4998 13C19.6998 13 20.0998 13.2 20.3998 13.4C20.6998 13.5 20.9998 13.7 21.0998 13.7C21.0998 13.7 21.2998 13.7 21.7998 13.3C21.9998 13.2 22.0998 13.1 22.1998 13C22.2998 13.1 22.3998 13.2 22.5998 13.4C22.7998 13.6 22.8998 13.7 22.9998 13.8C22.8998 13.9 22.7998 14 22.6998 14.2C22.2998 14.7 22.2998 14.8 22.2998 14.9C22.2998 15 22.3998 15.2 22.5998 15.6C22.7998 15.9 22.8998 16.3 22.9998 16.5C23.0998 16.8 23.1998 17 23.1998 17C23.1998 17 23.2998 17.1 23.9998 17.2L24.4998 17.3V18.3L23.9998 18.4C23.2998 18.5 23.1998 18.6 23.1998 18.6C23.2998 18.9 23.1998 19 23.0998 19.3Z" fill="black"/>
<path d="M20.5002 15.9C19.8002 15.2 18.9002 14.9 17.9002 15C17.2002 15.1 16.6002 15.4 16.1002 15.9C15.5002 16.5 15.2002 17.2 15.2002 18C15.2002 18.5 15.3002 18.9 15.5002 19.4C15.9002 20.2 16.7002 20.8 17.6002 21C17.8002 21 18.0002 21.1 18.3002 21.1C18.6002 21.1 18.8002 21.1 19.0002 21C19.9002 20.8 20.7002 20.2 21.1002 19.4C21.3002 18.9 21.4002 18.6 21.4002 18C21.4002 17.5 21.3002 17.1 21.1002 16.6C20.9002 16.3 20.8002 16.2 20.5002 15.9ZM20.4002 18.3C20.2002 19.2 19.5002 19.9 18.6002 20C17.9002 20.1 17.3002 19.9 16.8002 19.4C16.3002 18.9 16.1002 18.3 16.2002 17.7C16.3002 17.1 16.6002 16.6 17.1002 16.3C17.5002 16.1 17.9002 15.9 18.3002 15.9C18.5002 15.9 18.6002 15.9 18.8002 16C19.8002 16.3 20.5002 17.3 20.4002 18.3Z" fill="black"/>
<path d="M17.8 27.3C14.2 27.1 11.1 25.1 9.6 22C9.1 21.1 8.8 19.9 8.7 18.9V18.8C9.1 19.1 9.2 19.1 9.2 19.1C9.5 19.1 9.7 18.9 9.7 18.6C9.7 18.4 9.6 18.2 9 17.7C8.5 17.2 8.3 17 8.1 17C7.9 17 7.8 17.1 7.2 17.7C6.7 18.2 6.5 18.4 6.5 18.6C6.5 18.7 6.6 18.8 6.7 18.9C7.1 19.2 7.4 18.9 7.7 18.7C7.7 19.4 7.9 20.3 8.2 21.1C9.3 24.2 11.8 26.6 15 27.6C16.1 27.9 17.1 28.1 18 28.1C18.5 28.1 18.8 28.1 18.8 27.6C18.7 27.4 18.4 27.3 17.8 27.3Z" fill="black"/>
<path d="M29.7001 21.9C29.7001 21.6 28.4001 19.8 28.3001 19.7C28.0001 19.5 27.9001 19.6 27.3001 20L27.0001 20.1L26.7001 20C26.4001 19.8 25.7001 19.5 25.5001 19.5C25.4001 19.5 25.2001 19.6 25.2001 19.6C25.0001 19.8 25.0001 20 25.1001 20.2C25.1001 20.2 25.2001 20.3 25.6001 20.5C26.0001 20.7 26.5001 21 26.5001 21C26.8001 21.4 27.3001 21 27.5001 20.9H27.6001C27.7001 20.9 27.7001 20.8 27.8001 20.8C28.0001 21 28.3001 21.5 28.4001 21.7C28.3001 21.7 28.3001 21.8 28.2001 21.9C28.0001 22 27.7001 22.2 27.7001 22.3C27.6001 22.4 27.6001 22.6 27.7001 22.9C27.8001 23.3 27.8001 24 27.7001 24.4C27.6001 24.7 27.6001 24.8 27.7001 25C27.8001 25.2 28.2001 25.4 28.2001 25.4C28.3001 25.5 28.4001 25.5 28.4001 25.6C28.3001 25.8 27.9001 26.3 27.8001 26.5C27.7001 26.5 27.6001 26.4 27.5001 26.3C27.3001 26.1 27.0001 26 26.9001 26C26.8001 26 26.6001 26.1 26.4001 26.2C26.1001 26.4 25.8001 26.6 25.4001 26.7C25.0001 26.9 25.0001 27 25.0001 27C25.0001 27.1 24.9001 27.3 24.9001 27.7V28H23.7001V27.7C23.7001 27.1 23.7001 26.9 23.2001 26.8C22.9001 26.7 22.4001 26.4 22.1001 26.2C21.9001 26 21.7001 26 21.6001 26C21.4001 26 21.1001 26.2 20.9001 26.3C20.8001 26.4 20.7001 26.4 20.7001 26.4C20.6001 26.3 20.5001 26.1 20.4001 25.9C20.4001 25.9 20.0001 25.3 19.9001 25.2C19.8001 25.1 19.6001 25.1 19.4001 25.2C19.2001 25.3 19.1001 25.4 19.1001 25.6C19.1001 25.8 20.2001 27.4 20.4001 27.5C20.6001 27.6 20.8001 27.5 21.3001 27.2L21.6001 27L21.7001 27.1C21.8001 27.2 22.1001 27.4 22.4001 27.5L22.7001 27.6V28.1C22.7001 28.4 22.7001 28.6 22.8001 28.7C23.0001 28.9 23.2001 28.9 23.8001 28.9C23.9001 28.9 23.9001 28.9 24.0001 28.9H24.3001C25.5001 28.9 25.6001 28.9 25.7001 28.8C25.8001 28.7 25.8001 28.5 25.8001 28V27.6L26.0001 27.5C26.2001 27.4 26.5001 27.3 26.7001 27.1L26.9001 27L27.2001 27.2C27.6001 27.5 27.9001 27.6 28.1001 27.5C28.2001 27.4 28.7001 26.7 28.9001 26.5C29.5001 25.6 29.6001 25.5 29.6001 25.3C29.6001 25.1 29.4001 25 29.0001 24.7L28.6001 24.5C28.7001 24.2 28.7001 23.1 28.6001 22.8L28.9001 22.6C29.5001 22.2 29.7001 22.1 29.7001 21.9Z" fill="black"/>
<path d="M24.9998 25.1C24.7998 25.2 24.7998 25.2 24.2998 25.2C23.8998 25.2 23.7998 25.2 23.5998 25.1C23.2998 25 22.9998 24.7 22.7998 24.5C22.6998 24.3 22.5998 24.2 22.2998 24.2C21.9998 24.2 21.7998 24.4 21.7998 24.7C21.7998 25.1 22.3998 25.7 22.7998 25.9C23.1998 26.1 23.6998 26.3 24.1998 26.3C24.3998 26.3 24.5998 26.3 24.7998 26.2C26.1998 25.9 27.0998 24.5 26.7998 23.2C26.6998 22.7 26.4998 22.2 26.0998 21.9C25.6998 21.5 25.0998 21.2 24.6998 21.2C24.4998 21.2 24.3998 21.3 24.3998 21.3C24.2998 21.4 24.2998 21.5 24.2998 21.7C24.2998 21.8 24.3998 21.9 24.4998 22C24.5998 22.1 24.7998 22.2 24.8998 22.2C25.2998 22.4 25.6998 22.7 25.8998 23.1C25.9998 23.3 25.9998 23.4 25.9998 23.7C25.9998 24.1 25.9998 24.1 25.7998 24.4C25.5998 24.6 25.2998 24.9 24.9998 25.1Z" fill="black"/>
</svg>