<svg xmlns="http://www.w3.org/2000/svg" fill="none" viewBox="5 42 510 435.87">
<path d="M514.853 295.462C513.389 268.358 500.935 244.916 478.959 228.067C476.029 226.602 473.831 224.404 472.366 222.939C471.634 204.626 470.168 197.301 464.308 184.847C461.378 177.522 457.715 173.126 451.122 166.533C448.924 164.335 447.46 162.871 445.994 161.406C443.064 159.208 441.599 157.742 440.866 157.01C440.134 155.545 439.402 151.882 438.669 148.219C433.541 121.115 422.553 99.871 402.774 80.8251C377.867 55.9184 347.1 42.7325 311.938 42H295.822C272.38 44.9301 248.206 54.4532 231.358 66.9066C223.3 72.0344 211.579 84.4877 205.719 91.8132L204.986 92.5459H203.521C199.126 91.8132 192.532 91.8132 189.603 91.8132C181.545 91.8132 173.487 92.5458 169.091 93.2784C128.068 100.604 95.836 129.174 84.1152 170.196C84.1152 170.929 83.3827 171.661 83.3827 172.394C83.3827 173.126 82.6501 174.591 82.6501 175.324C81.185 175.324 79.72 176.056 78.9874 176.789C44.5576 187.777 18.1859 216.346 7.9302 252.974C5 261.765 5 266.16 5 280.079C5 294.729 5.73255 297.659 7.9302 307.182C15.9883 337.95 37.9647 364.321 66.5341 378.24C79.72 384.1 95.836 388.495 106.092 388.495C110.487 388.495 113.417 387.763 115.615 386.298C120.01 383.368 120.743 379.705 120.743 376.042C120.743 362.857 109.021 362.124 104.627 361.391C63.6039 356.263 32.8368 324.764 30.6392 285.206C29.9067 261.032 37.9647 239.788 54.0808 223.672C66.5341 211.219 77.5223 204.626 91.4408 201.696C92.9058 201.696 99.4988 200.23 102.429 197.301C103.161 196.568 105.359 194.37 108.29 181.916C116.348 149.684 139.057 126.976 171.289 120.383C172.754 120.383 174.951 120.383 177.149 120.383C180.079 120.383 183.01 119.65 186.672 119.65C194.73 119.65 201.323 120.383 204.253 121.115C206.451 121.848 207.916 121.848 209.381 121.848C215.974 121.848 220.369 116.72 223.3 112.325C227.695 106.464 237.218 95.476 245.276 89.6156C256.997 80.8251 270.183 74.2321 286.299 71.3019C290.694 70.5693 298.02 69.8368 307.543 69.8368C315.601 69.8368 322.194 70.5693 325.856 71.3019C347.1 74.9647 367.611 85.2203 382.995 100.604C399.111 117.452 408.634 135.766 411.565 157.01C413.03 167.998 415.959 173.858 421.82 178.987C437.936 191.44 443.797 202.428 444.529 220.009C445.262 236.126 448.192 241.253 459.18 248.578C474.563 258.834 484.087 273.485 487.017 291.066C492.145 322.566 470.901 353.333 439.402 360.659C436.471 361.391 428.413 362.124 421.088 362.857H418.89C408.634 363.588 404.972 363.588 402.041 367.252C397.646 371.646 397.646 380.437 402.041 385.565C405.704 389.96 408.634 389.96 415.959 389.96C417.425 389.96 420.355 389.96 424.75 389.228C440.134 389.228 448.192 387.763 460.645 383.368C494.343 367.252 517.051 332.089 514.853 295.462Z" fill="black"/>
<path d="M369.08 157.742C360.289 152.613 357.359 151.881 306.081 151.881H282.639C221.838 151.881 210.849 152.613 207.187 153.346C204.257 154.079 199.861 156.277 196.199 157.742C193.268 159.939 176.42 176.055 162.501 189.974C131.735 220.741 128.072 224.404 125.874 236.857C124.409 244.182 124.409 436.843 125.874 444.901C128.072 458.086 137.595 469.807 150.78 475.667L158.106 477.865H254.803C339.046 477.865 354.429 477.133 358.824 476.4C370.545 472.005 381.534 461.017 385.196 450.028C387.394 444.168 387.394 439.773 387.394 313.775V183.381L385.196 176.788C382.266 170.927 376.405 161.404 369.08 157.742ZM215.245 234.659L219.64 228.799L220.373 178.253H283.372C339.046 178.253 350.766 178.253 353.697 179.718C357.359 181.183 360.289 185.578 361.022 189.241C361.755 193.636 361.755 259.566 361.755 318.169V441.237L359.557 444.168C358.092 446.366 355.895 447.831 354.429 449.295L351.499 451.493L162.501 452.226L159.571 450.028C157.374 448.564 155.909 446.366 154.443 444.901L152.246 441.97V345.274C151.513 298.391 152.246 262.496 152.246 249.311V246.38H173.49C198.397 246.38 201.326 246.38 207.187 243.449C209.384 240.52 213.047 237.589 215.245 234.659ZM192.536 197.299V201.694C193.268 210.485 192.536 215.613 192.536 217.81H172.025L192.536 197.299Z" fill="black"/>
<path d="M167.628 266.16C166.162 270.554 166.895 274.95 169.093 280.078L172.756 284.473L340.509 283.741L344.172 279.345C347.835 274.218 347.103 266.892 343.439 262.496L339.776 258.102H227.697C207.918 258.102 183.011 258.102 176.418 258.834C172.756 259.566 169.825 262.496 167.628 266.16Z" fill="black"/>
<path d="M257.727 298.391H235.751C202.054 298.391 180.81 298.391 176.415 299.123H175.682H174.949C170.554 300.588 166.891 304.983 166.159 309.378C165.426 313.774 166.159 318.169 169.822 321.832C174.217 325.494 174.217 325.494 256.995 325.494C339.773 325.494 339.773 325.494 343.436 321.832C347.099 319.634 347.099 314.507 347.099 312.309C347.099 308.646 345.634 305.716 342.703 302.785C339.041 298.391 339.04 298.391 257.727 298.391Z" fill="black"/>
<path d="M257.733 339.412C176.42 339.412 176.42 339.412 172.025 343.075C168.362 345.273 166.897 348.935 166.897 352.599C166.164 356.261 167.629 359.924 170.56 363.586C174.222 367.249 174.222 367.249 257 367.249C339.778 367.249 339.778 367.249 344.906 363.586C347.836 360.657 348.569 355.528 348.569 352.599C347.836 348.935 345.639 346.006 343.441 343.075C339.045 339.412 339.045 339.412 257.733 339.412Z" fill="black"/>
<path d="M206.455 379.705C177.885 379.705 176.421 379.705 172.025 383.368C168.363 385.566 166.897 389.228 166.897 392.892C166.897 396.554 168.363 400.217 171.292 403.147C175.688 407.542 175.688 407.542 206.455 407.542L208.653 406.81H239.42L243.083 402.415C246.012 399.484 246.745 394.357 246.745 391.426C246.012 388.496 244.547 385.566 241.617 382.636C235.756 379.705 234.292 379.705 206.455 379.705Z" fill="black"/>
</svg>