<svg xmlns="http://www.w3.org/2000/svg" fill="none" viewBox="5 41 510 438.47">
<path fill-rule="evenodd" clip-rule="evenodd" d="M275.309 330.714C260.129 330.922 247.745 326.231 238.157 316.644C228.57 307.056 224.079 294.873 224.687 280.092C225.278 265.311 230.966 254.325 241.753 247.134L393.357 145.865C398.95 142.269 404.039 142.772 408.625 147.374C413.227 151.96 413.731 157.05 410.135 162.643L308.866 314.247C301.675 325.034 290.49 330.523 275.309 330.714ZM35.6266 282.744C35.6213 282.061 35.6187 281.376 35.6187 280.691C35.6187 247.533 41.9146 216.47 54.5063 187.499C67.082 158.544 84.2598 133.177 106.04 111.397C127.803 89.6332 153.267 72.4554 182.429 59.8636C211.592 47.2879 242.552 41 275.309 41C293.286 41 310.663 42.8935 327.442 46.6807C344.22 50.4837 360.399 56.1804 375.979 63.7705C384.368 68.1649 389.258 74.1572 390.649 81.7474C392.054 89.3376 389.961 96.5283 384.368 103.32C381.173 106.915 376.778 109.112 371.185 109.911C365.592 110.71 360.599 110.111 356.205 108.113C343.421 101.721 330.238 96.9274 316.656 93.7319C303.074 90.5361 289.291 88.9381 275.309 88.9381C222.178 88.9381 176.94 107.61 139.597 144.953C107.75 176.8 89.4762 214.379 84.7769 257.686C66.3477 262.115 49.5912 270.841 35.6266 282.744ZM219.752 424.505C226.751 409.928 230.862 393.701 231.343 376.567H440.696C449.884 361.386 456.58 345.607 460.782 329.227C464.968 312.849 467.062 295.871 467.062 278.293C467.062 264.311 465.368 250.634 461.981 237.259C458.576 223.868 453.679 210.981 447.288 198.597C444.491 193.404 443.691 188.01 444.89 182.417C446.089 176.825 448.885 172.23 453.279 168.635C459.671 163.042 466.662 161.444 474.252 163.842C481.843 166.238 487.436 171.431 491.031 179.422C498.222 194.601 503.814 210.285 507.81 226.473C511.804 242.643 514.201 259.517 515 277.095C515 299.866 512.308 321.638 506.923 342.411C501.521 363.184 493.427 382.959 482.642 401.735C478.248 408.925 472.255 414.518 464.664 418.512C457.074 422.507 449.085 424.505 440.696 424.505H219.752Z" fill="black"/>
<path d="M107.044 332.504C97.3035 332.504 87.781 335.391 79.6815 340.804C71.5819 346.216 65.2692 353.909 61.5414 362.907C57.8136 371.907 56.8381 381.81 58.7386 391.365C60.639 400.919 65.3299 409.695 72.2179 416.583C79.106 423.471 87.882 428.161 97.4358 430.063C106.99 431.963 116.893 430.987 125.893 427.259C134.893 423.532 142.584 417.219 147.997 409.12C153.409 401.02 156.298 391.497 156.298 381.756C156.298 368.693 151.108 356.166 141.872 346.929C132.635 337.692 120.107 332.504 107.044 332.504ZM107.044 409.9C101.479 409.9 96.0369 408.25 91.4086 405.157C86.7803 402.064 83.1731 397.669 81.0429 392.526C78.9127 387.384 78.3552 381.725 79.4413 376.266C80.5272 370.806 83.2077 365.791 87.1437 361.854C91.0798 357.919 96.0946 355.238 101.554 354.152C107.014 353.066 112.672 353.624 117.815 355.754C122.957 357.885 127.353 361.492 130.446 366.12C133.538 370.748 135.189 376.189 135.189 381.756C135.165 389.213 132.194 396.359 126.92 401.631C121.647 406.904 114.502 409.877 107.044 409.9ZM206.782 360.12C206.463 358.658 205.835 357.282 204.94 356.083C204.045 354.885 202.903 353.892 201.592 353.172L181.54 342.09C180.66 340.331 179.693 338.66 178.725 337.076L179.077 314.21C179.108 312.708 178.817 311.218 178.225 309.838C177.634 308.457 176.755 307.22 175.646 306.205C164.847 296.399 152.072 289.021 138.179 284.57C136.75 284.124 135.242 283.988 133.756 284.17C132.27 284.352 130.84 284.848 129.56 285.626L109.947 297.323H104.142L84.5293 285.626C83.2475 284.854 81.8174 284.361 80.3323 284.179C78.8471 283.997 77.3403 284.13 75.9101 284.57C62.0179 289.021 49.2416 296.399 38.443 306.205C37.3348 307.22 36.4556 308.457 35.8641 309.838C35.2725 311.218 34.9824 312.708 35.0129 314.21L35.3647 337.076C34.3973 338.66 33.4297 340.331 32.5503 342.09L12.4974 353.172C11.1933 353.901 10.0571 354.896 9.16304 356.093C8.26898 357.291 7.63706 358.663 7.30836 360.12C4.23055 374.38 4.23055 389.132 7.30836 403.392C7.62654 404.854 8.25425 406.23 9.14943 407.428C10.0446 408.627 11.1862 409.619 12.4974 410.339L32.5503 421.421C33.4297 423.181 34.3973 424.852 35.3647 426.435L35.0129 449.302C34.9824 450.804 35.2725 452.294 35.8641 453.674C36.4556 455.055 37.3348 456.292 38.443 457.306C49.2416 467.113 62.0179 474.491 75.9101 478.942C77.3394 479.388 78.8472 479.524 80.3333 479.342C81.8194 479.16 83.2497 478.664 84.5293 477.886L104.142 466.189H109.947L129.56 477.886C131.189 478.924 133.082 479.473 135.013 479.469C136.091 479.467 137.16 479.289 138.179 478.942C152.072 474.491 164.847 467.113 175.646 457.306C176.755 456.292 177.634 455.055 178.225 453.674C178.817 452.294 179.108 450.804 179.077 449.302L178.725 426.435C179.693 424.852 180.66 423.181 181.54 421.421L201.592 410.339C202.896 409.611 204.033 408.616 204.926 407.419C205.821 406.221 206.453 404.849 206.782 403.392C209.858 389.132 209.858 374.38 206.782 360.12ZM186.992 394.332L168.523 404.535C166.616 405.605 165.081 407.232 164.125 409.196C162.733 412.058 161.146 414.82 159.376 417.464C158.152 419.249 157.508 421.368 157.529 423.533L157.88 444.729C151.324 450.006 143.997 454.247 136.156 457.306L118.039 446.4C116.386 445.426 114.504 444.911 112.586 444.904H111.794C108.633 445.169 105.456 445.169 102.295 444.904C100.109 444.736 97.9245 445.259 96.0509 446.4L77.933 457.306C70.0822 454.268 62.7529 450.025 56.2091 444.729L56.5609 423.621C56.5832 421.429 55.9391 419.281 54.7139 417.464C52.9433 414.82 51.3565 412.058 49.9646 409.196C48.9854 407.247 47.4567 405.626 45.5671 404.535L27.0973 394.332C25.7773 386 25.7773 377.511 27.0973 369.179L45.5671 358.977C47.4734 357.907 49.0078 356.281 49.9646 354.316C51.3565 351.454 52.9433 348.692 54.7139 346.048C55.9373 344.263 56.5821 342.144 56.5609 339.979L56.2091 318.783C62.7656 313.506 70.0919 309.265 77.933 306.205L96.0509 317.112C97.9196 318.264 100.108 318.788 102.295 318.608C105.456 318.343 108.633 318.343 111.794 318.608C113.981 318.776 116.166 318.252 118.039 317.112L136.156 306.205C144.007 309.244 151.337 313.487 157.88 318.783L157.529 339.891C157.506 342.083 158.151 344.231 159.376 346.048C161.146 348.692 162.733 351.454 164.125 354.316C165.103 356.265 166.632 357.886 168.523 358.977L186.992 369.179C188.312 377.511 188.312 386 186.992 394.332Z" fill="black"/>
</svg>