<svg xmlns="http://www.w3.org/2000/svg" fill="none" viewBox="5 60 510 400.75">
<path d="M41.4286 242.143H260V278.571H41.4286V242.143ZM5 151.071H187.143V187.5H5V151.071Z" fill="black"/>
<path d="M513.525 253.181L458.882 125.68C457.48 122.404 455.146 119.611 452.17 117.648C449.194 115.686 445.707 114.641 442.143 114.643H387.5V78.2143C387.5 73.3833 385.581 68.7507 382.166 65.3354C378.749 61.9191 374.117 60 369.286 60H77.8573V96.4286H351.071V325.127C342.772 329.947 335.509 336.362 329.701 344.002C323.892 351.642 319.653 360.356 317.23 369.643H202.771C198.338 352.473 187.795 337.509 173.118 327.557C158.441 317.605 140.639 313.347 123.047 315.581C105.455 317.816 89.2821 326.389 77.5601 339.694C65.8376 353 59.3701 370.124 59.3701 387.857C59.3701 405.591 65.8376 422.714 77.5601 436.02C89.2821 449.325 105.455 457.899 123.047 460.134C140.639 462.368 158.441 458.109 173.118 448.157C187.795 438.205 198.338 423.241 202.771 406.071H317.23C321.192 421.703 330.253 435.568 342.981 445.473C355.707 455.376 371.374 460.753 387.5 460.753C403.627 460.753 419.292 455.376 432.02 445.473C444.748 435.568 453.809 421.703 457.771 406.071H496.786C501.617 406.071 506.249 404.152 509.666 400.736C513.081 397.321 515 392.688 515 387.857V260.357C515.001 257.89 514.499 255.448 513.525 253.181ZM132.5 424.286C125.295 424.286 118.252 422.149 112.261 418.147C106.271 414.144 101.602 408.454 98.8443 401.798C96.087 395.142 95.3663 387.817 96.7718 380.751C98.1774 373.684 101.647 367.193 106.741 362.098C111.836 357.004 118.326 353.534 125.393 352.128C132.46 350.722 139.784 351.444 146.441 354.202C153.097 356.959 158.787 361.627 162.789 367.619C166.792 373.61 168.928 380.652 168.928 387.857C168.919 397.516 165.078 406.775 158.249 413.605C151.419 420.435 142.158 424.276 132.5 424.286ZM387.5 151.071H430.121L469.173 242.143H387.5V151.071ZM387.5 424.286C380.295 424.286 373.252 422.149 367.261 418.147C361.271 414.144 356.602 408.454 353.844 401.798C351.087 395.142 350.366 387.817 351.772 380.751C353.177 373.684 356.647 367.193 361.741 362.098C366.836 357.004 373.326 353.534 380.393 352.128C387.459 350.722 394.784 351.444 401.441 354.202C408.097 356.959 413.787 361.627 417.789 367.619C421.792 373.61 423.928 380.652 423.928 387.857C423.919 397.516 420.078 406.775 413.249 413.605C406.419 420.435 397.158 424.276 387.5 424.286ZM478.571 369.643H457.771C453.758 354.041 444.683 340.212 431.965 330.322C419.249 320.434 403.609 315.045 387.5 315V278.571H478.571V369.643Z" fill="black"/>
</svg>