<svg xmlns="http://www.w3.org/2000/svg" fill="none" viewBox="5 42 510 436.22">
<path d="M47.8554 45.475C-2.81678 62.9288 -6.19486 135.371 42.6005 158.455C51.7965 162.959 56.3007 163.897 68.1242 163.897C88.7685 163.897 98.3402 159.956 112.604 145.694L124.615 133.87L156.706 141.94L188.987 150.01L190.488 159.956C194.43 188.107 218.827 209.128 247.729 209.315C263.493 209.503 273.065 206.875 284.513 199.368C293.709 193.175 305.158 178.161 307.41 168.965L308.535 163.897H332.558H356.58L357.893 169.34C360.897 183.416 380.79 202.371 397.306 207.063C411.194 211.004 433.151 208.752 444.975 202.371C478.757 183.979 486.451 136.872 460.552 107.408C450.793 96.3344 437.28 90.1412 420.389 89.2033C402.748 88.0768 391.863 90.8926 380.227 99.1502C370.468 106.094 359.583 120.357 357.893 128.427L356.58 133.87H332.558H308.535L307.41 128.615C305.158 119.607 293.709 104.592 284.513 98.3989C272.69 90.5174 263.306 88.2644 246.228 89.2033C226.334 90.1412 211.695 98.0237 200.247 113.789L196.306 119.043L163.651 110.785L130.808 102.716L129.682 93.3322C125.178 56.5479 84.6396 32.7132 47.8554 45.475ZM84.452 79.4441C108.85 94.27 98.3402 131.993 69.8133 131.993C53.861 131.993 41.6622 119.794 41.6622 103.842C41.6622 87.8892 53.861 75.6907 69.8133 75.6907C74.8805 75.6907 80.6984 77.192 84.452 79.4441ZM264.62 124.486C289.017 139.312 278.508 177.035 249.981 177.035C234.029 177.035 221.83 164.836 221.83 148.884C221.83 138.749 226.896 129.741 235.343 124.486C239.095 122.234 244.913 120.732 249.981 120.732C255.048 120.732 260.866 122.234 264.62 124.486ZM429.774 124.486C454.171 139.312 443.661 177.035 415.134 177.035C399.183 177.035 386.984 164.836 386.984 148.884C386.984 132.931 399.183 120.732 415.134 120.732C420.202 120.732 426.02 122.234 429.774 124.486Z" fill="black"/>
<path d="M43.2501 210.471C39 214.721 39 217.483 39 329.47V444.22H22H5V461.221V478.22H260H515V461.221V444.22H464H413V380.47C413 319.483 412.788 316.508 408.75 312.47C404.713 308.433 401.738 308.22 362 308.22C322.263 308.22 319.288 308.433 315.251 312.47C311.212 316.508 311.001 319.483 311.001 380.47V444.22H294H277.001V354.971C277.001 268.482 276.788 265.507 272.75 261.47C268.712 257.433 265.737 257.22 226 257.22C186.262 257.22 183.287 257.433 179.25 261.47C175.213 265.507 175 268.482 175 354.971V444.22H158H141V329.47C141 217.483 141 214.721 136.75 210.471C132.712 206.432 129.737 206.22 89.9996 206.22C50.2625 206.22 47.2875 206.432 43.2501 210.471ZM107 342.22V444.22H89.9996H73V342.22V240.22H89.9996H107V342.22ZM243.001 367.72V444.22H226H209V367.72V291.22H226H243.001V367.72ZM379 393.221V444.22H362H345V393.221V342.22H362H379V393.221Z" fill="black"/>
</svg>