<svg xmlns="http://www.w3.org/2000/svg" fill="none" viewBox="0 0 36 36">
<g clip-path="url(#clip0_4841_37658)">
<mask id="mask0_4841_37658" style="mask-type:alpha" maskUnits="userSpaceOnUse" x="0" y="0" width="36" height="36">
<path d="M36 0H0V36H36V0Z" fill="white"/>
</mask>
<g mask="url(#mask0_4841_37658)">
<mask id="mask1_4841_37658" style="mask-type:alpha" maskUnits="userSpaceOnUse" x="0" y="0" width="36" height="36">
<path d="M36 0H0V36H36V0Z" fill="white"/>
</mask>
<g mask="url(#mask1_4841_37658)">
<mask id="mask2_4841_37658" style="mask-type:alpha" maskUnits="userSpaceOnUse" x="0" y="0" width="36" height="36">
<path d="M36 0H0V36H36V0Z" fill="white"/>
</mask>
<g mask="url(#mask2_4841_37658)">
<path d="M19.5996 10.1L22.0996 7.90002L22.8996 12.1L27.0996 12.7C26.3996 13.7 24.7996 15.8 24.5996 16.1C24.3996 16.3 21.0996 15.4 19.5996 15V10.1Z" fill="#FFA600"/>
<path d="M16.7998 23C19.2998 23 21.2998 20.9 21.2998 18.2C21.2998 15.6 19.2998 13.4 16.7998 13.4C14.2998 13.4 12.2998 15.5 12.2998 18.2C12.2998 20.9 14.2998 23 16.7998 23Z" fill="#FFA600"/>
<path fill-rule="evenodd" clip-rule="evenodd" d="M23.7998 6.10001C23.6998 6.00001 23.5998 5.80001 23.3998 5.80001C23.1998 5.70001 23.0998 5.70001 22.8998 5.70001C22.6998 5.70001 22.5998 5.80001 22.3998 5.90001L18.7998 9.50001C18.6998 9.60001 18.6998 9.70001 18.5998 9.80001C18.4998 9.90001 18.4998 10 18.4998 10.1V15.1L17.1998 16.4C16.8998 16.3 16.6998 16.3 16.3998 16.4C16.0998 16.4 15.8998 16.6 15.6998 16.7C15.4998 16.8 15.2998 17.1 15.1998 17.3C15.0998 17.5 14.9998 17.8 14.9998 18.1V18.2C14.9998 18.7 15.1998 19.1 15.4998 19.5C15.7998 19.8 16.2998 20 16.7998 20C17.0998 20 17.2998 19.9 17.5998 19.8C17.7998 19.7 18.0998 19.5 18.1998 19.3C18.3998 19.1 18.4998 18.8 18.4998 18.6C18.5998 18.3 18.4998 18.1 18.4998 17.8L19.7998 16.5H24.7998C24.8998 16.5 24.9998 16.5 25.0998 16.4C25.1998 16.4 25.2998 16.3 25.3998 16.2L28.9998 12.6C29.0998 12.5 29.1998 12.3 29.1998 12.1C29.1998 11.9 29.1998 11.7 29.0998 11.6C28.9998 11.4 28.8998 11.3 28.7998 11.2C28.6998 11 28.5998 11 28.3998 11H23.9998V6.50001C23.9998 6.40001 23.8998 6.20001 23.7998 6.10001ZM23.0998 12.8H26.2998L24.4998 14.6H20.3998V10.5L22.1998 8.70001V11.9C22.1998 12.1 22.2998 12.4 22.4998 12.5C22.5998 12.7 22.7998 12.8 23.0998 12.8ZM27.2998 20.2C27.4998 19 27.5998 17.8 27.3998 16.6L26.6998 17.3C26.3998 17.6 26.0998 17.8 25.6998 17.9C25.6998 18.5 25.6998 19.1 25.5998 19.7C26.1998 19.8 26.7998 20 27.2998 20.2ZM19.0998 28.5C17.7998 28.8 16.3998 28.8 15.0998 28.6C12.8998 28.2 10.8998 27.2 9.29977 25.6C7.69977 24 6.69977 22 6.29977 19.8C5.89977 17.6 6.29977 15.3 7.29977 13.3C8.29977 11.3 9.89977 9.70001 11.8998 8.60001C13.8998 7.60001 16.0998 7.20001 18.2998 7.50001L17.5998 8.20001C17.2998 8.50001 17.0998 8.80001 16.9998 9.20001H16.7998C14.9998 9.20001 13.2998 9.70001 11.7998 10.7C10.2998 11.7 9.19977 13.1 8.49977 14.7C7.79977 16.3 7.69977 18.1 7.99977 19.9C8.29977 21.7 9.19977 23.2 10.4998 24.5C11.7998 25.7 13.3998 26.6 15.0998 26.9C16.1998 27.1 17.3998 27.1 18.4998 26.9C18.6998 27.4 18.8998 28 19.0998 28.5ZM18.6998 24C17.6998 24.3 16.5998 24.4 15.5998 24.2C14.3998 24 13.2998 23.4 12.3998 22.5C11.4998 21.6 10.8998 20.5 10.6998 19.3C10.4998 18.1 10.5998 16.8 11.0998 15.7C11.5998 14.6 12.3998 13.6 13.3998 12.9C14.3998 12.2 15.5998 11.9 16.8998 11.9V13.7C15.9998 13.7 15.1998 14 14.3998 14.4C13.6998 14.9 13.0998 15.6 12.7998 16.4C12.4998 17.2 12.3998 18.1 12.4998 19C12.6998 19.9 13.0998 20.7 13.6998 21.3C14.2998 21.9 15.0998 22.3 15.9998 22.5C16.8998 22.7 17.7998 22.6 18.5998 22.2C19.3998 21.9 20.0998 21.3 20.5998 20.6C21.0998 19.9 21.2998 19 21.2998 18.1H23.0998C23.0998 18.7 22.9998 19.3 22.7998 19.9C20.7998 20.5 19.2998 22.1 18.6998 24Z" fill="black"/>
<path d="M29.2997 26.2C29.2997 23.8 27.3997 21.9 24.9997 21.9C22.5997 21.9 20.6997 23.8 20.6997 26.2C20.6997 28.6 22.5997 30.5 24.9997 30.5C27.3997 30.5 29.2997 28.6 29.2997 26.2Z" fill="#FFA600"/>
<path d="M24.9998 30.9C24.3998 30.9 23.7998 30.8 23.1998 30.5C22.5998 30.3 22.0998 29.9 21.6998 29.5C21.2998 29.1 20.8998 28.5 20.6998 28C20.4998 27.4 20.2998 26.8 20.2998 26.2C20.2998 24.9 20.7998 23.7 21.6998 22.8C22.5998 21.9 23.7998 21.4 25.0998 21.4C26.3998 21.4 27.5998 21.9 28.4998 22.8C29.3998 23.7 29.8998 24.9 29.8998 26.2C29.8998 26.8 29.7998 27.4 29.4998 28C29.2998 28.6 28.8998 29.1 28.4998 29.5C28.0998 29.9 27.4998 30.3 26.9998 30.5C26.2998 30.8 25.5998 30.9 24.9998 30.9ZM24.9998 22.3C23.9998 22.3 22.9998 22.7 22.2998 23.4C21.5998 24.1 21.1998 25.1 21.1998 26.1C21.1998 26.6 21.2998 27.1 21.4998 27.6C21.6998 28.1 21.9998 28.5 22.2998 28.8C22.6998 29.2 23.0998 29.4 23.4998 29.6C24.3998 30 25.4998 30 26.3998 29.6C26.8998 29.4 27.2998 29.1 27.5998 28.8C27.9998 28.4 28.1998 28 28.3998 27.6C28.5998 27.1 28.6998 26.6 28.6998 26.1C28.6998 25.1 28.2998 24.1 27.5998 23.4C26.9998 22.7 25.9998 22.3 24.9998 22.3ZM24.9998 29.5C24.6998 29.5 24.4998 29.3 24.4998 29V28.7C24.1998 28.6 23.8998 28.5 23.6998 28.3L23.2998 28C23.0998 27.8 23.0998 27.6 23.1998 27.4C23.3998 27.2 23.5998 27.2 23.7998 27.3L24.1998 27.6C24.2998 27.7 24.3998 27.7 24.4998 27.7V26.5C24.1998 26.4 23.8998 26.3 23.6998 26.1C23.2998 25.8 23.0998 25.4 23.0998 25C23.0998 24.6 23.2998 24.2 23.6998 23.9C23.8998 23.7 24.1998 23.6 24.4998 23.5V23.2C24.4998 22.9 24.6998 22.7 24.9998 22.7C25.2998 22.7 25.4998 22.9 25.4998 23.2V23.5C25.7998 23.6 26.0998 23.7 26.2998 23.9L26.4998 24.1C26.6998 24.3 26.6998 24.5 26.5998 24.7C26.4998 24.9 26.1998 24.9 25.9998 24.8L25.7998 24.6C25.6998 24.6 25.6998 24.5 25.5998 24.5V25.7C25.8998 25.8 26.1998 25.9 26.3998 26.1C26.7998 26.4 26.9998 26.8 26.9998 27.2C26.9998 27.6 26.7998 28 26.3998 28.3C26.1998 28.5 25.8998 28.6 25.5998 28.7V29C25.4998 29.3 25.2998 29.5 24.9998 29.5ZM25.4998 26.7V27.8C25.5998 27.8 25.6998 27.7 25.7998 27.7C25.9998 27.6 25.9998 27.4 25.9998 27.3C25.9998 27.2 25.8998 27 25.7998 26.9C25.6998 26.8 25.5998 26.8 25.4998 26.7ZM24.5998 24.6C24.4998 24.6 24.4998 24.7 24.3998 24.7C24.2998 24.8 24.1998 25 24.1998 25.1C24.1998 25.2 24.2998 25.4 24.3998 25.5C24.4998 25.5 24.4998 25.6 24.5998 25.6V24.6Z" fill="black"/>
</g>
</g>
</g>
</g>
<defs>
<clipPath id="clip0_4841_37658">
<rect width="36" height="36" fill="white"/>
</clipPath>
</defs>
</svg>