<svg xmlns="http://www.w3.org/2000/svg" fill="none" viewBox="5.91 7.97 23.66 19.87">
<path d="M17.4857 23.3999C13.9885 23.3999 13.1143 25.457 13.1143 26.4856L13.6285 26.9999H22.1143L22.3714 26.4856C22.2 25.457 20.9828 23.3999 17.4857 23.3999Z" fill="#FFA600"/>
<path d="M17.7424 21.0857C18.7365 21.0857 19.5424 20.1647 19.5424 19.0286C19.5424 17.8924 18.7365 16.9714 17.7424 16.9714C16.7483 16.9714 15.9424 17.8924 15.9424 19.0286C15.9424 20.1647 16.7483 21.0857 17.7424 21.0857Z" fill="#FFA600"/>
<path d="M17.7423 21.9246C19.1963 21.9246 20.3738 20.6448 20.3738 19.0707C20.3738 17.5207 19.2023 16.283 17.7423 16.283C16.3004 16.283 15.1108 17.5387 15.1108 19.0828C15.1168 20.6509 16.2884 21.9246 17.7423 21.9246ZM10.773 22.0627C12.0407 22.0627 13.0621 20.9392 13.0621 19.5514C13.0621 18.1996 12.0407 17.1061 10.773 17.1061C9.51736 17.1061 8.47797 18.2176 8.48398 19.5574C8.48398 20.9452 9.51135 22.0627 10.773 22.0627ZM24.7116 22.0627C25.9673 22.0627 26.9947 20.9452 27.0007 19.5574C27.0067 18.2176 25.9673 17.1061 24.7116 17.1061C23.4439 17.1061 22.4166 18.1996 22.4166 19.5514C22.4166 20.9392 23.4439 22.0627 24.7116 22.0627ZM17.7423 20.8731C16.9132 20.8731 16.2103 20.0921 16.2103 19.0768C16.2103 18.0974 16.9072 17.3344 17.7423 17.3344C18.5834 17.3344 19.2744 18.0854 19.2744 19.0707C19.2744 20.0801 18.5774 20.8731 17.7423 20.8731ZM10.773 21.0233C10.0941 21.0233 9.51736 20.3745 9.51736 19.5574C9.51736 18.7764 10.0881 18.1395 10.773 18.1395C11.47 18.1395 12.0347 18.7643 12.0347 19.5514C12.0347 20.3745 11.4579 21.0233 10.773 21.0233ZM24.7116 21.0233C24.0207 21.0233 23.4499 20.3745 23.4499 19.5514C23.4499 18.7643 24.0147 18.1395 24.7116 18.1395C25.3905 18.1395 25.9673 18.7764 25.9673 19.5574C25.9673 20.3745 25.3905 21.0233 24.7116 21.0233ZM7.46863 27.5841H11.6226C11.2921 27.3918 11.0698 26.9533 11.1119 26.5567H7.41456C7.3004 26.5567 7.25234 26.5027 7.25234 26.4005C7.25234 25.0247 8.86249 23.7149 10.767 23.7149C11.4399 23.7149 11.5529 23.6176 12.0696 23.906C12.2738 23.6116 12.5262 23.3592 12.8566 23.143C12.0936 22.6743 11.7043 22.6876 10.767 22.6876C8.22564 22.6876 6.1709 24.502 6.1709 26.4966C6.1709 27.2176 6.60348 27.5841 7.46863 27.5841ZM28.016 27.5841C28.8812 27.5841 29.3138 27.2176 29.3138 26.4966C29.3138 24.502 27.253 22.6876 24.7116 22.6876C23.7804 22.6876 23.6326 22.6827 22.8756 23.1514C23.206 23.3677 23.4583 23.62 23.6566 23.9144C24.1733 23.626 24.0447 23.7149 24.7116 23.7149C26.6162 23.7149 28.2323 25.0247 28.2323 26.4005C28.2323 26.5027 28.1842 26.5567 28.0701 26.5567H24.881C24.9231 26.9533 24.7068 27.3918 24.3764 27.5841H28.016ZM13.9993 27.5841H21.4853C22.5247 27.5841 23.0234 27.2537 23.0234 26.5447C23.0234 24.8925 20.9626 22.6936 17.7423 22.6936C14.522 22.6936 12.4553 24.8925 12.4553 26.5447C12.4553 27.2537 12.96 27.5841 13.9993 27.5841ZM13.8071 26.5327C13.6689 26.5327 13.6148 26.4846 13.6148 26.3765C13.6148 25.4573 15.0988 23.745 17.7423 23.745C20.3859 23.745 21.8698 25.4573 21.8698 26.3765C21.8698 26.4846 21.8158 26.5327 21.6716 26.5327H13.8071Z" fill="black"/>
<path fill-rule="evenodd" clip-rule="evenodd" d="M14.8535 19.0828C14.8535 17.4113 16.144 16.0259 17.7421 16.0259C19.3577 16.0259 20.6308 17.3927 20.6308 19.0707C20.6308 20.7666 19.3575 22.1818 17.7421 22.1818C16.127 22.1818 14.8599 20.7721 14.8535 19.0828ZM15.3678 19.0823C15.3735 20.529 16.4496 21.6675 17.7421 21.6675C19.0347 21.6675 20.1165 20.523 20.1165 19.0707C20.1165 17.6488 19.0465 16.5402 17.7421 16.5402C16.4566 16.5402 15.368 17.6658 15.3678 19.0823ZM8.22665 19.558C8.22038 18.0917 9.35971 16.849 10.7728 16.849C12.1984 16.849 13.3191 18.074 13.3191 19.5514C13.3191 21.0581 12.2046 22.3199 10.7728 22.3199C9.34841 22.3199 8.22694 21.0657 8.22665 19.558ZM10.7728 17.3633C9.67483 17.3633 8.7355 18.3433 8.74094 19.5563L8.74094 19.5574C8.74094 20.8251 9.6741 21.8056 10.7728 21.8056C11.8764 21.8056 12.8048 20.8203 12.8048 19.5514C12.8048 18.3252 11.8826 17.3633 10.7728 17.3633ZM22.1593 19.5514C22.1593 18.0731 23.2866 16.849 24.7114 16.849C26.1248 16.849 27.2642 18.092 27.2577 19.5586C27.2577 19.5586 27.2577 19.5586 27.2577 19.5586C27.2511 21.065 26.1305 22.3199 24.7114 22.3199C23.2804 22.3199 22.1593 21.059 22.1593 19.5514ZM24.7114 17.3633C23.6008 17.3633 22.6736 18.3261 22.6736 19.5514C22.6736 20.8195 23.607 21.8056 24.7114 21.8056C25.8037 21.8056 26.7379 20.8254 26.7434 19.5563C26.7488 18.3433 25.8095 17.3633 24.7114 17.3633ZM17.7421 17.5916C17.0765 17.5916 16.4673 18.2103 16.4673 19.0768C16.4673 19.9857 17.0882 20.616 17.7421 20.616C18.3999 20.616 19.0171 19.9762 19.0171 19.0707C19.0171 18.1995 18.4148 17.5916 17.7421 17.5916ZM15.953 19.0768C15.953 17.9845 16.7376 17.0773 17.7421 17.0773C18.7516 17.0773 19.5314 17.9713 19.5314 19.0707C19.5314 20.184 18.7545 21.1303 17.7421 21.1303C16.7378 21.1303 15.953 20.1985 15.953 19.0768ZM10.7728 18.3967C10.2576 18.3967 9.77432 18.8891 9.77432 19.5574C9.77432 20.2683 10.2693 20.7662 10.7728 20.7662C11.2825 20.7662 11.7774 20.2682 11.7774 19.5514C11.7774 18.8793 11.3022 18.3967 10.7728 18.3967ZM9.26003 19.5574C9.26003 18.6637 9.91825 17.8824 10.7728 17.8824C11.6375 17.8824 12.2917 18.6494 12.2917 19.5514C12.2917 20.4808 11.633 21.2805 10.7728 21.2805C9.91854 21.2805 9.26003 20.4807 9.26003 19.5574ZM24.7114 18.3967C24.1822 18.3967 23.7069 18.8793 23.7069 19.5514C23.7069 20.269 24.1965 20.7662 24.7114 20.7662C25.215 20.7662 25.71 20.2683 25.71 19.5574C25.71 18.89 25.2214 18.3967 24.7114 18.3967ZM23.1926 19.5514C23.1926 18.6494 23.8469 17.8824 24.7114 17.8824C25.5592 17.8824 26.2243 18.6629 26.2243 19.5574C26.2243 20.4807 25.5657 21.2805 24.7114 21.2805C23.8445 21.2805 23.1926 20.48 23.1926 19.5514ZM11.9221 22.4864C12.2713 22.5487 12.5896 22.6773 12.991 22.9239L13.3365 23.1362L12.9972 23.3582C12.695 23.5559 12.4664 23.7848 12.2807 24.0526L12.1478 24.2442L11.9441 24.1306C11.7072 23.9983 11.587 23.9673 11.4597 23.9589C11.3871 23.9541 11.3071 23.9565 11.192 23.9612C11.1831 23.9615 11.1739 23.9619 11.1646 23.9623C11.0573 23.9667 10.9273 23.9721 10.7668 23.9721C9.87211 23.9721 9.04903 24.2802 8.4534 24.7446C7.88888 25.1847 7.54975 25.7461 7.51269 26.2996H11.3976L11.3674 26.5839C11.3358 26.8819 11.5107 27.2216 11.7517 27.3619L12.5757 27.8413H7.46845C7.00562 27.8413 6.61117 27.7441 6.32972 27.5076C6.03982 27.264 5.91357 26.9102 5.91357 26.4966C5.91357 24.3212 8.12558 22.4305 10.7668 22.4305C10.7957 22.4305 10.8242 22.4305 10.8523 22.4304C11.2711 22.4302 11.6058 22.43 11.9221 22.4864ZM10.8288 22.9448C10.8085 22.9448 10.7878 22.9448 10.7668 22.9448C8.32534 22.9448 6.42786 24.6828 6.42786 26.4966C6.42786 26.804 6.5179 26.994 6.66058 27.1139C6.8117 27.2409 7.06613 27.327 7.46845 27.327H11.0319C10.9426 27.169 10.8825 26.9928 10.8597 26.8139H7.41438C7.32135 26.8139 7.20198 26.7921 7.10866 26.6988C7.01523 26.6054 6.99501 26.4874 6.99501 26.4005C6.99501 25.6103 7.45487 24.8709 8.13719 24.339C8.82276 23.8045 9.75702 23.4578 10.7668 23.4578C10.9163 23.4578 11.0367 23.4528 11.1441 23.4484C11.1532 23.448 11.1622 23.4477 11.1711 23.4473C11.2826 23.4428 11.3894 23.4388 11.4937 23.4457C11.6619 23.4569 11.8125 23.4953 11.9935 23.5783C12.1095 23.4342 12.2388 23.3 12.3845 23.1755C12.1835 23.0785 12.0104 23.0246 11.8318 22.9927C11.562 22.9446 11.2716 22.9447 10.8288 22.9448ZM24.6583 22.4305C24.6758 22.4305 24.6935 22.4305 24.7114 22.4305C27.3522 22.4305 29.5708 24.3209 29.5708 26.4966C29.5708 26.9102 29.4445 27.264 29.1546 27.5076C28.8731 27.7441 28.4787 27.8413 28.0158 27.8413H23.4232L24.2469 27.3619C24.4855 27.223 24.657 26.8846 24.6251 26.5839L24.5949 26.2996H27.9716C27.9344 25.7465 27.5942 25.185 27.0281 24.7448C26.4309 24.2803 25.6062 23.9721 24.7114 23.9721C24.5503 23.9721 24.4334 23.967 24.3457 23.9633L24.3269 23.9624C24.2327 23.9584 24.1916 23.9579 24.1581 23.9619C24.1034 23.9684 24.0545 23.9867 23.7817 24.139L23.5753 24.2542L23.4431 24.0581C23.2644 23.7927 23.037 23.5645 22.7346 23.3666L22.3967 23.1454L22.7401 22.9328C23.1211 22.6969 23.378 22.5608 23.6701 22.4932C23.9422 22.4303 24.2338 22.4304 24.6583 22.4305ZM23.3388 23.1768C23.4853 23.3014 23.6151 23.4359 23.7304 23.5807C23.8665 23.5097 23.9742 23.4659 24.0971 23.4512C24.1792 23.4414 24.263 23.445 24.3481 23.4486L24.3672 23.4494C24.454 23.4532 24.5616 23.4578 24.7114 23.4578C25.7212 23.4578 26.6569 23.8045 27.3439 24.3388C28.0275 24.8706 28.4893 25.6099 28.4893 26.4005C28.4893 26.4874 28.469 26.6054 28.3756 26.6988C28.2823 26.7921 28.1629 26.8139 28.0699 26.8139H25.1333C25.1112 26.9925 25.0524 27.1688 24.9641 27.327H28.0158C28.4182 27.327 28.6726 27.2409 28.8237 27.1139C28.9664 26.994 29.0565 26.804 29.0565 26.4966C29.0565 24.6832 27.1534 22.9448 24.7114 22.9448C24.2339 22.9448 23.9987 22.9451 23.786 22.9943C23.6515 23.0254 23.5205 23.0778 23.3388 23.1768ZM13.7276 23.801C14.6928 23.007 16.0723 22.4365 17.7421 22.4365C19.412 22.4365 20.79 23.007 21.7538 23.8012C22.7101 24.5892 23.2804 25.6185 23.2804 26.5447C23.2804 26.9686 23.1255 27.3163 22.7874 27.5437C22.4695 27.7575 22.0229 27.8413 21.4851 27.8413H13.9991C13.4613 27.8413 13.0136 27.7575 12.6945 27.5441C12.3551 27.3172 12.198 26.9698 12.198 26.5447C12.198 25.6182 12.77 24.5889 13.7276 23.801ZM14.0544 24.1982C13.1736 24.9228 12.7123 25.819 12.7123 26.5447C12.7123 26.8287 12.8074 27.001 12.9803 27.1165C13.1733 27.2456 13.4977 27.327 13.9991 27.327H21.4851C21.9867 27.327 22.3092 27.2455 22.5004 27.1169C22.6715 27.0019 22.7661 26.8298 22.7661 26.5447C22.7661 25.8187 22.3059 24.9225 21.4268 24.198C20.555 23.4797 19.2926 22.9508 17.7421 22.9508C16.1916 22.9508 14.9276 23.4797 14.0544 24.1982ZM13.8794 26.2756H21.6049C21.5828 26.1217 21.512 25.9284 21.3782 25.7135C21.2154 25.4521 20.9688 25.1741 20.6398 24.9194C19.9833 24.4112 19.0068 24.0022 17.7421 24.0022C16.4775 24.0022 15.501 24.4112 14.8445 24.9194C14.5154 25.1741 14.2688 25.4521 14.1061 25.7135C13.9723 25.9284 13.9014 26.1217 13.8794 26.2756ZM14.5297 24.5127C15.276 23.935 16.3632 23.4879 17.7421 23.4879C19.1211 23.4879 20.2083 23.935 20.9546 24.5127C21.327 24.801 21.6166 25.1235 21.8147 25.4417C22.0106 25.7562 22.1268 26.0828 22.1268 26.3765C22.1268 26.471 22.1022 26.6012 21.9865 26.695C21.8848 26.7773 21.7608 26.7899 21.6714 26.7899H13.8069C13.7186 26.7899 13.5956 26.7766 13.4948 26.6931C13.3819 26.5995 13.3575 26.4709 13.3575 26.3765C13.3575 26.0828 13.4736 25.7562 13.6695 25.4417C13.8676 25.1235 14.1572 24.801 14.5297 24.5127Z" fill="black"/>
<path fill-rule="evenodd" clip-rule="evenodd" d="M25.2723 8.19347C25.5757 8.49256 25.5793 8.98099 25.2802 9.28441L19.563 15.0845C19.418 15.2315 19.2201 15.3143 19.0136 15.3143C18.8071 15.3143 18.6092 15.2315 18.4642 15.0845L15.2021 11.7751L11.94 15.0845C11.6409 15.3879 11.1524 15.3914 10.849 15.0923C10.5456 14.7932 10.5421 14.3048 10.8412 14.0014L14.6527 10.1347C14.7977 9.98758 14.9956 9.90478 15.2021 9.90478C15.4086 9.90478 15.6065 9.98758 15.7515 10.1347L19.0136 13.444L24.1814 8.20132C24.4805 7.8979 24.9689 7.89439 25.2723 8.19347Z" fill="black"/>
<path fill-rule="evenodd" clip-rule="evenodd" d="M21.0596 8.74287C21.0596 8.31682 21.405 7.97144 21.831 7.97144H24.731C25.157 7.97144 25.5024 8.31682 25.5024 8.74287V11.6429C25.5024 12.069 25.157 12.4143 24.731 12.4143C24.305 12.4143 23.9596 12.069 23.9596 11.6429V9.5143H21.831C21.405 9.5143 21.0596 9.16891 21.0596 8.74287Z" fill="black"/>
</svg>