<svg xmlns="http://www.w3.org/2000/svg" fill="none" viewBox="11 10 498.89 500">
<path d="M40.3602 507.225L34.0791 504.157C26.9217 500.651 18.3035 491.887 14.7978 484.584C12.3146 479.179 12.3146 479.179 12.0225 419.144V418.852L13.7753 357.502L12.0225 272.343V272.051C12.3146 210.993 12.3146 210.993 14.7978 205.735C19.7642 194.925 32.4724 184.847 43.7198 183.094H44.158L44.7423 41.4052L47.6637 35.1241C52.7762 24.0228 58.9112 18.0339 69.5743 13.5057L75.7093 11.0225H216.083C356.457 11.0225 356.457 11.0225 362.446 13.3596C369.896 16.1349 377.491 22.1238 381.873 28.8431C386.694 36.5848 388.447 44.6187 388.447 58.6415V65.945H397.503C412.987 66.0911 424.234 68.2822 437.819 73.8329C471.123 87.2714 496.393 115.901 505.449 150.374C508.663 162.498 509.685 185.577 507.786 197.847C500.483 244.297 464.549 281.691 418.537 290.894L412.84 292.063L411.964 479.325L409.481 484.73C405.975 492.033 397.357 500.798 390.2 504.303L384.065 507.371H40.3602V507.225ZM144.655 205.443C136.767 205.443 128.003 205.443 118.216 205.443C50.7312 205.735 48.1019 205.735 45.3266 207.341C41.5287 209.386 38.4613 212.454 36.4163 216.398C35.1016 218.735 35.1016 227.791 34.6634 275.849V415.492V416.077C35.1016 467.347 35.1016 471.583 36.7084 474.359C38.7534 478.157 41.8209 481.224 45.7648 483.269C48.248 484.584 74.2486 484.584 212.285 484.584C350.322 484.584 376.323 484.584 378.806 483.269C382.75 481.224 385.963 478.157 387.862 474.359L389.469 471.437L390.053 292.939H389.177C384.503 292.939 372.963 291.186 366.974 289.725C365.806 291.478 363.469 295.276 362.154 297.613L357.188 306.377L357.772 307.254C360.401 311.782 361.716 319.67 360.693 325.074C359.379 332.524 298.905 434.627 294.669 439.156C286.928 447.774 274.658 453.032 262.388 453.032C260.051 453.032 257.859 452.886 255.668 452.448C241.353 449.965 229.522 441.201 223.241 428.346C220.173 422.358 219.589 419.582 219.297 411.402C219.005 404.099 219.297 400.155 220.757 396.065C223.241 388.177 281.523 287.534 286.343 282.714C290.725 278.332 296.568 275.995 303.287 275.995C303.434 275.995 303.726 275.995 303.872 275.995C304.748 274.972 306.939 271.32 308.984 267.815C310.153 265.916 311.029 264.163 311.906 262.702C305.186 262.556 293.209 262.41 278.017 262.41C231.567 262.41 230.69 262.41 221.05 254.23C213.6 248.387 210.971 241.96 207.173 227.207C204.836 218.443 203.229 213.184 202.791 212.308C201.33 209.679 197.24 206.903 193.15 206.027C191.835 205.881 184.824 205.443 144.655 205.443ZM302.703 299.804C302.557 299.95 302.265 300.242 301.973 300.535C299.197 304.332 246.028 396.941 243.983 401.469C242.084 405.705 242.084 413.301 243.983 417.245C247.342 424.549 254.5 429.223 262.534 429.223C267.646 429.223 272.32 427.324 275.826 423.818C279.186 420.605 295.107 393.289 308.546 369.918C324.322 342.603 334.4 324.344 336.884 319.378C334.547 317.187 325.344 311.782 318.917 308.13C311.029 303.748 304.894 300.681 302.703 299.804ZM331.625 288.265C334.108 289.725 336.299 290.894 337.906 291.624C339.659 288.849 342.142 284.321 343.749 281.253C342.288 280.377 340.243 279.208 337.468 277.601L332.355 274.534L326.221 285.051L331.625 288.265ZM313.074 141.025C312.782 142.194 312.344 143.801 311.76 145.992C309.568 153.295 305.04 168.633 305.04 178.273C305.186 194.195 307.085 203.982 312.636 215.96C323.445 240.061 344.772 258.466 370.918 266.5C378.222 268.691 379.682 268.837 394.728 268.837C412.987 268.837 418.975 267.669 432.56 261.388C443.077 256.421 450.673 251.163 458.707 242.983C469.954 231.589 477.988 217.859 482.516 202.229C484.269 195.948 484.561 193.173 484.561 179.588C484.561 167.756 484.269 162.644 483.1 158.554C472.437 120.137 442.201 93.6985 404.222 89.4624C401.301 89.1703 398.379 89.0242 395.312 89.0242C363.323 89.0242 330.749 108.159 316.288 135.475C315.119 137.958 314.097 139.711 313.074 141.025ZM298.467 239.915C293.793 232.32 288.096 219.319 285.613 210.555C282.399 199.454 280.5 182.363 281.523 171.7C281.523 171.262 285.759 138.396 292.624 130.362C295.984 121.014 307.523 104.946 318.041 95.3053C330.164 84.35 345.794 75.2936 360.839 70.6193L364.637 69.4507L364.929 59.5179C365.075 47.6862 365.075 47.6862 362.884 43.4502C360.255 38.3377 356.165 35.2702 350.468 34.2477C346.816 33.8095 291.894 33.5173 220.027 33.5173C143.924 33.5173 85.7882 33.9556 81.8443 34.3938C77.17 35.2702 73.2261 38.1916 70.5968 42.5737L68.5518 46.2255L68.2597 115.901L68.1136 182.509L202.937 183.094L207.903 185.723C214.623 189.229 220.611 195.218 223.679 201.207C225.286 204.128 227.769 212.308 229.23 218.297C232.881 232.466 234.634 235.241 238.724 237.578L242.084 239.477L298.467 239.915Z" fill="black"/>
<path d="M71.3265 17.3039C61.8319 21.2478 56.2812 26.5064 51.6069 36.8774L48.9777 42.282L48.6855 114.441L48.3934 186.6L44.4495 187.184C34.6627 188.791 23.1231 197.847 18.5949 207.488C16.55 212.016 16.55 212.6 16.2578 272.343L18.0107 357.503H30.4267V275.703C30.8649 221.365 31.011 217.567 32.7638 214.353C35.247 209.679 38.8988 206.027 43.427 203.544C47.2248 201.499 47.5169 201.499 118.361 201.207C166.126 201.061 190.958 201.353 194.172 201.937C199.577 203.106 204.543 206.465 206.588 210.263C207.318 211.724 209.509 218.881 211.408 226.039C215.206 240.938 217.689 246.051 223.97 250.871C232.589 258.028 232.881 258.028 278.309 258.028C300.657 258.028 318.916 258.321 318.916 258.759C318.916 259.051 316.287 264.017 312.927 269.714C307.231 279.793 306.939 280.085 303.725 280.085C298.028 280.085 293.354 281.838 289.556 285.636C285.174 289.872 227.33 389.784 224.993 397.234C223.824 400.886 223.532 404.537 223.824 411.111C224.116 418.706 224.555 420.897 227.33 426.448C233.027 438.134 243.69 446.168 256.69 448.359C269.106 450.55 283.567 445.437 291.747 436.381C297.152 430.392 355.872 329.165 356.749 324.345C357.625 319.816 356.456 312.951 354.411 309.299L352.659 306.378L358.794 295.569C364.198 286.22 365.221 284.905 366.974 285.49C371.94 286.95 384.648 288.849 389.322 288.849H394.435L394.143 380.582L393.851 472.46L391.806 476.258C389.468 480.786 385.671 484.438 380.996 486.921C377.783 488.674 371.794 488.674 212.577 488.674C53.3598 488.674 47.3709 488.528 44.1573 486.921C39.4831 484.438 35.8313 480.786 33.3481 476.258C31.3031 472.606 31.3031 471.584 30.7188 415.347V357.503H18.3028L16.55 418.852C16.8421 477.573 16.8421 478.157 18.8871 482.831C21.8085 489.112 29.8424 497.292 36.2695 500.36L41.6741 502.989H212.431H383.187L388.592 500.36C395.019 497.292 403.053 489.112 405.974 482.831L408.019 478.303L408.458 383.503L408.896 288.703L417.806 286.95C461.92 278.04 496.684 241.669 503.842 197.263C505.741 185.577 504.572 162.79 501.651 151.397C493.033 118.239 468.493 90.4853 436.503 77.6311C423.503 72.2265 412.548 70.1815 397.794 70.0354L384.648 69.8894V58.4959C384.648 45.0574 383.041 37.7538 378.805 30.8885C375.007 25.0457 368.142 19.495 361.277 17.0118C356.018 14.9668 355.288 14.9668 216.375 14.9668H76.8772L71.3265 17.3039ZM351.052 30.3042C358.063 31.6189 363.176 35.4167 366.389 41.6977C369.019 46.8102 369.019 47.2484 368.872 59.6644L368.58 72.5186L361.861 74.5636C347.4 79.0918 332.355 87.71 320.669 98.3732C308.837 109.182 295.545 128.61 295.545 135.329C295.545 139.857 298.466 142.925 302.849 142.925C306.646 142.925 308.691 141.172 312.635 133.722C329.579 101.879 368.58 81.429 404.66 85.5189C444.537 89.9011 475.942 117.362 487.044 157.532C488.212 162.06 488.65 167.319 488.65 179.735C488.65 193.903 488.358 196.971 486.459 203.544C481.639 220.05 473.313 234.219 461.627 246.051C453.155 254.523 445.267 260.073 434.312 265.186C420.289 271.613 413.862 273.074 394.873 273.074C379.39 273.074 377.491 272.928 369.749 270.444C342.58 262.118 320.231 242.837 308.837 217.713C303.141 205.151 300.95 194.78 300.95 178.274C300.804 164.105 309.714 140.295 309.13 139.857C306.062 137.374 298.759 129.778 296.129 132.554C291.455 135.329 286.196 166.004 285.466 171.993C284.59 181.78 286.343 198.578 289.41 209.241C292.039 218.735 298.612 232.904 303.141 239.624L306.208 244.006L273.342 243.714L240.622 243.421L236.386 241.084C230.69 237.871 228.645 233.781 224.993 219.174C223.386 212.747 221.049 205.297 219.734 202.96C217.105 197.847 211.7 192.443 205.712 189.375L201.622 187.184L132.676 186.892L63.7308 186.6L63.8769 115.756L64.169 44.9113L66.7983 40.3831C70.0118 34.9785 74.9782 31.4728 80.9671 30.3042C87.1021 29.1357 344.625 29.1357 351.052 30.3042ZM349.153 279.355C349.883 279.355 340.243 296.445 339.22 296.883C338.928 297.029 334.546 294.838 329.579 291.917L320.669 286.804L325.782 277.894L330.894 268.984L339.512 274.096C344.479 277.018 348.715 279.355 349.153 279.355ZM321.107 304.771C338.49 314.85 341.411 317.041 341.411 319.67C341.411 320.693 328.265 344.356 312.051 372.256C291.163 408.481 281.668 424.111 278.601 427.032C266.915 438.426 246.903 434.482 240.038 419.144C237.701 414.032 237.701 405.122 240.038 399.863C242.083 395.481 295.545 302.288 298.466 298.198C299.635 296.737 301.242 295.569 302.556 295.569C304.017 295.569 312.197 299.659 321.107 304.771Z" fill="black"/>
<path d="M380.851 508.247H43.4277L42.8434 509.562L33.787 505.034C30.2813 503.281 26.1914 500.359 22.3935 496.415C18.5957 492.618 15.6743 488.528 14.0675 485.022V484.876C13.4832 483.561 12.8989 482.247 12.4607 480.056C12.1686 478.157 11.8764 475.527 11.7304 471.291C11.4382 463.111 11.2921 448.504 11.1461 419.144V418.706L12.8989 357.502L11 272.489V272.051C11.1461 242.252 11.1461 227.207 11.5843 219.027C11.7304 214.791 12.0225 212.162 12.3146 210.263C12.3146 209.971 12.4607 209.533 12.4607 209.24L12.1686 209.094L13.9214 205.297L15.6743 201.499L15.9664 201.645C18.5957 197.555 22.1014 193.465 26.4835 190.105C31.8881 185.869 37.877 182.948 43.4277 182.071L44.012 44.3266L42.6973 43.7423L47.0795 34.5399C49.7087 28.6971 52.6302 24.461 56.2819 20.9553C58.9112 18.326 62.1247 16.135 65.7765 14.2361V14.09L75.8554 10H220.465C287.22 10 320.962 10 338.929 10.2921C357.334 10.5843 359.525 11.0225 363.03 12.3371C370.626 15.1125 378.368 21.2474 382.896 27.9667L383.042 28.1128L383.188 28.4049L385.379 31.7645L385.087 31.9106C388.009 37.8995 389.469 44.6188 389.761 54.5516V65.0687L401.885 65.2147C415.324 65.6529 425.987 67.9901 438.403 73.1026C471.999 86.6871 497.415 115.463 506.618 150.374C508.079 156.217 509.247 164.835 509.685 174.183C510.124 183.532 509.831 192.442 508.955 198.285C501.505 245.174 465.28 282.86 418.975 292.209L414.155 293.231L413.279 479.763L412.841 480.786L410.649 485.606C408.897 489.112 405.975 493.202 402.323 496.854C398.526 500.651 394.436 503.719 390.93 505.472L387.57 507.225V508.685H384.649L382.02 510L380.851 508.247ZM381.727 497.876L382.312 497.584L386.11 495.831C388.593 494.663 391.66 492.325 394.582 489.258C397.503 486.337 399.84 483.269 401.009 480.64L402.616 477.134L403.638 284.321L411.818 282.714L416.784 281.692C458.707 273.219 491.427 239.331 498.584 197.117L498.73 196.24C499.607 190.982 499.753 182.948 499.46 174.33C499.022 165.711 498 157.677 496.685 152.565C488.359 120.868 465.134 94.5749 434.605 82.305L434.167 82.1589C421.897 77.1925 411.672 75.2936 397.795 75.1475L379.536 75.0015V58.4955C379.536 46.2255 378.222 39.7984 374.424 33.6635C371.21 28.6971 365.221 24.0228 359.525 21.9778C357.626 21.2475 356.311 20.8092 338.929 20.5171C320.816 20.225 285.905 20.2249 216.521 20.2249H78.0464L73.6643 21.9778C69.4283 23.7307 66.2147 25.7756 63.7315 28.2588C61.1023 30.8881 58.9112 34.1017 56.7201 38.7759L54.9673 42.7198L54.6751 43.4502L54.0909 182.51V190.836V191.128L45.7648 192.296C41.967 192.881 37.4388 195.072 33.2027 198.431C28.9667 201.645 25.6071 205.881 23.8542 209.679C23.416 210.701 23.2699 211.139 22.9778 212.162C22.6857 213.623 22.5396 215.96 22.3935 219.465C22.1014 227.499 21.9553 242.398 21.9553 272.197V272.489L23.5621 352.974H25.7531V279.939V275.849V271.759C25.8992 247.949 26.0453 233.78 26.3374 225.892C26.6296 217.713 27.0678 214.791 28.5285 212.162C31.4499 206.611 35.832 202.083 41.2366 199.308C42.5513 198.577 43.7198 197.993 46.057 197.555C48.102 197.263 51.0234 196.971 55.8437 196.824C64.9001 196.532 81.6982 196.386 114.418 196.386H122.744C130.924 196.386 138.228 196.386 145.093 196.386C156.34 196.386 165.835 196.386 173.431 196.532C179.712 196.532 184.678 196.678 188.184 196.824C189.498 196.824 190.521 196.971 191.397 196.971L191.543 196.532L195.633 197.409L199.723 198.285V198.577C204.982 200.622 209.364 204.274 211.701 208.364C211.993 208.948 212.432 209.825 212.87 211.139C213.162 212.162 213.6 213.476 214.038 214.937C214.623 216.836 215.207 218.881 215.791 221.218H215.937L216.814 225.308L217.69 228.814C219.151 234.219 220.465 237.724 221.78 240.5C223.241 243.421 224.848 245.32 227.477 247.511C229.668 249.264 230.982 250.286 232.297 251.163C233.758 251.893 235.511 252.331 238.286 252.769C244.859 253.646 256.107 253.646 278.602 253.646C289.557 253.646 299.782 253.646 307.377 253.792C311.175 253.792 314.097 253.938 316.142 253.938C317.31 253.938 318.187 254.084 318.771 254.084C319.209 254.084 319.501 254.23 319.793 254.23C319.94 254.23 320.378 254.376 320.67 254.522C320.962 254.668 321.4 254.814 321.985 255.107C323.445 256.129 324.322 257.736 324.322 259.489C324.322 260.073 324.176 260.657 324.176 260.949C324.176 261.096 324.03 261.242 324.03 261.388C324.03 261.534 323.883 261.68 323.883 261.826C323.737 262.118 323.591 262.41 323.445 262.848C323.153 263.433 322.715 264.309 322.131 265.332C320.962 267.523 319.355 270.298 317.748 272.927C314.681 278.332 313.074 280.961 311.613 282.714C310.591 283.883 309.422 284.613 308.254 285.197V285.781H303.141C299.928 285.781 297.152 286.512 294.815 288.119L292.624 289.871C292.478 290.018 292.186 290.31 291.894 291.04C291.31 291.916 290.433 293.231 289.411 294.692C287.512 297.759 284.883 301.849 281.815 307.108C275.972 316.895 268.377 329.749 260.489 343.479C252.455 357.21 245.005 370.356 239.455 380.435C236.387 385.84 234.05 390.222 232.297 393.582C231.421 395.188 230.69 396.649 230.106 397.818C229.522 398.986 229.376 399.424 229.376 399.571V399.717C228.645 401.908 228.353 404.099 228.353 407.604H228.499V411.841L228.645 413.593C228.791 416.223 228.937 417.829 229.23 419.144C229.522 420.751 230.252 422.212 231.567 424.841V424.987C236.533 435.066 245.882 442.077 257.129 443.976C258.736 444.268 260.489 444.414 262.242 444.414C271.59 444.414 281.523 440.324 287.366 433.751L287.512 433.459C287.512 433.313 288.388 432.436 291.31 427.762C293.355 424.549 295.984 420.167 299.197 414.908C305.332 404.829 313.074 391.683 320.962 377.806C328.85 363.929 336.446 350.929 341.996 340.996C344.918 335.738 347.255 331.502 348.862 328.288C349.738 326.681 350.322 325.513 350.76 324.49C350.907 324.052 351.053 323.76 351.199 323.468C351.491 322.007 351.345 319.816 351.053 317.625C350.76 315.434 350.03 313.389 349.446 312.22L347.401 308.715L345.648 307.692L347.693 304.04L349.738 300.389L353.828 293.231C356.603 288.265 358.356 285.489 359.671 283.736C360.401 282.86 361.424 281.692 363.176 280.961C364.053 280.523 364.929 280.377 365.806 280.377C366.536 280.377 367.266 280.523 367.997 280.669C370.042 281.253 374.132 281.984 378.514 282.714C382.896 283.298 386.986 283.736 388.739 283.736H398.964V288.849L398.38 473.774L395.604 478.741C393.413 482.831 390.2 486.483 386.256 489.258L386.402 489.55L382.75 491.449L379.098 493.348L378.66 492.618C377.784 492.764 376.615 492.91 375.3 492.91C371.502 493.202 365.075 493.348 354.558 493.494C333.378 493.786 293.939 493.786 215.937 493.786H207.611C129.609 493.786 90.1703 493.786 68.9901 493.494C58.473 493.348 52.0459 493.202 48.248 492.91C44.4502 492.618 42.6973 492.179 40.9445 491.303C35.3938 488.382 30.8656 483.853 27.9442 478.595C27.3599 477.426 26.6296 476.258 26.1914 474.067C25.7531 472.168 25.6071 469.685 25.461 465.741C25.1689 458.291 25.0228 445.145 24.8767 419.582V415.492V411.402V362.323H22.6857L21.0789 419.144V419.29C21.225 448.504 21.2249 463.111 21.5171 471.145C21.6632 474.651 21.8092 476.988 22.1014 478.449C22.2474 479.471 22.5396 479.909 22.9778 480.932C24.1464 483.415 26.4835 486.483 29.4049 489.404C32.3263 492.325 35.3938 494.663 37.877 495.977L42.2591 498.168H381.727V497.876ZM38.0231 474.943C39.922 478.011 42.6973 480.494 46.057 482.393C46.203 482.393 46.7873 482.685 49.2705 482.831C52.7762 483.123 58.9112 483.269 69.4283 483.415C91.0467 483.707 131.362 483.707 212.139 483.707C292.77 483.707 333.232 483.707 354.85 483.415C365.221 483.269 371.503 483.123 375.008 482.831C377.637 482.685 378.222 482.393 378.222 482.393C381.874 480.494 384.649 477.718 386.548 474.505L386.84 474.067L388.447 470.561L389.031 294.108C385.525 294.108 379.682 293.231 377.345 292.939C374.424 292.501 371.649 292.063 369.311 291.478L369.165 291.77L367.266 291.186C366.244 292.647 364.929 294.984 363.03 298.197L360.839 301.849L358.794 305.501L360.547 306.524L358.794 307.546C359.963 309.737 360.839 312.658 361.424 315.872C362.008 319.378 362.008 322.737 361.424 325.513C361.278 326.097 361.131 326.681 360.839 327.266C360.693 327.704 360.401 328.142 360.109 328.726C359.671 329.749 358.94 331.209 358.064 332.816C356.457 336.03 354.12 340.266 351.053 345.67C345.502 355.603 338.052 368.75 330.018 382.626C321.985 396.503 314.243 409.649 308.108 419.874C304.748 425.425 302.119 429.807 300.074 433.021C297.006 437.987 295.838 439.302 295.254 440.032C287.366 448.796 274.804 454.201 262.242 454.201C259.904 454.201 257.567 454.055 255.376 453.617C240.769 451.134 228.645 442.223 222.218 428.931C220.758 426.009 219.735 423.672 219.151 421.043C218.566 418.414 218.274 415.638 218.128 411.694C217.836 404.245 218.128 400.301 219.589 395.919C219.735 395.188 220.173 394.312 220.904 392.851C221.488 391.683 222.218 390.076 223.241 388.323C224.994 384.964 227.477 380.435 230.544 375.031C236.241 364.952 243.691 351.659 251.725 337.929C259.612 324.198 267.354 311.198 273.197 301.411C276.41 296.153 279.04 291.916 280.939 288.849C281.961 287.242 282.838 285.928 283.568 284.905C284.444 283.59 285.029 282.86 285.613 282.276C289.411 278.624 293.939 276.287 299.197 275.557V275.264H303.434C304.018 274.388 304.894 273.073 306.063 271.174L308.108 267.669L310.007 263.871C308.984 263.871 307.816 263.871 306.647 263.871C299.051 263.725 288.973 263.725 278.017 263.725H277.871C255.084 263.725 243.545 263.725 236.387 262.848C232.443 262.41 229.668 261.534 227.039 260.219C224.555 258.904 222.51 257.298 220.465 255.399C216.668 252.331 214.184 249.264 211.993 245.028C210.094 241.084 208.342 236.117 206.297 227.791C205.42 224.14 204.398 220.634 203.521 217.859C203.083 216.544 202.791 215.229 202.353 214.353C202.06 213.33 201.914 213.038 201.914 213.038C200.892 210.993 197.386 208.218 193.004 207.342C193.004 207.342 191.982 207.195 187.453 207.049C183.948 206.903 179.127 206.903 172.846 206.757C165.397 206.611 155.902 206.611 144.655 206.611C136.767 206.611 128.003 206.611 118.216 206.611H118.07C82.8668 206.757 65.1922 206.757 55.8437 207.049C51.7537 207.195 49.1245 207.342 47.6637 207.634C46.7873 207.78 46.6413 207.926 45.9109 208.218L45.3266 208.51C42.1131 210.409 39.3377 213.184 37.4388 216.69L37.2927 216.836C37.0006 217.42 36.5624 218.735 36.2702 226.039C35.9781 234.219 35.832 249.556 35.5399 275.703V415.346V416.369C35.832 443.976 35.832 457.707 36.2702 465.302C36.4163 468.662 36.5624 470.853 36.8545 472.022C37.0006 472.606 37.1467 472.898 37.2927 473.336L38.0231 474.943ZM310.007 263.871C310.007 263.871 310.153 263.871 310.007 263.871C310.007 263.725 310.007 263.725 310.007 263.871ZM262.534 438.718C250.848 438.718 240.331 431.852 235.511 421.189C234.05 418.122 233.32 414.032 233.32 409.503C233.32 405.121 234.05 400.885 235.511 397.818C235.803 397.233 236.387 395.919 245.297 380.143C250.556 370.941 257.421 358.963 264.579 346.401C271.882 333.693 278.748 321.715 284.152 312.658C293.355 296.883 294.231 295.714 294.523 295.276L294.669 295.13C295.546 293.815 296.714 292.793 298.029 292.063C299.636 291.04 301.242 290.602 302.849 290.602C303.872 290.602 304.602 290.894 305.332 291.04C305.771 291.186 306.355 291.478 307.085 291.77C308.254 292.209 309.715 292.939 311.467 293.815C314.973 295.568 319.063 297.759 323.445 300.242L327.389 302.434C333.816 306.231 338.198 308.861 340.974 310.906C343.895 313.097 346.67 315.726 346.67 319.816C346.67 320.4 346.524 321.131 346.378 321.715C346.378 321.861 346.232 322.153 346.086 322.299C345.94 322.591 345.794 323.03 345.502 323.468C345.064 324.344 344.479 325.513 343.749 326.827C342.288 329.603 340.097 333.401 337.468 338.367C331.771 348.446 324.468 361.446 316.726 374.885C305.917 393.582 298.467 406.29 293.209 414.908C290.433 419.436 288.388 422.796 286.635 425.279C284.737 428.054 283.422 429.807 282.399 430.83C276.995 435.796 269.983 438.718 262.534 438.718ZM245.151 417.683C248.365 424.257 255.084 428.346 262.388 428.346C267.208 428.346 271.59 426.594 274.95 423.234L275.096 423.088C275.388 422.796 276.118 421.919 277.871 419.29C279.478 416.953 281.523 413.593 284.152 409.357C289.411 400.739 296.86 388.031 307.524 369.626C315.265 356.188 322.569 343.333 328.12 333.254C330.749 328.58 332.94 324.636 334.401 321.861C334.839 321.131 335.131 320.4 335.423 319.816C335.131 319.67 334.839 319.378 334.547 319.086C331.625 317.041 326.221 313.681 318.333 309.153C314.097 306.816 309.861 304.479 306.647 302.872C305.04 302.141 303.726 301.411 302.849 301.119C302.849 301.119 302.849 301.119 302.703 301.265C302.411 301.703 300.804 304.332 292.916 317.917C287.658 326.973 280.647 338.951 273.489 351.659C266.186 364.221 259.466 376.199 254.208 385.402C246.028 399.863 245.005 401.908 244.859 402.2C244.129 403.953 243.545 406.874 243.545 409.795C243.545 412.717 243.983 415.346 244.713 417.099L245.151 417.683ZM339.075 301.995H338.783C338.491 301.995 338.198 301.995 338.052 301.849C337.76 301.703 337.468 301.703 337.176 301.557C336.884 301.411 336.592 301.265 336.153 301.119C335.569 300.827 334.693 300.389 333.816 299.95C331.771 298.928 329.434 297.613 326.951 296.299L317.164 290.748L313.512 288.703L328.996 261.972L342.142 269.86C344.479 271.174 346.67 272.489 348.423 273.365C349.154 273.804 349.884 274.096 350.322 274.388C350.322 274.388 350.468 274.388 350.468 274.534C351.491 274.826 352.367 275.41 352.952 276.141C353.682 276.871 353.974 277.894 354.12 278.916C354.266 279.793 354.12 280.523 353.974 280.815C353.828 281.399 353.682 281.838 353.536 282.276C353.244 282.86 352.952 283.59 352.513 284.613C351.637 286.22 350.468 288.411 349.154 290.748C347.839 293.085 346.524 295.276 345.502 296.883C344.918 297.759 344.333 298.636 344.041 299.22C343.749 299.658 343.457 299.95 343.311 300.242C343.165 300.389 342.873 300.681 342.727 300.827C342.142 301.265 341.558 301.703 340.974 301.849C340.389 301.995 339.805 302.141 339.221 302.141H339.075V301.995ZM332.209 287.388C334.401 288.703 336.299 289.725 337.468 290.31C338.344 288.849 339.367 287.242 340.389 285.343C341.12 284.029 341.85 282.86 342.434 281.692C341.85 281.399 341.266 280.961 340.536 280.669L337.322 278.77L332.94 277.309L333.378 276.433L332.794 275.995L327.681 284.759L332.209 287.388ZM390.638 278.186C385.087 278.186 381.727 278.04 378.806 277.748C376.323 277.455 374.424 277.163 372.087 276.579L364.199 274.096V273.95C337.322 264.455 315.557 244.882 304.018 219.758C298.029 206.611 295.692 195.364 295.692 178.273C295.692 171.992 297.153 163.666 300.074 152.565C300.512 150.958 300.95 149.351 301.389 148.037C299.344 147.891 297.299 147.16 295.692 146.138C295.254 148.037 294.669 150.082 294.231 152.419C292.332 161.037 290.871 170.094 290.579 172.869C289.849 182.071 291.456 198.139 294.377 207.926V208.218C296.86 216.982 302.995 230.713 307.377 236.994L316.142 249.556L242.522 248.972L241.792 250.286L234.488 246.342L233.758 245.904C229.814 243.713 227.331 241.084 225.286 237.14C223.241 233.196 221.634 227.791 219.881 220.926V220.78C219.151 217.713 218.128 214.499 217.252 211.431C216.229 208.218 215.499 206.319 215.061 205.589V205.443C213.016 201.353 208.488 196.971 203.521 194.341L200.162 192.588L58.473 192.004L58.619 116.047L58.9112 43.8884L60.2258 41.6974L62.2708 38.3377L64.1697 34.3938L64.754 34.686C68.5519 29.8656 73.9565 26.6521 79.9454 25.4835C80.3836 25.3374 80.9679 25.3374 81.9904 25.3374C82.7207 25.3374 83.5971 25.1914 84.7657 25.1914C86.9568 25.1914 90.1703 25.0453 93.9682 25.0453C101.418 24.8992 111.789 24.8992 124.789 24.7531C149.183 24.6071 181.465 24.461 215.791 24.461H220.027C252.601 24.461 283.422 24.461 306.939 24.6071C320.086 24.7531 330.457 24.7531 337.76 24.8992C341.558 24.8992 344.772 25.0453 346.963 25.0453C348.131 25.0453 349.008 25.0453 349.738 25.1914C350.76 25.1914 351.199 25.3374 351.637 25.3374H351.783C360.401 26.9442 366.682 31.7645 370.626 39.3602C372.087 42.1356 373.109 44.1805 373.401 47.248C373.694 50.0234 373.694 53.383 373.548 59.8101V63.9001L373.255 76.9004H371.941L366.974 78.5072L362.592 79.8218C349.008 84.2039 334.839 92.3839 323.737 102.317C318.479 107.137 312.344 114.294 307.524 121.452C305.771 124.081 304.164 126.564 302.995 128.902C303.58 129.34 304.31 129.778 305.04 130.216C305.771 130.8 306.647 131.385 307.231 131.969C307.377 131.823 307.816 130.947 307.816 130.947C324.322 100.418 359.233 79.8218 395.02 79.8218C398.38 79.8218 401.739 79.9679 404.953 80.4061C446.729 85.0804 480.033 114.002 491.719 156.217C493.033 161.183 493.472 166.734 493.472 179.734C493.472 194.195 493.179 197.847 491.134 205.004C486.168 222.241 477.404 237.286 464.988 249.702C457.1 257.59 449.504 263.141 439.864 268.107L440.302 268.983L435.774 270.152L432.414 271.759C427.155 274.096 422.481 275.703 417.223 276.725C411.672 277.894 405.683 278.186 398.672 278.332H390.638V278.186ZM394.874 267.961C404.807 267.961 410.503 267.523 415.47 266.646C420.29 265.624 424.818 264.017 432.122 260.657C442.493 255.837 449.942 250.578 457.976 242.545C469.078 231.297 477.112 217.713 481.64 202.229C483.247 196.386 483.685 194.049 483.685 179.88C483.685 168.048 483.393 163.082 482.224 159.138C471.707 121.16 441.763 95.0132 404.222 90.9232L403.492 90.7771C400.863 90.485 398.087 90.3389 395.458 90.3389C363.907 90.3389 331.771 109.182 317.31 136.351C316.142 138.542 315.119 140.295 314.243 141.61C314.243 141.902 314.097 142.34 313.951 142.632C313.805 143.363 313.366 144.531 313.074 145.7L312.928 146.284C312.198 148.767 311.175 151.835 310.299 155.486C307.524 165.565 306.209 173.307 306.209 178.42C306.355 194.049 308.254 203.69 313.512 215.375L313.951 216.252C324.76 239.769 345.648 257.736 371.356 265.624C375.154 266.792 377.199 267.377 379.975 267.669C382.896 267.815 386.986 267.961 394.874 267.961ZM296.568 238.893C292.04 231.005 286.782 219.173 284.444 210.847C281.523 200.914 279.77 186.307 280.062 175.644H279.77L280.208 171.554L280.647 167.464H280.793C281.523 163.082 282.692 156.509 284.152 150.082C285.321 144.969 286.489 140.733 287.512 137.52C288.242 135.475 288.973 133.868 289.557 132.553C290.141 131.385 290.725 130.508 291.456 129.778C291.894 128.609 292.332 127.441 293.063 126.126C294.523 123.059 296.714 119.407 299.344 115.609C303.872 109.036 309.13 102.609 314.097 97.4964L313.951 97.3503L316.58 94.8671L319.209 90.7771L320.086 91.7996C331.917 82.0129 346.232 73.979 360.109 69.5968L363.176 68.5744L363.323 59.3719C363.469 53.5291 363.469 50.3155 363.176 48.4166C363.03 47.3941 362.884 46.6638 362.3 45.4952L361.278 43.4502C358.794 38.922 355.143 36.2927 349.884 35.2702C349.738 35.2702 349.446 35.2702 349.154 35.2702C348.569 35.2702 347.693 35.2702 346.524 35.1242C344.333 35.1242 341.266 34.9781 337.468 34.9781C330.018 34.832 319.647 34.832 306.647 34.686C283.276 34.5399 252.309 34.5399 219.443 34.5399H215.645C181.318 34.5399 148.891 34.6859 124.643 34.832C111.789 34.9781 101.418 34.9781 93.9682 35.1242C90.1703 35.1242 87.1028 35.2702 84.9118 35.2702C83.8893 35.2702 83.0129 35.2702 82.2825 35.4163C81.9904 35.4163 81.6982 35.4163 81.5522 35.4163C77.17 36.2927 73.3722 39.0681 71.0351 43.012L69.1361 46.3716L68.844 115.755L68.6979 181.341L202.645 181.925L207.903 184.701C214.769 188.352 221.05 194.341 224.117 200.622C224.994 202.375 226.162 205.589 226.893 207.926C227.915 211.139 228.937 214.645 229.814 217.859C231.713 225.162 233.027 229.252 234.342 231.881C235.511 234.072 236.533 235.241 238.724 236.41L241.792 238.162L273.197 238.455L296.568 238.893Z" fill="black"/>
<mask id="mask0_5411_43638" style="mask-type:alpha" maskUnits="userSpaceOnUse" x="14" y="13" width="492" height="492">
<path d="M505.595 13.7988H14.7979V504.596H505.595V13.7988Z" fill="white"/>
<path d="M71.3275 17.3039C61.8329 21.2478 56.2822 26.5064 51.6079 36.8774L48.9786 42.282L48.6865 114.441L48.3943 186.6L44.4504 187.184C34.6637 188.791 23.1241 197.847 18.5959 207.488C16.5509 212.016 16.5509 212.6 16.2588 272.343L18.0116 357.503H30.4277V275.703C30.8659 221.365 31.0119 217.567 32.7648 214.353C35.248 209.679 38.8997 206.027 43.4279 203.544C47.2258 201.499 47.5179 201.499 118.362 201.207C166.127 201.061 190.959 201.353 194.173 201.937C199.578 203.106 204.544 206.465 206.589 210.263C207.319 211.724 209.51 218.881 211.409 226.039C215.207 240.938 217.69 246.051 223.971 250.871C232.59 258.028 232.882 258.028 278.31 258.028C300.658 258.028 318.917 258.321 318.917 258.759C318.917 259.051 316.288 264.017 312.928 269.714C307.232 279.793 306.939 280.085 303.726 280.085C298.029 280.085 293.355 281.838 289.557 285.636C285.175 289.872 227.331 389.784 224.994 397.234C223.825 400.886 223.533 404.537 223.825 411.111C224.117 418.706 224.556 420.897 227.331 426.448C233.028 438.134 243.691 446.168 256.691 448.359C269.107 450.55 283.568 445.437 291.748 436.381C297.153 430.392 355.873 329.165 356.75 324.345C357.626 319.816 356.457 312.951 354.412 309.299L352.66 306.378L358.795 295.569C364.199 286.22 365.222 284.905 366.975 285.49C371.941 286.95 384.649 288.849 389.323 288.849H394.436L394.144 380.582L393.852 472.46L391.807 476.258C389.469 480.786 385.672 484.438 380.997 486.921C377.784 488.674 371.795 488.674 212.578 488.674C53.3607 488.674 47.3718 488.528 44.1583 486.921C39.484 484.438 35.8323 480.786 33.3491 476.258C31.3041 472.606 31.3041 471.584 30.7198 415.347V357.503H18.3038L16.5509 418.852C16.8431 477.573 16.8431 478.157 18.8881 482.831C21.8095 489.112 29.8434 497.292 36.2705 500.36L41.6751 502.989H212.432H383.188L388.593 500.36C395.02 497.292 403.054 489.112 405.975 482.831L408.02 478.303L408.459 383.503L408.897 288.703L417.807 286.95C461.921 278.04 496.685 241.669 503.843 197.263C505.742 185.577 504.573 162.79 501.652 151.397C493.034 118.239 468.494 90.4853 436.504 77.6311C423.504 72.2265 412.549 70.1815 397.795 70.0354L384.649 69.8894V58.4959C384.649 45.0574 383.042 37.7538 378.806 30.8885C375.008 25.0457 368.143 19.495 361.278 17.0118C356.019 14.9668 355.289 14.9668 216.376 14.9668H76.8781L71.3275 17.3039ZM351.053 30.3042C358.064 31.6189 363.177 35.4167 366.39 41.6977C369.02 46.8102 369.02 47.2484 368.873 59.6644L368.581 72.5186L361.862 74.5636C347.401 79.0918 332.356 87.71 320.67 98.3732C308.838 109.182 295.546 128.61 295.546 135.329C295.546 139.857 298.467 142.925 302.849 142.925C306.647 142.925 308.692 141.172 312.636 133.722C329.58 101.879 368.581 81.429 404.661 85.5189C444.538 89.9011 475.943 117.362 487.045 157.532C488.213 162.06 488.651 167.319 488.651 179.735C488.651 193.903 488.359 196.971 486.46 203.544C481.64 220.05 473.314 234.219 461.628 246.051C453.156 254.523 445.268 260.073 434.313 265.186C420.29 271.613 413.863 273.074 394.874 273.074C379.391 273.074 377.492 272.928 369.75 270.444C342.581 262.118 320.232 242.837 308.838 217.713C303.142 205.151 300.951 194.78 300.951 178.274C300.805 164.105 309.715 140.295 309.131 139.857C306.063 137.374 298.76 129.778 296.13 132.554C291.456 135.329 286.197 166.004 285.467 171.993C284.591 181.78 286.344 198.578 289.411 209.241C292.04 218.735 298.613 232.904 303.142 239.624L306.209 244.006L273.343 243.714L240.623 243.421L236.387 241.084C230.691 237.871 228.646 233.781 224.994 219.174C223.387 212.747 221.05 205.297 219.735 202.96C217.106 197.847 211.701 192.443 205.713 189.375L201.623 187.184L132.677 186.892L63.7318 186.6L63.8778 115.756L64.17 44.9113L66.7993 40.3831C70.0128 34.9785 74.9792 31.4728 80.9681 30.3042C87.1031 29.1357 344.626 29.1357 351.053 30.3042ZM349.154 279.355C349.884 279.355 340.244 296.445 339.221 296.883C338.929 297.029 334.547 294.838 329.58 291.917L320.67 286.804L325.783 277.894L330.895 268.984L339.513 274.096C344.48 277.018 348.716 279.355 349.154 279.355ZM321.108 304.771C338.491 314.85 341.412 317.041 341.412 319.67C341.412 320.693 328.266 344.356 312.052 372.256C291.164 408.481 281.669 424.111 278.602 427.032C266.916 438.426 246.904 434.482 240.039 419.144C237.702 414.032 237.702 405.122 240.039 399.863C242.084 395.481 295.546 302.288 298.467 298.198C299.636 296.737 301.243 295.569 302.557 295.569C304.018 295.569 312.198 299.659 321.108 304.771Z" fill="black"/>
</mask>
<g mask="url(#mask0_5411_43638)">
<path d="M17.8652 357.064H30.2812V358.087H17.8652V357.064ZM71.3271 17.304L70.8888 16.4275L71.3271 17.304ZM51.4614 36.8774L52.3379 37.3156L51.4614 36.8774ZM48.9782 42.282H47.9558V41.9899L48.1018 41.8438L48.9782 42.282ZM48.6861 114.441H47.6636H48.6861ZM48.394 186.6H49.4165V187.476L48.54 187.622L48.394 186.6ZM44.4501 187.184L44.304 186.162L44.4501 187.184ZM18.5955 207.488L17.7191 207.05L18.5955 207.488ZM16.2584 272.343H15.2359H16.2584ZM17.8652 357.649H18.8877H17.8652ZM30.2812 275.849H29.2587H30.2812ZM32.6183 214.499L33.4948 214.938L32.6183 214.499ZM43.2815 203.69L43.7197 204.567L43.2815 203.69ZM118.07 201.353V200.331V201.353ZM193.88 202.083L194.026 201.061L193.88 202.083ZM206.296 210.409L205.42 210.848L206.296 210.409ZM211.117 226.331L212.139 226.039L211.117 226.331ZM223.533 251.163L224.117 250.433L223.533 251.163ZM312.49 270.006L311.613 269.568L312.49 270.006ZM289.118 285.782L289.849 286.512L289.118 285.782ZM224.555 397.526L225.578 397.818L224.555 397.526ZM223.241 411.403H224.263H223.241ZM226.746 426.74L227.623 426.302L226.746 426.74ZM256.106 448.505L256.253 447.482L256.106 448.505ZM291.31 436.527L290.579 435.797L291.31 436.527ZM356.311 324.345L355.289 324.199L356.311 324.345ZM353.828 309.445L354.704 308.861L353.828 309.445ZM352.221 306.524L351.345 307.108L351.052 306.524L351.345 305.94L352.221 306.524ZM358.356 295.715L359.232 296.153L358.356 295.715ZM366.536 285.49L366.244 286.512L366.536 285.49ZM393.997 288.849V287.827H395.02V288.849H393.997ZM393.705 380.728H392.683H393.705ZM393.413 472.606H394.435V472.899L394.289 473.191L393.413 472.606ZM391.222 476.404L390.346 475.966L391.222 476.404ZM380.559 486.921L380.997 487.798L380.559 486.921ZM43.7197 486.921L43.2815 487.798L43.7197 486.921ZM32.9105 476.404L33.7869 475.966L32.9105 476.404ZM30.2812 415.493H29.2587H30.2812ZM16.2584 418.998H15.2359H16.2584ZM18.5955 482.831L17.7191 483.269L18.5955 482.831ZM35.9779 500.36L36.4162 499.483L35.9779 500.36ZM41.3826 503.135V504.158H41.0904L40.9444 504.012L41.3826 503.135ZM382.896 503.135L383.334 504.012L383.188 504.158H382.896V503.135ZM388.154 500.36L387.716 499.483L388.154 500.36ZM405.537 482.831L406.413 483.269L405.537 482.831ZM407.728 478.303H408.75V478.595L408.604 478.741L407.728 478.303ZM408.604 288.557H407.582V287.681L408.458 287.535L408.604 288.557ZM417.661 286.804L417.515 285.782L417.661 286.804ZM503.55 197.117L502.528 196.971L503.55 197.117ZM501.359 151.251L502.382 150.959L501.359 151.251ZM436.212 77.6312L435.773 78.6537L436.212 77.6312ZM397.503 70.0355V71.058V70.0355ZM384.357 69.8894V70.9119H383.334V69.8894H384.357ZM378.368 30.8885L379.244 30.3043L378.368 30.8885ZM360.985 17.0118L360.693 18.0343L360.985 17.0118ZM76.5856 15.1129L76.1474 14.2365L76.2935 14.0904H76.4395V15.1129H76.5856ZM351.052 30.3043L351.199 29.2818L351.052 30.3043ZM366.39 41.6978L365.513 42.136L366.39 41.6978ZM368.873 59.6645H369.896H368.873ZM368.581 72.6648H369.603V73.3951L368.873 73.6872L368.581 72.6648ZM361.862 74.7097L362.154 75.7322L361.862 74.7097ZM320.67 98.5193L319.939 97.7889L320.67 98.5193ZM312.636 133.722L311.759 133.284L312.636 133.722ZM404.66 85.519L404.514 86.5415L404.66 85.519ZM487.19 157.532L488.213 157.24L487.19 157.532ZM486.606 203.544L487.629 203.836L486.606 203.544ZM461.628 246.051L462.358 246.781L461.628 246.051ZM434.313 265.186L434.751 266.062L434.313 265.186ZM369.75 270.444L369.457 271.467L369.75 270.444ZM308.838 217.713L309.714 217.275L308.838 217.713ZM300.95 178.274H301.973H300.95ZM309.13 139.857L308.546 140.588L309.13 139.857ZM296.13 132.7L296.86 133.43L296.714 133.576H296.568L296.13 132.7ZM285.467 172.139L284.444 171.993L285.467 172.139ZM289.411 209.387L290.433 209.095L289.411 209.387ZM303.141 239.77L302.265 240.354L303.141 239.77ZM306.209 244.152L307.085 243.567L308.254 245.174H306.209V244.152ZM273.489 243.86V244.882V243.86ZM240.769 243.567V244.59H240.477L240.185 244.444L240.769 243.567ZM236.387 241.23L235.949 242.107L236.387 241.23ZM224.993 219.32L223.971 219.612L224.993 219.32ZM219.735 203.106L218.858 203.544L219.735 203.106ZM205.712 189.521L205.274 190.398L205.712 189.521ZM201.622 187.33V186.308H201.914L202.206 186.454L201.622 187.33ZM132.677 187.038V188.061V187.038ZM63.7314 186.746V187.768H62.7089V186.746H63.7314ZM63.8775 115.902H62.855H63.8775ZM64.1696 45.0574H63.1471V44.7653L63.2932 44.4731L64.1696 45.0574ZM66.9449 40.5292L66.0685 39.9449L66.9449 40.5292ZM80.9677 30.4503L81.1138 31.4728L80.9677 30.4503ZM339.221 296.883L339.513 297.906L339.221 296.883ZM329.58 291.917L330.018 291.04L329.58 291.917ZM320.67 286.804L320.232 287.681L319.355 287.243L319.939 286.366L320.67 286.804ZM331.041 268.984L330.164 268.4L330.749 267.523L331.625 268.107L331.041 268.984ZM339.659 274.242L339.075 275.119L339.659 274.242ZM321.108 304.771L321.546 303.895L321.108 304.771ZM312.052 372.256L311.175 371.672L312.052 372.256ZM278.747 426.886L278.017 426.156L278.747 426.886ZM240.185 419.145L241.061 418.706L240.185 419.145ZM240.185 399.863L239.308 399.425L240.185 399.863ZM298.613 298.198L297.737 297.614L298.613 298.198ZM71.6192 18.1804C66.9449 20.0793 63.2932 22.4164 60.2257 25.3378C57.1582 28.2593 54.675 32.0571 52.3379 37.1696L50.439 36.2931C52.9222 31.0346 55.4053 27.0907 58.765 23.8771C61.9785 20.6636 65.9224 18.3265 70.7428 16.2815L71.6192 18.1804ZM52.4839 37.3156L49.8547 42.7203L47.9558 41.8438L50.585 36.4392L52.4839 37.3156ZM50.0007 42.282L49.7086 114.441H47.6636L47.9558 42.282H50.0007ZM49.7086 114.441L49.4165 186.6H47.3715L47.6636 114.441H49.7086ZM48.54 187.622L44.5961 188.207L44.304 186.162L48.2479 185.577L48.54 187.622ZM44.5961 188.207C39.9219 188.937 34.6633 191.566 30.1351 195.072C25.6069 198.724 21.663 203.252 19.472 207.926L17.573 207.05C19.9102 201.937 24.0001 197.263 28.8205 193.465C33.6408 189.667 39.0454 187.038 44.1579 186.162L44.5961 188.207ZM19.472 207.926C18.8877 209.095 18.5955 209.825 18.3034 211.286C18.0113 212.893 17.8652 215.084 17.7191 219.174C17.427 227.354 17.2809 242.399 17.1348 272.343H15.0898C15.2359 242.399 15.2359 227.354 15.6741 219.174C15.8202 215.084 15.9663 212.6 16.4045 210.994C16.6966 209.241 17.1348 208.218 17.7191 207.05L19.472 207.926ZM17.2809 272.343L19.0337 357.503H16.9888L15.2359 272.343H17.2809ZM29.2587 357.649V275.849H31.3037V357.649H29.2587ZM29.2587 275.849C29.5508 248.68 29.6969 234.073 29.9891 226.039C30.2812 217.859 30.7194 215.96 31.7419 214.061L33.4948 215.084C32.7644 216.398 32.3262 217.859 32.034 226.185C31.7419 234.365 31.5958 248.826 31.3037 275.995L29.2587 275.849ZM31.7419 214.061C34.3712 209.241 38.0229 205.297 42.6972 202.814L43.7197 204.567C39.4836 206.904 35.978 210.409 33.4948 214.938L31.7419 214.061ZM42.6972 202.814C43.7197 202.229 44.5961 201.791 46.349 201.499C48.1018 201.207 50.7311 200.915 55.4054 200.769C64.7539 200.477 82.5745 200.331 118.07 200.184V202.229C82.7206 202.376 64.9 202.376 55.5514 202.814C50.8772 202.96 48.2479 203.106 46.7872 203.398C45.3265 203.69 44.5961 203.982 43.7197 204.567L42.6972 202.814ZM118.07 200.331C142.025 200.184 160.138 200.331 172.7 200.331C178.981 200.331 183.948 200.477 187.453 200.623C190.959 200.769 193.15 200.915 194.026 201.061L193.588 203.106C192.858 202.96 190.813 202.814 187.307 202.668C183.802 202.522 178.981 202.522 172.7 202.376C160.138 202.229 142.025 202.229 118.07 202.376V200.331ZM194.026 201.061C199.577 202.229 204.982 205.881 207.173 209.971L205.42 210.994C203.521 207.488 198.847 204.274 193.734 203.106L194.026 201.061ZM207.173 209.971C207.465 210.409 207.757 211.14 208.049 212.162C208.341 213.185 208.78 214.499 209.218 215.814C210.094 218.735 211.117 222.387 211.993 225.893L209.948 226.477C208.926 222.825 208.049 219.32 207.173 216.398C206.735 214.938 206.296 213.769 206.004 212.747C205.712 211.724 205.42 211.14 205.274 210.848L207.173 209.971ZM211.993 226.039C213.892 233.489 215.499 238.309 217.252 241.961C219.005 245.612 221.05 247.95 224.117 250.287L222.802 251.894C219.589 249.264 217.398 246.781 215.353 242.837C213.454 239.039 211.847 233.927 209.948 226.477L211.993 226.039ZM224.263 250.433C226.454 252.186 227.915 253.5 229.814 254.377C231.567 255.253 233.758 255.983 237.117 256.422C243.837 257.298 255.23 257.298 278.017 257.298V259.343C255.376 259.343 243.837 259.343 236.825 258.467C233.319 258.029 230.982 257.298 228.791 256.276C226.746 255.253 224.993 253.792 222.948 252.04L224.263 250.433ZM277.871 257.298C288.972 257.298 299.197 257.298 306.501 257.444C310.153 257.444 313.22 257.59 315.265 257.59C316.288 257.59 317.164 257.736 317.748 257.736C318.04 257.736 318.333 257.736 318.479 257.882C318.625 257.882 318.625 257.882 318.771 257.882C318.771 257.882 318.917 257.882 319.063 258.028C319.063 258.028 319.501 258.321 319.501 258.905H317.456C317.456 259.489 317.894 259.635 317.894 259.781C318.04 259.781 318.041 259.927 318.041 259.927C317.894 259.927 317.748 259.927 317.456 259.927C316.872 259.927 316.142 259.781 315.119 259.781C313.074 259.635 310.153 259.635 306.501 259.635C299.197 259.489 288.972 259.489 277.871 259.489V257.298V257.298ZM319.501 259.051C319.501 259.197 319.501 259.343 319.501 259.343V259.489C319.501 259.635 319.501 259.635 319.355 259.781C319.209 259.927 319.209 260.22 318.917 260.512C318.625 261.096 318.187 261.972 317.602 262.995C316.58 265.04 314.973 267.669 313.366 270.591L311.613 269.568C313.22 266.647 314.827 264.017 315.849 262.118C316.434 261.096 316.872 260.366 317.164 259.781C317.31 259.489 317.456 259.197 317.456 259.051C317.456 258.905 317.456 258.905 317.456 258.905V259.051H319.501V259.051ZM313.366 270.444C310.591 275.411 308.984 278.04 307.669 279.501C306.939 280.231 306.355 280.669 305.478 280.962C304.748 281.254 304.018 281.254 303.141 281.254V279.209C304.018 279.209 304.456 279.209 304.894 279.063C305.186 278.917 305.624 278.771 306.063 278.186C307.231 277.018 308.546 274.534 311.467 269.422L313.366 270.444ZM303.141 281.4C297.737 281.4 293.208 283.153 289.703 286.658L288.242 285.198C292.186 281.254 297.152 279.355 303.141 279.355V281.4ZM289.849 286.512C289.703 286.658 289.265 287.243 288.534 288.265C287.95 289.288 287.073 290.456 286.051 292.063C284.006 295.277 281.377 299.513 278.455 304.479C272.32 314.558 264.725 327.704 256.983 340.851C249.387 353.997 241.792 367.435 235.949 377.806C233.027 383.065 230.544 387.593 228.791 390.953C227.915 392.706 227.185 394.166 226.6 395.189C226.016 396.357 225.724 397.088 225.578 397.526L223.679 396.942C223.825 396.357 224.263 395.481 224.847 394.312C225.432 393.144 226.162 391.683 227.038 389.93C228.791 386.425 231.274 381.896 234.196 376.638C240.039 366.121 247.634 352.828 255.23 339.536C262.826 326.39 270.567 313.243 276.702 303.164C279.77 298.052 282.399 293.816 284.444 290.602C285.467 288.995 286.343 287.681 286.927 286.658C287.512 285.782 288.096 285.052 288.534 284.613L289.849 286.512ZM225.432 397.818C224.263 401.324 223.971 404.683 224.263 411.403L222.218 411.549C221.926 404.83 222.218 401.178 223.533 397.234L225.432 397.818ZM224.263 411.403C224.409 415.201 224.555 417.538 225.14 419.583C225.578 421.628 226.308 423.527 227.769 426.156L225.87 427.032C224.409 424.257 223.679 422.212 223.095 420.021C222.51 417.684 222.364 415.201 222.218 411.403H224.263ZM227.769 426.156C233.319 437.549 243.69 445.291 256.399 447.482L256.106 449.527C242.814 447.336 231.859 439.156 226.016 427.178L227.769 426.156ZM256.399 447.482C268.523 449.673 282.545 444.707 290.579 435.797L292.04 437.111C283.568 446.606 268.669 451.718 255.96 449.527L256.399 447.482ZM290.579 435.797C291.163 435.066 292.624 433.021 294.815 429.662C297.006 426.302 299.636 421.92 302.849 416.661C309.13 406.29 317.018 392.852 324.76 379.559C332.501 366.267 340.097 352.974 345.794 342.603C348.715 337.491 351.052 333.109 352.659 329.895C353.536 328.289 354.12 326.974 354.704 325.951C354.996 325.513 355.142 325.075 355.289 324.783C355.289 324.637 355.435 324.491 355.435 324.345V324.199L357.48 324.491C357.48 324.783 357.334 325.075 357.187 325.367C357.041 325.659 356.895 326.097 356.603 326.682C356.165 327.704 355.435 329.019 354.558 330.626C352.805 333.839 350.468 338.221 347.547 343.334C341.85 353.559 334.254 366.851 326.513 380.29C318.771 393.582 310.883 407.021 304.602 417.392C301.388 422.65 298.759 427.032 296.568 430.392C294.523 433.752 292.916 436.089 292.186 436.819L290.579 435.797ZM355.289 324.199C355.727 322.154 355.581 319.378 355.142 316.749C354.704 314.12 353.974 311.636 352.951 309.884L354.704 308.861C355.873 310.76 356.749 313.535 357.187 316.311C357.626 319.086 357.772 322.154 357.334 324.491L355.289 324.199ZM352.951 309.884L351.199 306.962L352.951 305.94L354.704 308.861L352.951 309.884ZM351.199 305.94L357.334 295.13L359.086 296.153L352.951 306.962L351.199 305.94ZM357.48 295.13C360.109 290.456 361.716 287.681 363.03 286.22C363.615 285.49 364.199 284.906 364.929 284.613C365.66 284.321 366.39 284.321 366.974 284.613L366.39 286.512C366.098 286.366 365.952 286.366 365.806 286.512C365.66 286.658 365.221 286.804 364.637 287.535C363.615 288.849 362.008 291.479 359.232 296.153L357.48 295.13ZM366.828 284.613C369.311 285.344 373.547 286.074 377.929 286.804C382.312 287.389 386.548 287.973 388.739 287.973V290.018C386.402 290.018 382.019 289.58 377.637 288.849C373.255 288.119 368.727 287.389 366.244 286.658L366.828 284.613ZM388.885 287.827H393.997V289.872H388.885V287.827ZM395.02 288.849L394.728 380.582H392.683L392.975 288.849H395.02ZM394.728 380.728L394.435 472.606H392.39L392.683 380.728H394.728ZM394.289 473.045L392.244 476.842L390.492 475.82L392.537 472.022L394.289 473.045ZM392.244 476.842C389.761 481.517 385.817 485.315 380.997 487.798L379.974 486.045C384.503 483.708 388.008 480.202 390.346 475.82L392.244 476.842ZM380.997 487.944C379.974 488.528 378.806 488.82 375.3 489.112C371.794 489.404 365.66 489.551 354.85 489.697C333.086 489.989 291.748 489.989 212.139 489.989V487.944C291.748 487.944 333.086 487.944 354.85 487.652C365.806 487.506 371.794 487.36 375.154 487.067C378.66 486.775 379.39 486.483 379.974 486.191L380.997 487.944ZM212.139 489.843C132.531 489.843 91.1927 489.843 69.4281 489.551C58.4728 489.404 52.4839 489.258 48.9782 488.966C45.4725 488.674 44.304 488.382 43.2815 487.798L44.304 486.045C44.8883 486.337 45.7647 486.629 49.1243 486.921C52.63 487.213 58.6189 487.36 69.4281 487.506C91.1927 487.798 132.531 487.798 212.139 487.798V489.843ZM43.2815 487.944C38.4612 485.315 34.5172 481.663 32.034 476.988L33.7869 475.966C36.124 480.202 39.6297 483.708 44.1579 486.191L43.2815 487.944ZM32.034 476.842C31.4498 475.82 31.0115 474.943 30.7194 473.337C30.4273 471.73 30.1351 469.393 29.9891 465.595C29.6969 457.853 29.5508 443.538 29.2587 415.493H31.3037C31.5958 443.538 31.5958 457.853 32.034 465.595C32.1801 469.393 32.4723 471.584 32.6183 473.045C32.9105 474.359 33.2026 475.09 33.7869 475.966L32.034 476.842ZM29.2587 415.493V357.649H31.3037V415.493H29.2587ZM18.8877 357.649L17.1348 418.998H15.0898L16.8427 357.649H18.8877ZM17.2809 418.998C17.427 448.359 17.427 463.258 17.8652 471.292C18.0112 475.382 18.1573 477.573 18.4495 479.18C18.7416 480.64 19.0338 481.517 19.618 482.539L17.7191 483.416C17.1348 482.247 16.6966 481.225 16.4045 479.472C16.1123 477.719 15.8202 475.382 15.6741 471.292C15.382 463.258 15.2359 448.359 15.0898 418.998H17.2809ZM19.472 482.393C20.9327 485.461 23.5619 488.966 26.6294 492.034C29.6969 495.247 33.2026 497.877 36.2701 499.337L35.3937 501.236C32.034 499.629 28.3823 496.708 25.1687 493.494C21.9552 490.281 19.1798 486.483 17.573 483.269L19.472 482.393ZM36.4162 499.483L41.8208 502.113L40.9444 504.012L35.5397 501.382L36.4162 499.483ZM41.3826 502.113H212.139V504.158H41.3826V502.113ZM212.139 502.113H382.896V504.158H212.139V502.113ZM382.458 502.113L387.862 499.483L388.739 501.382L383.334 504.012L382.458 502.113ZM387.716 499.483C390.784 498.023 394.289 495.247 397.357 492.18C400.424 488.966 403.2 485.461 404.514 482.539L406.413 483.416C404.807 486.775 402.031 490.427 398.818 493.641C395.604 496.854 391.952 499.776 388.593 501.382L387.716 499.483ZM404.66 482.393L406.705 477.865L408.604 478.741L406.559 483.269L404.66 482.393ZM406.705 478.303L407.144 383.503H409.189L408.75 478.303H406.705ZM407.144 383.503L407.582 288.703H409.627L409.189 383.503H407.144ZM408.458 287.681L417.369 285.928L417.807 287.973L408.896 289.726L408.458 287.681ZM417.369 285.782C461.044 277.018 495.516 240.938 502.528 196.971L504.573 197.263C497.415 242.107 462.358 278.771 417.807 287.827L417.369 285.782ZM502.528 196.971C503.404 191.274 503.696 182.656 503.258 174.184C502.82 165.712 501.797 157.24 500.337 151.689L502.382 151.105C503.842 156.948 504.865 165.42 505.303 174.038C505.741 182.656 505.595 191.274 504.573 197.263L502.528 196.971ZM500.337 151.543C491.719 118.823 467.471 91.2157 435.773 78.5076L436.504 76.6087C468.785 89.609 493.471 117.655 502.236 151.105L500.337 151.543ZM435.773 78.5076C422.773 73.249 412.11 71.204 397.357 71.058V69.013C412.256 69.1591 423.211 71.204 436.504 76.6087L435.773 78.5076ZM397.503 71.058L384.357 70.9119V68.8669L397.503 69.013V71.058ZM383.334 69.8894V58.4959H385.379V69.8894H383.334ZM383.334 58.4959C383.334 45.0574 381.727 38.046 377.637 31.4728L379.39 30.4503C383.772 37.6078 385.525 45.0574 385.525 58.4959H383.334ZM377.491 31.4728C373.839 25.7761 367.12 20.3714 360.547 18.0343L361.277 16.1354C368.289 18.7647 375.3 24.3154 379.244 30.3043L377.491 31.4728ZM360.547 18.0343C358.064 17.1579 356.749 16.5736 338.636 16.2815C320.378 15.9893 285.613 15.9893 216.083 15.9893V13.9443C285.467 13.9443 320.378 13.9443 338.636 14.2365C356.749 14.5286 358.502 14.9668 361.277 15.9893L360.547 18.0343ZM216.083 16.1354H76.5856V14.0904H216.083V16.1354ZM77.0238 15.9893L71.6192 18.1804L70.8888 16.2815L76.2935 14.0904L77.0238 15.9893ZM351.199 29.2818C358.502 30.7425 363.907 34.5403 367.266 41.1135L365.513 41.9899C362.446 36.001 357.48 32.4953 350.906 31.1807L351.199 29.2818ZM367.266 41.2596C368.581 43.7428 369.311 45.3495 369.75 47.8327C370.042 50.1699 370.042 53.5295 369.896 59.8105H367.851C367.997 53.5295 367.997 50.3159 367.705 48.1249C367.412 45.9338 366.828 44.7652 365.513 42.282L367.266 41.2596ZM369.896 59.8105L369.603 72.6648H367.558L367.851 59.8105H369.896ZM368.873 73.5412L362.154 75.5862L361.57 73.6872L368.289 71.6423L368.873 73.5412ZM362.154 75.7322C347.839 80.1144 332.94 88.7325 321.254 99.2496L319.939 97.7889C331.771 87.1258 346.962 78.3615 361.57 73.8333L362.154 75.7322ZM321.4 99.2496C315.557 104.508 309.276 112.104 304.602 119.115C302.265 122.621 300.22 125.981 298.759 128.902C297.298 131.823 296.568 134.161 296.568 135.475H294.523C294.523 133.576 295.4 130.947 296.86 128.026C298.321 125.104 300.366 121.598 302.849 118.093C307.669 110.935 313.951 103.34 319.939 97.935L321.4 99.2496ZM296.568 135.329C296.568 137.374 297.152 138.981 298.321 140.149C299.343 141.172 300.95 141.902 302.995 141.902V143.947C300.512 143.947 298.467 143.071 296.86 141.61C295.4 140.003 294.523 137.958 294.523 135.475H296.568V135.329ZM302.995 141.902C304.748 141.902 305.917 141.464 307.085 140.295C308.4 138.981 309.861 136.936 311.759 133.138L313.512 134.161C311.613 137.812 310.007 140.295 308.4 141.902C306.647 143.509 305.04 143.947 302.849 143.947V141.902H302.995ZM311.759 133.138C328.996 100.856 368.289 80.2604 404.806 84.3504L404.514 86.3954C368.727 82.3054 330.31 102.609 313.512 134.014L311.759 133.138ZM404.806 84.4965C445.122 88.8786 476.819 116.778 488.067 157.24L486.168 157.824C475.066 118.093 444.1 90.9236 404.66 86.5415L404.806 84.4965ZM488.213 157.24C489.528 161.914 489.82 167.319 489.82 179.589H487.775C487.775 167.172 487.336 162.06 486.168 157.678L488.213 157.24ZM489.82 179.589C489.82 193.757 489.527 196.971 487.629 203.69L485.73 203.106C487.629 196.533 487.921 193.611 487.921 179.589H489.82ZM487.629 203.836C482.808 220.488 474.336 234.803 462.504 246.781L461.044 245.32C472.729 233.635 480.909 219.612 485.73 203.252L487.629 203.836ZM462.358 246.781C453.74 255.399 445.706 260.95 434.751 266.208L433.875 264.31C444.684 259.197 452.572 253.792 460.898 245.32L462.358 246.781ZM434.751 266.208C427.74 269.422 422.481 271.467 416.638 272.636C410.795 273.804 404.368 274.096 394.728 274.096V272.051C404.222 272.051 410.503 271.759 416.2 270.591C421.751 269.422 426.863 267.523 433.875 264.31L434.751 266.208ZM394.874 274.096C387.132 274.096 382.75 274.096 379.39 273.658C375.885 273.366 373.401 272.636 369.603 271.467L370.188 269.568C373.986 270.737 376.323 271.321 379.682 271.759C383.042 272.051 387.278 272.197 395.02 272.197V274.096H394.874ZM369.457 271.467C341.996 262.995 319.501 243.567 307.962 218.151L309.861 217.275C321.108 242.107 343.165 261.096 370.042 269.422L369.457 271.467ZM307.962 218.151C302.119 205.443 300.074 194.926 299.928 178.274H301.973C302.119 194.634 304.164 204.859 309.861 217.275L307.962 218.151ZM299.928 178.274C299.928 171.116 302.119 161.476 304.164 153.588C305.186 149.644 306.355 146.138 307.085 143.655C307.523 142.34 307.816 141.318 307.962 140.734C308.108 140.442 308.108 140.149 308.108 140.003C308.108 139.857 308.108 139.857 308.108 139.857C308.108 139.857 308.108 139.857 308.108 140.003C308.108 140.003 308.108 140.295 308.4 140.588L309.714 138.981C310.007 139.273 310.007 139.565 310.153 139.565C310.153 139.711 310.153 139.857 310.153 139.857C310.153 140.003 310.153 140.149 310.153 140.295C310.153 140.588 310.007 140.88 309.861 141.172C309.714 141.902 309.422 142.925 308.984 144.239C308.254 146.723 307.231 150.228 306.063 154.026C303.872 161.768 301.827 171.262 301.827 178.128L299.928 178.274ZM308.546 140.734C307.816 140.149 306.647 139.127 305.624 138.104C304.456 137.082 303.287 136.059 301.973 135.183C300.658 134.307 299.636 133.576 298.613 133.284C297.591 132.992 297.152 133.138 296.86 133.43L295.4 131.969C296.422 130.801 297.883 130.947 299.197 131.385C300.512 131.823 301.827 132.7 303.141 133.576C304.456 134.599 305.771 135.621 306.939 136.644C308.108 137.666 309.13 138.543 309.861 139.127L308.546 140.734ZM296.568 133.576C296.276 133.722 295.692 134.307 295.107 135.475C294.523 136.498 293.939 137.958 293.355 139.565C292.186 142.925 291.163 147.161 290.141 151.543C288.096 160.307 286.635 169.364 286.343 172.431L284.298 172.139C284.59 169.071 286.051 159.869 288.096 151.105C289.119 146.723 290.287 142.34 291.456 138.981C292.04 137.228 292.624 135.767 293.355 134.599C293.939 133.43 294.669 132.408 295.546 131.969L296.568 133.576ZM286.489 172.139C285.613 181.78 287.366 198.432 290.433 209.095L288.534 209.679C285.321 198.724 283.568 181.926 284.444 171.993L286.489 172.139ZM290.433 209.095C293.062 218.443 299.49 232.612 304.018 239.185L302.265 240.354C297.591 233.635 291.017 219.32 288.388 209.679L290.433 209.095ZM304.018 239.185L307.085 243.567L305.478 244.736L302.411 240.354L304.018 239.185ZM306.209 245.174L273.343 244.882V242.837L306.209 243.129V245.174ZM273.489 244.882L240.769 244.59V242.545L273.489 242.837V244.882ZM240.185 244.444L235.949 242.107L236.971 240.354L241.207 242.691L240.185 244.444ZM235.949 242.107C233.027 240.5 230.836 238.455 229.083 235.095C227.331 231.736 225.87 226.915 223.971 219.612L226.016 219.174C227.915 226.477 229.376 231.005 230.982 234.219C232.589 237.286 234.342 238.893 236.971 240.5L235.949 242.107ZM223.971 219.612C223.095 216.398 222.218 212.893 221.196 209.971C220.173 207.05 219.297 204.713 218.712 203.544L220.465 202.668C221.196 203.982 222.072 206.466 222.948 209.387C223.971 212.308 224.847 215.814 225.724 219.174L223.971 219.612ZM218.858 203.544C216.375 198.578 211.117 193.465 205.274 190.398L206.15 188.645C212.285 191.858 217.982 197.409 220.611 202.668L218.858 203.544ZM205.274 190.398L201.184 188.207L202.206 186.454L206.296 188.645L205.274 190.398ZM201.622 188.353L132.677 188.061V186.016L201.622 186.308V188.353ZM132.677 188.061L63.7314 187.768V185.723L132.677 186.016V188.061ZM62.7089 186.746L62.855 115.902H64.8999L64.7539 186.746H62.7089ZM62.855 115.902L63.1471 45.0574H65.1921L64.8999 115.902H62.855ZM63.2932 44.6192L65.9225 40.091L67.6753 41.1135L65.046 45.6417L63.2932 44.6192ZM66.0685 40.091C69.4281 34.5403 74.6867 30.7425 80.8217 29.4278L81.2599 31.4728C75.7092 32.4953 70.8888 36.001 67.8214 41.1135L66.0685 40.091ZM80.8217 29.4278C81.1138 29.4278 81.552 29.2818 82.2824 29.2818C83.0127 29.2818 83.8892 29.2818 84.9116 29.1357C87.1027 29.1357 90.1702 28.9896 94.1141 28.9896C101.71 28.8435 112.373 28.8435 124.935 28.6975C150.059 28.5514 183.071 28.4053 215.937 28.4053C248.949 28.4053 281.961 28.4053 307.085 28.5514C319.647 28.5514 330.31 28.6975 337.906 28.8435C341.704 28.8435 344.771 28.9896 347.109 28.9896C348.277 28.9896 349.154 28.9896 349.884 29.1357C350.614 29.1357 351.052 29.1357 351.345 29.2818L351.052 31.3267C350.906 31.3267 350.614 31.3267 349.884 31.1807C349.154 31.1807 348.277 31.1807 347.255 31.0346C345.064 31.0346 341.996 30.8885 338.052 30.8885C330.456 30.7425 319.793 30.7425 307.231 30.5964C282.107 30.4503 249.095 30.4503 216.083 30.4503C183.071 30.4503 150.205 30.5964 125.081 30.7425C112.519 30.8885 102.002 30.8885 94.2602 31.0346C90.4623 31.0346 87.3948 31.1807 85.2038 31.1807C84.0352 31.1807 83.1588 31.1807 82.5745 31.3267C81.8442 31.3267 81.552 31.4728 81.4059 31.4728L80.8217 29.4278ZM349.154 278.332C349.446 278.332 349.738 278.478 350.03 278.771C350.176 279.063 350.322 279.209 350.322 279.355C350.322 279.647 350.322 279.793 350.322 279.793C350.322 279.939 350.176 280.231 350.03 280.523C349.884 280.962 349.446 281.692 349.007 282.568C348.131 284.175 346.963 286.366 345.794 288.557C344.625 290.748 343.311 292.939 342.288 294.546C341.704 295.423 341.266 296.153 340.974 296.591C340.828 296.883 340.535 297.029 340.389 297.321C340.243 297.468 340.243 297.468 340.097 297.614C340.097 297.614 339.805 297.76 339.659 297.906L338.929 296.007C338.783 296.007 338.636 296.153 338.783 296.153C338.783 296.153 338.783 296.153 338.929 296.007C339.075 295.861 339.221 295.715 339.367 295.423C339.659 294.984 340.097 294.254 340.681 293.378C341.704 291.771 343.019 289.58 344.187 287.389C345.356 285.198 346.524 283.153 347.401 281.546C347.839 280.816 348.131 280.085 348.277 279.647C348.423 279.355 348.423 279.355 348.423 279.209C348.423 279.209 348.423 279.209 348.423 279.355C348.423 279.501 348.423 279.647 348.715 279.793C348.861 280.085 349.154 280.085 349.446 280.085V278.332H349.154ZM339.659 297.76C339.513 297.76 339.221 297.76 339.221 297.76C339.075 297.76 339.075 297.76 339.075 297.76C338.929 297.76 338.929 297.76 338.783 297.614C338.636 297.614 338.344 297.468 338.052 297.321C337.468 297.029 336.738 296.737 335.861 296.299C334.108 295.423 331.771 294.108 329.288 292.647L330.31 290.894C332.794 292.355 335.131 293.524 336.884 294.4C337.76 294.838 338.49 295.13 338.929 295.423C339.221 295.569 339.367 295.569 339.513 295.715H339.659C339.659 295.715 339.659 295.715 339.513 295.715C339.513 295.715 339.367 295.715 339.075 295.715L339.659 297.76ZM329.142 292.793L320.232 287.681L321.254 285.928L330.164 291.04L329.142 292.793ZM319.793 286.22L324.906 277.31L326.659 278.332L321.546 287.243L319.793 286.22ZM324.906 277.456L330.018 268.546L331.771 269.568L326.659 278.478L324.906 277.456ZM331.479 268.107L340.097 273.22L339.075 274.973L330.457 269.86L331.479 268.107ZM340.243 273.366C342.726 274.827 344.917 276.141 346.67 277.018C347.547 277.456 348.277 277.894 348.715 278.04C349.007 278.186 349.154 278.186 349.3 278.332H349.446C349.446 278.332 349.446 278.332 349.3 278.332V280.377C349.154 280.377 349.007 280.377 348.861 280.377C348.715 280.377 348.715 280.377 348.569 280.231C348.423 280.085 348.131 280.085 347.839 279.939C347.255 279.647 346.524 279.355 345.648 278.771C343.895 277.894 341.704 276.579 339.221 275.119L340.243 273.366ZM321.546 303.895C330.164 308.861 335.277 311.929 338.344 314.12C341.266 316.311 342.434 317.771 342.434 319.67H340.389C340.389 318.94 340.097 317.917 337.176 315.872C334.254 313.827 329.288 310.76 320.524 305.794L321.546 303.895ZM342.434 319.67C342.434 319.962 342.434 320.109 342.288 320.109C342.288 320.255 342.142 320.401 342.142 320.401C341.996 320.693 341.85 320.985 341.704 321.423C341.266 322.3 340.681 323.322 339.951 324.783C338.49 327.558 336.299 331.502 333.67 336.322C328.411 345.817 321.108 358.817 312.928 372.694L311.175 371.672C319.209 357.649 326.513 344.794 331.917 335.3C334.546 330.48 336.738 326.682 338.198 323.906C338.929 322.446 339.513 321.423 339.951 320.693C340.097 320.255 340.243 319.962 340.389 319.816C340.389 319.67 340.389 319.67 340.535 319.67C340.535 319.524 340.535 319.67 340.535 319.816H342.434V319.67ZM312.928 372.694C302.411 390.807 294.815 403.807 289.557 412.571C286.927 416.953 284.736 420.313 283.13 422.796C281.523 425.279 280.354 426.886 279.478 427.617L278.017 426.156C278.601 425.572 279.77 424.111 281.377 421.628C282.984 419.144 285.175 415.931 287.804 411.403C293.208 402.638 300.804 389.638 311.175 371.525L312.928 372.694ZM279.478 427.617C267.354 439.594 246.466 435.358 239.308 419.437L241.207 418.56C247.78 433.167 267.062 436.965 278.163 426.01L279.478 427.617ZM239.162 419.583C237.848 416.807 237.263 413.156 237.263 409.65C237.263 405.998 237.848 402.346 239.162 399.571L241.061 400.447C240.039 402.931 239.454 406.29 239.454 409.796C239.454 413.302 240.039 416.515 241.061 418.852L239.162 419.583ZM239.162 399.425C239.747 398.256 243.398 391.537 248.803 382.189C254.208 372.84 261.073 360.57 268.084 348.446C275.096 336.322 282.107 324.052 287.512 314.704C292.916 305.355 296.86 298.636 297.737 297.614L299.343 298.782C298.613 299.805 294.815 306.378 289.265 315.726C283.86 325.075 276.702 337.345 269.837 349.469C262.826 361.593 255.814 373.863 250.556 383.211C245.151 392.706 241.499 399.279 241.061 400.301L239.162 399.425ZM297.883 297.468C298.467 296.591 299.343 295.861 300.074 295.423C300.95 294.838 301.827 294.546 302.703 294.546V296.591C302.265 296.591 301.681 296.737 301.096 297.175C300.512 297.614 299.928 298.052 299.343 298.782L297.883 297.468ZM302.703 294.546C302.995 294.546 303.433 294.692 303.872 294.838C304.31 294.984 304.748 295.13 305.332 295.423C306.501 295.861 307.816 296.591 309.568 297.468C312.928 299.074 317.164 301.411 321.692 304.041L320.67 305.794C316.288 303.31 312.052 300.973 308.692 299.367C307.085 298.49 305.624 297.906 304.602 297.468C304.018 297.175 303.579 297.029 303.287 297.029C302.849 296.883 302.849 296.883 302.849 296.883V294.546H302.703Z" fill="black"/>
<path d="M100.687 76.9008L97.3277 72.6647C96.3052 71.4961 95.7209 70.0354 95.2827 69.159C94.6984 67.6983 94.4062 66.3837 94.4062 65.069C94.4062 63.7544 94.6984 62.4398 95.2827 60.9791C95.7209 60.1026 96.3052 58.788 97.3277 57.4734L100.541 53.2373H210.24C263.41 53.2373 290.141 53.2373 303.872 53.5295C310.737 53.6755 314.681 53.8216 317.018 54.1137C318.479 54.2598 319.501 54.5519 320.378 54.9902C321.546 55.4284 322.13 56.0127 322.715 56.5969C324.76 58.6419 325.928 61.8555 325.928 65.2151C325.928 68.5747 324.76 71.6422 322.715 73.6872C322.13 74.2715 321.546 74.8558 320.378 75.294C319.501 75.7322 318.479 75.8783 317.164 76.1704C314.827 76.4625 310.883 76.6086 304.018 76.7547C290.141 77.0468 263.556 77.0468 210.386 77.0468H100.687V76.9008Z" fill="black" stroke="black" stroke-width="0.7"/>
<path d="M102.879 72.8107H102.587L102.441 72.6646L100.542 70.1814C99.9578 69.451 99.3735 68.4285 99.0814 67.5521C98.6432 66.6757 98.4971 65.7993 98.4971 65.0689C98.4971 64.3385 98.7892 63.4621 99.0814 62.5857C99.5196 61.7093 99.9578 60.8328 100.542 59.9564L102.441 57.4732L102.587 57.3271H102.879H210.241C263.265 57.3271 289.996 57.3271 303.872 57.6193C310.738 57.7654 314.39 57.9114 316.581 58.2036C317.603 58.3496 318.334 58.4957 318.772 58.6418C319.21 58.9339 319.502 59.08 319.794 59.3721C321.109 60.6868 321.839 62.7318 321.839 64.9228C321.839 67.1139 321.109 69.3049 319.794 70.4735C319.502 70.7657 319.21 71.0578 318.772 71.2039C318.334 71.3499 317.603 71.6421 316.581 71.7881C314.536 72.0803 310.884 72.2264 303.872 72.3724C290.142 72.6646 263.265 72.6646 210.241 72.6646H102.879V72.8107Z" fill="black" stroke="black" stroke-width="0.7"/>
<path d="M100.687 119.845L97.3277 115.609C96.3052 114.44 95.7209 112.98 95.2827 112.103C94.6984 110.643 94.4062 109.328 94.4062 108.013C94.4062 106.845 94.6984 105.384 95.2827 103.923C95.7209 103.047 96.3052 101.732 97.3277 100.418L100.541 96.1816H188.768C231.274 96.1816 252.601 96.1816 263.702 96.4738C269.399 96.6198 272.466 96.7659 274.511 97.0581C275.826 97.2041 276.702 97.4963 277.579 97.9345C278.601 98.3727 279.186 98.957 279.624 99.3952C281.669 101.44 282.837 104.654 282.837 107.867C282.837 111.227 281.669 114.294 279.624 116.339C279.186 116.778 278.455 117.362 277.433 117.946C276.556 118.384 275.68 118.677 274.365 118.823C272.32 119.115 269.253 119.261 263.556 119.407C252.455 119.699 231.128 119.699 188.622 119.699H100.687V119.845Z" fill="black" stroke="black" stroke-width="0.7"/>
<path d="M102.879 115.756H102.587L102.441 115.61L100.542 113.127C99.9578 112.396 99.3735 111.52 99.0814 110.497C98.6432 109.621 98.4971 108.745 98.4971 108.014C98.4971 107.284 98.7892 106.407 99.0814 105.531C99.5196 104.655 99.9578 103.778 100.542 102.902L102.441 100.419L102.587 100.272H102.879H188.769C230.983 100.272 252.456 100.272 263.557 100.565C269.108 100.711 272.175 100.857 273.928 101.149C274.804 101.295 275.389 101.441 275.827 101.733C276.265 101.879 276.557 102.171 276.849 102.464C278.164 103.778 278.894 105.823 278.894 108.014C278.894 110.205 278.164 112.396 276.849 113.565C276.557 113.857 276.265 114.149 275.827 114.295C275.389 114.441 274.804 114.733 273.928 114.88C272.175 115.172 269.108 115.318 263.557 115.464C252.456 115.756 230.983 115.756 188.769 115.756H102.879V115.756Z" fill="black" stroke="black" stroke-width="0.7"/>
<path d="M395.02 254.378C370.918 254.378 350.468 244.591 335.715 226.04C324.906 212.601 320.086 198.14 319.939 179.589C319.939 171.848 320.378 166.589 321.546 161.623C322.715 156.656 324.614 151.69 328.119 144.532C338.052 124.229 359.232 108.599 382.166 104.801C385.817 104.217 389.761 103.925 393.851 103.925C404.076 103.925 414.739 105.824 423.065 109.183C459.291 123.79 478.28 163.522 467.179 201.5C461.628 220.343 446.583 237.872 429.054 246.49C422.481 249.703 417.515 251.602 412.402 252.771C407.582 253.939 402.323 254.378 395.02 254.378ZM395.166 128.611C381.873 128.611 369.311 134.015 359.525 143.802C347.693 155.634 342.434 171.702 345.21 188.062C347.985 204.275 358.356 217.86 373.547 225.017C381.581 228.815 386.694 229.984 394.874 229.984H395.75C414.447 229.984 432.414 218.59 440.594 201.646C444.538 193.466 445.998 187.477 445.852 178.713C445.706 157.533 431.976 138.544 411.38 131.386C405.975 129.487 400.57 128.611 395.166 128.611Z" fill="black" stroke="black" stroke-width="0.7"/>
<path d="M383.042 109.037C395.166 106.992 410.358 108.599 421.605 113.127C455.785 127.003 473.752 164.69 463.381 200.331C458.123 217.859 443.808 234.804 427.448 242.691C421.459 245.613 416.639 247.512 411.672 248.68C406.706 249.849 401.593 250.287 395.02 250.287C372.379 250.287 352.952 241.085 338.929 223.556C328.704 210.702 324.176 197.263 324.176 179.589C324.176 172.724 324.468 167.611 325.636 162.645C326.805 157.678 328.85 152.858 331.918 146.431C341.412 127.442 361.424 112.689 383.042 109.037ZM449.943 178.713C449.797 156.072 434.751 135.183 412.695 127.442C392.975 120.576 371.649 125.689 356.603 140.88C329.726 167.757 337.322 212.309 371.795 228.669C380.559 232.905 386.256 234.219 395.897 234.073C416.2 234.073 435.482 221.949 444.392 203.398C448.482 194.78 449.943 188.207 449.943 178.713Z" fill="black" stroke="black" stroke-width="0.7"/>
<path d="M100.687 162.79L97.3277 158.554C96.3052 157.386 95.7209 155.925 95.2827 155.049C94.6984 153.588 94.4062 152.273 94.4062 150.959C94.4062 149.644 94.6984 148.329 95.2827 146.869C95.7209 145.992 96.3052 144.678 97.3277 143.363L100.541 139.127H181.61C220.465 139.127 240.039 139.127 250.264 139.419C255.376 139.565 258.444 139.711 260.343 140.003C261.511 140.149 262.534 140.442 263.264 140.88C264.286 141.318 264.871 141.902 265.309 142.341C267.354 144.385 268.523 147.599 268.523 150.813C268.523 154.172 267.354 157.24 265.309 159.285C264.871 159.723 264.286 160.307 263.264 160.745C262.388 161.184 261.511 161.476 260.343 161.622C258.444 161.914 255.376 162.06 250.264 162.206C240.039 162.498 220.465 162.498 181.61 162.498H100.687V162.79Z" fill="black" stroke="black" stroke-width="0.7"/>
<path d="M102.879 158.7H102.587L102.441 158.554L100.542 156.071C99.9578 155.341 99.3735 154.318 99.0814 153.442C98.6432 152.565 98.4971 151.689 98.4971 150.959C98.4971 150.228 98.7892 149.352 99.0814 148.475C99.5196 147.599 99.9578 146.722 100.542 145.846L102.441 143.363L102.587 143.217H102.879H181.611C220.32 143.217 239.894 143.217 250.118 143.509C255.231 143.655 258.006 143.801 259.613 144.093C260.489 144.239 260.928 144.385 261.366 144.678C261.804 144.824 262.096 145.116 262.388 145.408C263.703 146.722 264.433 148.767 264.433 150.959C264.433 153.15 263.703 155.341 262.388 156.509C262.096 156.801 261.804 156.947 261.366 157.24C260.928 157.386 260.343 157.678 259.613 157.824C258.006 158.116 255.231 158.262 250.118 158.408C239.894 158.7 220.174 158.7 181.611 158.7H102.879V158.7Z" fill="black" stroke="black" stroke-width="0.7"/>
</g>
</svg>