<svg xmlns="http://www.w3.org/2000/svg" fill="none" viewBox="6 4 60.2 64.2">
<g id="loan-types">
<g id="Group 1171275429">
<g id="Group 1171275428">
<g id="Group 1171275425">
<g id="Group 1171275422">
<g id="Group 1171274830">
<g id="Vector">
<mask id="path-1-inside-1_6295_46406" fill="white">
<path d="M33.7266 23.5718C27.4217 23.5718 22.3096 28.6839 22.3096 34.9888C22.3096 41.2936 27.4217 46.4057 33.7266 46.4057C40.0314 46.4057 45.1435 41.2936 45.1435 34.9888C45.1435 28.6839 40.0314 23.5718 33.7266 23.5718ZM34.2949 40.524L34.2999 41.3318C34.2999 41.4439 34.2082 41.5382 34.0961 41.5382H33.3723C33.2602 41.5382 33.1684 41.4465 33.1684 41.3344V40.5342C30.9054 40.366 29.8402 39.0764 29.7255 37.6748C29.7153 37.555 29.8096 37.4531 29.9294 37.4531H31.1068C31.2062 37.4531 31.2928 37.5245 31.3081 37.6213C31.4381 38.4291 32.0675 39.0331 33.1965 39.1835V35.5469L32.567 35.3863C31.2342 35.0678 29.9651 34.237 29.9651 32.5142C29.9651 30.6564 31.3769 29.6574 33.1812 29.4816V28.6406C33.1812 28.5285 33.2729 28.4367 33.3851 28.4367H34.1012C34.2133 28.4367 34.305 28.5285 34.305 28.6406V29.4739C36.0507 29.6498 37.3606 30.6692 37.5135 32.2568C37.5263 32.3766 37.432 32.4811 37.3096 32.4811H36.1654C36.0635 32.4811 35.9768 32.4046 35.9641 32.3053C35.8621 31.5611 35.2658 30.9546 34.2949 30.8221V34.2446L34.9422 34.395C36.5935 34.8027 37.7174 35.5927 37.7174 37.3614C37.7174 39.2803 36.2903 40.3507 34.2949 40.524ZM31.5502 32.397C31.5502 33.0443 31.9503 33.5463 32.8117 33.8573C32.9314 33.9057 33.0512 33.9439 33.1939 33.9847V30.8246C32.2536 30.9444 31.5502 31.4719 31.5502 32.397ZM34.5191 35.8425C34.4478 35.8272 34.3764 35.8094 34.2949 35.7864V39.1937C35.3805 39.0968 36.1297 38.5005 36.1297 37.5015C36.1297 36.7191 35.7245 36.2095 34.5191 35.8425Z"/>
</mask>
<path d="M33.7266 23.5718C27.4217 23.5718 22.3096 28.6839 22.3096 34.9888C22.3096 41.2936 27.4217 46.4057 33.7266 46.4057C40.0314 46.4057 45.1435 41.2936 45.1435 34.9888C45.1435 28.6839 40.0314 23.5718 33.7266 23.5718ZM34.2949 40.524L34.2999 41.3318C34.2999 41.4439 34.2082 41.5382 34.0961 41.5382H33.3723C33.2602 41.5382 33.1684 41.4465 33.1684 41.3344V40.5342C30.9054 40.366 29.8402 39.0764 29.7255 37.6748C29.7153 37.555 29.8096 37.4531 29.9294 37.4531H31.1068C31.2062 37.4531 31.2928 37.5245 31.3081 37.6213C31.4381 38.4291 32.0675 39.0331 33.1965 39.1835V35.5469L32.567 35.3863C31.2342 35.0678 29.9651 34.237 29.9651 32.5142C29.9651 30.6564 31.3769 29.6574 33.1812 29.4816V28.6406C33.1812 28.5285 33.2729 28.4367 33.3851 28.4367H34.1012C34.2133 28.4367 34.305 28.5285 34.305 28.6406V29.4739C36.0507 29.6498 37.3606 30.6692 37.5135 32.2568C37.5263 32.3766 37.432 32.4811 37.3096 32.4811H36.1654C36.0635 32.4811 35.9768 32.4046 35.9641 32.3053C35.8621 31.5611 35.2658 30.9546 34.2949 30.8221V34.2446L34.9422 34.395C36.5935 34.8027 37.7174 35.5927 37.7174 37.3614C37.7174 39.2803 36.2903 40.3507 34.2949 40.524ZM31.5502 32.397C31.5502 33.0443 31.9503 33.5463 32.8117 33.8573C32.9314 33.9057 33.0512 33.9439 33.1939 33.9847V30.8246C32.2536 30.9444 31.5502 31.4719 31.5502 32.397ZM34.5191 35.8425C34.4478 35.8272 34.3764 35.8094 34.2949 35.7864V39.1937C35.3805 39.0968 36.1297 38.5005 36.1297 37.5015C36.1297 36.7191 35.7245 36.2095 34.5191 35.8425Z" fill="#68D4F4" stroke="#0D313B" stroke-width="3" mask="url(#path-1-inside-1_6295_46406)"/>
</g>
<g id="Group">
<g id="Vector_2">
<path d="M40.6323 24.1117C41.02 24.052 41.5865 23.8582 41.8847 23.6793C42.4363 23.3513 42.4512 23.3513 43.2264 23.6197C43.8973 23.8433 44.1358 23.8582 44.8216 23.724C45.2689 23.6346 45.8951 23.3662 46.238 23.1575C46.7896 22.7848 46.879 22.7699 47.4008 22.9488C48.2506 23.2321 49.5029 23.1724 50.2931 22.8295C51.5603 22.263 52.4399 21.0852 52.1268 20.3994C51.9628 20.0416 38.6942 10.9325 37.7699 10.53C36.6816 10.0678 35.3845 9.81434 34.0278 9.81434C32.7457 9.81434 31.7468 9.96343 26.5885 10.9325C24.4267 11.335 23.5918 11.4245 23.2937 11.3201C23.07 11.2456 22.0712 10.679 21.0872 10.0529L19.3131 8.91983L19.8796 7.01153C20.5505 4.80507 20.5803 4.55162 20.133 4.23854C19.8498 4.02982 19.0298 4 14.1845 4C8.72799 4 8.57891 4.01491 8.31055 4.29818C8.07202 4.56653 7.8633 5.95303 7.01351 12.8408C6.46189 17.373 6.01463 21.3238 5.99973 21.6219C5.99973 22.6357 5.98482 22.6357 10.5617 22.6357C12.9918 22.6357 14.7809 22.5761 14.9449 22.4866C15.1089 22.3972 15.3474 21.9052 15.5561 21.2194C15.735 20.5932 15.9437 20.0565 16.0034 20.0267C16.1226 19.9373 17.2855 20.7721 18.0757 21.5176C19.9541 23.2917 23.3235 24.1862 25.9474 23.6197C26.5437 23.5004 27.5873 23.1575 28.2582 22.8743C29.8385 22.1885 30.6883 22.0394 32.9246 22.0394L34.7584 22.0394L36.5325 23.0084C37.5015 23.5451 38.5302 24.0073 38.8135 24.0669C39.8124 24.2309 39.9316 24.2309 40.6323 24.1117ZM38.5302 22.0394L38.0233 21.8008L38.411 21.5325C38.7986 21.2939 38.8284 21.2939 39.7229 21.8008C40.5131 22.2481 40.5876 22.3226 40.2745 22.3674C39.7676 22.4568 39.0967 22.3375 38.5302 22.0394ZM42.0636 21.0405C41.005 20.474 40.1403 19.9969 40.1403 19.9522C40.1553 19.9074 40.2447 19.7584 40.364 19.5944C40.5578 19.3409 40.6472 19.3707 42.1828 20.1758C44.9707 21.6667 45.1496 21.7859 44.8216 21.9052C44.27 22.1288 43.9569 22.0245 42.0636 21.0405ZM21.7283 21.5921C20.6847 21.2343 20.0138 20.8169 18.7018 19.6987C18.18 19.2515 17.4644 18.7446 17.0917 18.5657C16.7339 18.4017 16.4506 18.1781 16.4954 18.0737C16.5252 17.9842 17.047 16.2996 17.6433 14.3466C18.2397 12.3786 18.7316 10.7685 18.7615 10.7387C18.7764 10.7089 19.5814 11.2008 20.5505 11.8121C23.1446 13.4669 22.8762 13.4371 28.3626 12.4233C32.4177 11.663 33.0588 11.5885 34.326 11.6481C35.1013 11.6779 36.0852 11.827 36.5027 11.9612C37.0245 12.1252 39.2906 13.5862 43.5544 16.5083C47.0132 18.8788 49.8607 20.8765 49.8756 20.9361C49.9204 21.1598 48.8917 21.443 48.4146 21.3387C47.7586 21.2194 41.02 17.5668 40.9305 17.2835C40.6622 16.553 40.7367 16.553 35.8467 16.6127C33.3271 16.6425 31.225 16.6574 31.1803 16.6723C30.9865 16.6723 30.7927 17.3581 30.897 17.6413C31.1654 18.357 31.2996 18.3868 35.2503 18.3868C37.2779 18.3868 38.9477 18.4166 38.9477 18.4464C38.9477 18.67 38.2171 19.5049 37.7848 19.818C37.2779 20.1609 37.1586 20.1758 33.5209 20.2653C29.4956 20.3547 29.6 20.3398 27.1997 21.3536C26.6779 21.5772 25.9772 21.8157 25.6343 21.8903C24.6951 22.099 22.742 21.9499 21.7283 21.5921ZM8.77272 13.3626C9.27961 9.23291 9.71196 5.84867 9.71196 5.83376C9.72687 5.80394 11.6799 5.78903 14.0653 5.78903C17.4793 5.78903 18.3887 5.83376 18.3291 5.98284C18.2993 6.07229 17.2706 9.41181 16.063 13.3924C14.8554 17.373 13.8416 20.6678 13.7969 20.7423C13.7671 20.802 12.4104 20.8467 10.8003 20.8467L7.84839 20.8467L8.77272 13.3626Z" fill="#0D313B"/>
<path d="M8.77272 13.3626C9.27961 9.23291 9.71196 5.84867 9.71196 5.83376C9.72687 5.80394 11.6799 5.78903 14.0653 5.78903C17.4793 5.78903 18.3887 5.83376 18.3291 5.98284C18.2993 6.07229 17.2706 9.41181 16.063 13.3924C14.8554 17.373 13.8416 20.6678 13.7969 20.7423C13.7671 20.802 12.4104 20.8467 10.8003 20.8467L7.84839 20.8467L8.77272 13.3626Z" fill="#2894B4"/>
</g>
</g>
</g>
</g>
</g>
<g id="Group 1171275426">
<path id="Subtract" fill-rule="evenodd" clip-rule="evenodd" d="M47.9452 48.744C47.9435 48.7424 47.9418 48.7408 47.9401 48.7392C46.0616 46.9651 42.6923 46.0705 40.0684 46.6371C39.472 46.7563 38.4284 47.0992 37.7575 47.3825C36.1772 48.0683 35.3274 48.2174 33.0911 48.2174H31.2574L29.4833 47.2483C28.5142 46.7116 27.4855 46.2494 27.2023 46.1898C26.2034 46.0258 26.0841 46.0258 25.3834 46.1451C24.9958 46.2047 24.4293 46.3985 24.1311 46.5774C23.5795 46.9054 23.5646 46.9054 22.7893 46.6371C22.1184 46.4134 21.8799 46.3985 21.1941 46.5327C20.7469 46.6222 20.1207 46.8905 19.7778 47.0992C19.2262 47.4719 19.1367 47.4869 18.6149 47.308C17.7651 47.0247 16.5128 47.0843 15.7227 47.4272C14.4554 47.9937 13.5758 49.1715 13.8889 49.8573C14.0529 50.2151 27.3215 59.3243 28.2459 59.7268C29.3342 60.189 30.6312 60.4424 31.9879 60.4424C33.2701 60.4424 34.2689 60.2933 39.4273 59.3243C41.589 58.9217 42.4239 58.8323 42.7221 58.9366C42.7513 58.9464 42.7937 58.9645 42.8475 58.99C42.8659 58.3786 42.9244 57.7772 43.0204 57.1885C42.0369 56.9976 40.7792 57.2558 37.6532 57.8334C33.598 58.5937 32.957 58.6683 31.6897 58.6087C30.9145 58.5788 29.9305 58.4297 29.5131 58.2956C28.9913 58.1316 26.7252 56.6705 22.4613 53.7485C19.0025 51.378 16.155 49.3802 16.1401 49.3206C16.0954 49.097 17.1241 48.8137 17.6011 48.9181C18.2571 49.0373 24.9958 52.6899 25.0852 52.9732C25.141 53.125 25.1819 53.2452 25.2557 53.3399C25.5368 53.7012 26.2948 53.6913 30.1691 53.6441C30.9976 53.6343 31.7811 53.6261 32.461 53.619C33.8487 53.6045 34.8054 53.5945 34.8354 53.5845C35.0293 53.5845 35.2231 52.8987 35.1187 52.6154C34.8504 51.8998 34.7162 51.87 30.7654 51.87C28.7378 51.87 27.0681 51.8402 27.0681 51.8103C27.0681 51.5867 27.7986 50.7518 28.231 50.4388C28.7378 50.0959 28.8571 50.0809 32.4948 49.9915C34.9112 49.9378 35.8394 49.9217 36.7146 49.6981C37.2974 49.5492 37.8566 49.3084 38.816 48.9032C39.3378 48.6795 40.0385 48.441 40.3814 48.3665C41.3207 48.1577 43.2737 48.3068 44.2875 48.6646C45.1264 48.9523 45.7245 49.2784 46.6084 49.9762C47.0261 49.5367 47.4727 49.125 47.9452 48.744ZM27.9924 48.4559L27.4855 48.2174C26.919 47.9192 26.2481 47.7999 25.7412 47.8894C25.4281 47.9341 25.5027 48.0087 26.2928 48.4559C27.1874 48.9628 27.2172 48.9628 27.6048 48.7243L27.9924 48.4559ZM25.8754 50.3046C25.8754 50.2599 25.0107 49.7828 23.9522 49.2163C22.0588 48.2323 21.7457 48.1279 21.1941 48.3516C20.8661 48.4708 21.045 48.5901 23.8329 50.0809C25.3685 50.886 25.458 50.9158 25.6518 50.6624C25.771 50.4984 25.8605 50.3493 25.8754 50.3046Z" fill="#0D313B"/>
</g>
</g>
<g id="Group 1171275477">
<circle id="Ellipse 2671" cx="54.1013" cy="56.1013" r="11.0704" fill="#2894B4" stroke="#0D313B" stroke-width="2.06192"/>
<g id="Group_2">
<path id="Vector 59" d="M50.3613 51.0044H51.7609V51.7042H57.4992V51.0044H58.6189L58.8988 61.2214H50.3613V51.0044Z" fill="#68D4F4" stroke="#68D4F4" stroke-width="0.19295"/>
<path id="Vector_3" d="M53.2388 49.4804C52.8574 49.5443 52.4589 49.7362 52.1957 49.9822L52.0136 50.152H51.2756C50.4711 50.152 50.3604 50.1643 50.1291 50.2799C49.8511 50.4201 49.6174 50.7227 49.551 51.0327C49.5116 51.2172 49.5116 60.9938 49.551 61.1783C49.5904 61.3604 49.7035 61.5769 49.8339 61.7146C49.9618 61.85 50.2152 61.9926 50.4047 62.032C50.5892 62.0714 58.4469 62.0714 58.6314 62.032C59.0496 61.9434 59.3965 61.5941 59.4851 61.1783C59.5244 60.9914 59.5244 51.2172 59.4851 51.0327C59.3965 50.6169 59.0447 50.2651 58.6314 50.179C58.5527 50.1618 58.2082 50.152 57.7605 50.152H57.02L56.8552 49.9945C56.6682 49.8199 56.4812 49.6993 56.2303 49.6009C55.908 49.4705 55.7998 49.4631 54.4984 49.4656C53.839 49.4681 53.2732 49.4754 53.2388 49.4804ZM55.7948 50.2381C55.881 50.2602 56.0212 50.3119 56.1024 50.3537C56.3484 50.4841 56.6239 50.7965 56.6953 51.0302L56.71 51.0868H54.518H52.326L52.3408 51.0302C52.3826 50.8999 52.4983 50.7203 52.6385 50.5776C52.8009 50.4128 53.0567 50.2676 53.2658 50.2282C53.3249 50.2159 53.8833 50.2061 54.5057 50.2036C55.4357 50.2012 55.6645 50.2086 55.7948 50.2381ZM51.5732 51.0548C51.5536 51.1483 51.5413 51.3107 51.5462 51.4239C51.5536 51.6404 51.5929 51.7117 51.743 51.7904C51.8414 51.8421 57.1947 51.8421 57.2931 51.7904C57.4431 51.7117 57.4825 51.6404 57.4899 51.4239C57.4948 51.3107 57.4825 51.1483 57.4628 51.0548L57.4284 50.89H57.9475C58.5428 50.89 58.6215 50.9097 58.72 51.0844L58.7741 51.1803V56.1055V61.0307L58.7224 61.1242C58.6929 61.1759 58.6289 61.2398 58.5773 61.2694L58.4838 61.321H54.518H50.5523L50.4588 61.2694C50.4071 61.2398 50.3432 61.1759 50.3137 61.1242L50.262 61.0307V56.1055V51.1803L50.3161 51.0844C50.4145 50.9097 50.4908 50.89 51.0886 50.89H51.6077L51.5732 51.0548Z" fill="#0D313B"/>
<path id="Vector_4" d="M51.7613 53.2661C51.3926 53.4288 51.4007 53.7491 51.7816 53.9359C51.891 53.9919 51.9315 53.9919 54.5409 53.9919C57.1503 53.9919 57.1908 53.9919 57.3002 53.9359C57.6811 53.7491 57.6892 53.4288 57.3205 53.2661L57.1827 53.2047H54.5409H51.8991L51.7613 53.2661Z" fill="#0D313B"/>
<path id="Vector_5" d="M51.7613 55.2343C51.3926 55.3971 51.4007 55.7174 51.7816 55.9042C51.891 55.9602 51.9315 55.9602 54.5409 55.9602C57.1503 55.9602 57.1908 55.9602 57.3002 55.9042C57.6811 55.7174 57.6892 55.3971 57.3205 55.2343L57.1827 55.1729H54.5409H51.8991L51.7613 55.2343Z" fill="#0D313B"/>
<path id="Vector_6" d="M51.7613 57.2028C51.3926 57.3656 51.4007 57.6859 51.7816 57.8727C51.891 57.9287 51.9315 57.9287 54.5409 57.9287C57.1503 57.9287 57.1908 57.9287 57.3002 57.8727C57.6811 57.6859 57.6892 57.3656 57.3205 57.2028L57.1827 57.1414H54.5409H51.8991L51.7613 57.2028Z" fill="#0D313B"/>
<path id="Vector_7" d="M51.7613 59.1701C51.3926 59.3329 51.4007 59.6531 51.7816 59.84C51.891 59.896 51.9315 59.896 54.5409 59.896C57.1503 59.896 57.1908 59.896 57.3002 59.84C57.6811 59.6531 57.6892 59.3329 57.3205 59.1701L57.1827 59.1087H54.5409H51.8991L51.7613 59.1701Z" fill="#0D313B"/>
</g>
</g>
</g>
</g>
</svg>