<svg xmlns="http://www.w3.org/2000/svg" fill="none" viewBox="44 5 433 510">
<path d="M138.72 6.99269C133.088 9.98167 45.8431 95.5657 44.8191 99.1523C44.4095 100.747 44 171.585 44 256.573C44 405.623 44.1024 411.202 45.9456 416.48C49.7343 427.241 57.9268 436.807 66.9372 441.39C77.178 446.471 75.5397 446.373 182.343 446.373H281.874L283.103 450.059C285.563 457.431 293.446 470.881 299.897 478.852C321.709 505.752 358.88 519.602 393.491 513.624C418.169 509.438 439.979 496.985 454.828 478.751C484.32 442.485 484.423 392.968 454.931 357.001C440.492 339.267 421.036 327.909 395.538 322.43L392.671 321.831V182.845C392.671 83.7095 392.365 42.4618 391.546 38.6759C388.985 26.9191 380.179 15.4615 369.94 10.3801C358.777 4.90055 362.054 5.00012 247.775 5.00012C146.4 5.0997 142.202 5.19941 138.72 6.99269ZM354.886 36.3843C356.524 37.2809 358.88 39.3733 359.904 41.1666C361.952 44.2553 361.952 47.2442 361.952 183.042V321.831L359.187 322.43C331.334 328.406 309.728 342.156 295.29 362.88C285.767 376.528 279.417 393.468 278.291 408.213L277.675 416.48H180.806C88.2361 416.48 83.8335 416.382 81.0693 414.588C79.5329 413.593 77.382 411.699 76.4602 410.405C74.8218 408.213 74.7198 397.551 74.4126 263.845L74.2073 119.677L112.506 119.378C149.37 119.079 151.007 118.979 153.669 116.987C155.205 115.892 157.458 113.7 158.587 112.204C160.633 109.615 160.736 108.02 161.042 72.1529L161.35 34.8898H256.582C340.549 34.8898 352.223 35.0891 354.886 36.3843ZM130.528 73.2481V89.688H113.428H96.224L113.12 73.2481C122.439 64.1816 130.117 56.8096 130.221 56.8096C130.426 56.8096 130.528 64.1816 130.528 73.2481ZM391.442 352.319C404.345 354.809 415.201 360.688 425.541 370.651C432.71 377.527 435.167 380.714 438.546 387.588C444.281 398.947 446.023 406.02 446.023 417.976C446.023 436.707 439.673 451.452 426.053 464.804C411.615 478.95 397.483 484.73 377.312 484.73C367.071 484.73 364.305 484.331 356.422 481.841C315.359 468.789 296.519 423.455 316.692 386.093C321.094 377.925 331.027 367.263 339.218 361.983C354.578 352.119 373.113 348.633 391.442 352.319Z" fill="black"/>
<path d="M110.864 157.231C107.279 160.518 106.665 161.713 106.154 166.395C105.539 172.872 107.689 177.356 113.014 180.645L116.702 182.836H218.077C317.608 182.836 319.554 182.836 322.934 180.842C333.276 174.965 333.789 162.113 324.06 155.636L320.681 153.444H217.873H115.062L110.864 157.231Z" fill="black"/>
<path d="M118.243 211.132C110.871 212.626 106.877 217.009 106.16 224.482C105.546 230.66 107.799 235.241 113.021 238.431L116.707 240.622H218.085C317.616 240.622 319.562 240.622 322.941 238.63C328.47 235.441 330.722 231.755 330.722 225.877C330.722 219.899 327.959 215.217 322.735 212.426C319.663 210.831 312.292 210.733 220.644 210.633C166.269 210.532 120.189 210.733 118.243 211.132Z" fill="black"/>
<path d="M113.323 273.01C103.083 279.087 103.492 293.633 114.142 299.012C117.521 300.806 122.333 300.906 217.872 300.906C300.1 300.906 318.531 300.708 321.297 299.511C325.7 297.718 330 292.735 330.82 288.352C331.743 283.569 328.874 276.596 324.779 273.805L321.502 271.516L219.102 271.215C118.341 271.017 116.598 271.017 113.323 273.01Z" fill="black"/>
<path d="M113.325 332.777C102.984 338.953 103.598 353.899 114.453 358.681C118.446 360.475 121.517 360.673 160.123 360.673C199.547 360.673 201.8 360.573 205.792 358.681C216.34 353.698 217.261 339.453 207.432 333.075L203.95 330.784H160.327C118.651 330.784 116.602 330.884 113.325 332.777Z" fill="black"/>
<path d="M372.807 365.655C371.17 366.154 368.711 367.549 367.278 368.845C362.464 373.229 361.953 375.919 361.953 399.232C361.953 423.543 362.464 425.935 369.018 430.118C376.288 434.9 386.835 432.111 390.933 424.44C392.57 421.351 392.673 418.362 392.469 397.836C392.16 376.318 392.058 374.622 390.011 372.033C385.608 366.254 379.053 363.764 372.807 365.655Z" fill="black"/>
<path d="M372.196 443.479C363.493 446.866 359.602 456.529 363.902 464.301C369.637 474.963 385.405 474.963 390.833 464.301C396.977 452.444 384.586 438.697 372.196 443.479Z" fill="black"/>
</svg>