<svg xmlns="http://www.w3.org/2000/svg" fill="none" viewBox="5.69 6.33 25.29 23.48">
<g id="operations">
<g id="Group 1000001384">
<ellipse id="Ellipse 2405" cx="17.9908" cy="18.0039" rx="2.66404" ry="2.31429" fill="#FFA600"/>
<path id="Vector 99" d="M24.9176 21.0896L25.184 20.3182L26.7825 21.3467L27.8481 20.8325L28.3809 21.6039L27.5817 22.3753V24.9467L28.3809 25.461L27.8481 26.4896L26.7825 25.9753L24.9176 27.261V28.0325L23.852 28.2896L23.5856 27.0039L21.7208 25.9753L20.6552 26.4896L19.856 25.461L21.9872 24.6896L22.7864 25.461L24.1184 25.9753L25.184 25.7182L26.2497 24.9467L26.7825 23.9182V22.8896L25.9833 21.861L24.9176 21.0896Z" fill="#FFA600" stroke="#FFA600" stroke-width="0.514286"/>
<g id="Group">
<path id="Vector 98" d="M11.5974 14.6611L11.0646 15.9468L9.19979 15.4325L8.66698 15.6896L7.33496 14.1468L8.66698 13.3753V11.5753L7.33496 10.2896L8.66698 9.00392L9.999 9.5182L10.7982 8.48963L11.0646 7.46106H13.1958V9.00392L14.5279 9.5182H16.3927L16.6591 10.2896L14.2615 11.3182L12.9294 10.2896L11.0646 10.5468L9.999 12.6039L11.5974 14.6611Z" fill="#FFA600" stroke="#FFA600" stroke-width="0.514286"/>
<g id="Vector">
<mask id="path-4-outside-1_3023_43055" maskUnits="userSpaceOnUse" x="6.06177" y="6.32541" width="12" height="11" fill="black">
<rect fill="white" x="6.06177" y="6.32541" width="12" height="11"/>
<path d="M10.938 7.28229C10.8725 7.35009 10.8584 7.46762 10.8584 7.90606V8.44848L10.5072 8.59764C10.3152 8.679 10.0248 8.83268 9.85627 8.94116L9.55656 9.13553L9.12574 8.86884C8.65745 8.57504 8.48886 8.51628 8.37179 8.6112C8.29686 8.66996 7.13083 10.4012 7.07932 10.5277C7.01375 10.695 7.12146 10.817 7.58038 11.1063L8.05336 11.4046L8.01589 11.5764C7.97375 11.7617 7.96438 12.9008 8.00184 13.1991L8.02526 13.3889L7.55697 13.6963C7.17297 13.9494 7.084 14.0263 7.07463 14.1302C7.06058 14.2297 7.18234 14.4421 7.60848 15.0794C7.90819 15.5315 8.20789 15.9699 8.26877 16.0467C8.43735 16.2727 8.5872 16.2501 9.11637 15.9202L9.56124 15.649L9.76261 15.7891C10.0342 15.9744 10.7086 16.2818 10.9193 16.318C11.0504 16.336 11.116 16.3225 11.1862 16.2637C11.2799 16.1823 11.308 15.9925 11.2424 15.8976C11.2237 15.8705 10.9895 15.7439 10.7179 15.6219C10.4463 15.4998 10.1138 15.31 9.97334 15.2015C9.80944 15.0749 9.66895 15.0071 9.58466 15.0071C9.50505 15.0071 9.30368 15.1066 9.05081 15.2648C8.83071 15.4094 8.62935 15.5089 8.61062 15.4863C8.54037 15.4094 7.81453 14.2975 7.81453 14.2613C7.81453 14.2432 8.00184 14.1121 8.2313 13.9675C8.46077 13.8274 8.66681 13.6692 8.68086 13.6195C8.69959 13.5697 8.6715 13.3709 8.62467 13.1765C8.51696 12.7154 8.51696 12.0329 8.63403 11.5809C8.68086 11.3911 8.70428 11.2012 8.69023 11.1605C8.6715 11.1198 8.47013 10.9707 8.24067 10.826C8.01121 10.6859 7.81921 10.5503 7.81921 10.5277C7.81453 10.4825 8.61062 9.28017 8.6434 9.28017C8.65745 9.28017 8.84476 9.39317 9.06018 9.52878C9.54251 9.83162 9.64085 9.84066 9.94992 9.6011C10.2215 9.39769 10.6898 9.14457 11.0223 9.02705C11.4157 8.89144 11.4203 8.88692 11.4203 8.29931V7.78854H12.2164H13.0125V8.27671C13.0125 8.59764 13.0313 8.792 13.0734 8.8372C13.1015 8.87788 13.3029 8.97733 13.5089 9.05417C13.8789 9.18977 14.3425 9.44741 14.6188 9.6689C14.6937 9.72766 14.8061 9.77738 14.8716 9.77738C14.9372 9.77738 15.1667 9.66438 15.3821 9.52878C15.6022 9.39317 15.7942 9.28017 15.8129 9.28017C15.8316 9.28017 16.0283 9.5559 16.2531 9.89038C16.712 10.5774 16.8197 10.6633 17.0304 10.5142C17.2505 10.356 17.2224 10.2656 16.6886 9.46098C16.1828 8.69708 16.0611 8.55696 15.9206 8.55696C15.8738 8.55696 15.6256 8.68804 15.3633 8.84624L14.8904 9.13553L14.7124 9.00897C14.5017 8.8598 13.9913 8.59312 13.7758 8.5208L13.6213 8.47108V7.92866C13.6213 7.14669 13.729 7.20093 12.2258 7.20093C11.1113 7.20093 11.0083 7.20545 10.938 7.28229Z"/>
</mask>
<path d="M10.938 7.28229C10.8725 7.35009 10.8584 7.46762 10.8584 7.90606V8.44848L10.5072 8.59764C10.3152 8.679 10.0248 8.83268 9.85627 8.94116L9.55656 9.13553L9.12574 8.86884C8.65745 8.57504 8.48886 8.51628 8.37179 8.6112C8.29686 8.66996 7.13083 10.4012 7.07932 10.5277C7.01375 10.695 7.12146 10.817 7.58038 11.1063L8.05336 11.4046L8.01589 11.5764C7.97375 11.7617 7.96438 12.9008 8.00184 13.1991L8.02526 13.3889L7.55697 13.6963C7.17297 13.9494 7.084 14.0263 7.07463 14.1302C7.06058 14.2297 7.18234 14.4421 7.60848 15.0794C7.90819 15.5315 8.20789 15.9699 8.26877 16.0467C8.43735 16.2727 8.5872 16.2501 9.11637 15.9202L9.56124 15.649L9.76261 15.7891C10.0342 15.9744 10.7086 16.2818 10.9193 16.318C11.0504 16.336 11.116 16.3225 11.1862 16.2637C11.2799 16.1823 11.308 15.9925 11.2424 15.8976C11.2237 15.8705 10.9895 15.7439 10.7179 15.6219C10.4463 15.4998 10.1138 15.31 9.97334 15.2015C9.80944 15.0749 9.66895 15.0071 9.58466 15.0071C9.50505 15.0071 9.30368 15.1066 9.05081 15.2648C8.83071 15.4094 8.62935 15.5089 8.61062 15.4863C8.54037 15.4094 7.81453 14.2975 7.81453 14.2613C7.81453 14.2432 8.00184 14.1121 8.2313 13.9675C8.46077 13.8274 8.66681 13.6692 8.68086 13.6195C8.69959 13.5697 8.6715 13.3709 8.62467 13.1765C8.51696 12.7154 8.51696 12.0329 8.63403 11.5809C8.68086 11.3911 8.70428 11.2012 8.69023 11.1605C8.6715 11.1198 8.47013 10.9707 8.24067 10.826C8.01121 10.6859 7.81921 10.5503 7.81921 10.5277C7.81453 10.4825 8.61062 9.28017 8.6434 9.28017C8.65745 9.28017 8.84476 9.39317 9.06018 9.52878C9.54251 9.83162 9.64085 9.84066 9.94992 9.6011C10.2215 9.39769 10.6898 9.14457 11.0223 9.02705C11.4157 8.89144 11.4203 8.88692 11.4203 8.29931V7.78854H12.2164H13.0125V8.27671C13.0125 8.59764 13.0313 8.792 13.0734 8.8372C13.1015 8.87788 13.3029 8.97733 13.5089 9.05417C13.8789 9.18977 14.3425 9.44741 14.6188 9.6689C14.6937 9.72766 14.8061 9.77738 14.8716 9.77738C14.9372 9.77738 15.1667 9.66438 15.3821 9.52878C15.6022 9.39317 15.7942 9.28017 15.8129 9.28017C15.8316 9.28017 16.0283 9.5559 16.2531 9.89038C16.712 10.5774 16.8197 10.6633 17.0304 10.5142C17.2505 10.356 17.2224 10.2656 16.6886 9.46098C16.1828 8.69708 16.0611 8.55696 15.9206 8.55696C15.8738 8.55696 15.6256 8.68804 15.3633 8.84624L14.8904 9.13553L14.7124 9.00897C14.5017 8.8598 13.9913 8.59312 13.7758 8.5208L13.6213 8.47108V7.92866C13.6213 7.14669 13.729 7.20093 12.2258 7.20093C11.1113 7.20093 11.0083 7.20545 10.938 7.28229Z" fill="black"/>
<path d="M10.938 7.28229C10.8725 7.35009 10.8584 7.46762 10.8584 7.90606V8.44848L10.5072 8.59764C10.3152 8.679 10.0248 8.83268 9.85627 8.94116L9.55656 9.13553L9.12574 8.86884C8.65745 8.57504 8.48886 8.51628 8.37179 8.6112C8.29686 8.66996 7.13083 10.4012 7.07932 10.5277C7.01375 10.695 7.12146 10.817 7.58038 11.1063L8.05336 11.4046L8.01589 11.5764C7.97375 11.7617 7.96438 12.9008 8.00184 13.1991L8.02526 13.3889L7.55697 13.6963C7.17297 13.9494 7.084 14.0263 7.07463 14.1302C7.06058 14.2297 7.18234 14.4421 7.60848 15.0794C7.90819 15.5315 8.20789 15.9699 8.26877 16.0467C8.43735 16.2727 8.5872 16.2501 9.11637 15.9202L9.56124 15.649L9.76261 15.7891C10.0342 15.9744 10.7086 16.2818 10.9193 16.318C11.0504 16.336 11.116 16.3225 11.1862 16.2637C11.2799 16.1823 11.308 15.9925 11.2424 15.8976C11.2237 15.8705 10.9895 15.7439 10.7179 15.6219C10.4463 15.4998 10.1138 15.31 9.97334 15.2015C9.80944 15.0749 9.66895 15.0071 9.58466 15.0071C9.50505 15.0071 9.30368 15.1066 9.05081 15.2648C8.83071 15.4094 8.62935 15.5089 8.61062 15.4863C8.54037 15.4094 7.81453 14.2975 7.81453 14.2613C7.81453 14.2432 8.00184 14.1121 8.2313 13.9675C8.46077 13.8274 8.66681 13.6692 8.68086 13.6195C8.69959 13.5697 8.6715 13.3709 8.62467 13.1765C8.51696 12.7154 8.51696 12.0329 8.63403 11.5809C8.68086 11.3911 8.70428 11.2012 8.69023 11.1605C8.6715 11.1198 8.47013 10.9707 8.24067 10.826C8.01121 10.6859 7.81921 10.5503 7.81921 10.5277C7.81453 10.4825 8.61062 9.28017 8.6434 9.28017C8.65745 9.28017 8.84476 9.39317 9.06018 9.52878C9.54251 9.83162 9.64085 9.84066 9.94992 9.6011C10.2215 9.39769 10.6898 9.14457 11.0223 9.02705C11.4157 8.89144 11.4203 8.88692 11.4203 8.29931V7.78854H12.2164H13.0125V8.27671C13.0125 8.59764 13.0313 8.792 13.0734 8.8372C13.1015 8.87788 13.3029 8.97733 13.5089 9.05417C13.8789 9.18977 14.3425 9.44741 14.6188 9.6689C14.6937 9.72766 14.8061 9.77738 14.8716 9.77738C14.9372 9.77738 15.1667 9.66438 15.3821 9.52878C15.6022 9.39317 15.7942 9.28017 15.8129 9.28017C15.8316 9.28017 16.0283 9.5559 16.2531 9.89038C16.712 10.5774 16.8197 10.6633 17.0304 10.5142C17.2505 10.356 17.2224 10.2656 16.6886 9.46098C16.1828 8.69708 16.0611 8.55696 15.9206 8.55696C15.8738 8.55696 15.6256 8.68804 15.3633 8.84624L14.8904 9.13553L14.7124 9.00897C14.5017 8.8598 13.9913 8.59312 13.7758 8.5208L13.6213 8.47108V7.92866C13.6213 7.14669 13.729 7.20093 12.2258 7.20093C11.1113 7.20093 11.0083 7.20545 10.938 7.28229Z" stroke="black" stroke-width="0.411429" mask="url(#path-4-outside-1_3023_43055)"/>
</g>
<g id="Vector_2">
<mask id="path-5-outside-2_3023_43055" maskUnits="userSpaceOnUse" x="16.9783" y="7.63672" width="14" height="12" fill="black">
<rect fill="white" x="16.9783" y="7.63672" width="14" height="12"/>
<path d="M18.0375 7.97383C17.9485 8.05971 17.9626 8.30379 18.0609 8.38968C18.1171 8.4394 18.2295 8.46652 18.3794 8.46652C19.0865 8.46652 20.2104 8.63376 21.0018 8.85525C24.0691 9.70954 26.6025 12.0645 27.6187 15.0071C27.8294 15.6128 28.0261 16.4852 28.0682 17.0095C28.0823 17.1948 28.1057 17.4208 28.1198 17.5067L28.1479 17.6649L27.7966 17.3349C27.6046 17.1586 27.408 17.0095 27.3564 17.0095C27.1972 17.0095 27.0614 17.1406 27.0614 17.2943C27.0614 17.4208 27.1457 17.5203 27.6842 18.0401C28.1994 18.5328 28.3258 18.6367 28.4429 18.6367C28.5553 18.6367 28.6864 18.5328 29.2015 18.0355C29.8665 17.3937 29.9273 17.2897 29.7307 17.0999C29.5621 16.9372 29.4216 16.9824 29.0516 17.3259L28.7145 17.6468L28.6817 17.1858C28.5178 14.8624 27.3986 12.5346 25.6378 10.8441C23.7881 9.06769 21.3296 8.01903 18.8195 7.93767C18.2576 7.91959 18.0797 7.92863 18.0375 7.97383Z"/>
</mask>
<path d="M18.0375 7.97383C17.9485 8.05971 17.9626 8.30379 18.0609 8.38968C18.1171 8.4394 18.2295 8.46652 18.3794 8.46652C19.0865 8.46652 20.2104 8.63376 21.0018 8.85525C24.0691 9.70954 26.6025 12.0645 27.6187 15.0071C27.8294 15.6128 28.0261 16.4852 28.0682 17.0095C28.0823 17.1948 28.1057 17.4208 28.1198 17.5067L28.1479 17.6649L27.7966 17.3349C27.6046 17.1586 27.408 17.0095 27.3564 17.0095C27.1972 17.0095 27.0614 17.1406 27.0614 17.2943C27.0614 17.4208 27.1457 17.5203 27.6842 18.0401C28.1994 18.5328 28.3258 18.6367 28.4429 18.6367C28.5553 18.6367 28.6864 18.5328 29.2015 18.0355C29.8665 17.3937 29.9273 17.2897 29.7307 17.0999C29.5621 16.9372 29.4216 16.9824 29.0516 17.3259L28.7145 17.6468L28.6817 17.1858C28.5178 14.8624 27.3986 12.5346 25.6378 10.8441C23.7881 9.06769 21.3296 8.01903 18.8195 7.93767C18.2576 7.91959 18.0797 7.92863 18.0375 7.97383Z" fill="black"/>
<path d="M18.0375 7.97383C17.9485 8.05971 17.9626 8.30379 18.0609 8.38968C18.1171 8.4394 18.2295 8.46652 18.3794 8.46652C19.0865 8.46652 20.2104 8.63376 21.0018 8.85525C24.0691 9.70954 26.6025 12.0645 27.6187 15.0071C27.8294 15.6128 28.0261 16.4852 28.0682 17.0095C28.0823 17.1948 28.1057 17.4208 28.1198 17.5067L28.1479 17.6649L27.7966 17.3349C27.6046 17.1586 27.408 17.0095 27.3564 17.0095C27.1972 17.0095 27.0614 17.1406 27.0614 17.2943C27.0614 17.4208 27.1457 17.5203 27.6842 18.0401C28.1994 18.5328 28.3258 18.6367 28.4429 18.6367C28.5553 18.6367 28.6864 18.5328 29.2015 18.0355C29.8665 17.3937 29.9273 17.2897 29.7307 17.0999C29.5621 16.9372 29.4216 16.9824 29.0516 17.3259L28.7145 17.6468L28.6817 17.1858C28.5178 14.8624 27.3986 12.5346 25.6378 10.8441C23.7881 9.06769 21.3296 8.01903 18.8195 7.93767C18.2576 7.91959 18.0797 7.92863 18.0375 7.97383Z" stroke="black" stroke-width="0.411429" mask="url(#path-5-outside-2_3023_43055)"/>
</g>
<g id="Vector_3">
<mask id="path-6-outside-3_3023_43055" maskUnits="userSpaceOnUse" x="8.74969" y="9.69696" width="6" height="6" fill="black">
<rect fill="white" x="8.74969" y="9.69696" width="6" height="6"/>
<path d="M11.6357 10.0711C10.3666 10.383 9.54243 11.6215 9.7953 12.8284C9.90769 13.3437 10.1137 13.7188 10.479 14.0759C10.9707 14.5505 11.6685 14.8263 11.8886 14.6364C12.0056 14.537 12.0103 14.3336 11.9026 14.2386C11.8558 14.2025 11.7012 14.1256 11.5514 14.0714C11.069 13.8996 10.7366 13.5878 10.4931 13.086C10.3853 12.8645 10.3666 12.7696 10.3666 12.3945C10.3666 11.9876 10.376 11.947 10.5446 11.6215C10.7459 11.2237 11.0456 10.9345 11.4577 10.7401C11.6966 10.6271 11.7715 10.6135 12.2164 10.6135C12.6519 10.6135 12.7408 10.6271 12.975 10.7356C13.2747 10.8712 13.6119 11.1514 13.8179 11.4362C13.9303 11.5989 13.9771 11.6306 14.1129 11.6306C14.2815 11.6306 14.4173 11.504 14.4173 11.3503C14.4173 11.1333 13.9069 10.5729 13.5041 10.3469C12.975 10.0485 12.2023 9.931 11.6357 10.0711Z"/>
</mask>
<path d="M11.6357 10.0711C10.3666 10.383 9.54243 11.6215 9.7953 12.8284C9.90769 13.3437 10.1137 13.7188 10.479 14.0759C10.9707 14.5505 11.6685 14.8263 11.8886 14.6364C12.0056 14.537 12.0103 14.3336 11.9026 14.2386C11.8558 14.2025 11.7012 14.1256 11.5514 14.0714C11.069 13.8996 10.7366 13.5878 10.4931 13.086C10.3853 12.8645 10.3666 12.7696 10.3666 12.3945C10.3666 11.9876 10.376 11.947 10.5446 11.6215C10.7459 11.2237 11.0456 10.9345 11.4577 10.7401C11.6966 10.6271 11.7715 10.6135 12.2164 10.6135C12.6519 10.6135 12.7408 10.6271 12.975 10.7356C13.2747 10.8712 13.6119 11.1514 13.8179 11.4362C13.9303 11.5989 13.9771 11.6306 14.1129 11.6306C14.2815 11.6306 14.4173 11.504 14.4173 11.3503C14.4173 11.1333 13.9069 10.5729 13.5041 10.3469C12.975 10.0485 12.2023 9.931 11.6357 10.0711Z" fill="black"/>
<path d="M11.6357 10.0711C10.3666 10.383 9.54243 11.6215 9.7953 12.8284C9.90769 13.3437 10.1137 13.7188 10.479 14.0759C10.9707 14.5505 11.6685 14.8263 11.8886 14.6364C12.0056 14.537 12.0103 14.3336 11.9026 14.2386C11.8558 14.2025 11.7012 14.1256 11.5514 14.0714C11.069 13.8996 10.7366 13.5878 10.4931 13.086C10.3853 12.8645 10.3666 12.7696 10.3666 12.3945C10.3666 11.9876 10.376 11.947 10.5446 11.6215C10.7459 11.2237 11.0456 10.9345 11.4577 10.7401C11.6966 10.6271 11.7715 10.6135 12.2164 10.6135C12.6519 10.6135 12.7408 10.6271 12.975 10.7356C13.2747 10.8712 13.6119 11.1514 13.8179 11.4362C13.9303 11.5989 13.9771 11.6306 14.1129 11.6306C14.2815 11.6306 14.4173 11.504 14.4173 11.3503C14.4173 11.1333 13.9069 10.5729 13.5041 10.3469C12.975 10.0485 12.2023 9.931 11.6357 10.0711Z" stroke="black" stroke-width="0.411429" mask="url(#path-6-outside-3_3023_43055)"/>
</g>
<g id="Vector_4">
<mask id="path-7-outside-4_3023_43055" maskUnits="userSpaceOnUse" x="10.046" y="9.96484" width="16" height="16" fill="black">
<rect fill="white" x="10.046" y="9.96484" width="16" height="16"/>
<path d="M17.1243 11.0927C17.026 11.1469 16.9792 11.3142 16.8761 11.9922L16.7965 12.512L16.3938 12.6386C16.169 12.7064 15.8225 12.842 15.6258 12.9414L15.2652 13.1132L14.7267 12.7335C14.3521 12.4668 14.1507 12.3538 14.0617 12.3538C13.9493 12.3538 13.7901 12.4849 13.1673 13.086C12.5351 13.6917 12.404 13.8454 12.404 13.9494C12.404 14.0398 12.5211 14.2342 12.7974 14.5958L13.1907 15.1156L12.9894 15.5088C12.8348 15.8117 12.6569 16.2727 12.5679 16.5891C12.5679 16.5936 12.2635 16.6388 11.8889 16.6931C11.341 16.7699 11.1958 16.8061 11.1303 16.8829C11.0553 16.9643 11.046 17.0908 11.046 18.0084C11.046 18.9531 11.0553 19.0526 11.1303 19.1249C11.1911 19.1836 11.3738 19.2334 11.7531 19.2876C12.6569 19.4187 12.5585 19.3735 12.6569 19.6944C12.7037 19.8526 12.8395 20.1826 12.9659 20.4357L13.1907 20.8877L12.7974 21.4075C12.5211 21.7691 12.404 21.9635 12.404 22.0539C12.404 22.1624 12.5398 22.3161 13.1626 22.9172C13.7948 23.5275 13.9493 23.654 14.0617 23.654C14.1554 23.654 14.3474 23.5455 14.7267 23.2743L15.2606 22.8901L15.7429 23.1116C16.0051 23.2336 16.3517 23.3647 16.5062 23.4099L16.7965 23.4868L16.8996 24.1422C16.9792 24.6213 17.0307 24.8202 17.0916 24.879C17.1712 24.9558 17.2695 24.9648 18.2389 24.9648C18.8617 24.9648 19.33 24.9468 19.3815 24.9196C19.4892 24.8654 19.536 24.7027 19.6391 24.0156L19.7187 23.4913L20.0137 23.4099C20.1729 23.3647 20.5194 23.2291 20.7817 23.1116L21.2593 22.8901L21.7932 23.2698C22.1678 23.541 22.3645 23.654 22.4581 23.654C22.5659 23.654 22.7251 23.5229 23.3526 22.9172C23.9941 22.298 24.1112 22.1624 24.1112 22.0494C24.1112 21.9499 24.0035 21.7737 23.7178 21.403L23.3245 20.8877L23.5071 20.5442C23.6101 20.3498 23.7459 20.0244 23.8162 19.8119C23.8864 19.5995 23.9473 19.4232 23.9473 19.4187C23.952 19.4097 24.2423 19.3645 24.5982 19.3147C25.2726 19.2198 25.3943 19.1836 25.4411 19.0616C25.4552 19.0254 25.4692 18.5373 25.4692 17.9813C25.4692 17.0863 25.4599 16.9643 25.3896 16.8829C25.3194 16.8061 25.1742 16.7699 24.6263 16.6931C24.2517 16.6388 23.9473 16.5936 23.9473 16.5891C23.8911 16.3631 23.6429 15.7213 23.5118 15.4636L23.3292 15.1156L23.7178 14.6048C23.9988 14.2342 24.1112 14.0579 24.1112 13.9584C24.1112 13.8409 23.9988 13.7143 23.3479 13.086C22.7204 12.4804 22.5659 12.3538 22.4535 12.3538C22.3598 12.3538 22.1631 12.4668 21.7885 12.7335L21.2593 13.1132L20.8941 12.9369C20.6225 12.8058 19.9762 12.5708 19.728 12.512C19.7233 12.512 19.6718 12.2182 19.6156 11.8566C19.536 11.3277 19.4986 11.1876 19.419 11.1198C19.3347 11.052 19.2082 11.043 18.2623 11.043C17.6441 11.043 17.1712 11.0656 17.1243 11.0927ZM19.0771 12.2724C19.1286 12.616 19.1989 12.9188 19.2316 12.9504C19.2597 12.9776 19.4611 13.0499 19.6718 13.1086C19.8872 13.1629 20.3134 13.3347 20.6271 13.4838C20.9362 13.633 21.2312 13.755 21.2827 13.755C21.3343 13.755 21.6059 13.5923 21.8868 13.3934C22.1678 13.1945 22.4113 13.0318 22.4254 13.0318C22.4394 13.0318 22.6689 13.2443 22.9358 13.5019C23.2777 13.8319 23.4088 13.9901 23.3807 14.0307C23.3619 14.0669 23.1887 14.2974 23.0014 14.546C22.814 14.7901 22.6595 15.0342 22.6595 15.0839C22.6595 15.1336 22.7859 15.4184 22.9405 15.7167C23.095 16.0196 23.273 16.4309 23.3292 16.6388C23.39 16.8422 23.465 17.0366 23.4931 17.0637C23.5258 17.0954 23.8396 17.1586 24.1955 17.2129L24.8371 17.3033V18.0039V18.7045L24.1955 18.7949C23.8396 18.8492 23.5258 18.9124 23.4931 18.9441C23.465 18.9712 23.39 19.1656 23.3292 19.369C23.273 19.5769 23.095 19.9882 22.9405 20.2911C22.7859 20.5894 22.6595 20.8742 22.6595 20.9239C22.6595 20.9736 22.8281 21.2358 23.0341 21.507C23.2402 21.7782 23.4088 22.0132 23.4088 22.0268C23.4088 22.0403 23.1887 22.2618 22.9218 22.5195C22.3645 23.0574 22.4769 23.0483 21.8213 22.5737C21.5544 22.3794 21.3343 22.2528 21.264 22.2528C21.2031 22.2528 21.0299 22.3206 20.8847 22.4065C20.5569 22.5963 20.1776 22.75 19.6531 22.9082C19.4283 22.9715 19.227 23.0483 19.2082 23.08C19.1895 23.1116 19.1286 23.4099 19.0771 23.7444L18.9788 24.3546H18.2576H17.5364L17.4381 23.7444C17.3866 23.4099 17.3257 23.1116 17.307 23.08C17.2882 23.0483 17.0869 22.9715 16.8621 22.9082C16.347 22.7545 16.0005 22.6144 15.6446 22.411C15.49 22.3251 15.3121 22.2528 15.2512 22.2528C15.1856 22.2528 14.9328 22.402 14.633 22.6144C14.3568 22.8133 14.1132 22.976 14.0945 22.976C14.0805 22.976 13.8463 22.7636 13.5794 22.5059C13.0221 21.968 13.0315 22.0765 13.5232 21.4437C13.7199 21.1906 13.8557 20.9736 13.8557 20.9103C13.8557 20.847 13.7714 20.6617 13.6731 20.499C13.4623 20.16 13.2422 19.6357 13.1579 19.2831C13.0643 18.9079 13.0549 18.9034 12.3291 18.7949L11.6781 18.7V18.0039V17.3078L12.3103 17.2129C12.6569 17.1632 12.9659 17.1044 12.9987 17.0863C13.0315 17.0682 13.1111 16.8739 13.1767 16.6569C13.3406 16.1507 13.4998 15.7845 13.6965 15.4681C13.7854 15.328 13.8557 15.1608 13.8557 15.102C13.8557 15.0342 13.7246 14.8218 13.5232 14.5641C13.0315 13.9313 13.0221 14.0398 13.5794 13.5019C13.8463 13.2443 14.0758 13.0318 14.0945 13.0318C14.1086 13.0318 14.3521 13.1945 14.633 13.3934C14.914 13.5923 15.1809 13.755 15.2325 13.755C15.284 13.755 15.579 13.633 15.8881 13.4838C16.2018 13.3347 16.6326 13.1629 16.8481 13.1041C17.0635 13.0454 17.2695 12.964 17.2976 12.9278C17.3257 12.8872 17.3913 12.6024 17.4334 12.2996C17.4802 11.9922 17.5224 11.7165 17.5364 11.6848C17.5505 11.6396 17.7191 11.6306 18.267 11.6396L18.9788 11.6532L19.0771 12.2724Z"/>
</mask>
<path d="M17.1243 11.0927C17.026 11.1469 16.9792 11.3142 16.8761 11.9922L16.7965 12.512L16.3938 12.6386C16.169 12.7064 15.8225 12.842 15.6258 12.9414L15.2652 13.1132L14.7267 12.7335C14.3521 12.4668 14.1507 12.3538 14.0617 12.3538C13.9493 12.3538 13.7901 12.4849 13.1673 13.086C12.5351 13.6917 12.404 13.8454 12.404 13.9494C12.404 14.0398 12.5211 14.2342 12.7974 14.5958L13.1907 15.1156L12.9894 15.5088C12.8348 15.8117 12.6569 16.2727 12.5679 16.5891C12.5679 16.5936 12.2635 16.6388 11.8889 16.6931C11.341 16.7699 11.1958 16.8061 11.1303 16.8829C11.0553 16.9643 11.046 17.0908 11.046 18.0084C11.046 18.9531 11.0553 19.0526 11.1303 19.1249C11.1911 19.1836 11.3738 19.2334 11.7531 19.2876C12.6569 19.4187 12.5585 19.3735 12.6569 19.6944C12.7037 19.8526 12.8395 20.1826 12.9659 20.4357L13.1907 20.8877L12.7974 21.4075C12.5211 21.7691 12.404 21.9635 12.404 22.0539C12.404 22.1624 12.5398 22.3161 13.1626 22.9172C13.7948 23.5275 13.9493 23.654 14.0617 23.654C14.1554 23.654 14.3474 23.5455 14.7267 23.2743L15.2606 22.8901L15.7429 23.1116C16.0051 23.2336 16.3517 23.3647 16.5062 23.4099L16.7965 23.4868L16.8996 24.1422C16.9792 24.6213 17.0307 24.8202 17.0916 24.879C17.1712 24.9558 17.2695 24.9648 18.2389 24.9648C18.8617 24.9648 19.33 24.9468 19.3815 24.9196C19.4892 24.8654 19.536 24.7027 19.6391 24.0156L19.7187 23.4913L20.0137 23.4099C20.1729 23.3647 20.5194 23.2291 20.7817 23.1116L21.2593 22.8901L21.7932 23.2698C22.1678 23.541 22.3645 23.654 22.4581 23.654C22.5659 23.654 22.7251 23.5229 23.3526 22.9172C23.9941 22.298 24.1112 22.1624 24.1112 22.0494C24.1112 21.9499 24.0035 21.7737 23.7178 21.403L23.3245 20.8877L23.5071 20.5442C23.6101 20.3498 23.7459 20.0244 23.8162 19.8119C23.8864 19.5995 23.9473 19.4232 23.9473 19.4187C23.952 19.4097 24.2423 19.3645 24.5982 19.3147C25.2726 19.2198 25.3943 19.1836 25.4411 19.0616C25.4552 19.0254 25.4692 18.5373 25.4692 17.9813C25.4692 17.0863 25.4599 16.9643 25.3896 16.8829C25.3194 16.8061 25.1742 16.7699 24.6263 16.6931C24.2517 16.6388 23.9473 16.5936 23.9473 16.5891C23.8911 16.3631 23.6429 15.7213 23.5118 15.4636L23.3292 15.1156L23.7178 14.6048C23.9988 14.2342 24.1112 14.0579 24.1112 13.9584C24.1112 13.8409 23.9988 13.7143 23.3479 13.086C22.7204 12.4804 22.5659 12.3538 22.4535 12.3538C22.3598 12.3538 22.1631 12.4668 21.7885 12.7335L21.2593 13.1132L20.8941 12.9369C20.6225 12.8058 19.9762 12.5708 19.728 12.512C19.7233 12.512 19.6718 12.2182 19.6156 11.8566C19.536 11.3277 19.4986 11.1876 19.419 11.1198C19.3347 11.052 19.2082 11.043 18.2623 11.043C17.6441 11.043 17.1712 11.0656 17.1243 11.0927ZM19.0771 12.2724C19.1286 12.616 19.1989 12.9188 19.2316 12.9504C19.2597 12.9776 19.4611 13.0499 19.6718 13.1086C19.8872 13.1629 20.3134 13.3347 20.6271 13.4838C20.9362 13.633 21.2312 13.755 21.2827 13.755C21.3343 13.755 21.6059 13.5923 21.8868 13.3934C22.1678 13.1945 22.4113 13.0318 22.4254 13.0318C22.4394 13.0318 22.6689 13.2443 22.9358 13.5019C23.2777 13.8319 23.4088 13.9901 23.3807 14.0307C23.3619 14.0669 23.1887 14.2974 23.0014 14.546C22.814 14.7901 22.6595 15.0342 22.6595 15.0839C22.6595 15.1336 22.7859 15.4184 22.9405 15.7167C23.095 16.0196 23.273 16.4309 23.3292 16.6388C23.39 16.8422 23.465 17.0366 23.4931 17.0637C23.5258 17.0954 23.8396 17.1586 24.1955 17.2129L24.8371 17.3033V18.0039V18.7045L24.1955 18.7949C23.8396 18.8492 23.5258 18.9124 23.4931 18.9441C23.465 18.9712 23.39 19.1656 23.3292 19.369C23.273 19.5769 23.095 19.9882 22.9405 20.2911C22.7859 20.5894 22.6595 20.8742 22.6595 20.9239C22.6595 20.9736 22.8281 21.2358 23.0341 21.507C23.2402 21.7782 23.4088 22.0132 23.4088 22.0268C23.4088 22.0403 23.1887 22.2618 22.9218 22.5195C22.3645 23.0574 22.4769 23.0483 21.8213 22.5737C21.5544 22.3794 21.3343 22.2528 21.264 22.2528C21.2031 22.2528 21.0299 22.3206 20.8847 22.4065C20.5569 22.5963 20.1776 22.75 19.6531 22.9082C19.4283 22.9715 19.227 23.0483 19.2082 23.08C19.1895 23.1116 19.1286 23.4099 19.0771 23.7444L18.9788 24.3546H18.2576H17.5364L17.4381 23.7444C17.3866 23.4099 17.3257 23.1116 17.307 23.08C17.2882 23.0483 17.0869 22.9715 16.8621 22.9082C16.347 22.7545 16.0005 22.6144 15.6446 22.411C15.49 22.3251 15.3121 22.2528 15.2512 22.2528C15.1856 22.2528 14.9328 22.402 14.633 22.6144C14.3568 22.8133 14.1132 22.976 14.0945 22.976C14.0805 22.976 13.8463 22.7636 13.5794 22.5059C13.0221 21.968 13.0315 22.0765 13.5232 21.4437C13.7199 21.1906 13.8557 20.9736 13.8557 20.9103C13.8557 20.847 13.7714 20.6617 13.6731 20.499C13.4623 20.16 13.2422 19.6357 13.1579 19.2831C13.0643 18.9079 13.0549 18.9034 12.3291 18.7949L11.6781 18.7V18.0039V17.3078L12.3103 17.2129C12.6569 17.1632 12.9659 17.1044 12.9987 17.0863C13.0315 17.0682 13.1111 16.8739 13.1767 16.6569C13.3406 16.1507 13.4998 15.7845 13.6965 15.4681C13.7854 15.328 13.8557 15.1608 13.8557 15.102C13.8557 15.0342 13.7246 14.8218 13.5232 14.5641C13.0315 13.9313 13.0221 14.0398 13.5794 13.5019C13.8463 13.2443 14.0758 13.0318 14.0945 13.0318C14.1086 13.0318 14.3521 13.1945 14.633 13.3934C14.914 13.5923 15.1809 13.755 15.2325 13.755C15.284 13.755 15.579 13.633 15.8881 13.4838C16.2018 13.3347 16.6326 13.1629 16.8481 13.1041C17.0635 13.0454 17.2695 12.964 17.2976 12.9278C17.3257 12.8872 17.3913 12.6024 17.4334 12.2996C17.4802 11.9922 17.5224 11.7165 17.5364 11.6848C17.5505 11.6396 17.7191 11.6306 18.267 11.6396L18.9788 11.6532L19.0771 12.2724Z" fill="black"/>
<path d="M17.1243 11.0927C17.026 11.1469 16.9792 11.3142 16.8761 11.9922L16.7965 12.512L16.3938 12.6386C16.169 12.7064 15.8225 12.842 15.6258 12.9414L15.2652 13.1132L14.7267 12.7335C14.3521 12.4668 14.1507 12.3538 14.0617 12.3538C13.9493 12.3538 13.7901 12.4849 13.1673 13.086C12.5351 13.6917 12.404 13.8454 12.404 13.9494C12.404 14.0398 12.5211 14.2342 12.7974 14.5958L13.1907 15.1156L12.9894 15.5088C12.8348 15.8117 12.6569 16.2727 12.5679 16.5891C12.5679 16.5936 12.2635 16.6388 11.8889 16.6931C11.341 16.7699 11.1958 16.8061 11.1303 16.8829C11.0553 16.9643 11.046 17.0908 11.046 18.0084C11.046 18.9531 11.0553 19.0526 11.1303 19.1249C11.1911 19.1836 11.3738 19.2334 11.7531 19.2876C12.6569 19.4187 12.5585 19.3735 12.6569 19.6944C12.7037 19.8526 12.8395 20.1826 12.9659 20.4357L13.1907 20.8877L12.7974 21.4075C12.5211 21.7691 12.404 21.9635 12.404 22.0539C12.404 22.1624 12.5398 22.3161 13.1626 22.9172C13.7948 23.5275 13.9493 23.654 14.0617 23.654C14.1554 23.654 14.3474 23.5455 14.7267 23.2743L15.2606 22.8901L15.7429 23.1116C16.0051 23.2336 16.3517 23.3647 16.5062 23.4099L16.7965 23.4868L16.8996 24.1422C16.9792 24.6213 17.0307 24.8202 17.0916 24.879C17.1712 24.9558 17.2695 24.9648 18.2389 24.9648C18.8617 24.9648 19.33 24.9468 19.3815 24.9196C19.4892 24.8654 19.536 24.7027 19.6391 24.0156L19.7187 23.4913L20.0137 23.4099C20.1729 23.3647 20.5194 23.2291 20.7817 23.1116L21.2593 22.8901L21.7932 23.2698C22.1678 23.541 22.3645 23.654 22.4581 23.654C22.5659 23.654 22.7251 23.5229 23.3526 22.9172C23.9941 22.298 24.1112 22.1624 24.1112 22.0494C24.1112 21.9499 24.0035 21.7737 23.7178 21.403L23.3245 20.8877L23.5071 20.5442C23.6101 20.3498 23.7459 20.0244 23.8162 19.8119C23.8864 19.5995 23.9473 19.4232 23.9473 19.4187C23.952 19.4097 24.2423 19.3645 24.5982 19.3147C25.2726 19.2198 25.3943 19.1836 25.4411 19.0616C25.4552 19.0254 25.4692 18.5373 25.4692 17.9813C25.4692 17.0863 25.4599 16.9643 25.3896 16.8829C25.3194 16.8061 25.1742 16.7699 24.6263 16.6931C24.2517 16.6388 23.9473 16.5936 23.9473 16.5891C23.8911 16.3631 23.6429 15.7213 23.5118 15.4636L23.3292 15.1156L23.7178 14.6048C23.9988 14.2342 24.1112 14.0579 24.1112 13.9584C24.1112 13.8409 23.9988 13.7143 23.3479 13.086C22.7204 12.4804 22.5659 12.3538 22.4535 12.3538C22.3598 12.3538 22.1631 12.4668 21.7885 12.7335L21.2593 13.1132L20.8941 12.9369C20.6225 12.8058 19.9762 12.5708 19.728 12.512C19.7233 12.512 19.6718 12.2182 19.6156 11.8566C19.536 11.3277 19.4986 11.1876 19.419 11.1198C19.3347 11.052 19.2082 11.043 18.2623 11.043C17.6441 11.043 17.1712 11.0656 17.1243 11.0927ZM19.0771 12.2724C19.1286 12.616 19.1989 12.9188 19.2316 12.9504C19.2597 12.9776 19.4611 13.0499 19.6718 13.1086C19.8872 13.1629 20.3134 13.3347 20.6271 13.4838C20.9362 13.633 21.2312 13.755 21.2827 13.755C21.3343 13.755 21.6059 13.5923 21.8868 13.3934C22.1678 13.1945 22.4113 13.0318 22.4254 13.0318C22.4394 13.0318 22.6689 13.2443 22.9358 13.5019C23.2777 13.8319 23.4088 13.9901 23.3807 14.0307C23.3619 14.0669 23.1887 14.2974 23.0014 14.546C22.814 14.7901 22.6595 15.0342 22.6595 15.0839C22.6595 15.1336 22.7859 15.4184 22.9405 15.7167C23.095 16.0196 23.273 16.4309 23.3292 16.6388C23.39 16.8422 23.465 17.0366 23.4931 17.0637C23.5258 17.0954 23.8396 17.1586 24.1955 17.2129L24.8371 17.3033V18.0039V18.7045L24.1955 18.7949C23.8396 18.8492 23.5258 18.9124 23.4931 18.9441C23.465 18.9712 23.39 19.1656 23.3292 19.369C23.273 19.5769 23.095 19.9882 22.9405 20.2911C22.7859 20.5894 22.6595 20.8742 22.6595 20.9239C22.6595 20.9736 22.8281 21.2358 23.0341 21.507C23.2402 21.7782 23.4088 22.0132 23.4088 22.0268C23.4088 22.0403 23.1887 22.2618 22.9218 22.5195C22.3645 23.0574 22.4769 23.0483 21.8213 22.5737C21.5544 22.3794 21.3343 22.2528 21.264 22.2528C21.2031 22.2528 21.0299 22.3206 20.8847 22.4065C20.5569 22.5963 20.1776 22.75 19.6531 22.9082C19.4283 22.9715 19.227 23.0483 19.2082 23.08C19.1895 23.1116 19.1286 23.4099 19.0771 23.7444L18.9788 24.3546H18.2576H17.5364L17.4381 23.7444C17.3866 23.4099 17.3257 23.1116 17.307 23.08C17.2882 23.0483 17.0869 22.9715 16.8621 22.9082C16.347 22.7545 16.0005 22.6144 15.6446 22.411C15.49 22.3251 15.3121 22.2528 15.2512 22.2528C15.1856 22.2528 14.9328 22.402 14.633 22.6144C14.3568 22.8133 14.1132 22.976 14.0945 22.976C14.0805 22.976 13.8463 22.7636 13.5794 22.5059C13.0221 21.968 13.0315 22.0765 13.5232 21.4437C13.7199 21.1906 13.8557 20.9736 13.8557 20.9103C13.8557 20.847 13.7714 20.6617 13.6731 20.499C13.4623 20.16 13.2422 19.6357 13.1579 19.2831C13.0643 18.9079 13.0549 18.9034 12.3291 18.7949L11.6781 18.7V18.0039V17.3078L12.3103 17.2129C12.6569 17.1632 12.9659 17.1044 12.9987 17.0863C13.0315 17.0682 13.1111 16.8739 13.1767 16.6569C13.3406 16.1507 13.4998 15.7845 13.6965 15.4681C13.7854 15.328 13.8557 15.1608 13.8557 15.102C13.8557 15.0342 13.7246 14.8218 13.5232 14.5641C13.0315 13.9313 13.0221 14.0398 13.5794 13.5019C13.8463 13.2443 14.0758 13.0318 14.0945 13.0318C14.1086 13.0318 14.3521 13.1945 14.633 13.3934C14.914 13.5923 15.1809 13.755 15.2325 13.755C15.284 13.755 15.579 13.633 15.8881 13.4838C16.2018 13.3347 16.6326 13.1629 16.8481 13.1041C17.0635 13.0454 17.2695 12.964 17.2976 12.9278C17.3257 12.8872 17.3913 12.6024 17.4334 12.2996C17.4802 11.9922 17.5224 11.7165 17.5364 11.6848C17.5505 11.6396 17.7191 11.6306 18.267 11.6396L18.9788 11.6532L19.0771 12.2724Z" stroke="black" stroke-width="0.411429" mask="url(#path-7-outside-4_3023_43055)"/>
</g>
<g id="Vector_5">
<mask id="path-8-outside-5_3023_43055" maskUnits="userSpaceOnUse" x="14.34" y="14.8154" width="8" height="7" fill="black">
<rect fill="white" x="14.34" y="14.8154" width="8" height="7"/>
<path d="M17.8828 15.206C17.2319 15.2783 16.6934 15.536 16.1923 16.0196C15.621 16.5665 15.34 17.222 15.34 18.0039C15.34 18.4921 15.4103 18.7904 15.6444 19.265C15.9956 19.9747 16.787 20.5849 17.5925 20.7612C17.9156 20.8335 18.5993 20.8335 18.9224 20.7612C19.7373 20.5804 20.5146 19.9837 20.8705 19.265C21.1047 18.7904 21.1702 18.5102 21.1702 18.0039C21.1702 17.4977 21.1047 17.2174 20.8705 16.7428C20.7207 16.44 20.6036 16.2863 20.3226 16.0106C19.667 15.3823 18.8147 15.0975 17.8828 15.206ZM18.7679 15.8117C19.9433 16.0829 20.7534 17.2174 20.5614 18.3294C20.3929 19.3012 19.6015 20.0651 18.5993 20.2278C17.1102 20.4674 15.7053 19.1114 15.9535 17.674C16.1783 16.3812 17.4801 15.5179 18.7679 15.8117Z"/>
</mask>
<path d="M17.8828 15.206C17.2319 15.2783 16.6934 15.536 16.1923 16.0196C15.621 16.5665 15.34 17.222 15.34 18.0039C15.34 18.4921 15.4103 18.7904 15.6444 19.265C15.9956 19.9747 16.787 20.5849 17.5925 20.7612C17.9156 20.8335 18.5993 20.8335 18.9224 20.7612C19.7373 20.5804 20.5146 19.9837 20.8705 19.265C21.1047 18.7904 21.1702 18.5102 21.1702 18.0039C21.1702 17.4977 21.1047 17.2174 20.8705 16.7428C20.7207 16.44 20.6036 16.2863 20.3226 16.0106C19.667 15.3823 18.8147 15.0975 17.8828 15.206ZM18.7679 15.8117C19.9433 16.0829 20.7534 17.2174 20.5614 18.3294C20.3929 19.3012 19.6015 20.0651 18.5993 20.2278C17.1102 20.4674 15.7053 19.1114 15.9535 17.674C16.1783 16.3812 17.4801 15.5179 18.7679 15.8117Z" fill="black"/>
<path d="M17.8828 15.206C17.2319 15.2783 16.6934 15.536 16.1923 16.0196C15.621 16.5665 15.34 17.222 15.34 18.0039C15.34 18.4921 15.4103 18.7904 15.6444 19.265C15.9956 19.9747 16.787 20.5849 17.5925 20.7612C17.9156 20.8335 18.5993 20.8335 18.9224 20.7612C19.7373 20.5804 20.5146 19.9837 20.8705 19.265C21.1047 18.7904 21.1702 18.5102 21.1702 18.0039C21.1702 17.4977 21.1047 17.2174 20.8705 16.7428C20.7207 16.44 20.6036 16.2863 20.3226 16.0106C19.667 15.3823 18.8147 15.0975 17.8828 15.206ZM18.7679 15.8117C19.9433 16.0829 20.7534 17.2174 20.5614 18.3294C20.3929 19.3012 19.6015 20.0651 18.5993 20.2278C17.1102 20.4674 15.7053 19.1114 15.9535 17.674C16.1783 16.3812 17.4801 15.5179 18.7679 15.8117Z" stroke="black" stroke-width="0.411429" mask="url(#path-8-outside-5_3023_43055)"/>
</g>
<g id="Vector_6">
<mask id="path-9-outside-6_3023_43055" maskUnits="userSpaceOnUse" x="5.6861" y="17.0837" width="14" height="12" fill="black">
<rect fill="white" x="5.6861" y="17.0837" width="14" height="12"/>
<path d="M7.31363 17.9723C6.64866 18.6141 6.58778 18.7181 6.78446 18.9079C6.95304 19.0707 7.09353 19.0255 7.46348 18.6819L7.80065 18.3655L7.82874 18.813C7.87557 19.5001 8.07225 20.4222 8.32981 21.1815C9.36473 24.2055 11.8326 26.5921 14.9561 27.582C16.0285 27.921 16.9931 28.0837 17.9297 28.0837C18.4776 28.0837 18.5385 28.0566 18.5385 27.8351C18.5385 27.5955 18.4402 27.5549 17.7939 27.5232C14.146 27.3243 10.985 25.2993 9.38346 22.1398C8.89176 21.1725 8.52649 19.943 8.44688 18.9983C8.43283 18.813 8.40942 18.587 8.39537 18.5011L8.36727 18.3429L8.71849 18.6684C8.91049 18.8492 9.10717 18.9983 9.15868 18.9983C9.3179 18.9983 9.4537 18.8672 9.4537 18.7136C9.4537 18.587 9.36941 18.4876 8.83088 17.9678C8.31576 17.4751 8.18932 17.3711 8.07225 17.3711C7.95986 17.3711 7.82874 17.4751 7.31363 17.9723Z"/>
</mask>
<path d="M7.31363 17.9723C6.64866 18.6141 6.58778 18.7181 6.78446 18.9079C6.95304 19.0707 7.09353 19.0255 7.46348 18.6819L7.80065 18.3655L7.82874 18.813C7.87557 19.5001 8.07225 20.4222 8.32981 21.1815C9.36473 24.2055 11.8326 26.5921 14.9561 27.582C16.0285 27.921 16.9931 28.0837 17.9297 28.0837C18.4776 28.0837 18.5385 28.0566 18.5385 27.8351C18.5385 27.5955 18.4402 27.5549 17.7939 27.5232C14.146 27.3243 10.985 25.2993 9.38346 22.1398C8.89176 21.1725 8.52649 19.943 8.44688 18.9983C8.43283 18.813 8.40942 18.587 8.39537 18.5011L8.36727 18.3429L8.71849 18.6684C8.91049 18.8492 9.10717 18.9983 9.15868 18.9983C9.3179 18.9983 9.4537 18.8672 9.4537 18.7136C9.4537 18.587 9.36941 18.4876 8.83088 17.9678C8.31576 17.4751 8.18932 17.3711 8.07225 17.3711C7.95986 17.3711 7.82874 17.4751 7.31363 17.9723Z" fill="black"/>
<path d="M7.31363 17.9723C6.64866 18.6141 6.58778 18.7181 6.78446 18.9079C6.95304 19.0707 7.09353 19.0255 7.46348 18.6819L7.80065 18.3655L7.82874 18.813C7.87557 19.5001 8.07225 20.4222 8.32981 21.1815C9.36473 24.2055 11.8326 26.5921 14.9561 27.582C16.0285 27.921 16.9931 28.0837 17.9297 28.0837C18.4776 28.0837 18.5385 28.0566 18.5385 27.8351C18.5385 27.5955 18.4402 27.5549 17.7939 27.5232C14.146 27.3243 10.985 25.2993 9.38346 22.1398C8.89176 21.1725 8.52649 19.943 8.44688 18.9983C8.43283 18.813 8.40942 18.587 8.39537 18.5011L8.36727 18.3429L8.71849 18.6684C8.91049 18.8492 9.10717 18.9983 9.15868 18.9983C9.3179 18.9983 9.4537 18.8672 9.4537 18.7136C9.4537 18.587 9.36941 18.4876 8.83088 17.9678C8.31576 17.4751 8.18932 17.3711 8.07225 17.3711C7.95986 17.3711 7.82874 17.4751 7.31363 17.9723Z" stroke="black" stroke-width="0.411429" mask="url(#path-9-outside-6_3023_43055)"/>
</g>
<g id="Vector_7">
<mask id="path-10-outside-7_3023_43055" maskUnits="userSpaceOnUse" x="18.3348" y="18.8077" width="12" height="11" fill="black">
<rect fill="white" x="18.3348" y="18.8077" width="12" height="11"/>
<path d="M25.3148 19.7577C25.2305 19.8436 25.2118 20.0244 25.2727 20.1148C25.2914 20.1464 25.4647 20.2323 25.6567 20.3137C26.0266 20.4628 26.5698 20.7838 26.6822 20.9103C26.804 21.0595 27.0428 21.0053 27.4643 20.7386C27.6844 20.603 27.867 20.49 27.8764 20.49C27.9045 20.49 28.7005 21.7013 28.7005 21.742C28.7005 21.7646 28.5226 21.8912 28.3025 22.0223C28.0824 22.1579 27.8764 22.307 27.8483 22.3568C27.8108 22.4246 27.8202 22.5376 27.8857 22.8133C27.9981 23.2924 27.9981 23.975 27.8857 24.4134C27.8202 24.662 27.8108 24.7705 27.8483 24.8473C27.8764 24.9061 28.0777 25.0643 28.2978 25.1954C28.5179 25.331 28.7005 25.4575 28.7005 25.4801C28.7005 25.5253 27.9045 26.7277 27.8764 26.7277C27.867 26.7277 27.675 26.6147 27.4596 26.4791C27.2208 26.3344 27.0053 26.2305 26.9304 26.2305C26.8508 26.2305 26.6963 26.3073 26.523 26.4339C26.1671 26.687 25.8861 26.8362 25.4881 26.9763C25.3148 27.0396 25.1556 27.1119 25.1322 27.1435C25.1135 27.1752 25.0947 27.4328 25.0947 27.7085V28.2193H24.2986H23.5025V27.7311C23.5025 27.1661 23.4651 27.0893 23.1654 27.0034C22.8563 26.913 22.285 26.6192 22.0134 26.4158C21.8635 26.3028 21.723 26.2305 21.6434 26.2305C21.5685 26.2305 21.3437 26.3344 21.1002 26.4836C20.8754 26.6237 20.6788 26.7322 20.6741 26.7232C20.6647 26.7141 20.4821 26.4384 20.2714 26.1175C20.0606 25.792 19.8499 25.5027 19.8124 25.4756C19.6392 25.34 19.3348 25.4801 19.3348 25.6926C19.3348 25.8417 20.3603 27.3605 20.4915 27.4102C20.6319 27.4599 20.6834 27.4373 21.1939 27.1255L21.62 26.8588L21.8542 27.0215C21.9806 27.1074 22.2663 27.2611 22.491 27.365L22.8938 27.5458V28.0837C22.8938 28.8612 22.7907 28.8069 24.2893 28.8069C25.4038 28.8069 25.5068 28.8024 25.5771 28.7256C25.6426 28.6578 25.6567 28.5402 25.6567 28.1018V27.5594L26.0079 27.4102C26.1999 27.3289 26.4902 27.1752 26.6588 27.0667L26.9585 26.8723L27.3847 27.139C27.8483 27.4238 27.9934 27.4825 28.1152 27.4193C28.1526 27.3967 28.4711 26.9537 28.8176 26.4294C29.3187 25.679 29.4498 25.4575 29.4404 25.3491C29.4264 25.2315 29.3608 25.1728 28.9441 24.9061L28.4617 24.5987L28.4992 24.4315C28.546 24.219 28.546 23.0619 28.5039 22.8133L28.4664 22.6234L28.8551 22.3839C29.3561 22.072 29.4498 21.9906 29.4498 21.855C29.4498 21.7149 28.2604 19.925 28.1058 19.8255C27.97 19.7396 27.9045 19.7622 27.3566 20.1103L26.9679 20.3544L26.6401 20.1464C26.2608 19.9114 25.7035 19.6763 25.5162 19.6763C25.4459 19.6763 25.357 19.7125 25.3148 19.7577Z"/>
</mask>
<path d="M25.3148 19.7577C25.2305 19.8436 25.2118 20.0244 25.2727 20.1148C25.2914 20.1464 25.4647 20.2323 25.6567 20.3137C26.0266 20.4628 26.5698 20.7838 26.6822 20.9103C26.804 21.0595 27.0428 21.0053 27.4643 20.7386C27.6844 20.603 27.867 20.49 27.8764 20.49C27.9045 20.49 28.7005 21.7013 28.7005 21.742C28.7005 21.7646 28.5226 21.8912 28.3025 22.0223C28.0824 22.1579 27.8764 22.307 27.8483 22.3568C27.8108 22.4246 27.8202 22.5376 27.8857 22.8133C27.9981 23.2924 27.9981 23.975 27.8857 24.4134C27.8202 24.662 27.8108 24.7705 27.8483 24.8473C27.8764 24.9061 28.0777 25.0643 28.2978 25.1954C28.5179 25.331 28.7005 25.4575 28.7005 25.4801C28.7005 25.5253 27.9045 26.7277 27.8764 26.7277C27.867 26.7277 27.675 26.6147 27.4596 26.4791C27.2208 26.3344 27.0053 26.2305 26.9304 26.2305C26.8508 26.2305 26.6963 26.3073 26.523 26.4339C26.1671 26.687 25.8861 26.8362 25.4881 26.9763C25.3148 27.0396 25.1556 27.1119 25.1322 27.1435C25.1135 27.1752 25.0947 27.4328 25.0947 27.7085V28.2193H24.2986H23.5025V27.7311C23.5025 27.1661 23.4651 27.0893 23.1654 27.0034C22.8563 26.913 22.285 26.6192 22.0134 26.4158C21.8635 26.3028 21.723 26.2305 21.6434 26.2305C21.5685 26.2305 21.3437 26.3344 21.1002 26.4836C20.8754 26.6237 20.6788 26.7322 20.6741 26.7232C20.6647 26.7141 20.4821 26.4384 20.2714 26.1175C20.0606 25.792 19.8499 25.5027 19.8124 25.4756C19.6392 25.34 19.3348 25.4801 19.3348 25.6926C19.3348 25.8417 20.3603 27.3605 20.4915 27.4102C20.6319 27.4599 20.6834 27.4373 21.1939 27.1255L21.62 26.8588L21.8542 27.0215C21.9806 27.1074 22.2663 27.2611 22.491 27.365L22.8938 27.5458V28.0837C22.8938 28.8612 22.7907 28.8069 24.2893 28.8069C25.4038 28.8069 25.5068 28.8024 25.5771 28.7256C25.6426 28.6578 25.6567 28.5402 25.6567 28.1018V27.5594L26.0079 27.4102C26.1999 27.3289 26.4902 27.1752 26.6588 27.0667L26.9585 26.8723L27.3847 27.139C27.8483 27.4238 27.9934 27.4825 28.1152 27.4193C28.1526 27.3967 28.4711 26.9537 28.8176 26.4294C29.3187 25.679 29.4498 25.4575 29.4404 25.3491C29.4264 25.2315 29.3608 25.1728 28.9441 24.9061L28.4617 24.5987L28.4992 24.4315C28.546 24.219 28.546 23.0619 28.5039 22.8133L28.4664 22.6234L28.8551 22.3839C29.3561 22.072 29.4498 21.9906 29.4498 21.855C29.4498 21.7149 28.2604 19.925 28.1058 19.8255C27.97 19.7396 27.9045 19.7622 27.3566 20.1103L26.9679 20.3544L26.6401 20.1464C26.2608 19.9114 25.7035 19.6763 25.5162 19.6763C25.4459 19.6763 25.357 19.7125 25.3148 19.7577Z" fill="black"/>
<path d="M25.3148 19.7577C25.2305 19.8436 25.2118 20.0244 25.2727 20.1148C25.2914 20.1464 25.4647 20.2323 25.6567 20.3137C26.0266 20.4628 26.5698 20.7838 26.6822 20.9103C26.804 21.0595 27.0428 21.0053 27.4643 20.7386C27.6844 20.603 27.867 20.49 27.8764 20.49C27.9045 20.49 28.7005 21.7013 28.7005 21.742C28.7005 21.7646 28.5226 21.8912 28.3025 22.0223C28.0824 22.1579 27.8764 22.307 27.8483 22.3568C27.8108 22.4246 27.8202 22.5376 27.8857 22.8133C27.9981 23.2924 27.9981 23.975 27.8857 24.4134C27.8202 24.662 27.8108 24.7705 27.8483 24.8473C27.8764 24.9061 28.0777 25.0643 28.2978 25.1954C28.5179 25.331 28.7005 25.4575 28.7005 25.4801C28.7005 25.5253 27.9045 26.7277 27.8764 26.7277C27.867 26.7277 27.675 26.6147 27.4596 26.4791C27.2208 26.3344 27.0053 26.2305 26.9304 26.2305C26.8508 26.2305 26.6963 26.3073 26.523 26.4339C26.1671 26.687 25.8861 26.8362 25.4881 26.9763C25.3148 27.0396 25.1556 27.1119 25.1322 27.1435C25.1135 27.1752 25.0947 27.4328 25.0947 27.7085V28.2193H24.2986H23.5025V27.7311C23.5025 27.1661 23.4651 27.0893 23.1654 27.0034C22.8563 26.913 22.285 26.6192 22.0134 26.4158C21.8635 26.3028 21.723 26.2305 21.6434 26.2305C21.5685 26.2305 21.3437 26.3344 21.1002 26.4836C20.8754 26.6237 20.6788 26.7322 20.6741 26.7232C20.6647 26.7141 20.4821 26.4384 20.2714 26.1175C20.0606 25.792 19.8499 25.5027 19.8124 25.4756C19.6392 25.34 19.3348 25.4801 19.3348 25.6926C19.3348 25.8417 20.3603 27.3605 20.4915 27.4102C20.6319 27.4599 20.6834 27.4373 21.1939 27.1255L21.62 26.8588L21.8542 27.0215C21.9806 27.1074 22.2663 27.2611 22.491 27.365L22.8938 27.5458V28.0837C22.8938 28.8612 22.7907 28.8069 24.2893 28.8069C25.4038 28.8069 25.5068 28.8024 25.5771 28.7256C25.6426 28.6578 25.6567 28.5402 25.6567 28.1018V27.5594L26.0079 27.4102C26.1999 27.3289 26.4902 27.1752 26.6588 27.0667L26.9585 26.8723L27.3847 27.139C27.8483 27.4238 27.9934 27.4825 28.1152 27.4193C28.1526 27.3967 28.4711 26.9537 28.8176 26.4294C29.3187 25.679 29.4498 25.4575 29.4404 25.3491C29.4264 25.2315 29.3608 25.1728 28.9441 24.9061L28.4617 24.5987L28.4992 24.4315C28.546 24.219 28.546 23.0619 28.5039 22.8133L28.4664 22.6234L28.8551 22.3839C29.3561 22.072 29.4498 21.9906 29.4498 21.855C29.4498 21.7149 28.2604 19.925 28.1058 19.8255C27.97 19.7396 27.9045 19.7622 27.3566 20.1103L26.9679 20.3544L26.6401 20.1464C26.2608 19.9114 25.7035 19.6763 25.5162 19.6763C25.4459 19.6763 25.357 19.7125 25.3148 19.7577Z" stroke="black" stroke-width="0.411429" mask="url(#path-10-outside-7_3023_43055)"/>
</g>
<g id="Vector_8">
<mask id="path-11-outside-8_3023_43055" maskUnits="userSpaceOnUse" x="21.0976" y="20.9959" width="6" height="6" fill="black">
<rect fill="white" x="21.0976" y="20.9959" width="6" height="6"/>
<path d="M24.6123 21.3804C24.5093 21.4934 24.5093 21.6787 24.617 21.7646C24.6591 21.8008 24.7949 21.8641 24.912 21.9093C25.4131 22.0855 25.7783 22.42 26.0172 22.9127C26.1296 23.1432 26.1483 23.2337 26.1483 23.6133C26.1483 24.0201 26.1389 24.0608 25.9703 24.3863C25.769 24.784 25.4693 25.0733 25.0572 25.2677C24.8184 25.3807 24.7434 25.3943 24.2986 25.3943C23.863 25.3943 23.7741 25.3807 23.5399 25.2722C23.2402 25.1366 22.9031 24.8564 22.697 24.5716C22.5846 24.4089 22.5378 24.3772 22.4067 24.3772C22.2334 24.3772 22.0976 24.4902 22.0976 24.6394C22.0976 24.8699 22.594 25.4259 23.0108 25.6609C23.5446 25.9638 24.247 26.0723 24.8324 25.9412C26.1436 25.6429 26.9865 24.3998 26.7149 23.1568C26.6072 22.6596 26.3965 22.2799 26.0359 21.9319C25.5348 21.4482 24.8137 21.168 24.6123 21.3804Z"/>
</mask>
<path d="M24.6123 21.3804C24.5093 21.4934 24.5093 21.6787 24.617 21.7646C24.6591 21.8008 24.7949 21.8641 24.912 21.9093C25.4131 22.0855 25.7783 22.42 26.0172 22.9127C26.1296 23.1432 26.1483 23.2337 26.1483 23.6133C26.1483 24.0201 26.1389 24.0608 25.9703 24.3863C25.769 24.784 25.4693 25.0733 25.0572 25.2677C24.8184 25.3807 24.7434 25.3943 24.2986 25.3943C23.863 25.3943 23.7741 25.3807 23.5399 25.2722C23.2402 25.1366 22.9031 24.8564 22.697 24.5716C22.5846 24.4089 22.5378 24.3772 22.4067 24.3772C22.2334 24.3772 22.0976 24.4902 22.0976 24.6394C22.0976 24.8699 22.594 25.4259 23.0108 25.6609C23.5446 25.9638 24.247 26.0723 24.8324 25.9412C26.1436 25.6429 26.9865 24.3998 26.7149 23.1568C26.6072 22.6596 26.3965 22.2799 26.0359 21.9319C25.5348 21.4482 24.8137 21.168 24.6123 21.3804Z" fill="black"/>
<path d="M24.6123 21.3804C24.5093 21.4934 24.5093 21.6787 24.617 21.7646C24.6591 21.8008 24.7949 21.8641 24.912 21.9093C25.4131 22.0855 25.7783 22.42 26.0172 22.9127C26.1296 23.1432 26.1483 23.2337 26.1483 23.6133C26.1483 24.0201 26.1389 24.0608 25.9703 24.3863C25.769 24.784 25.4693 25.0733 25.0572 25.2677C24.8184 25.3807 24.7434 25.3943 24.2986 25.3943C23.863 25.3943 23.7741 25.3807 23.5399 25.2722C23.2402 25.1366 22.9031 24.8564 22.697 24.5716C22.5846 24.4089 22.5378 24.3772 22.4067 24.3772C22.2334 24.3772 22.0976 24.4902 22.0976 24.6394C22.0976 24.8699 22.594 25.4259 23.0108 25.6609C23.5446 25.9638 24.247 26.0723 24.8324 25.9412C26.1436 25.6429 26.9865 24.3998 26.7149 23.1568C26.6072 22.6596 26.3965 22.2799 26.0359 21.9319C25.5348 21.4482 24.8137 21.168 24.6123 21.3804Z" stroke="black" stroke-width="0.411429" mask="url(#path-11-outside-8_3023_43055)"/>
</g>
</g>
</g>
</g>
</svg>