<svg xmlns="http://www.w3.org/2000/svg" fill="none" viewBox="4 7 64 58.23">
<g id="performance-peer-reviews">
<g id="Group 1171275587">
<g id="Group">
<g id="Vector">
<path d="M62.8383 7H9.16169C6.31592 7 4 9.33333 4 12.2015V60.0348C4 62.903 6.31592 65.2338 9.16169 65.2338H62.8383C65.6841 65.2338 68 62.903 68 60.0348V12.2015C68 9.33333 65.6841 7 62.8383 7ZM9.16169 9.08209H62.8383C64.5473 9.08209 65.9353 10.4801 65.9353 12.2015V19.4801H6.06468V12.2015C6.06468 10.4801 7.45274 9.08209 9.16169 9.08209ZM62.8383 63.1542H9.16169C7.45274 63.1542 6.06468 61.7562 6.06468 60.0348V21.5597H65.9353V60.0348C65.9353 61.7562 64.5473 63.1542 62.8383 63.1542Z" fill="#0D313B"/>
<path d="M62.8383 63.1542H9.16169C7.45274 63.1542 6.06468 61.7562 6.06468 60.0348V21.5597H65.9353V60.0348C65.9353 61.7562 64.5473 63.1542 62.8383 63.1542Z" fill="#36C5F0"/>
</g>
</g>
<g id="Vector_2">
<path d="M11.2259 17.4005C12.9324 17.4005 14.3229 16.0001 14.3229 14.2811C14.3229 12.5598 12.9324 11.1617 11.2259 11.1617C9.51697 11.1617 8.12891 12.5598 8.12891 14.2811C8.12891 16.0001 9.51697 17.4005 11.2259 17.4005ZM11.2259 13.2413C11.7931 13.2413 12.2583 13.7065 12.2583 14.2811C12.2583 14.8533 11.7931 15.3209 11.2259 15.3209C10.6563 15.3209 10.1936 14.8533 10.1936 14.2811C10.1936 13.7065 10.6563 13.2413 11.2259 13.2413Z" fill="#0D313B"/>
<path d="M11.2259 13.2413C11.7931 13.2413 12.2583 13.7065 12.2583 14.2811C12.2583 14.8533 11.7931 15.3209 11.2259 15.3209C10.6563 15.3209 10.1936 14.8533 10.1936 14.2811C10.1936 13.7065 10.6563 13.2413 11.2259 13.2413Z" fill="#36C5F0"/>
</g>
<path id="Vector_3" d="M40.9349 17.4004H59.5145C61.2235 17.4004 62.6115 15.9999 62.6115 14.281C62.6115 12.5596 61.2235 11.1616 59.5145 11.1616H40.9349C39.2284 11.1616 37.8379 12.5596 37.8379 14.281C37.8379 15.9999 39.2284 17.4004 40.9349 17.4004ZM40.9349 13.2412H59.5145C60.0842 13.2412 60.5468 13.7064 60.5468 14.281C60.5468 14.8532 60.0842 15.3208 59.5145 15.3208H40.9349C40.3653 15.3208 39.9026 14.8532 39.9026 14.281C39.9026 13.7064 40.3653 13.2412 40.9349 13.2412Z" fill="#0D313B"/>
<path id="Vector_4" d="M26.8667 50.5002L23.8443 50.035L22.4836 47.1146C22.3145 46.7489 21.9488 46.5176 21.5483 46.5176C21.1478 46.5176 20.7846 46.7489 20.6155 47.1146L19.2548 50.035L16.2324 50.5002C15.8493 50.5599 15.5334 50.8285 15.4115 51.1992C15.2871 51.5673 15.3816 51.9753 15.6503 52.2564L17.8667 54.5449L17.3418 57.7887C17.2772 58.1818 17.4413 58.5773 17.7647 58.8061C18.0881 59.035 18.5135 59.0599 18.8593 58.8658L21.5483 57.3683L24.2399 58.8658C24.3966 58.9529 24.5682 58.9952 24.7399 58.9952C24.9488 58.9952 25.1553 58.9305 25.3344 58.8061C25.6578 58.5748 25.8219 58.1793 25.7573 57.7862L25.2324 54.5425L27.4488 52.2539C27.72 51.9753 27.812 51.5673 27.6876 51.1967C27.5632 50.8285 27.2473 50.5599 26.8667 50.5002ZM23.3916 53.4678C23.1627 53.7041 23.0583 54.035 23.1105 54.3609L23.3792 56.0101L22.0483 55.2688C21.8941 55.1842 21.7224 55.1395 21.5483 55.1395C21.3767 55.1395 21.205 55.1842 21.0508 55.2688L19.72 56.0101L19.9886 54.3609C20.0409 54.035 19.9364 53.7041 19.7075 53.4678L18.5309 52.2514L20.1105 52.0076C20.4513 51.9554 20.7423 51.7365 20.8891 51.4231L21.5483 50.0051L22.21 51.4231C22.3568 51.7365 22.6478 51.9554 22.9886 52.0076L24.5682 52.2514L23.3916 53.4678Z" fill="#0D313B"/>
<path id="Vector_5" d="M41.3148 50.5002L38.2949 50.035L36.9343 47.1146C36.7626 46.7489 36.3994 46.5176 35.9989 46.5176C35.5984 46.5176 35.2352 46.7489 35.0636 47.1146L33.7054 50.035L30.683 50.5002C30.2999 50.5599 29.984 50.8285 29.8596 51.1992C29.7377 51.5673 29.8298 51.9753 30.0984 52.2564L32.3148 54.5449L31.79 57.7887C31.7253 58.1818 31.892 58.5773 32.2153 58.8061C32.5387 59.035 32.9616 59.0599 33.3099 58.8658L35.9989 57.3683L38.688 58.8658C38.8447 58.9529 39.0163 58.9952 39.188 58.9952C39.3969 58.9952 39.6059 58.9305 39.7825 58.8061C40.1059 58.5748 40.2726 58.1793 40.2079 57.7862L39.683 54.5425L41.8994 52.2539C42.1681 51.9753 42.2626 51.5673 42.1382 51.1967C42.0139 50.8285 41.6979 50.5599 41.3148 50.5002ZM37.8397 53.4678C37.6109 53.7041 37.5089 54.035 37.5611 54.3609L37.8273 56.0101L36.4989 55.2688C36.3422 55.1842 36.1706 55.1395 35.9989 55.1395C35.8273 55.1395 35.6556 55.1842 35.4989 55.2688L34.1706 56.0101L34.4367 54.3609C34.489 54.035 34.387 53.7041 34.1581 53.4678L32.979 52.2514L34.5611 52.0076C34.8994 51.9554 35.193 51.7365 35.3372 51.4231L35.9989 50.0051L36.6606 51.4231C36.8074 51.7365 37.0984 51.9554 37.4367 52.0076L39.0188 52.2514L37.8397 53.4678Z" fill="#0D313B"/>
<path id="Vector_6" d="M55.7691 50.5002L52.7467 50.035L51.3885 47.1146C51.2168 46.7489 50.8536 46.5176 50.4531 46.5176C50.0526 46.5176 49.687 46.7489 49.5178 47.1146L48.1571 50.035L45.1347 50.5002C44.7541 50.5599 44.4357 50.8285 44.3138 51.1992C44.1895 51.5673 44.284 51.9753 44.5526 52.2564L46.7691 54.5449L46.2442 57.7887C46.1795 58.1818 46.3437 58.5773 46.6671 58.8061C46.9929 59.035 47.4158 59.0599 47.7616 58.8658L50.4531 57.3683L53.1422 58.8658C53.2989 58.9529 53.4706 58.9952 53.6422 58.9952C53.8512 58.9952 54.0576 58.9305 54.2367 58.8061C54.5601 58.5748 54.7243 58.1793 54.6596 57.7862L54.1347 54.5425L56.3512 52.2539C56.6223 51.9753 56.7143 51.5673 56.59 51.1967C56.4681 50.8285 56.1522 50.5599 55.7691 50.5002ZM52.2939 53.4678C52.0651 53.7041 51.9606 54.035 52.0128 54.3609L52.2815 56.0101L50.9507 55.2688C50.7964 55.1842 50.6248 55.1395 50.4531 55.1395C50.279 55.1395 50.1074 55.1842 49.9531 55.2688L48.6223 56.0101L48.891 54.3609C48.9432 54.035 48.8387 53.7041 48.6099 53.4678L47.4332 52.2514L49.0128 52.0076C49.3536 51.9554 49.6447 51.7365 49.7915 51.4231L50.4531 50.0051L51.1123 51.4231C51.2591 51.7365 51.5502 51.9554 51.891 52.0076L53.4706 52.2514L52.2939 53.4678Z" fill="#0D313B"/>
</g>
<g id="Group 1171275595">
<g id="person.3">
<path d="M35.6671 34.2482C38.0505 34.2482 39.9809 32.1503 39.9809 29.5699C39.9809 27.0289 38.0604 25 35.6671 25C33.3033 25 31.3532 27.0584 31.3532 29.5896C31.3631 32.1602 33.2836 34.2482 35.6671 34.2482ZM35.6671 32.5246C34.3079 32.5246 33.1556 31.2442 33.1556 29.5798C33.1556 27.9744 34.2981 26.7236 35.6671 26.7236C37.0459 26.7236 38.1786 27.9547 38.1786 29.5699C38.1786 31.2245 37.0361 32.5246 35.6671 32.5246ZM29.5312 43.5259H41.803C43.5068 43.5259 44.3243 42.9842 44.3243 41.822C44.3243 39.1135 40.9461 35.5088 35.6671 35.5088C30.388 35.5088 27 39.1135 27 41.822C27 42.9842 27.8273 43.5259 29.5312 43.5259ZM29.216 41.8023C28.9895 41.8023 28.9008 41.7235 28.9008 41.5462C28.9008 40.0393 31.3335 37.2324 35.6671 37.2324C40.0006 37.2324 42.4333 40.0393 42.4333 41.5462C42.4333 41.7235 42.3447 41.8023 42.1083 41.8023H29.216Z" fill="#0D313B"/>
<path d="M35.6671 32.5246C34.3079 32.5246 33.1556 31.2442 33.1556 29.5798C33.1556 27.9744 34.2981 26.7236 35.6671 26.7236C37.0459 26.7236 38.1786 27.9547 38.1786 29.5699C38.1786 31.2245 37.0361 32.5246 35.6671 32.5246Z" fill="#2894B4"/>
<path d="M29.216 41.8023C28.9895 41.8023 28.9008 41.7235 28.9008 41.5462C28.9008 40.0393 31.3335 37.2324 35.6671 37.2324C40.0006 37.2324 42.4333 40.0393 42.4333 41.5462C42.4333 41.7235 42.3447 41.8023 42.1083 41.8023H29.216Z" fill="#2894B4"/>
<path d="M31.3532 29.5896H31.0329L31.0329 29.5908L31.3532 29.5896ZM35.6671 34.5685C38.2516 34.5685 40.3012 32.3021 40.3012 29.5699H39.6606C39.6606 31.9986 37.8495 33.9278 35.6671 33.9278V34.5685ZM40.3012 29.5699C40.3012 26.8694 38.2542 24.6797 35.6671 24.6797V25.3203C37.8666 25.3203 39.6606 27.1884 39.6606 29.5699H40.3012ZM35.6671 24.6797C33.1087 24.6797 31.0329 26.8998 31.0329 29.5896H31.6735C31.6735 27.2171 33.4979 25.3203 35.6671 25.3203V24.6797ZM31.0329 29.5908C31.0434 32.3124 33.0828 34.5685 35.6671 34.5685V33.9278C33.4845 33.9278 31.6828 32.008 31.6735 29.5884L31.0329 29.5908ZM35.6671 32.2043C34.5262 32.2043 33.4759 31.1117 33.4759 29.5798H32.8353C32.8353 31.3767 34.0897 32.8449 35.6671 32.8449V32.2043ZM33.4759 29.5798C33.4759 28.1151 34.5091 27.0439 35.6671 27.0439V26.4033C34.087 26.4033 32.8353 27.8337 32.8353 29.5798H33.4759ZM35.6671 27.0439C36.8361 27.0439 37.8582 28.0968 37.8582 29.5699H38.4989C38.4989 27.8126 37.2557 26.4033 35.6671 26.4033V27.0439ZM37.8582 29.5699C37.8582 31.0951 36.8152 32.2043 35.6671 32.2043V32.8449C37.257 32.8449 38.4989 31.354 38.4989 29.5699H37.8582ZM29.5312 43.8462H41.803V43.2056H29.5312V43.8462ZM41.803 43.8462C42.6774 43.8462 43.385 43.7093 43.8813 43.3755C44.4027 43.0249 44.6446 42.4895 44.6446 41.822H44.004C44.004 42.3166 43.8372 42.6332 43.5238 42.844C43.1854 43.0716 42.6324 43.2056 41.803 43.2056V43.8462ZM44.6446 41.822C44.6446 40.3431 43.7315 38.6819 42.179 37.4025C40.6173 36.1156 38.381 35.1885 35.6671 35.1885V35.8291C38.2322 35.8291 40.3245 36.7044 41.7716 37.8969C43.228 39.0971 44.004 40.5925 44.004 41.822H44.6446ZM35.6671 35.1885C32.9532 35.1885 30.7145 36.1155 29.1504 37.4024C27.5956 38.6815 26.6797 40.3427 26.6797 41.822H27.3203C27.3203 40.5928 28.0984 39.0974 29.5574 37.8971C31.007 36.7045 33.1019 35.8291 35.6671 35.8291V35.1885ZM26.6797 41.822C26.6797 42.491 26.9251 43.026 27.4486 43.376C27.947 43.7093 28.6566 43.8462 29.5312 43.8462V43.2056C28.7019 43.2056 28.1459 43.0716 27.8047 42.8435C27.4885 42.6321 27.3203 42.3152 27.3203 41.822H26.6797ZM29.216 41.482C29.1763 41.482 29.1564 41.4784 29.1497 41.4767C29.1441 41.4753 29.1582 41.4778 29.1779 41.4942C29.1877 41.5023 29.1968 41.5121 29.2043 41.523C29.2118 41.5338 29.2163 41.5436 29.219 41.5508C29.2238 41.5639 29.2212 41.5655 29.2212 41.5462H28.5805C28.5805 41.685 28.6163 41.8607 28.769 41.9873C28.9066 42.1014 29.0788 42.1226 29.216 42.1226V41.482ZM29.2212 41.5462C29.2212 41.2491 29.344 40.8499 29.6206 40.4058C29.8943 39.9661 30.3071 39.5016 30.855 39.0775C31.9489 38.2307 33.5715 37.5527 35.6671 37.5527V36.9121C33.4291 36.9121 31.6686 37.6375 30.4628 38.5709C29.8608 39.0369 29.3946 39.5567 29.0768 40.0672C28.7617 40.5731 28.5805 41.0899 28.5805 41.5462H29.2212ZM35.6671 37.5527C37.7627 37.5527 39.3853 38.2307 40.4792 39.0775C41.0271 39.5016 41.4398 39.9661 41.7136 40.4058C41.9901 40.8499 42.113 41.2491 42.113 41.5462H42.7536C42.7536 41.0899 42.5724 40.5731 42.2574 40.0672C41.9396 39.5567 41.4733 39.0369 40.8713 38.5709C39.6655 37.6375 37.905 36.9121 35.6671 36.9121V37.5527ZM42.113 41.5462C42.113 41.5656 42.1103 41.5634 42.1155 41.5495C42.1183 41.5419 42.1231 41.5318 42.1309 41.5207C42.1388 41.5095 42.1481 41.4997 42.1579 41.4918C42.1775 41.4759 42.1907 41.4741 42.1827 41.4761C42.1739 41.4782 42.1512 41.482 42.1083 41.482V42.1226C42.2479 42.1226 42.4219 42.1023 42.561 41.9897C42.7176 41.8629 42.7536 41.6853 42.7536 41.5462H42.113ZM42.1083 41.482H29.216V42.1226H42.1083V41.482Z" fill="#0D313B"/>
</g>
</g>
</g>
</svg>