<svg xmlns="http://www.w3.org/2000/svg" fill="none" viewBox="8 4 56.89 64">
<g id="retention-invoice">
<g id="Group 83">
<g id="Vector">
<path d="M19.2646 4.2024C15.6146 4.97774 12.7323 7.87892 11.9772 11.5179C11.801 12.3683 11.7758 14.7441 11.7758 32.564V52.6346H9.88789H8V56.0737C8 59.8253 8.11327 60.763 8.71738 62.1887C9.83754 64.8399 12.1282 66.853 15.0356 67.7283C15.6901 67.9285 17.1752 67.9535 33.8642 67.991C47.067 68.016 52.1896 67.9911 52.7434 67.891C53.7628 67.691 55.0717 66.9905 55.7514 66.2654C56.4183 65.5649 56.9974 64.4646 57.1988 63.5393C57.2993 63.0639 57.3372 58.4371 57.3372 47.5701V32.2514H61.1129H64.8889V20.6842C64.8889 12.5434 64.8511 8.92934 64.7502 8.46666C64.2847 6.31576 62.5478 4.59008 60.3831 4.12738C59.9047 4.02735 54.2411 3.98982 39.9307 4.00232C22.8641 4.01485 20.0196 4.03984 19.2646 4.2024ZM53.7377 8.079C53.6873 8.27908 53.6118 20.6967 53.574 35.6903C53.4986 62.2387 53.4858 62.9641 53.2594 63.3515C52.9698 63.8269 52.2146 64.2643 51.6861 64.2643C51.0441 64.2643 50.3268 63.8269 50.0372 63.2642C49.7983 62.8014 49.7855 62.5388 49.7855 57.6992V52.6346H32.6686H15.5516V32.7515C15.5516 18.6208 15.5894 12.6934 15.6901 12.2181C15.9167 11.1303 16.42 10.2423 17.2382 9.42955C18.0436 8.62924 18.8366 8.17906 19.8938 7.91643C20.3847 7.8039 24.2988 7.76637 37.187 7.75387L53.8382 7.74138L53.7377 8.079ZM60.1061 7.99148C60.4332 8.15403 60.6977 8.41663 60.8612 8.74176C61.1129 9.21697 61.1129 9.45456 61.1129 18.871V28.4999H59.225H57.3372V18.871C57.3372 9.46706 57.3372 9.21697 57.5889 8.74176C58.0545 7.82889 59.1497 7.50377 60.1061 7.99148ZM46.0476 60.0376C46.0727 62.0512 46.1356 63.8269 46.186 63.9767L46.2865 64.2643H31.6238C21.3537 64.2643 16.7472 64.227 16.2816 64.1268C14.6832 63.7892 13.1603 62.6388 12.4303 61.1881C11.9268 60.2002 11.7758 59.3875 11.7758 57.7617V56.3863H28.8801H45.9972L46.0476 60.0376Z" fill="#0B2D1F"/>
<path d="M53.7377 8.079C53.6873 8.27908 53.6118 20.6967 53.574 35.6903C53.4986 62.2387 53.4858 62.9641 53.2594 63.3515C52.9698 63.8269 52.2146 64.2643 51.6861 64.2643C51.0441 64.2643 50.3268 63.8269 50.0372 63.2642C49.7983 62.8014 49.7855 62.5388 49.7855 57.6992V52.6346H32.6686H15.5516V32.7515C15.5516 18.6208 15.5894 12.6934 15.6901 12.2181C15.9167 11.1303 16.42 10.2423 17.2382 9.42955C18.0436 8.62924 18.8366 8.17906 19.8938 7.91643C20.3847 7.8039 24.2988 7.76637 37.187 7.75387L53.8382 7.74138L53.7377 8.079Z" fill="#2EB67D"/>
</g>
<path id="Vector_2" d="M19.3281 39.6288V41.5046H34.5574H49.7864V39.6288V37.7529H34.5574H19.3281V39.6288Z" fill="#0B2D1F"/>
<path id="Vector_3" d="M19.3281 47.1335V49.0093H34.5574H49.7864V47.1335V45.2578H34.5574H19.3281V47.1335Z" fill="#0B2D1F"/>
</g>
<g id="Group 1171275223">
<g id="Group 1171275222">
<circle id="Ellipse 2621" cx="38.7377" cy="15.5834" r="4.80805" fill="#2EB67D"/>
<path id="Vector_4" d="M39.5464 17.1909C39.4289 17.3246 39.2621 17.407 39.0448 17.4405V16.0539C39.2621 16.1206 39.4289 16.205 39.5464 16.3047C39.6628 16.4049 39.7132 16.5386 39.7132 16.7228C39.7294 16.9227 39.6628 17.0734 39.5464 17.1909ZM38.6603 15.1185C38.4777 15.0518 38.3266 14.9678 38.2426 14.885C38.1425 14.801 38.1093 14.6673 38.1093 14.5005C38.1093 14.3337 38.1598 14.1992 38.26 14.099C38.3602 14.0162 38.4935 13.9496 38.6776 13.883V15.1185H38.6603ZM40.3991 16.0874C40.3312 15.9206 40.231 15.7869 40.0978 15.6698C39.9802 15.5535 39.8308 15.4695 39.6801 15.419C39.5291 15.3519 39.313 15.3027 39.0622 15.2187V13.9161C39.3291 13.9989 39.4959 14.1831 39.5626 14.4339C39.6292 14.65 39.7641 14.7675 39.9641 14.7675C40.0816 14.7675 40.1644 14.7344 40.2484 14.65C40.3312 14.5676 40.3647 14.4832 40.3647 14.3834C40.3647 14.2832 40.3312 14.1831 40.2819 14.0655C40.231 13.9496 40.1644 13.8494 40.0642 13.7319C39.9467 13.5986 39.7973 13.4811 39.6466 13.4144C39.4798 13.3478 39.2956 13.2969 39.0622 13.2811V12.9475C39.0622 12.7791 38.9955 12.6963 38.8618 12.6963C38.7273 12.6963 38.6603 12.7791 38.6603 12.9633V13.2969C38.2269 13.3316 37.8916 13.4653 37.6582 13.6988C37.4247 13.9322 37.3072 14.2339 37.3072 14.5833C37.3072 14.8677 37.3738 15.0854 37.4914 15.2695C37.6077 15.4533 37.7584 15.587 37.9583 15.6698C38.1425 15.7712 38.3763 15.854 38.6603 15.938V17.407C38.527 17.3739 38.4094 17.3072 38.3266 17.2402C38.2426 17.1578 38.176 17.0734 38.1425 16.991C38.0932 16.9066 38.0585 16.7733 37.9918 16.5891C37.9583 16.5051 37.9252 16.4558 37.8585 16.4049C37.7915 16.3556 37.7091 16.3383 37.6247 16.3383C37.5075 16.3383 37.4074 16.3718 37.3246 16.4558C37.2406 16.5386 37.207 16.6226 37.207 16.7228C37.207 16.8561 37.2406 16.991 37.2898 17.1404C37.3581 17.2737 37.4409 17.4244 37.558 17.5581C37.6743 17.6913 37.8424 17.7915 38.0253 17.8917C38.2095 17.9757 38.4268 18.0423 38.6776 18.0597V18.3602C38.6776 18.46 38.6938 18.5282 38.7273 18.5775C38.7604 18.6284 38.8113 18.6441 38.8941 18.6441C38.9781 18.6441 39.0286 18.611 39.0622 18.5601C39.0779 18.5109 39.0953 18.4107 39.0953 18.2932V18.0597C39.3958 18.0266 39.6466 17.9583 39.8801 17.825C40.0978 17.6913 40.2646 17.5245 40.3817 17.3072C40.498 17.1069 40.5485 16.8734 40.5485 16.6384C40.498 16.4223 40.4661 16.2543 40.3991 16.0874Z" fill="#0B2D1F"/>
<g id="Group">
<g id="Vector_5">
<mask id="path-6-outside-1_6490_47073" maskUnits="userSpaceOnUse" x="34" y="17.3105" width="14" height="8" fill="black">
<rect fill="white" x="34" y="17.3105" width="14" height="8"/>
<path d="M46.5334 18.3105C46.516 18.3105 46.516 18.3105 46.5334 18.3105H44.293C44.0434 18.3105 43.8257 18.5109 43.8257 18.7779C43.8257 19.0287 44.0272 19.246 44.293 19.246H45.4126L42.3058 22.3366L39.9999 20.0308C39.9159 19.9468 39.7996 19.8975 39.6651 19.8975C39.5487 19.8975 39.4312 19.9468 39.3314 20.0308L35.1369 24.241C34.9544 24.4252 34.9544 24.7269 35.1369 24.8937C35.3211 25.0779 35.6216 25.0779 35.7896 24.8937L39.6824 21.0009L41.9883 23.3056C42.0723 23.3896 42.1882 23.4405 42.3219 23.4405C42.4395 23.4405 42.5566 23.3896 42.6556 23.3056L46.0649 19.9148V21.0171C46.0649 21.2679 46.2652 21.484 46.5334 21.484C46.6655 21.484 46.783 21.4347 46.867 21.3507C46.9498 21.2679 47.0007 21.1504 47.0007 21.0171V18.7779C46.9834 18.5282 46.783 18.3105 46.5334 18.3105Z"/>
</mask>
<path d="M46.5334 18.3105C46.516 18.3105 46.516 18.3105 46.5334 18.3105H44.293C44.0434 18.3105 43.8257 18.5109 43.8257 18.7779C43.8257 19.0287 44.0272 19.246 44.293 19.246H45.4126L42.3058 22.3366L39.9999 20.0308C39.9159 19.9468 39.7996 19.8975 39.6651 19.8975C39.5487 19.8975 39.4312 19.9468 39.3314 20.0308L35.1369 24.241C34.9544 24.4252 34.9544 24.7269 35.1369 24.8937C35.3211 25.0779 35.6216 25.0779 35.7896 24.8937L39.6824 21.0009L41.9883 23.3056C42.0723 23.3896 42.1882 23.4405 42.3219 23.4405C42.4395 23.4405 42.5566 23.3896 42.6556 23.3056L46.0649 19.9148V21.0171C46.0649 21.2679 46.2652 21.484 46.5334 21.484C46.6655 21.484 46.783 21.4347 46.867 21.3507C46.9498 21.2679 47.0007 21.1504 47.0007 21.0171V18.7779C46.9834 18.5282 46.783 18.3105 46.5334 18.3105Z" fill="#0B2D1F"/>
<path d="M46.5334 18.3105C46.516 18.3105 46.516 18.3105 46.5334 18.3105H44.293C44.0434 18.3105 43.8257 18.5109 43.8257 18.7779C43.8257 19.0287 44.0272 19.246 44.293 19.246H45.4126L42.3058 22.3366L39.9999 20.0308C39.9159 19.9468 39.7996 19.8975 39.6651 19.8975C39.5487 19.8975 39.4312 19.9468 39.3314 20.0308L35.1369 24.241C34.9544 24.4252 34.9544 24.7269 35.1369 24.8937C35.3211 25.0779 35.6216 25.0779 35.7896 24.8937L39.6824 21.0009L41.9883 23.3056C42.0723 23.3896 42.1882 23.4405 42.3219 23.4405C42.4395 23.4405 42.5566 23.3896 42.6556 23.3056L46.0649 19.9148V21.0171C46.0649 21.2679 46.2652 21.484 46.5334 21.484C46.6655 21.484 46.783 21.4347 46.867 21.3507C46.9498 21.2679 47.0007 21.1504 47.0007 21.0171V18.7779C46.9834 18.5282 46.783 18.3105 46.5334 18.3105Z" stroke="#0B2D1F" stroke-width="0.455758" mask="url(#path-6-outside-1_6490_47073)"/>
</g>
</g>
<g id="Vector_6">
<mask id="path-7-outside-2_6490_47073" maskUnits="userSpaceOnUse" x="32.1172" y="9" width="13" height="12" fill="black">
<rect fill="white" x="32.1172" y="9" width="13" height="12"/>
<path d="M36.1421 20.4996L36.1583 20.4822C36.4931 20.3311 36.5089 19.8804 36.2088 19.68C34.2365 18.411 33.4182 15.7715 34.554 13.5323C35.5403 11.5931 37.746 10.5737 39.8508 11.0596C42.3073 11.6267 43.794 13.9499 43.5097 16.2719C43.4604 16.6229 43.8272 16.9069 44.145 16.7562L44.1782 16.74C44.3119 16.6722 44.412 16.5389 44.429 16.3895C44.78 13.6151 43.0254 10.858 40.1016 10.1573C37.5618 9.53808 34.8715 10.791 33.7187 13.1477C32.383 15.8381 33.3677 18.9449 35.7245 20.466C35.8404 20.5501 36.0072 20.5501 36.1421 20.4996Z"/>
</mask>
<path d="M36.1421 20.4996L36.1583 20.4822C36.4931 20.3311 36.5089 19.8804 36.2088 19.68C34.2365 18.411 33.4182 15.7715 34.554 13.5323C35.5403 11.5931 37.746 10.5737 39.8508 11.0596C42.3073 11.6267 43.794 13.9499 43.5097 16.2719C43.4604 16.6229 43.8272 16.9069 44.145 16.7562L44.1782 16.74C44.3119 16.6722 44.412 16.5389 44.429 16.3895C44.78 13.6151 43.0254 10.858 40.1016 10.1573C37.5618 9.53808 34.8715 10.791 33.7187 13.1477C32.383 15.8381 33.3677 18.9449 35.7245 20.466C35.8404 20.5501 36.0072 20.5501 36.1421 20.4996Z" fill="#0B2D1F"/>
<path d="M36.1421 20.4996L36.1583 20.4822C36.4931 20.3311 36.5089 19.8804 36.2088 19.68C34.2365 18.411 33.4182 15.7715 34.554 13.5323C35.5403 11.5931 37.746 10.5737 39.8508 11.0596C42.3073 11.6267 43.794 13.9499 43.5097 16.2719C43.4604 16.6229 43.8272 16.9069 44.145 16.7562L44.1782 16.74C44.3119 16.6722 44.412 16.5389 44.429 16.3895C44.78 13.6151 43.0254 10.858 40.1016 10.1573C37.5618 9.53808 34.8715 10.791 33.7187 13.1477C32.383 15.8381 33.3677 18.9449 35.7245 20.466C35.8404 20.5501 36.0072 20.5501 36.1421 20.4996Z" stroke="#0B2D1F" stroke-width="0.455758" mask="url(#path-7-outside-2_6490_47073)"/>
</g>
<g id="Subtract">
<mask id="path-8-outside-3_6490_47073" maskUnits="userSpaceOnUse" x="23" y="11.6655" width="20" height="24" fill="black">
<rect fill="white" x="23" y="11.6655" width="20" height="24"/>
<path fill-rule="evenodd" clip-rule="evenodd" d="M32.4069 12.6655H26.9469C25.3195 12.6655 24 13.9855 24 15.6132V32.1187C24 33.7464 25.3195 35.0663 26.9469 35.0663H38.7343C40.3617 35.0663 41.6812 33.7464 41.6812 32.1187V24.7164C41.2972 24.7951 40.9037 24.8478 40.5026 24.8726V32.1187C40.5026 33.0957 39.711 33.8873 38.7343 33.8873H35.7875V32.1187C35.7875 30.4913 34.4679 29.1714 32.8406 29.1714C31.2133 29.1714 29.8937 30.4913 29.8937 32.1187V33.8873H26.9469C25.9702 33.8873 25.1786 33.0957 25.1786 32.1187V15.6132C25.1786 14.6362 25.9702 13.8445 26.9469 13.8445H31.9261C32.0572 13.4372 32.2183 13.0433 32.4069 12.6655ZM34.0192 22.4349C33.4001 21.8202 32.8756 21.1104 32.4695 20.3292H31.662V22.6871H34.0192V22.4349ZM31.0723 32.1187V33.8873H34.6089V32.1187C34.6089 31.142 33.8172 30.3504 32.8406 30.3504C31.864 30.3504 31.0723 31.142 31.0723 32.1187ZM36.3768 27.4031H38.7343V25.0451H36.3768V27.4031ZM31.662 27.4031H34.0192V25.0451H31.662V27.4031ZM26.9469 17.9712H29.3044V15.6132H26.9469V17.9712ZM26.9469 22.6871H29.3044V20.3292H26.9469V22.6871ZM26.9469 27.4031H29.3044V25.0451H26.9469V27.4031Z"/>
</mask>
<path fill-rule="evenodd" clip-rule="evenodd" d="M32.4069 12.6655H26.9469C25.3195 12.6655 24 13.9855 24 15.6132V32.1187C24 33.7464 25.3195 35.0663 26.9469 35.0663H38.7343C40.3617 35.0663 41.6812 33.7464 41.6812 32.1187V24.7164C41.2972 24.7951 40.9037 24.8478 40.5026 24.8726V32.1187C40.5026 33.0957 39.711 33.8873 38.7343 33.8873H35.7875V32.1187C35.7875 30.4913 34.4679 29.1714 32.8406 29.1714C31.2133 29.1714 29.8937 30.4913 29.8937 32.1187V33.8873H26.9469C25.9702 33.8873 25.1786 33.0957 25.1786 32.1187V15.6132C25.1786 14.6362 25.9702 13.8445 26.9469 13.8445H31.9261C32.0572 13.4372 32.2183 13.0433 32.4069 12.6655ZM34.0192 22.4349C33.4001 21.8202 32.8756 21.1104 32.4695 20.3292H31.662V22.6871H34.0192V22.4349ZM31.0723 32.1187V33.8873H34.6089V32.1187C34.6089 31.142 33.8172 30.3504 32.8406 30.3504C31.864 30.3504 31.0723 31.142 31.0723 32.1187ZM36.3768 27.4031H38.7343V25.0451H36.3768V27.4031ZM31.662 27.4031H34.0192V25.0451H31.662V27.4031ZM26.9469 17.9712H29.3044V15.6132H26.9469V17.9712ZM26.9469 22.6871H29.3044V20.3292H26.9469V22.6871ZM26.9469 27.4031H29.3044V25.0451H26.9469V27.4031Z" fill="#0B2D1F"/>
<path d="M32.4069 12.6655L32.8147 12.8691L33.1438 12.2098H32.4069V12.6655ZM41.6812 24.7164H42.137V24.1577L41.5897 24.2699L41.6812 24.7164ZM40.5026 24.8726L40.4746 24.4177L40.0469 24.4441V24.8726H40.5026ZM35.7875 33.8873H35.3317V34.3431H35.7875V33.8873ZM29.8937 33.8873V34.3431H30.3495V33.8873H29.8937ZM31.9261 13.8445V14.3003H32.2583L32.36 13.9841L31.9261 13.8445ZM34.0192 22.4349H34.4749V22.2451L34.3403 22.1114L34.0192 22.4349ZM32.4695 20.3292L32.8739 20.119L32.7462 19.8734H32.4695V20.3292ZM31.662 20.3292V19.8734H31.2063V20.3292H31.662ZM31.662 22.6871H31.2063V23.1429H31.662V22.6871ZM34.0192 22.6871V23.1429H34.4749V22.6871H34.0192ZM31.0723 33.8873H30.6166V34.3431H31.0723V33.8873ZM34.6089 33.8873V34.3431H35.0646V33.8873H34.6089ZM38.7343 27.4031V27.8589H39.1901V27.4031H38.7343ZM36.3768 27.4031H35.921V27.8589H36.3768V27.4031ZM38.7343 25.0451H39.1901V24.5894H38.7343V25.0451ZM36.3768 25.0451V24.5894H35.921V25.0451H36.3768ZM34.0192 27.4031V27.8589H34.4749V27.4031H34.0192ZM31.662 27.4031H31.2063V27.8589H31.662V27.4031ZM34.0192 25.0451H34.4749V24.5894H34.0192V25.0451ZM31.662 25.0451V24.5894H31.2063V25.0451H31.662ZM29.3044 17.9712V18.4269H29.7602V17.9712H29.3044ZM26.9469 17.9712H26.4911V18.4269H26.9469V17.9712ZM29.3044 15.6132H29.7602V15.1574H29.3044V15.6132ZM26.9469 15.6132V15.1574H26.4911V15.6132H26.9469ZM29.3044 22.6871V23.1429H29.7602V22.6871H29.3044ZM26.9469 22.6871H26.4911V23.1429H26.9469V22.6871ZM29.3044 20.3292H29.7602V19.8734H29.3044V20.3292ZM26.9469 20.3292V19.8734H26.4911V20.3292H26.9469ZM29.3044 27.4031V27.8589H29.7602V27.4031H29.3044ZM26.9469 27.4031H26.4911V27.8589H26.9469V27.4031ZM29.3044 25.0451H29.7602V24.5894H29.3044V25.0451ZM26.9469 25.0451V24.5894H26.4911V25.0451H26.9469ZM32.4069 12.2098H26.9469V13.1213H32.4069V12.2098ZM26.9469 12.2098C25.0677 12.2098 23.5442 13.7339 23.5442 15.6132H24.4558C24.4558 14.2371 25.5714 13.1213 26.9469 13.1213V12.2098ZM23.5442 15.6132V32.1187H24.4558V15.6132H23.5442ZM23.5442 32.1187C23.5442 33.998 25.0677 35.5221 26.9469 35.5221V34.6106C25.5714 34.6106 24.4558 33.4948 24.4558 32.1187H23.5442ZM26.9469 35.5221H38.7343V34.6106H26.9469V35.5221ZM38.7343 35.5221C40.6135 35.5221 42.137 33.998 42.137 32.1187H41.2254C41.2254 33.4948 40.1098 34.6106 38.7343 34.6106V35.5221ZM42.137 32.1187V24.7164H41.2254V32.1187H42.137ZM41.5897 24.2699C41.2265 24.3444 40.8542 24.3943 40.4746 24.4177L40.5307 25.3275C40.9532 25.3014 41.3679 25.2459 41.7727 25.1629L41.5897 24.2699ZM40.0469 24.8726V32.1187H40.9584V24.8726H40.0469ZM40.0469 32.1187C40.0469 32.844 39.4592 33.4316 38.7343 33.4316V34.3431C39.9627 34.3431 40.9584 33.3473 40.9584 32.1187H40.0469ZM38.7343 33.4316H35.7875V34.3431H38.7343V33.4316ZM36.2432 33.8873V32.1187H35.3317V33.8873H36.2432ZM36.2432 32.1187C36.2432 30.2397 34.7197 28.7156 32.8406 28.7156V29.6271C34.2161 29.6271 35.3317 30.743 35.3317 32.1187H36.2432ZM32.8406 28.7156C30.9615 28.7156 29.438 30.2397 29.438 32.1187H30.3495C30.3495 30.743 31.4651 29.6271 32.8406 29.6271V28.7156ZM29.438 32.1187V33.8873H30.3495V32.1187H29.438ZM29.8937 33.4316H26.9469V34.3431H29.8937V33.4316ZM26.9469 33.4316C26.222 33.4316 25.6343 32.844 25.6343 32.1187H24.7228C24.7228 33.3473 25.7185 34.3431 26.9469 34.3431V33.4316ZM25.6343 32.1187V15.6132H24.7228V32.1187H25.6343ZM25.6343 15.6132C25.6343 14.8878 26.222 14.3003 26.9469 14.3003V13.3888C25.7185 13.3888 24.7228 14.3845 24.7228 15.6132H25.6343ZM26.9469 14.3003H31.9261V13.3888H26.9469V14.3003ZM32.36 13.9841C32.4839 13.5989 32.6363 13.2264 32.8147 12.8691L31.9992 12.462C31.8004 12.8602 31.6305 13.2754 31.4923 13.7049L32.36 13.9841ZM34.3403 22.1114C33.7543 21.5297 33.258 20.858 32.8739 20.119L32.0651 20.5394C32.4931 21.3628 33.0458 22.1108 33.6981 22.7583L34.3403 22.1114ZM31.662 20.7849H32.4695V19.8734H31.662V20.7849ZM32.1178 22.6871V20.3292H31.2063V22.6871H32.1178ZM34.0192 22.2314H31.662V23.1429H34.0192V22.2314ZM33.5634 22.4349V22.6871H34.4749V22.4349H33.5634ZM31.5281 33.8873V32.1187H30.6166V33.8873H31.5281ZM34.6089 33.4316H31.0723V34.3431H34.6089V33.4316ZM34.1531 32.1187V33.8873H35.0646V32.1187H34.1531ZM32.8406 30.8061C33.5655 30.8061 34.1531 31.3937 34.1531 32.1187H35.0646C35.0646 30.8903 34.0689 29.8946 32.8406 29.8946V30.8061ZM31.5281 32.1187C31.5281 31.3937 32.1157 30.8061 32.8406 30.8061V29.8946C31.6123 29.8946 30.6166 30.8903 30.6166 32.1187H31.5281ZM38.7343 26.9473H36.3768V27.8589H38.7343V26.9473ZM38.2786 25.0451V27.4031H39.1901V25.0451H38.2786ZM36.3768 25.5009H38.7343V24.5894H36.3768V25.5009ZM36.8325 27.4031V25.0451H35.921V27.4031H36.8325ZM34.0192 26.9473H31.662V27.8589H34.0192V26.9473ZM33.5634 25.0451V27.4031H34.4749V25.0451H33.5634ZM31.662 25.5009H34.0192V24.5894H31.662V25.5009ZM32.1178 27.4031V25.0451H31.2063V27.4031H32.1178ZM29.3044 17.5154H26.9469V18.4269H29.3044V17.5154ZM28.8487 15.6132V17.9712H29.7602V15.6132H28.8487ZM26.9469 16.069H29.3044V15.1574H26.9469V16.069ZM27.4026 17.9712V15.6132H26.4911V17.9712H27.4026ZM29.3044 22.2314H26.9469V23.1429H29.3044V22.2314ZM28.8487 20.3292V22.6871H29.7602V20.3292H28.8487ZM26.9469 20.7849H29.3044V19.8734H26.9469V20.7849ZM27.4026 22.6871V20.3292H26.4911V22.6871H27.4026ZM29.3044 26.9473H26.9469V27.8589H29.3044V26.9473ZM28.8487 25.0451V27.4031H29.7602V25.0451H28.8487ZM26.9469 25.5009H29.3044V24.5894H26.9469V25.5009ZM27.4026 27.4031V25.0451H26.4911V27.4031H27.4026Z" fill="#0B2D1F" mask="url(#path-8-outside-3_6490_47073)"/>
</g>
</g>
</g>
</g>
</svg>