<svg xmlns="http://www.w3.org/2000/svg" fill="none" viewBox="6.17 6.69 23.27 22.8">
<path d="M7.64844 13.0872V9.14795H26.3597V13.0872H7.64844Z" fill="#FFA600"/>
<path fill-rule="evenodd" clip-rule="evenodd" d="M7.36621 8.86572H26.6419V13.3694H7.36621V8.86572ZM7.93067 9.43018V12.805H26.0775V9.43018H7.93067Z" fill="#FFA600"/>
<path fill-rule="evenodd" clip-rule="evenodd" d="M11.1358 18.2251H9.42627V16.5156H11.1358V18.2251ZM14.5548 18.2251H12.8453V16.5156H14.5548V18.2251ZM16.2643 18.2251H17.9738V16.5156H16.2643V18.2251ZM21.3926 18.2251H19.6831V16.5156H21.3926V18.2251ZM23.1021 18.2251H24.8116V16.5156H23.1021V18.2251ZM11.1358 21.644H9.42627V19.9345H11.1358V21.644ZM12.8453 21.644H14.5548V19.9345H12.8453V21.644ZM17.9738 21.644H16.2643V19.9345H17.9738V21.644ZM21.3926 20.6718C21.0069 20.9494 20.6593 21.2766 20.359 21.644H19.6831V19.9345H21.3926V20.6718ZM9.42627 25.0631H11.1358V23.3536H9.42627V25.0631ZM14.5548 25.0631H12.8453V23.3536H14.5548V25.0631ZM16.2643 25.0631H17.9738V23.3536H16.2643V25.0631Z" fill="black"/>
<path fill-rule="evenodd" clip-rule="evenodd" d="M9.76772 8.39528V7.54053V6.68579H10.6225H11.4772V7.54053V8.39528H17.1185H22.7598V7.54053V6.68579H23.6146H24.4693V7.54053V8.39528H25.1018C25.4864 8.39528 25.8454 8.42092 26.0292 8.45938C26.9908 8.66025 27.7943 9.4637 27.9951 10.4253C28.0522 10.6976 28.0746 16.4082 28.0624 20.9563C27.5604 20.5259 26.9785 20.1859 26.342 19.9618L26.3497 14.7204H17.1185H7.88728L7.89583 20.5027L7.90865 26.2893L8.02404 26.456C8.08815 26.5457 8.21209 26.6697 8.30183 26.7295L8.45996 26.8363H17.1185H19.4404C19.6633 27.4773 20.0034 28.0634 20.4352 28.5688C15.3134 28.5842 8.49054 28.5623 8.20781 28.5031C7.24623 28.3022 6.44277 27.4988 6.2419 26.5372C6.14788 26.0884 6.14788 10.874 6.2419 10.4253C6.44277 9.4637 7.24623 8.66025 8.20781 8.45938C8.39158 8.42092 8.75057 8.39528 9.13948 8.39528H9.76772ZM9.76772 11.8142V10.9595V10.1047L9.18222 10.109C8.85742 10.109 8.53261 10.1304 8.45996 10.1518C8.27619 10.203 7.98558 10.5065 7.93002 10.6945C7.90865 10.7843 7.88728 11.3356 7.88728 11.9296V13.0109H17.1228H26.354L26.3412 11.8441L26.3284 10.6731L26.213 10.5065C26.1489 10.4167 26.0249 10.2928 25.9352 10.233C25.7899 10.1304 25.7386 10.1261 25.1232 10.1133L24.4693 10.0962V10.9552V11.8142H23.6146H22.7598V10.9595V10.1047H17.1185H11.4772V10.9595V11.8142H10.6225H9.76772Z" fill="black"/>
<path d="M21.9863 26.283V24.5284L20.8896 23.651L25.057 21.677L29.0049 23.651L27.6889 24.5284V26.0637C27.6889 26.283 27.5573 26.8094 27.0309 27.1603C26.373 27.599 25.057 27.599 23.9603 27.599C23.083 27.599 22.2788 26.7217 21.9863 26.283Z" fill="#FFA600"/>
<path d="M21.7132 26.0323C21.7132 26.532 22.0207 26.9804 22.5589 27.3103V27.6178C22.3827 27.6755 22.2738 27.8292 22.2738 28.0407V28.9023C22.2738 29.1746 22.4532 29.354 22.7254 29.354H22.86C23.1322 29.354 23.3116 29.1746 23.3116 28.9023V28.0407C23.3116 27.8324 23.2059 27.6755 23.0329 27.6178V27.5442C23.5358 27.746 24.1669 27.8645 24.8812 27.8645C26.7647 27.8645 28.0523 27.0509 28.0523 26.0323V24.5972L28.962 24.1808C29.1895 24.0751 29.3144 23.8733 29.3144 23.6555C29.3144 23.4409 29.1895 23.2359 28.962 23.1334L25.7941 21.6855C25.4449 21.5286 25.1631 21.4549 24.8812 21.4581C24.6025 21.4549 24.3206 21.5286 23.9683 21.6855L20.8035 23.1334C20.5729 23.2359 20.4512 23.4409 20.4512 23.6555C20.4512 23.8733 20.5729 24.0751 20.8035 24.1808L21.7132 24.5972V26.0323ZM24.8812 25.2251C24.6762 25.2251 24.4808 25.1738 24.2149 25.0489L23.3629 24.6645L24.5833 24.0239C24.6794 24.0495 24.7851 24.0655 24.894 24.0655C25.2592 24.0655 25.6115 23.8957 25.6115 23.6555C25.6115 23.4217 25.2592 23.2551 24.894 23.2551C24.5256 23.2551 24.1701 23.4217 24.1701 23.6555C24.1701 23.6875 24.1765 23.7164 24.1861 23.742L22.8536 24.4307L21.3609 23.7516C21.3096 23.7292 21.284 23.6971 21.284 23.6555C21.284 23.6171 21.3096 23.5818 21.3609 23.5594L24.2149 22.2621C24.4808 22.1404 24.6762 22.0859 24.8812 22.0859C25.0862 22.0859 25.2816 22.1404 25.5506 22.2621L28.4047 23.5594C28.4527 23.5818 28.4784 23.6171 28.4784 23.6555C28.4784 23.6971 28.4527 23.7292 28.4047 23.7516L25.5506 25.0489C25.2816 25.1738 25.0862 25.2251 24.8812 25.2251ZM22.3314 26.0323V24.8791L22.5589 24.9816V26.5544C22.4083 26.391 22.3314 26.2148 22.3314 26.0323ZM24.8812 25.8561C25.1631 25.8593 25.4449 25.7856 25.7941 25.6255L27.4341 24.8791V26.0323C27.4341 26.6825 26.4219 27.2815 24.8812 27.2815C24.1156 27.2815 23.4782 27.1309 23.0329 26.9003V25.1994L23.9683 25.6255C24.3206 25.7856 24.6025 25.8593 24.8812 25.8561Z" fill="black"/>
<path fill-rule="evenodd" clip-rule="evenodd" d="M24.8813 21.3294C25.188 21.3262 25.4885 21.4071 25.8469 21.5681L29.0149 23.0161C29.015 23.0161 29.0148 23.016 29.0149 23.0161C29.287 23.1388 29.4431 23.3889 29.4431 23.6554C29.4431 23.9259 29.2868 24.1717 29.0163 24.2973L28.181 24.6797V26.0322C28.181 26.6019 27.8202 27.0958 27.2388 27.4409C26.6569 27.7862 25.8399 27.993 24.8813 27.993C24.3346 27.993 23.8331 27.9249 23.3968 27.8025C23.4254 27.8748 23.4403 27.9553 23.4403 28.0406V28.9022C23.4403 29.0672 23.3854 29.2146 23.2789 29.3211C23.1725 29.4276 23.0251 29.4825 22.8601 29.4825H22.7255C22.5606 29.4825 22.4132 29.4276 22.3067 29.3211C22.2003 29.2146 22.1454 29.0672 22.1454 28.9022V28.0406C22.1454 27.8143 22.2499 27.6285 22.4305 27.533V27.3811C21.9046 27.0393 21.5848 26.5703 21.5848 26.0322V24.6797L20.7501 24.2976C20.4752 24.1716 20.3228 23.9249 20.3228 23.6554C20.3228 23.3899 20.4744 23.1392 20.7507 23.0161L23.9161 21.568C24.2772 21.4072 24.5778 21.3262 24.8813 21.3294ZM25.7412 21.8025C25.4019 21.6501 25.1394 21.5837 24.8828 21.5866L24.8798 21.5866C24.6266 21.5837 24.364 21.65 24.0213 21.8026L20.8558 23.2508C20.6714 23.3328 20.5799 23.4919 20.5799 23.6554C20.5799 23.8215 20.6709 23.9784 20.8571 24.0638L21.8419 24.5146V26.0322C21.8419 26.4729 22.1121 26.8855 22.6262 27.2006L22.6876 27.2382V27.7109L22.599 27.7399C22.4811 27.7785 22.4025 27.8787 22.4025 28.0406V28.9022C22.4025 29.0095 22.4373 29.088 22.4886 29.1393C22.5399 29.1906 22.6183 29.2253 22.7255 29.2253H22.8601C22.9674 29.2253 23.0458 29.1906 23.0971 29.1393C23.1484 29.088 23.1832 29.0095 23.1832 28.9022V28.0406C23.1832 27.8792 23.1053 27.7773 22.9923 27.7397L22.9045 27.7104V27.354L23.0809 27.4248C23.5662 27.6195 24.1806 27.7358 24.8813 27.7358C25.8062 27.7358 26.5748 27.5358 27.1076 27.2197C27.6408 26.9033 27.9239 26.4811 27.9239 26.0322V24.5146L28.908 24.0641C28.9081 24.0641 28.9078 24.0642 28.908 24.0641C29.0923 23.9783 29.186 23.8205 29.186 23.6554C29.186 23.4928 29.092 23.3329 28.9093 23.2505L25.7412 21.8025C25.7413 21.8026 25.741 21.8025 25.7412 21.8025ZM24.8813 22.2144C24.7021 22.2144 24.5259 22.2611 24.2685 22.3789L21.4603 23.6554L22.8501 24.2877L24.042 23.6717C24.0418 23.6664 24.0417 23.6609 24.0417 23.6554C24.0417 23.4668 24.1835 23.3329 24.3342 23.2537C24.4905 23.1716 24.6926 23.1264 24.8941 23.1264C25.0942 23.1264 25.2949 23.1717 25.45 23.2539C25.5999 23.3334 25.7402 23.4674 25.7402 23.6554C25.7402 23.8449 25.6021 23.9817 25.4511 24.0635C25.2957 24.1478 25.0946 24.194 24.8941 24.194C24.7915 24.194 24.6921 24.1813 24.6 24.1603L23.6563 24.6557L24.2697 24.9324C24.5251 25.0524 24.7014 25.0964 24.8813 25.0964C25.0613 25.0964 25.2376 25.0524 25.4966 24.9322L25.4975 24.9318L28.3055 23.6554L25.4977 22.3792C25.4977 22.3791 25.4978 22.3792 25.4977 22.3792C25.2369 22.2611 25.0605 22.2144 24.8813 22.2144ZM24.1617 22.145C24.436 22.0195 24.6505 21.9572 24.8813 21.9572C25.1121 21.9572 25.3266 22.0195 25.6037 22.1449L28.4592 23.4428C28.5367 23.479 28.6071 23.5517 28.6071 23.6554C28.6071 23.7644 28.5342 23.833 28.4592 23.868L28.458 23.8686L25.6049 25.1654C25.6047 25.1655 25.605 25.1654 25.6049 25.1654C25.3261 25.2948 25.1113 25.3536 24.8813 25.3536C24.6515 25.3536 24.4372 25.2951 24.1613 25.1656L23.0698 24.6732L24.5681 23.8867L24.6165 23.8996C24.7031 23.9226 24.7976 23.9368 24.8941 23.9368C25.0589 23.9368 25.2165 23.8982 25.3286 23.8375C25.445 23.7744 25.4831 23.7061 25.4831 23.6554C25.4831 23.6096 25.4472 23.5434 25.3296 23.4811C25.2173 23.4216 25.0592 23.3836 24.8941 23.3836C24.7272 23.3836 24.5674 23.4217 24.4538 23.4814C24.3347 23.5439 24.2988 23.6102 24.2988 23.6554C24.2988 23.6699 24.3016 23.6835 24.3066 23.6968L24.3467 23.8037L22.8573 24.5735L21.3086 23.8689C21.2299 23.8342 21.1556 23.7657 21.1556 23.6554C21.1556 23.5504 21.2274 23.4777 21.3086 23.4419L24.1617 22.145C24.1616 22.1451 24.1617 22.145 24.1617 22.145ZM27.5628 24.6792V26.0322C27.5628 26.4289 27.257 26.7752 26.7947 27.0148C26.3265 27.2575 25.6668 27.41 24.8813 27.41C24.1004 27.41 23.4416 27.2566 22.9739 27.0144L22.9045 26.9784V24.9995L24.0216 25.5084C24.0217 25.5084 24.0216 25.5083 24.0216 25.5084M22.203 24.6801L22.6876 24.8984V26.8835L22.4645 26.6415C22.2971 26.4598 22.203 26.2538 22.203 26.0322V24.6801ZM27.3057 25.0788L25.8478 25.7423C25.8477 25.7423 25.8479 25.7423 25.8478 25.7423C25.489 25.9068 25.1881 25.9878 24.8813 25.9846C24.5776 25.9878 24.2768 25.9068 23.9152 25.7425L23.1616 25.3992V26.8205C23.5813 27.0204 24.1711 27.1528 24.8813 27.1528C25.6366 27.1528 26.2533 27.0058 26.6764 26.7865C27.1054 26.5641 27.3057 26.2857 27.3057 26.0322V25.0788Z" fill="black"/>
</svg>