<svg xmlns="http://www.w3.org/2000/svg" fill="none" viewBox="10.56 5.19 50.58 61.25">
<g id="daily-attendance">
<g id="daily-attendace">
<g id="Group">
<path id="Subtract" fill-rule="evenodd" clip-rule="evenodd" d="M58.5515 41.8315H36.1699V64.2131H58.5515V41.8315ZM40.119 53.0223L45.3854 58.2888H47.0218L54.6014 50.3894L53.2848 47.7562H50.6516L45.3854 52.3642L42.7522 50.3894L40.119 53.0223Z" fill="#22885E"/>
<g id="Vector">
<g id="Vector_2">
<mask id="path-2-inside-1_5978_45574" fill="white">
<path d="M23.6474 6.40125C23.0218 6.79516 11.6798 18.2647 11.5987 18.5775C11.5639 18.7396 11.5523 27.9615 11.5639 39.0834L11.5987 59.2997L11.8767 59.74C12.0273 59.9835 12.3633 60.3194 12.6182 60.4932L13.0932 60.806L23.8906 60.8406L34.6882 60.8639L34.7345 61.8833C34.8157 63.5053 35.4065 64.5016 36.6576 65.1158L37.3181 65.4401H47.4552H57.5925L58.2528 65.1158C58.9941 64.7448 59.5386 64.1888 59.8978 63.4241C60.1413 62.8914 60.1413 62.8218 60.1413 52.754V42.617L59.8167 41.9565C59.2028 40.7054 58.2064 40.1146 56.5844 40.0334L55.565 39.9871L55.5417 23.8603L55.5072 7.73355L55.1943 7.25857C55.0205 7.0037 54.6844 6.66772 54.4412 6.51709L54.0009 6.23905L38.998 6.20431C24.4236 6.18112 23.9833 6.18112 23.6474 6.40125ZM53.248 24.2543V39.9986L45.2889 40.0334C45.2656 40.0335 45.2423 40.0336 45.2191 40.0337C37.4677 40.0682 37.305 40.0689 36.7851 40.3114C36.0204 40.6706 35.4644 41.2151 35.0937 41.9565L34.7694 42.617L34.7345 50.576L34.6997 58.5468H24.2846H13.8578V39.3151V20.0951L18.8743 20.0603L23.8906 20.0255L24.3658 19.7129C24.6205 19.5391 24.9566 19.2029 25.1072 18.9597L25.3852 18.5194L25.42 13.503L25.4548 8.4982H39.3456H53.248V24.2543ZM23.126 14.0012V17.7665H19.3377H15.5376L19.3029 14.0012C21.3767 11.9274 23.0796 10.236 23.0914 10.236C23.1144 10.236 23.126 11.9274 23.126 14.0012ZM57.2449 42.4664C57.9051 42.7675 57.8821 42.4316 57.8821 52.7425C57.8821 59.8675 57.8473 62.3236 57.7431 62.5437C57.4417 63.204 57.7779 63.1809 47.4552 63.1809C37.1328 63.1809 37.4686 63.204 37.1676 62.5437C36.9589 62.0804 36.9822 43.3005 37.1906 42.9183C37.5267 42.3156 37.2021 42.3389 47.4204 42.3274C54.5687 42.3274 57.0247 42.362 57.2449 42.4664Z"/>
<path d="M23.126 14.0012V17.7665H19.3377H15.5376L19.3029 14.0012C21.3767 11.9274 23.0796 10.236 23.0914 10.236C23.1144 10.236 23.126 11.9274 23.126 14.0012Z"/>
<path d="M57.2449 42.4664C57.9051 42.7675 57.8821 42.4316 57.8821 52.7425C57.8821 59.8675 57.8473 62.3236 57.7431 62.5437C57.4417 63.204 57.7779 63.1809 47.4552 63.1809C37.1328 63.1809 37.4686 63.204 37.1676 62.5437C36.9589 62.0804 36.9822 43.3005 37.1906 42.9183C37.5267 42.3156 37.2021 42.3389 47.4204 42.3274C54.5687 42.3274 57.0247 42.362 57.2449 42.4664Z"/>
</mask>
<path d="M23.6474 6.40125C23.0218 6.79516 11.6798 18.2647 11.5987 18.5775C11.5639 18.7396 11.5523 27.9615 11.5639 39.0834L11.5987 59.2997L11.8767 59.74C12.0273 59.9835 12.3633 60.3194 12.6182 60.4932L13.0932 60.806L23.8906 60.8406L34.6882 60.8639L34.7345 61.8833C34.8157 63.5053 35.4065 64.5016 36.6576 65.1158L37.3181 65.4401H47.4552H57.5925L58.2528 65.1158C58.9941 64.7448 59.5386 64.1888 59.8978 63.4241C60.1413 62.8914 60.1413 62.8218 60.1413 52.754V42.617L59.8167 41.9565C59.2028 40.7054 58.2064 40.1146 56.5844 40.0334L55.565 39.9871L55.5417 23.8603L55.5072 7.73355L55.1943 7.25857C55.0205 7.0037 54.6844 6.66772 54.4412 6.51709L54.0009 6.23905L38.998 6.20431C24.4236 6.18112 23.9833 6.18112 23.6474 6.40125ZM53.248 24.2543V39.9986L45.2889 40.0334C45.2656 40.0335 45.2423 40.0336 45.2191 40.0337C37.4677 40.0682 37.305 40.0689 36.7851 40.3114C36.0204 40.6706 35.4644 41.2151 35.0937 41.9565L34.7694 42.617L34.7345 50.576L34.6997 58.5468H24.2846H13.8578V39.3151V20.0951L18.8743 20.0603L23.8906 20.0255L24.3658 19.7129C24.6205 19.5391 24.9566 19.2029 25.1072 18.9597L25.3852 18.5194L25.42 13.503L25.4548 8.4982H39.3456H53.248V24.2543ZM23.126 14.0012V17.7665H19.3377H15.5376L19.3029 14.0012C21.3767 11.9274 23.0796 10.236 23.0914 10.236C23.1144 10.236 23.126 11.9274 23.126 14.0012ZM57.2449 42.4664C57.9051 42.7675 57.8821 42.4316 57.8821 52.7425C57.8821 59.8675 57.8473 62.3236 57.7431 62.5437C57.4417 63.204 57.7779 63.1809 47.4552 63.1809C37.1328 63.1809 37.4686 63.204 37.1676 62.5437C36.9589 62.0804 36.9822 43.3005 37.1906 42.9183C37.5267 42.3156 37.2021 42.3389 47.4204 42.3274C54.5687 42.3274 57.0247 42.362 57.2449 42.4664Z" fill="#0B2D1F"/>
<path d="M23.126 14.0012V17.7665H19.3377H15.5376L19.3029 14.0012C21.3767 11.9274 23.0796 10.236 23.0914 10.236C23.1144 10.236 23.126 11.9274 23.126 14.0012Z" fill="#22885E"/>
<path d="M57.2449 42.4664C57.9051 42.7675 57.8821 42.4316 57.8821 52.7425C57.8821 59.8675 57.8473 62.3236 57.7431 62.5437C57.4417 63.204 57.7779 63.1809 47.4552 63.1809C37.1328 63.1809 37.4686 63.204 37.1676 62.5437C36.9589 62.0804 36.9822 43.3005 37.1906 42.9183C37.5267 42.3156 37.2021 42.3389 47.4204 42.3274C54.5687 42.3274 57.0247 42.362 57.2449 42.4664Z" fill="#22885E"/>
<path d="M23.126 17.7665V18.2665H23.626V17.7665H23.126ZM15.5376 17.7665L15.1841 17.413L14.3305 18.2665H15.5376V17.7665ZM19.3029 14.0012L18.9493 13.6477L18.9493 13.6477L19.3029 14.0012ZM57.2449 42.4664L57.0305 42.9182L57.0374 42.9214L57.2449 42.4664ZM57.7431 62.5437L57.2911 62.3298L57.2882 62.3361L57.7431 62.5437ZM37.1676 62.5437L36.7117 62.749L36.7126 62.7512L37.1676 62.5437ZM37.1906 42.9183L36.7539 42.6747L36.7516 42.6789L37.1906 42.9183ZM47.4204 42.3274V41.8274H47.4198L47.4204 42.3274ZM22.626 14.0012V17.7665H23.626V14.0012H22.626ZM23.126 17.2665H19.3377V18.2665H23.126V17.2665ZM19.3377 17.2665H15.5376V18.2665H19.3377V17.2665ZM15.8912 18.1201L19.6564 14.3548L18.9493 13.6477L15.1841 17.413L15.8912 18.1201ZM19.6564 14.3548C20.6931 13.3182 21.6369 12.3772 22.3228 11.6956C22.6659 11.3547 22.9441 11.079 23.1372 10.8887C23.2338 10.7935 23.3084 10.7203 23.3588 10.6712C23.3843 10.6465 23.4023 10.6292 23.4134 10.6187C23.4194 10.613 23.4209 10.6116 23.4196 10.6128C23.4191 10.6133 23.4178 10.6144 23.416 10.616C23.4143 10.6174 23.4108 10.6205 23.406 10.6244C23.4029 10.627 23.3912 10.6365 23.3751 10.6476C23.3679 10.6526 23.3497 10.665 23.3248 10.6781C23.312 10.6847 23.2798 10.6991 23.2604 10.7066C23.2297 10.7165 23.1452 10.7331 23.0914 10.736V9.736C23.0376 9.73891 22.953 9.75552 22.9223 9.76547C22.9027 9.77295 22.8705 9.78743 22.8576 9.79401C22.8325 9.80727 22.814 9.81981 22.8065 9.82501C22.7898 9.83654 22.7774 9.84669 22.7733 9.85004C22.763 9.85843 22.7546 9.86592 22.7511 9.86907C22.7426 9.87672 22.7336 9.88514 22.726 9.89234C22.7099 9.90762 22.688 9.92869 22.6618 9.95422C22.6087 10.0058 22.5322 10.0809 22.4351 10.1766C22.2407 10.3683 21.9614 10.6451 21.618 10.9863C20.9311 11.6688 19.9865 12.6105 18.9493 13.6477L19.6564 14.3548ZM23.0914 10.736C22.8852 10.736 22.7595 10.6161 22.7143 10.564C22.6662 10.5086 22.6423 10.4559 22.6334 10.4354C22.614 10.3904 22.6062 10.3532 22.6046 10.3454C22.6016 10.3315 22.6001 10.3211 22.5995 10.3168C22.5988 10.3118 22.5984 10.3085 22.5983 10.3076C22.5982 10.3065 22.599 10.3147 22.6001 10.3377C22.6023 10.381 22.6045 10.4496 22.6067 10.544C22.6109 10.7314 22.6145 11.0047 22.6173 11.3452C22.6231 12.0252 22.626 12.965 22.626 14.0012H23.626C23.626 12.9637 23.6231 12.0208 23.6173 11.3367C23.6144 10.9951 23.6108 10.716 23.6064 10.5214C23.6042 10.4248 23.6018 10.3451 23.5989 10.2877C23.5975 10.2605 23.5957 10.2303 23.5929 10.2034C23.5918 10.1927 23.5889 10.1665 23.5825 10.1364C23.5801 10.1254 23.5717 10.0858 23.5515 10.0391C23.5424 10.0178 23.5181 9.96447 23.4696 9.90865C23.424 9.85608 23.298 9.736 23.0914 9.736V10.736ZM57.0374 42.9214C57.1583 42.9765 57.17 42.9785 57.1936 42.9935C57.195 42.9943 57.1899 42.9911 57.1835 42.9844C57.1773 42.9777 57.1769 42.975 57.1807 42.9823C57.214 43.0454 57.2728 43.2473 57.312 43.8816C57.3875 45.104 57.3821 47.5738 57.3821 52.7425H58.3821C58.3821 47.6004 58.3881 45.0827 58.3101 43.8199C58.2725 43.2117 58.2134 42.7967 58.0652 42.5159C57.8782 42.1612 57.5628 42.0619 57.4523 42.0115L57.0374 42.9214ZM57.3821 52.7425C57.3821 56.3052 57.3734 58.6972 57.3517 60.2254C57.3408 60.9902 57.3268 61.5336 57.3093 61.8974C57.3005 62.08 57.2912 62.2106 57.2818 62.2985C57.2771 62.3427 57.273 62.3695 57.2704 62.3833C57.2658 62.4079 57.2687 62.3772 57.2911 62.3299L58.195 62.7576C58.2305 62.6827 58.2458 62.6071 58.2532 62.568C58.2626 62.5182 58.2699 62.4627 58.2761 62.4048C58.2886 62.2884 58.299 62.1353 58.3082 61.9454C58.3265 61.5641 58.3407 61.0069 58.3516 60.2395C58.3734 58.7034 58.3821 56.3048 58.3821 52.7425H57.3821ZM57.2882 62.3361C57.233 62.457 57.231 62.4687 57.2161 62.4922C57.2152 62.4936 57.2184 62.4885 57.2252 62.4822C57.2318 62.476 57.2344 62.4756 57.2271 62.4795C57.1637 62.5128 56.9614 62.5717 56.3263 62.6109C55.1025 62.6864 52.6298 62.6809 47.4552 62.6809V63.6809C52.6033 63.6809 55.1238 63.687 56.3879 63.609C56.9969 63.5714 57.4121 63.5122 57.6931 63.3642C58.0481 63.1772 58.1475 62.8619 58.1979 62.7513L57.2882 62.3361ZM47.4552 62.6809C42.2807 62.6809 39.808 62.6864 38.5842 62.6109C37.9491 62.5717 37.7468 62.5128 37.6835 62.4795C37.6761 62.4756 37.6788 62.476 37.6854 62.4822C37.6922 62.4886 37.6954 62.4937 37.6946 62.4923C37.6796 62.4688 37.6776 62.4572 37.6225 62.3363L36.7126 62.7512C36.7631 62.8618 36.8624 63.1772 37.2174 63.3642C37.4984 63.5122 37.9137 63.5714 38.5226 63.609C39.7867 63.687 42.3072 63.6809 47.4552 63.6809V62.6809ZM37.6235 62.3385C37.6365 62.3674 37.6429 62.3899 37.6449 62.3973C37.6475 62.4067 37.6486 62.4124 37.6486 62.4125C37.6487 62.4131 37.6483 62.4112 37.6476 62.4063C37.6469 62.4016 37.646 62.3951 37.6449 62.3865C37.6405 62.3503 37.6353 62.2946 37.63 62.2168C37.6193 62.0624 37.6092 61.8435 37.5998 61.5662C37.5811 61.0128 37.5657 60.2437 37.5538 59.329C37.5299 57.5005 37.5198 55.1001 37.5227 52.7012C37.5256 50.3022 37.5415 47.907 37.5697 46.0886C37.5838 45.1789 37.6009 44.4163 37.6209 43.8706C37.6309 43.597 37.6415 43.3825 37.6524 43.2329C37.6579 43.1573 37.6631 43.1048 37.6674 43.0721C37.6696 43.0553 37.6707 43.0506 37.6699 43.054C37.6696 43.0558 37.6677 43.0646 37.6636 43.0777C37.6606 43.0875 37.6507 43.1189 37.6296 43.1576L36.7516 42.6789C36.7107 42.754 36.6958 42.8272 36.692 42.845C36.685 42.8781 36.6798 42.9117 36.6759 42.9417C36.6679 43.0025 36.6611 43.0771 36.655 43.1602C36.6428 43.3279 36.6317 43.5566 36.6216 43.834C36.6012 44.3903 36.584 45.1612 36.5698 46.0731C36.5415 47.8979 36.5256 50.2983 36.5227 52.7C36.5198 55.1017 36.5299 57.5071 36.5539 59.3421C36.5659 60.2591 36.5813 61.0362 36.6004 61.6C36.6099 61.8813 36.6205 62.1138 36.6323 62.2856C36.6382 62.3708 36.6448 62.4469 36.6525 62.509C36.6563 62.5398 36.661 62.573 36.6673 62.605C36.6716 62.6271 36.6835 62.6864 36.7117 62.749L37.6235 62.3385ZM37.6273 43.1618C37.7343 42.97 37.704 43.027 37.7061 43.0261C37.7827 42.9901 37.9982 42.9365 38.6283 42.9004C39.8481 42.8305 42.2996 42.8332 47.4209 42.8274L47.4198 41.8274C42.3228 41.8332 39.8276 41.83 38.5711 41.902C37.963 41.9368 37.558 41.9911 37.2816 42.1206C36.9307 42.2851 36.815 42.5653 36.7539 42.6747L37.6273 43.1618ZM47.4204 42.8274C50.9947 42.8274 53.3925 42.8361 54.9236 42.8577C55.6899 42.8685 56.234 42.8826 56.5981 42.9001C56.7809 42.9089 56.9116 42.9182 56.9995 42.9276C57.0437 42.9324 57.0705 42.9364 57.0843 42.939C57.1088 42.9436 57.0781 42.9407 57.0306 42.9182L57.4592 42.0147C57.3842 41.9791 57.3084 41.9637 57.2693 41.9563C57.2194 41.9469 57.1639 41.9395 57.1059 41.9333C56.9894 41.9208 56.8363 41.9104 56.6462 41.9012C56.2645 41.8829 55.7065 41.8687 54.9377 41.8578C53.3987 41.8361 50.9943 41.8274 47.4204 41.8274V42.8274ZM45.2867 39.5334L45.2169 39.5337L45.2213 40.5337L45.2911 40.5334L45.2867 39.5334ZM23.6474 6.40125L24.1802 7.2475L24.188 7.24263L24.1956 7.23762L23.6474 6.40125ZM11.5987 18.5775L10.6307 18.3266L10.6254 18.3471L10.6209 18.3678L11.5987 18.5775ZM11.5639 39.0834L10.5639 39.0844L10.5639 39.0851L11.5639 39.0834ZM11.5987 59.2997L10.5987 59.3014L10.5992 59.5898L10.7531 59.8336L11.5987 59.2997ZM11.8767 59.74L12.7272 59.2139L12.7223 59.2061L11.8767 59.74ZM12.6182 60.4932L12.0547 61.3193L12.0614 61.3239L12.0681 61.3283L12.6182 60.4932ZM13.0932 60.806L12.5432 61.6412L12.792 61.8051L13.09 61.806L13.0932 60.806ZM23.8906 60.8406L23.8874 61.8406H23.8885L23.8906 60.8406ZM34.6882 60.8639L35.6872 60.8185L35.6439 59.8659L34.6904 59.8639L34.6882 60.8639ZM34.7345 61.8833L33.7356 61.9287L33.7358 61.9332L34.7345 61.8833ZM36.6576 65.1158L37.0984 64.2182L37.0983 64.2181L36.6576 65.1158ZM37.3181 65.4401L36.8773 66.3377L37.0858 66.4401H37.3181V65.4401ZM57.5925 65.4401V66.4401H57.8249L58.0335 66.3377L57.5925 65.4401ZM58.2528 65.1158L58.6937 66.0133L58.7002 66.0101L58.2528 65.1158ZM59.8978 63.4241L60.803 63.8493L60.8073 63.8398L59.8978 63.4241ZM60.1413 42.617H61.1413V42.3845L61.0387 42.1759L60.1413 42.617ZM59.8167 41.9565L58.9189 42.397L58.9192 42.3976L59.8167 41.9565ZM56.5844 40.0334L56.6344 39.0346L56.6298 39.0344L56.5844 40.0334ZM55.565 39.9871L54.565 39.9885L54.5664 40.9427L55.5196 40.986L55.565 39.9871ZM55.5417 23.8603L56.5417 23.8589L56.5417 23.8582L55.5417 23.8603ZM55.5072 7.73355L56.5072 7.73141L56.5065 7.43285L56.3423 7.18351L55.5072 7.73355ZM55.1943 7.25857L56.0295 6.70853L56.025 6.70179L56.0205 6.69513L55.1943 7.25857ZM54.4412 6.51709L53.9072 7.36266L53.9146 7.36723L54.4412 6.51709ZM54.0009 6.23905L54.5348 5.39352L54.2912 5.23972L54.0032 5.23905L54.0009 6.23905ZM38.998 6.20431L39.0003 5.20431L38.9996 5.20431L38.998 6.20431ZM53.248 39.9986L53.2523 40.9986L54.248 40.9942V39.9986H53.248ZM45.2889 40.0334L45.2845 39.0334H45.2845L45.2889 40.0334ZM36.7851 40.3114L36.3624 39.4051L36.36 39.4063L36.7851 40.3114ZM35.0937 41.9565L34.1993 41.5093L34.1961 41.5157L35.0937 41.9565ZM34.7694 42.617L33.8718 42.1762L33.7704 42.3826L33.7694 42.6126L34.7694 42.617ZM34.7345 50.576L33.7346 50.5716V50.5716L34.7345 50.576ZM34.6997 58.5468V59.5468H35.6954L35.6997 58.5512L34.6997 58.5468ZM13.8578 58.5468H12.8578V59.5468H13.8578V58.5468ZM13.8578 20.0951L13.8509 19.0951L12.8578 19.102V20.0951H13.8578ZM18.8743 20.0603L18.8813 21.0603L18.8743 20.0603ZM23.8906 20.0255L23.8976 21.0254L24.1932 21.0234L24.4402 20.8609L23.8906 20.0255ZM24.3658 19.7129L24.9154 20.5483L24.9225 20.5437L24.9294 20.5389L24.3658 19.7129ZM25.1072 18.9597L24.2616 18.4258L24.2569 18.4334L25.1072 18.9597ZM25.3852 18.5194L26.2307 19.0533L26.3832 18.8119L26.3851 18.5264L25.3852 18.5194ZM25.42 13.503L24.42 13.4961V13.4961L25.42 13.503ZM25.4548 8.4982V7.4982H24.4617L24.4548 8.49124L25.4548 8.4982ZM53.248 8.4982H54.248V7.4982H53.248V8.4982ZM45.2191 40.0337L45.2146 39.0337L45.2191 40.0337ZM23.1147 5.555C22.9879 5.63483 22.8386 5.76824 22.7409 5.8562C22.6136 5.97079 22.4521 6.12148 22.2644 6.29998C21.8879 6.65795 21.3883 7.14432 20.8104 7.71364C19.6538 8.85319 18.1717 10.3368 16.7079 11.8165C15.2442 13.2962 13.796 14.7749 12.7074 15.9045C12.1638 16.4687 11.7063 16.9494 11.3806 17.3009C11.2186 17.4757 11.0833 17.6249 10.9844 17.7391C10.9361 17.7949 10.8879 17.8523 10.8472 17.9049C10.8276 17.9303 10.8002 17.9668 10.7729 18.0087C10.7686 18.0154 10.6775 18.1459 10.6307 18.3266L12.5667 18.8285C12.5391 18.9349 12.4999 19.0104 12.4875 19.034C12.4703 19.0666 12.4554 19.0902 12.4484 19.1009C12.4344 19.1223 12.4258 19.133 12.43 19.1275C12.437 19.1184 12.4572 19.0935 12.4965 19.0481C12.5731 18.9597 12.6903 18.83 12.8475 18.6604C13.1599 18.3233 13.6068 17.8535 14.1476 17.2923C15.228 16.1711 16.6696 14.6991 18.1298 13.2231C19.5899 11.747 21.0656 10.2699 22.2141 9.13833C22.7888 8.57209 23.2786 8.09533 23.6424 7.74945C23.8249 7.57602 23.9713 7.4396 24.0789 7.34275C24.2161 7.21926 24.2288 7.21691 24.1802 7.2475L23.1147 5.555ZM10.6209 18.3678C10.6043 18.4454 10.6001 18.5142 10.6 18.5152C10.5984 18.5365 10.5973 18.557 10.5965 18.5729C10.595 18.6058 10.5938 18.6451 10.5927 18.6872C10.5906 18.7727 10.5886 18.8905 10.5868 19.0365C10.5831 19.3295 10.5799 19.7493 10.577 20.2805C10.5712 21.3435 10.5668 22.8606 10.5639 24.719C10.5581 28.4361 10.5581 33.523 10.5639 39.0844L12.5639 39.0823C12.5581 33.5219 12.5581 28.4369 12.5639 24.7221C12.5668 22.8645 12.5711 21.3505 12.5769 20.2914C12.5798 19.7615 12.5831 19.3473 12.5866 19.0615C12.5884 18.9181 12.5903 18.8103 12.5921 18.7375C12.593 18.7005 12.5939 18.6774 12.5944 18.6652C12.5971 18.6061 12.5969 18.6918 12.5764 18.7873L10.6209 18.3678ZM10.5639 39.0851L10.5987 59.3014L12.5987 59.298L12.5639 39.0817L10.5639 39.0851ZM10.7531 59.8336L11.0312 60.2739L12.7223 59.2061L12.4442 58.7658L10.7531 59.8336ZM11.0263 60.2661C11.2622 60.6474 11.7041 61.0802 12.0547 61.3193L13.1816 59.667C13.0225 59.5585 12.7925 59.3196 12.7271 59.2139L11.0263 60.2661ZM12.0681 61.3283L12.5432 61.6412L13.6432 59.9709L13.1682 59.658L12.0681 61.3283ZM13.09 61.806L23.8874 61.8406L23.8938 59.8406L13.0964 59.806L13.09 61.806ZM23.8885 61.8406L34.6861 61.8639L34.6904 59.8639L23.8928 59.8406L23.8885 61.8406ZM33.6892 60.9093L33.7356 61.9287L35.7335 61.8378L35.6872 60.8185L33.6892 60.9093ZM33.7358 61.9332C33.7817 62.8508 33.9756 63.6783 34.3978 64.3885C34.8267 65.11 35.4466 65.6353 36.217 66.0134L37.0983 64.2181C36.6175 63.9821 36.3165 63.7022 36.1169 63.3665C35.9106 63.0194 35.7685 62.5378 35.7333 61.8333L33.7358 61.9332ZM36.2168 66.0134L36.8773 66.3377L37.7589 64.5425L37.0984 64.2182L36.2168 66.0134ZM37.3181 66.4401H47.4552V64.4401H37.3181V66.4401ZM47.4552 66.4401H57.5925V64.4401H47.4552V66.4401ZM58.0335 66.3377L58.6937 66.0133L57.8118 64.2182L57.1516 64.5426L58.0335 66.3377ZM58.7002 66.0101C59.6434 65.5382 60.3487 64.8164 60.8029 63.8493L58.9927 62.999C58.7286 63.5612 58.3449 63.9515 57.8053 64.2215L58.7002 66.0101ZM60.8073 63.8398C60.8926 63.6532 60.9762 63.4539 61.0284 63.0899C61.0721 62.7853 61.0954 62.3578 61.1106 61.6874C61.1413 60.3302 61.1413 57.7795 61.1413 52.754H59.1413C59.1413 57.7963 59.1412 60.3143 59.1111 61.642C59.0959 62.3141 59.0735 62.6331 59.0487 62.806C59.0324 62.9195 59.0248 62.9286 58.9883 63.0085L60.8073 63.8398ZM61.1413 52.754V42.617H59.1413V52.754H61.1413ZM61.0387 42.1759L60.7141 41.5154L58.9192 42.3976L59.2438 43.058L61.0387 42.1759ZM60.7144 41.516C60.3364 40.7456 59.8111 40.1256 59.0896 39.6967C58.3795 39.2745 57.5519 39.0806 56.6344 39.0346L56.5344 41.0322C57.2389 41.0674 57.7205 41.2095 58.0676 41.4158C58.4032 41.6153 58.683 41.9163 58.9189 42.397L60.7144 41.516ZM56.6298 39.0344L55.6104 38.9881L55.5196 40.986L56.539 41.0324L56.6298 39.0344ZM56.565 39.9856L56.5417 23.8589L54.5417 23.8618L54.565 39.9885L56.565 39.9856ZM56.5417 23.8582L56.5072 7.73141L54.5072 7.73569L54.5417 23.8625L56.5417 23.8582ZM56.3423 7.18351L56.0295 6.70853L54.3592 7.80861L54.672 8.28359L56.3423 7.18351ZM56.0205 6.69513C55.7811 6.34415 55.3481 5.90257 54.9677 5.66695L53.9146 7.36723C54.0206 7.43287 54.2599 7.66324 54.3682 7.82201L56.0205 6.69513ZM54.9751 5.67156L54.5348 5.39352L53.4669 7.08458L53.9072 7.36263L54.9751 5.67156ZM54.0032 5.23905L39.0003 5.20431L38.9957 7.20431L53.9985 7.23905L54.0032 5.23905ZM38.9996 5.20431C31.7176 5.19272 27.9538 5.18688 25.9708 5.21161C24.9886 5.22386 24.4061 5.24376 24.0418 5.279C23.6506 5.31685 23.3763 5.38331 23.0993 5.56488L24.1956 7.23762C24.1957 7.23755 24.1903 7.2411 24.1814 7.24625C24.1722 7.25164 24.1605 7.25794 24.1471 7.26438C24.1185 7.27805 24.0956 7.28576 24.0837 7.28923C24.0699 7.2932 24.1015 7.28257 24.2344 7.2697C24.5027 7.24375 25.0041 7.22382 25.9958 7.21146C27.9605 7.18695 31.704 7.1927 38.9964 7.20431L38.9996 5.20431ZM52.248 24.2543V39.9986H54.248V24.2543H52.248ZM53.2436 38.9986L45.2845 39.0334L45.2933 41.0334L53.2523 40.9986L53.2436 38.9986ZM36.36 39.4063C35.3928 39.8606 34.671 40.5659 34.1993 41.5093L35.9881 42.4037C36.2578 41.8643 36.648 41.4806 37.2102 41.2165L36.36 39.4063ZM34.1961 41.5157L33.8718 42.1762L35.667 43.0578L35.9913 42.3973L34.1961 41.5157ZM33.7694 42.6126L33.7346 50.5716L35.7345 50.5804L35.7694 42.6213L33.7694 42.6126ZM33.7346 50.5716L33.6997 58.5424L35.6997 58.5512L35.7345 50.5804L33.7346 50.5716ZM34.6997 57.5468H24.2846V59.5468H34.6997V57.5468ZM24.2846 57.5468H13.8578V59.5468H24.2846V57.5468ZM14.8578 58.5468V39.3151H12.8578V58.5468H14.8578ZM14.8578 39.3151V20.0951H12.8578V39.3151H14.8578ZM13.8648 21.0951L18.8813 21.0603L18.8674 19.0603L13.8509 19.0951L13.8648 21.0951ZM18.8813 21.0603L23.8976 21.0254L23.8837 19.0255L18.8674 19.0603L18.8813 21.0603ZM24.4402 20.8609L24.9154 20.5483L23.8162 18.8775L23.341 19.19L24.4402 20.8609ZM24.9294 20.5389C25.2799 20.2998 25.7218 19.8668 25.9575 19.486L24.2569 18.4334C24.1915 18.5391 23.9611 18.7784 23.8021 18.8869L24.9294 20.5389ZM25.9527 19.4936L26.2307 19.0533L24.5396 17.9855L24.2616 18.4259L25.9527 19.4936ZM26.3851 18.5264L26.42 13.51L24.42 13.4961L24.3852 18.5125L26.3851 18.5264ZM26.42 13.51L26.4548 8.50515L24.4548 8.49124L24.42 13.4961L26.42 13.51ZM25.4548 9.4982H39.3456V7.4982H25.4548V9.4982ZM39.3456 9.4982H53.248V7.4982H39.3456V9.4982ZM52.248 8.4982V24.2543H54.248V8.4982H52.248ZM45.2146 39.0337C41.3491 39.0509 39.3505 39.0597 38.2579 39.0951C37.7172 39.1126 37.3487 39.1377 37.0688 39.184C36.7408 39.2384 36.5433 39.3208 36.3624 39.4051L37.2078 41.2177C37.2869 41.1808 37.3047 41.1722 37.3957 41.1571C37.5347 41.1341 37.7887 41.1113 38.3226 41.0941C39.3792 41.0598 41.3376 41.051 45.2235 41.0337L45.2146 39.0337ZM45.2845 39.0334C45.2525 39.0336 45.2465 39.0336 45.2146 39.0337L45.2235 41.0337C45.238 41.0336 45.2786 41.0335 45.2934 41.0334L45.2845 39.0334Z" fill="#0B2D1F" mask="url(#path-2-inside-1_5978_45574)"/>
</g>
</g>
<path id="Vector_2_2" d="M19.0777 23.1422C18.3015 23.5707 18.3248 24.7987 19.124 25.1579C19.3557 25.2621 22.8429 25.2969 33.5593 25.2969C45.5619 25.2969 47.7399 25.2736 48.018 25.1346C48.7826 24.7294 48.7826 23.5474 48.018 23.1422C47.5546 22.9102 19.5065 22.8987 19.0777 23.1422Z" fill="#0B2D1F"/>
<path id="Vector_3" d="M19.0859 28.3552C18.078 28.9112 18.5066 30.51 19.6535 30.51C20.2443 30.51 20.8121 29.9424 20.8121 29.3631C20.8121 28.4942 19.8506 27.9264 19.0859 28.3552Z" fill="#0B2D1F"/>
<path id="Vector_4" d="M24.2974 28.3549C23.5212 28.7835 23.5445 30.0115 24.3437 30.3707C24.5639 30.4751 27.4836 30.5097 36.1725 30.5097C45.9273 30.5097 47.7462 30.4866 48.0242 30.3476C48.7889 29.9421 48.7889 28.7604 48.0242 28.3549C47.5609 28.1232 24.7262 28.1232 24.2974 28.3549Z" fill="#0B2D1F"/>
<path id="Vector_5" d="M19.0777 33.5682C18.3015 33.997 18.3248 35.2251 19.124 35.5842C19.3557 35.6884 22.8429 35.7232 33.5593 35.7232C45.5619 35.7232 47.7399 35.7 48.018 35.5609C48.7826 35.1554 48.7826 33.9737 48.018 33.5682C47.5546 33.3366 19.5065 33.325 19.0777 33.5682Z" fill="#0B2D1F"/>
<path id="Vector_6" d="M19.0777 38.7819C18.3015 39.2104 18.3248 40.4385 19.124 40.7976C19.5528 40.9945 31.3234 40.9945 31.752 40.7976C32.0881 40.6471 32.3894 40.1605 32.3894 39.778C32.3894 39.3958 32.0881 38.9091 31.752 38.7586C31.2886 38.55 19.4601 38.5733 19.0777 38.7819Z" fill="#0B2D1F"/>
<path id="Vector_7" d="M19.0825 43.995C18.5379 44.2964 18.3523 44.9684 18.6537 45.5592C18.955 46.1268 19.1403 46.1501 23.1372 46.1501C27.1572 46.1501 27.3425 46.1268 27.6208 45.5129C27.8871 44.922 27.7017 44.2731 27.169 43.995C26.7171 43.7634 19.4995 43.7634 19.0825 43.995Z" fill="#0B2D1F"/>
<path id="Vector_8" d="M51.3556 46.2662C50.4635 46.4979 49.9074 46.9151 47.9032 48.8846L45.8757 50.9003L45.4123 50.4254C44.694 49.684 43.86 49.3364 42.8173 49.3364C41.3806 49.3479 40.3379 49.9851 39.724 51.2246C39.4575 51.7692 39.3994 52.0357 39.3994 52.754C39.3994 54.1328 39.6659 54.5381 41.983 56.8321C44.2191 59.0449 44.5665 59.2651 45.8872 59.2766C47.3006 59.2881 47.4166 59.207 51.3672 55.2682C55.3989 51.2479 55.5031 51.1205 55.5031 49.684C55.5031 48.6065 55.2599 47.9694 54.5531 47.251C53.7769 46.4515 52.3635 46.023 51.3556 46.2662ZM52.9428 48.9424C53.2209 49.2552 53.2557 49.3827 53.2093 49.7767C53.1512 50.2053 52.8847 50.5066 49.8611 53.5302C47.6715 55.7197 46.455 56.8551 46.2116 56.9363C45.922 57.0289 45.7597 57.0174 45.4472 56.8669C44.9026 56.6119 41.8091 53.4723 41.7165 53.0783C41.4966 52.198 42.2495 51.4333 43.1183 51.6419C43.2921 51.6883 43.883 52.1631 44.4508 52.7077C45.4008 53.6113 45.4935 53.681 45.9569 53.681C46.4435 53.681 46.4781 53.6461 49.0038 51.1437C50.4171 49.7534 51.6452 48.5832 51.7378 48.5487C52.0855 48.4094 52.6067 48.5832 52.9428 48.9424Z" fill="#0B2D1F"/>
</g>
</g>
</g>
</svg>