<svg xmlns="http://www.w3.org/2000/svg" fill="none" viewBox="6 4 60.62 64">
<g id="student-invoice">
<ellipse id="Ellipse 2645" cx="54" cy="47.5" rx="9" ry="8.5" fill="#62C89E"/>
<g id="Group 1171274902">
<g id="9xOQyM">
<path id="Vector" d="M6.00541 36.0224C6.00541 27.4985 6.00541 18.9746 6.00541 10.4507C6.00541 6.12809 8.14939 4.00072 12.4785 4C25.014 4 37.5493 4 50.0843 4C54.3751 4 56.4202 6.06165 56.4224 10.3799C56.4262 15.9961 56.4262 21.612 56.4224 27.2277C56.4224 27.6285 56.4411 28.0329 56.4007 28.43C56.3018 29.3969 55.8187 30.0302 54.786 30.062C53.7642 30.0938 53.1735 29.4951 53.0262 28.5586C52.902 27.7736 52.949 26.9598 52.9482 26.1582C52.9425 20.8434 52.9482 15.5286 52.941 10.2131C52.936 8.04676 52.4088 7.48278 50.3219 7.48134C37.5861 7.47219 24.8501 7.47219 12.1138 7.48134C10.1764 7.48134 9.4882 8.16952 9.48675 10.112C9.47809 27.3606 9.47809 44.6091 9.48675 61.8577C9.48675 63.8189 10.1663 64.5107 12.0864 64.5122C24.8222 64.5218 37.5582 64.5252 50.2944 64.5223C51.0447 64.522 51.7866 64.3645 52.4724 64.0601C53.3339 63.6889 54.1896 63.8095 54.6792 64.723C55.1926 65.6827 54.8416 66.4756 53.9989 67.0612C53.0674 67.7075 52.0203 68 50.883 68C37.7958 67.9971 24.7088 67.9935 11.6221 67.9892C8.27215 67.9827 6.02274 65.5896 6.01263 62.0447C5.9888 53.3713 6.00614 44.6972 6.00541 36.0224Z" fill="#0B2D1F"/>
<path id="Vector_2" d="M21.2016 54.8757C21.7981 54.9985 22.5852 55.1407 23.3615 55.3292C23.9012 55.4589 24.469 55.4014 24.9718 55.166C25.4224 54.9689 25.7141 54.6208 25.7351 54.137C25.7596 53.6005 25.3552 53.334 24.9119 53.191C24.2959 52.9932 23.6474 52.8942 23.0343 52.6855C21.0009 51.9764 19.4772 50.6918 19.2699 48.4547C19.0764 46.3605 20.1069 44.7581 22.0082 43.8627C23.0192 43.3861 22.7773 42.5831 22.8192 41.822C22.8971 40.3821 23.6546 39.5191 24.7609 39.7177C25.9033 39.9235 26.3431 40.78 26.2709 41.8162C26.1878 43.0149 26.6088 43.6619 27.7873 43.9826C28.8864 44.283 29.2951 45.1661 28.9485 46.2255C28.6019 47.2848 27.6906 47.4531 26.7294 47.1881C25.7979 46.9317 24.8692 46.7988 23.9132 46.9136C23.3088 46.9859 22.8661 47.2949 22.7672 47.9246C22.6755 48.5023 23.0372 48.9125 23.5052 49.1161C24.1414 49.3927 24.8238 49.5703 25.4968 49.7501C27.3793 50.2513 28.7983 51.2529 29.1341 53.2936C29.4439 55.179 28.825 56.7735 27.2443 57.874C26.5395 58.3643 26.2333 58.9138 26.2962 59.7471C26.3403 60.2467 26.3172 60.75 26.2276 61.2434C26.0384 62.1756 25.4549 62.8198 24.4692 62.7728C23.4958 62.7273 22.9527 62.0738 22.8502 61.1047C22.805 60.706 22.7972 60.304 22.8271 59.9039C22.8906 59.1218 22.5939 58.6885 21.7909 58.5441C21.2503 58.4378 20.7257 58.2618 20.2304 58.0206C19.3963 57.6285 19.0555 56.9229 19.3003 56.0369C19.5292 55.2122 20.1524 54.8404 21.2016 54.8757Z" fill="#0B2D1F"/>
<path id="Vector_3" d="M31.2484 23.5587C35.6605 23.5587 40.0729 23.5587 44.4856 23.5587C44.9362 23.5587 45.3954 23.5363 45.8352 23.6129C46.67 23.7573 47.2022 24.3039 47.2628 25.1344C47.3235 25.9648 46.8722 26.5909 46.0605 26.8321C45.5789 26.9641 45.0809 27.0266 44.5816 27.0177C35.6562 27.0278 26.7308 27.0292 17.8054 27.022C17.4559 27.022 17.097 27.022 16.7584 26.9498C15.8109 26.7404 15.2556 26.1699 15.3026 25.1524C15.3509 24.1126 15.9814 23.6418 16.9577 23.5753C17.4574 23.5421 17.9607 23.558 18.4618 23.558C22.7238 23.5575 26.986 23.5578 31.2484 23.5587Z" fill="#0B2D1F"/>
<path id="Vector_4" d="M31.3454 17.1505C26.8355 17.1505 22.3254 17.1505 17.8151 17.1505C16.6279 17.1505 15.3858 17.2227 15.3028 15.546C15.2436 14.3343 16.0596 13.7407 17.8757 13.732C23.1378 13.7104 28.3999 13.7219 33.6612 13.7212C37.1693 13.7212 40.6774 13.7226 44.1854 13.7255C44.6851 13.7255 45.1964 13.7255 45.6824 13.8093C46.7042 13.9869 47.3555 14.6166 47.2559 15.6673C47.1642 16.6393 46.4702 17.1368 45.478 17.1397C42.9723 17.146 40.4665 17.1489 37.9607 17.1484C35.7554 17.1513 33.5503 17.152 31.3454 17.1505Z" fill="#0B2D1F"/>
<path id="Vector_5" d="M28.784 36.7052C25.0738 36.7052 21.3638 36.7052 17.654 36.7052C16.4719 36.7052 15.375 36.5803 15.2818 35.0617C15.2096 33.8637 16.0097 33.2333 17.6699 33.2304C24.9893 33.2159 27.9767 33.2232 35.2961 33.2261C35.5967 33.2147 35.8978 33.2321 36.1951 33.278C37.1758 33.4716 37.9297 33.9792 37.8574 35.0675C37.7852 36.1167 37.0631 36.6727 36.029 36.6865C33.6229 36.7175 35.5496 36.7031 33.1406 36.7052C31.6905 36.7067 30.2384 36.7067 28.784 36.7052Z" fill="#0B2D1F"/>
</g>
<path id="Vector_6" d="M49.2072 58.3521C46.1871 57.0484 43.7789 54.6405 42.4749 51.6205C41.8245 50.0871 41.4893 48.4385 41.4893 46.7729C41.4893 45.1073 41.8245 43.4587 42.4749 41.9253C43.1191 40.4293 44.0409 39.0689 45.1915 37.9161C46.3399 36.7613 47.6989 35.8372 49.195 35.1937C50.7293 34.5432 52.3789 34.208 54.0454 34.208C55.712 34.208 57.3615 34.5432 58.8959 35.1937C61.9192 36.4948 64.33 38.9033 65.634 41.9253C66.2841 43.4588 66.6191 45.1073 66.6191 46.7729C66.6191 48.4385 66.2841 50.087 65.634 51.6205C64.33 54.6405 61.9218 57.0484 58.9017 58.3521C57.3685 59.0026 55.72 59.3378 54.0545 59.3378C52.389 59.3378 50.7405 59.0026 49.2072 58.3521ZM46.6141 45.3539L49.0404 46.4631L52.7853 44.7257C52.7682 44.6795 52.7599 44.6305 52.7608 44.5813C52.7608 44.3757 52.8985 44.2113 53.1738 44.0881C53.4549 43.9638 53.7591 43.9008 54.0664 43.9032C54.3721 43.9003 54.6748 43.9634 54.9539 44.0881C55.2249 44.2118 55.3604 44.3762 55.3604 44.5813C55.3604 44.7945 55.2268 44.9669 54.9596 45.0983C54.6812 45.2324 54.3754 45.2999 54.0664 45.2954C53.8751 45.3 53.6842 45.2757 53.5002 45.2232L49.9525 46.8841L52.451 48.0294C52.7203 48.1571 53.0007 48.26 53.2887 48.337C53.7829 48.4526 54.2971 48.4526 54.7914 48.337C55.079 48.2598 55.3591 48.1568 55.6283 48.0294L61.4551 45.3576C61.833 45.1852 62.0217 44.9267 62.0212 44.582C62.0175 44.4278 61.9707 44.2777 61.8862 44.1487C61.7811 43.9888 61.63 43.8645 61.4529 43.792L55.6283 41.1404C55.0126 40.8616 54.483 40.7302 54.0397 40.7461C53.5963 40.7302 53.0667 40.8616 52.451 41.1404L46.6119 43.7891C46.4404 43.8644 46.2947 43.9884 46.1931 44.1458C46.1084 44.2748 46.0614 44.4249 46.0574 44.5791C46.0588 44.9243 46.2444 45.1833 46.6141 45.3561V45.3539ZM49.078 50.7128V47.4011L48.2772 47.0401V49.0483C48.2772 49.6091 48.5441 50.1647 49.078 50.715V50.7128ZM48.8613 54.3465C48.9351 54.4183 49.0231 54.474 49.1195 54.5101C49.216 54.5461 49.3189 54.5617 49.4217 54.5559H49.5697C49.6716 54.562 49.7736 54.5464 49.869 54.5102C49.9644 54.4741 50.0511 54.4181 50.1233 54.3459C50.1954 54.2738 50.2515 54.1872 50.2878 54.0918C50.3241 53.9965 50.3397 53.8945 50.3337 53.7926V52.513C50.3337 52.176 50.1941 51.9421 49.9149 51.8111V51.3678C49.606 51.1923 49.3239 50.9735 49.0773 50.7178V51.801C48.7976 51.9243 48.6579 52.1623 48.6584 52.5152V53.797C48.654 53.8978 48.6697 53.9986 48.7047 54.0933C48.7397 54.188 48.7932 54.2748 48.8621 54.3487L48.8613 54.3465ZM51.713 52.074C52.4764 52.2496 53.2578 52.3345 54.0411 52.3267C55.2158 52.3267 56.232 52.1768 57.0899 51.8768C57.9478 51.5769 58.6131 51.1786 59.0858 50.6817C59.5581 50.1849 59.7942 49.6409 59.7942 49.0497V47.0437L55.9757 48.8057C55.6496 48.9521 55.3113 49.0695 54.9647 49.1566C54.6626 49.2325 54.3518 49.2677 54.0404 49.2613C53.7276 49.267 53.4153 49.2316 53.1117 49.1559C52.7669 49.0707 52.4308 48.9532 52.108 48.8049L49.9156 47.794V51.3663C50.4748 51.6943 51.0813 51.9337 51.7137 52.0761L51.713 52.074Z" fill="#0B2D1F"/>
</g>
</g>
</svg>