<?xml version="1.0" ?><svg xmlns="http://www.w3.org/2000/svg" fill="none" viewBox="4 9 64 52.48">
<g id="hire">
<g id="Group 1171275651">
<path id="Icon" fill-rule="evenodd" clip-rule="evenodd" d="M58.1234 31.4718C63.5785 31.4718 68.0007 27.0462 68.0007 21.587C68.0007 16.1277 63.5785 11.7021 58.1234 11.7021C52.6683 11.7021 48.2461 16.1277 48.2461 21.587C48.2461 27.0462 52.6683 31.4718 58.1234 31.4718ZM62.7004 19.9895C63.1826 19.5069 63.1826 18.7246 62.7004 18.2421C62.2183 17.7595 61.4365 17.7595 60.9544 18.2421L56.8887 22.3108L55.2925 20.7133C54.8103 20.2307 54.0285 20.2307 53.5464 20.7133C53.0642 21.1958 53.0642 21.9782 53.5464 22.4607L56.0157 24.9319C56.4979 25.4144 57.2796 25.4144 57.7618 24.9319L62.7004 19.9895Z" fill="black"/>
<path id="Subtract" fill-rule="evenodd" clip-rule="evenodd" d="M53.5712 33.8973C49.0385 32.5776 45.6902 28.4743 45.4971 23.5597H10.4719C7.99134 23.5597 5.98047 25.5706 5.98047 28.0511V55.0132C5.98047 57.4937 7.99134 59.5046 10.4719 59.5046H49.0798C51.5603 59.5046 53.5712 57.4937 53.5712 55.0132V33.8973Z" fill="black"/>
<path id="Subtract_2" fill-rule="evenodd" clip-rule="evenodd" d="M24.8362 9C20.7663 9 17.4696 12.3014 17.4696 16.3708V19.7835H11.3672C7.29727 19.7835 4.00052 23.0849 4.00052 27.1542V41.2761C3.99982 41.3064 3.99983 41.3367 4.00052 41.3669V54.1129C4.00052 58.1822 7.29727 61.4836 11.3672 61.4836H49.0806C53.1505 61.4836 56.4472 58.1822 56.4472 54.1129V41.3673C56.4479 41.3368 56.4479 41.3063 56.4472 41.2757V34.34C55.0497 34.3072 53.7154 34.0187 52.4891 33.5196V39.9733C45.5728 42.6046 38.0687 44.0462 30.2239 44.0462C22.379 44.0462 14.8749 42.6046 7.95859 39.9733V27.1542C7.95859 25.268 9.48609 23.7415 11.3672 23.7415H19.4486H40.9991H45.5086C45.4971 23.5326 45.4912 23.3222 45.4912 23.1103C45.4912 21.9521 45.6664 20.8347 45.9917 19.7835H42.9781V16.3708C42.9781 12.3014 39.6814 9 35.6115 9H24.8362ZM21.4276 19.7835H39.0201V16.3708C39.0201 14.4846 37.4926 12.9581 35.6115 12.9581H24.8362C22.9551 12.9581 21.4276 14.4846 21.4276 16.3708V19.7835ZM30.2239 48.0043C38.0291 48.0043 45.5245 46.6604 52.4891 44.19V54.1129C52.4891 55.9991 50.9616 57.5256 49.0806 57.5256H11.3672C9.48609 57.5256 7.95859 55.9991 7.95859 54.1129V44.19C14.9232 46.6604 22.4186 48.0043 30.2239 48.0043ZM30.2239 35.9586C29.1309 35.9586 28.2448 36.8447 28.2448 37.9377C28.2448 39.0307 29.1309 39.9167 30.2239 39.9167H30.2508C31.3438 39.9167 32.2298 39.0307 32.2298 37.9377C32.2298 36.8447 31.3438 35.9586 30.2508 35.9586H30.2239Z" fill="black"/>
</g>
</g>
</svg>