<?xml version="1.0" ?><svg xmlns="http://www.w3.org/2000/svg" fill="none" viewBox="12 4 48.77 64">
<g id="check-sheet-dimension">
<g id="Group 1171275135">
<g id="Vector">
<path d="M18.0063 68C17.1897 67.7117 16.3114 67.5317 15.5681 67.1134C13.2166 65.7885 12.0251 63.7153 12.0117 61.0155C11.9901 56.4759 12.0051 51.9346 12.0051 47.3949C12.0051 35.2942 12.0017 23.1952 12.0067 11.0944C12.0084 7.68638 14.0982 4.96493 17.3146 4.20165C17.8946 4.06333 18.5095 4.01334 19.1078 4.01167C26.6056 4 34.1033 4.00834 41.5994 4C43.5943 3.99834 45.2875 4.67995 46.7323 6.05151C50.582 9.70956 54.4351 13.3643 58.3081 16.9973C59.9713 18.5572 60.7629 20.4321 60.7596 22.7152C60.7412 35.3975 60.7212 48.0816 60.7679 60.7639C60.7829 64.8736 57.8065 67.5684 54.91 67.91C54.855 67.9167 54.8034 67.9683 54.7517 67.9983C42.5043 68 30.2553 68 18.0063 68ZM41.2544 7.75471C40.9445 7.75471 40.7378 7.75471 40.5295 7.75471C33.4267 7.75471 26.3239 7.75471 19.2195 7.75471C17.028 7.75471 15.7564 9.01628 15.7564 11.1944C15.7548 27.7331 15.7548 44.2735 15.7564 60.8122C15.7564 62.9871 17.0297 64.2503 19.2212 64.2503C30.6569 64.252 42.0927 64.252 53.5285 64.2503C55.745 64.2503 57.0015 62.9854 57.0015 60.7572C57.0032 48.3215 57.0015 35.8858 57.0015 23.4501C57.0015 23.2302 57.0015 23.0102 57.0015 22.7535C56.6916 22.7535 56.4649 22.7535 56.2383 22.7535C52.8219 22.7535 49.4055 22.7552 45.9891 22.7535C43.0576 22.7519 41.2528 20.9353 41.2528 17.9889C41.2511 14.8225 41.2528 11.6561 41.2528 8.48965C41.2544 8.26634 41.2544 8.04135 41.2544 7.75471ZM54.9634 19.0038C51.5886 15.8124 48.3505 12.7493 45.0441 9.6229C45.0225 9.82288 45.0058 9.90121 45.0058 9.97787C45.0041 12.7027 45.0008 15.4291 45.0058 18.1539C45.0075 18.8022 45.2108 18.9988 45.8724 19.0022C47.4956 19.0072 49.1172 19.0038 50.7404 19.0038C52.0869 19.0038 53.4335 19.0038 54.9634 19.0038Z" fill="black"/>
<path d="M54.9634 19.0038C51.5886 15.8124 48.3505 12.7493 45.0441 9.6229C45.0225 9.82288 45.0058 9.90121 45.0058 9.97787C45.0041 12.7027 45.0008 15.4291 45.0058 18.1539C45.0075 18.8022 45.2108 18.9988 45.8724 19.0022C47.4956 19.0072 49.1172 19.0038 50.7404 19.0038H54.9634Z" fill="black"/>
</g>
</g>
<path id="Vector_2" d="M41.8355 24.0899C40.9981 24.3524 40.3981 25.3649 40.5606 26.2523C40.7106 27.0398 41.4605 27.7148 42.198 27.7148C42.373 27.7148 42.5105 27.7523 42.5105 27.8148C42.5105 27.8648 41.523 28.8898 40.3231 30.0897L38.1356 32.2772L35.0982 29.2398C31.8108 25.9649 31.6233 25.8274 30.6733 26.0774C30.2859 26.1899 29.4859 26.9273 26.4235 29.9897C23.1985 33.2272 22.6486 33.8396 22.5736 34.2396C22.3486 35.4646 23.1611 36.4646 24.386 36.4646C24.6735 36.4646 25.0235 36.4021 25.1735 36.3271C25.3235 36.2521 26.7235 34.9146 28.2984 33.3647L31.1358 30.5272L34.1108 33.4897C35.7357 35.1146 37.1982 36.5021 37.3482 36.5771C37.6982 36.7521 38.5731 36.7521 38.9231 36.5771C39.0731 36.5021 40.5481 35.0896 42.2105 33.4397L45.2229 30.4397L45.2979 30.9397C45.5854 32.6772 47.9854 33.0397 48.7978 31.4647C48.9978 31.0772 49.0103 30.7022 48.9853 28.1273C48.9478 24.9399 48.9353 24.9274 48.0854 24.2899C47.7604 24.0399 47.5604 24.0274 44.973 24.0024C43.448 23.9899 42.0355 24.0274 41.8355 24.0899Z" fill="black"/>
<path id="Vector_3" d="M31.6224 45.2518C30.4849 46.0142 30.5099 47.5142 31.6849 48.3892C32.0224 48.6517 32.1474 48.6517 40.1971 48.6517C48.2469 48.6517 48.3719 48.6517 48.7094 48.3892C49.8844 47.5142 49.9094 46.0142 48.7719 45.2518L48.3469 44.9643H40.1971H32.0474L31.6224 45.2518Z" fill="black"/>
<path id="Vector_4" d="M31.8111 55.889C31.1986 56.164 30.8236 56.789 30.8236 57.5515C30.8236 58.2515 31.0486 58.6764 31.6861 59.1389C32.0236 59.4014 32.1486 59.4014 40.1984 59.4014C48.2481 59.4014 48.3731 59.4014 48.7106 59.1389C49.3481 58.6764 49.5731 58.2515 49.5731 57.5515C49.5731 56.7765 49.1981 56.1515 48.5606 55.889C47.9606 55.639 32.3861 55.639 31.8111 55.889Z" fill="black"/>
<g id="Vector_5">
<mask id="path-5-outside-1_7362_47155" maskUnits="userSpaceOnUse" x="21" y="40.4967" width="6" height="10" fill="black">
<rect fill="white" x="21" y="40.4967" width="6" height="10"/>
<path d="M23.4833 41.5245C21.9192 42.31 21.6775 42.7086 22.36 43.3534C22.6017 43.5996 22.815 43.6817 23.2131 43.6817H23.725V46.2492V48.8167L24.1374 49.1567C24.3649 49.3443 24.6919 49.4967 24.8625 49.4967C25.0331 49.4967 25.3602 49.3443 25.5877 49.1567L26 48.8167V45.2293C26 41.6887 26 41.6535 25.6872 41.3604C25.1184 40.8446 24.7772 40.868 23.4833 41.5245Z"/>
</mask>
<path d="M23.4833 41.5245C21.9192 42.31 21.6775 42.7086 22.36 43.3534C22.6017 43.5996 22.815 43.6817 23.2131 43.6817H23.725V46.2492V48.8167L24.1374 49.1567C24.3649 49.3443 24.6919 49.4967 24.8625 49.4967C25.0331 49.4967 25.3602 49.3443 25.5877 49.1567L26 48.8167V45.2293C26 41.6887 26 41.6535 25.6872 41.3604C25.1184 40.8446 24.7772 40.868 23.4833 41.5245Z" fill="black"/>
<path d="M23.4833 41.5245C21.9192 42.31 21.6775 42.7086 22.36 43.3534C22.6017 43.5996 22.815 43.6817 23.2131 43.6817H23.725V46.2492V48.8167L24.1374 49.1567C24.3649 49.3443 24.6919 49.4967 24.8625 49.4967C25.0331 49.4967 25.3602 49.3443 25.5877 49.1567L26 48.8167V45.2293C26 41.6887 26 41.6535 25.6872 41.3604C25.1184 40.8446 24.7772 40.868 23.4833 41.5245Z" stroke-width="0.6" mask="url(#path-5-outside-1_7362_47155)" fill="black"/>
</g>
<g id="Vector_6">
<mask id="path-6-outside-2_7362_47155" maskUnits="userSpaceOnUse" x="21" y="51.9849" width="8" height="10" fill="black">
<rect fill="white" x="21" y="51.9849" width="8" height="10"/>
<path d="M24.2485 53.0818C24.0481 53.1263 23.6919 53.2933 23.4582 53.4491C22.7458 53.9277 22.2449 55.2189 22.512 55.9202C22.5899 56.1094 23.1131 56.4211 23.3803 56.4211C23.7031 56.4211 24.1372 55.9202 24.2151 55.475C24.3153 54.8627 24.6937 54.6513 25.3282 54.8405C26.4079 55.1744 25.8291 56.1873 23.6029 57.8793C22.7903 58.5026 22 59.6157 22 60.1389C22 60.3727 22.089 60.5841 22.256 60.74C22.5009 60.9737 22.6011 60.9849 25.0165 60.9849C27.4988 60.9849 27.5322 60.9849 27.7659 60.7288C28.0665 60.406 28.0776 59.8718 27.7993 59.5267C27.599 59.2818 27.4876 59.2595 26.2298 59.2039L24.883 59.1482L25.6621 58.5138C26.9534 57.4674 27.6769 56.2987 27.6769 55.3191C27.6657 53.8053 25.9404 52.681 24.2485 53.0818Z"/>
</mask>
<path d="M24.2485 53.0818C24.0481 53.1263 23.6919 53.2933 23.4582 53.4491C22.7458 53.9277 22.2449 55.2189 22.512 55.9202C22.5899 56.1094 23.1131 56.4211 23.3803 56.4211C23.7031 56.4211 24.1372 55.9202 24.2151 55.475C24.3153 54.8627 24.6937 54.6513 25.3282 54.8405C26.4079 55.1744 25.8291 56.1873 23.6029 57.8793C22.7903 58.5026 22 59.6157 22 60.1389C22 60.3727 22.089 60.5841 22.256 60.74C22.5009 60.9737 22.6011 60.9849 25.0165 60.9849C27.4988 60.9849 27.5322 60.9849 27.7659 60.7288C28.0665 60.406 28.0776 59.8718 27.7993 59.5267C27.599 59.2818 27.4876 59.2595 26.2298 59.2039L24.883 59.1482L25.6621 58.5138C26.9534 57.4674 27.6769 56.2987 27.6769 55.3191C27.6657 53.8053 25.9404 52.681 24.2485 53.0818Z" fill="black"/>
<path d="M24.2485 53.0818C24.0481 53.1263 23.6919 53.2933 23.4582 53.4491C22.7458 53.9277 22.2449 55.2189 22.512 55.9202C22.5899 56.1094 23.1131 56.4211 23.3803 56.4211C23.7031 56.4211 24.1372 55.9202 24.2151 55.475C24.3153 54.8627 24.6937 54.6513 25.3282 54.8405C26.4079 55.1744 25.8291 56.1873 23.6029 57.8793C22.7903 58.5026 22 59.6157 22 60.1389C22 60.3727 22.089 60.5841 22.256 60.74C22.5009 60.9737 22.6011 60.9849 25.0165 60.9849C27.4988 60.9849 27.5322 60.9849 27.7659 60.7288C28.0665 60.406 28.0776 59.8718 27.7993 59.5267C27.599 59.2818 27.4876 59.2595 26.2298 59.2039L24.883 59.1482L25.6621 58.5138C26.9534 57.4674 27.6769 56.2987 27.6769 55.3191C27.6657 53.8053 25.9404 52.681 24.2485 53.0818Z" stroke-width="0.4" mask="url(#path-6-outside-2_7362_47155)" fill="black"/>
</g>
</g>
</svg>