<?xml version="1.0" ?><svg xmlns="http://www.w3.org/2000/svg" fill="none" viewBox="6 4 60.46 64.56">
<g id="actual-overtime-analysis">
<circle id="Ellipse 2697" cx="48.5" cy="53.5" r="12.5" fill="black"/>
<path id="Vector 830" d="M37.5 6.5H23.5L17 13.5H43L37.5 6.5Z" fill="black"/>
<g id="Group 1171275267">
<g id="Group 1171275265">
<path id="Subtract" fill-rule="evenodd" clip-rule="evenodd" d="M23.8472 4.07268C22.0164 4.37978 20.1029 5.30108 18.8391 6.48223L17.965 7.29722H14.4216C10.5592 7.29722 10.0277 7.35628 8.91744 7.91142C7.58274 8.58468 6.46065 10.0375 6.14174 11.5257C5.95275 12.4116 5.95275 59.3505 6.14174 60.2364C6.33072 61.1104 6.87405 62.1498 7.50006 62.8113C8.11426 63.4609 9.33084 64.146 10.2403 64.3349C10.8175 64.4581 27.0315 64.501 38.5076 64.4637C37.3539 63.4428 36.3573 62.2485 35.5588 60.9214H29.9892H10.949L10.5002 60.6734C10.2521 60.5316 9.94504 60.2245 9.8033 59.9765L9.55526 59.5277V35.8811V12.2344L9.81511 11.7738C10.2876 10.9352 10.6537 10.8407 13.5239 10.8407H16.0161L15.8508 11.632C15.7563 12.0809 15.6972 12.8604 15.7209 13.4038C15.7563 14.4432 15.9453 14.7857 16.6658 15.1637C17.1382 15.4117 42.8401 15.4117 43.3125 15.1637C44.033 14.7857 44.222 14.4432 44.2574 13.4038C44.2811 12.8604 44.222 12.0809 44.1275 11.632L43.9622 10.8407H46.4544C49.3128 10.8407 49.6907 10.9352 50.1632 11.7738L50.423 12.2344V35.8811V38.1362C51.6605 38.2914 52.8514 38.5961 53.9772 39.0318C53.9863 26.1198 53.9394 12.0077 53.8366 11.5257C53.4114 9.5296 51.7223 7.84055 49.738 7.42715C49.36 7.34447 47.7064 7.29722 45.5567 7.29722H42.0014L41.2101 6.54129C40.3124 5.70267 39.4147 5.12391 38.21 4.65145C36.6626 4.02544 36.1429 3.99 29.8947 4.00182C26.7292 4.01363 24.0125 4.04906 23.8472 4.07268ZM36.1193 7.71063C36.5327 7.81693 37.206 8.06497 37.5958 8.26577C38.7769 8.89178 40.0998 10.3918 40.4423 11.5139L40.5132 11.7856H29.9892H19.4651L19.536 11.5139C19.7368 10.8879 20.2919 10.0257 20.9652 9.34061C21.7447 8.54924 22.9731 7.85236 23.9771 7.66338C24.2606 7.60432 26.9418 7.55708 29.9301 7.54527C34.3948 7.53345 35.4933 7.56889 36.1193 7.71063Z" fill="black"/>
<path id="Vector" d="M18.13 40.1796C17.0552 40.9001 17.0788 42.3175 18.1891 43.1443C18.508 43.3923 18.6261 43.3923 26.2327 43.3923C33.8393 43.3923 33.9574 43.3923 34.2763 43.1443C35.3866 42.3175 35.4103 40.9001 34.3354 40.1796L33.9338 39.9079H26.2327H18.5316L18.13 40.1796Z" fill="black"/>
<path id="Vector_2" d="M18.1859 49.5492C17.6611 49.8301 17.3398 50.4686 17.3398 51.2476C17.3398 51.9627 17.5326 52.3968 18.0788 52.8693C18.3679 53.1375 18.475 53.1375 25.3719 53.1375C32.2687 53.1375 32.3758 53.1375 32.665 52.8693C33.2112 52.3968 33.4039 51.9627 33.4039 51.2476C33.4039 50.4558 33.0826 49.8174 32.5365 49.5492C32.0224 49.2938 18.6785 49.2938 18.1859 49.5492Z" fill="black"/>
</g>
<g id="Group 1171275266">
<g id="Group 1171275261">
<g id="Group 1171275254">
<g id="Group 1171275093">
<g id="Vector_3">
<mask id="path-6-outside-1_6295_46094" maskUnits="userSpaceOnUse" x="34.4609" y="38.5554" width="32" height="30" fill="black">
<rect fill="white" x="34.4609" y="38.5554" width="32" height="30"/>
<path d="M65.787 61.6989C65.4292 61.3388 64.803 61.2488 64.3557 61.5189C63.2822 62.0589 62.0298 62.1489 60.8669 61.6989C60.509 61.6089 60.2407 61.4288 59.8828 61.1588C61.5825 58.8184 62.4771 56.028 62.4771 53.1475C62.4771 49.367 60.9563 46.0364 58.541 43.516C56.1256 41.0857 52.7262 39.5554 48.969 39.5554C45.2118 39.5554 41.8124 40.9956 39.3971 43.516C36.9817 45.9464 35.4609 49.367 35.4609 53.1475C35.4609 56.9281 36.8923 60.3487 39.3076 62.779C41.723 65.2094 45.1223 66.7397 48.8796 66.7397C50.3109 66.7397 51.7422 66.4696 53.0841 66.0196C54.1576 66.9197 55.41 67.5498 56.7518 67.8198C57.2886 67.9099 57.9148 67.9999 58.4515 67.9999C61.672 67.9999 64.6241 66.1096 65.9659 63.0491C66.2343 62.599 66.1448 62.0589 65.787 61.6989ZM58.0042 57.1982C58.1831 55.7579 58.9883 54.4978 60.2407 53.7776C60.6879 53.5076 60.9563 52.9675 60.8669 52.4274C60.7774 51.8873 60.3301 51.5273 59.7934 51.3473C58.8093 51.1672 57.7358 51.1672 56.6624 51.4373C53.4419 52.1574 50.9371 54.6778 50.2214 57.8283C49.7741 60.0786 50.132 62.329 51.3844 64.2193C51.5633 64.4893 51.8317 64.8494 52.0106 65.1194C51.116 65.3895 50.3109 65.4795 49.4163 65.5695V63.7692C49.4163 63.4091 49.1479 63.1391 48.7901 63.1391C48.4323 63.1391 48.1639 63.4091 48.1639 63.7692V65.5695C45.3907 65.3895 42.707 64.2193 40.6495 62.329L41.9019 61.0688C42.1702 60.7987 42.1702 60.4387 41.9019 60.1686C41.6335 59.8986 41.2757 59.8986 41.0073 60.1686L39.7549 61.4288C37.8763 59.3585 36.7133 56.6581 36.6239 53.7776H38.413C38.7709 53.7776 39.0392 53.5076 39.0392 53.1475C39.0392 52.7875 38.7709 52.5174 38.413 52.5174H36.6239C36.8028 49.547 37.9657 46.8466 39.7549 44.8662L41.0073 46.1264C41.0968 46.2165 41.2757 46.3065 41.4546 46.3065C41.6335 46.3065 41.8124 46.2165 41.9019 46.1264C42.1702 45.8564 42.1702 45.4963 41.9019 45.2263L40.6495 43.9661C42.707 42.0758 45.3907 40.9056 48.2534 40.8156V42.6159C48.2534 42.976 48.5217 43.246 48.8796 43.246C49.2374 43.246 49.5058 42.976 49.5058 42.6159V40.8156C52.4579 40.9956 55.1416 42.1658 57.1096 43.9661L55.8572 45.2263C55.5889 45.4963 55.5889 45.8564 55.8572 46.1264C55.9467 46.2165 56.1256 46.3065 56.3045 46.3065C56.4834 46.3065 56.6624 46.2165 56.7518 46.1264L58.0042 44.8662C59.9723 47.0266 61.2247 49.9971 61.2247 53.1475C61.2247 55.758 60.4196 58.1883 58.9883 60.2587C58.2726 59.4485 57.9148 58.3684 58.0042 57.1982ZM49.5058 46.3065V54.1377C49.5058 54.4077 49.3268 54.5878 49.0585 54.6778L41.6335 57.3782C41.544 57.3782 41.4546 57.3782 41.4546 57.3782C41.1862 57.3782 41.0073 57.1982 40.9178 56.9281C40.8284 56.5681 41.0073 56.208 41.2757 56.118L48.2534 53.5976V46.3065C48.2534 45.9464 48.5217 45.6764 48.8796 45.6764C49.2374 45.6764 49.5058 46.0364 49.5058 46.3065Z"/>
</mask>
<path d="M65.787 61.6989C65.4292 61.3388 64.803 61.2488 64.3557 61.5189C63.2822 62.0589 62.0298 62.1489 60.8669 61.6989C60.509 61.6089 60.2407 61.4288 59.8828 61.1588C61.5825 58.8184 62.4771 56.028 62.4771 53.1475C62.4771 49.367 60.9563 46.0364 58.541 43.516C56.1256 41.0857 52.7262 39.5554 48.969 39.5554C45.2118 39.5554 41.8124 40.9956 39.3971 43.516C36.9817 45.9464 35.4609 49.367 35.4609 53.1475C35.4609 56.9281 36.8923 60.3487 39.3076 62.779C41.723 65.2094 45.1223 66.7397 48.8796 66.7397C50.3109 66.7397 51.7422 66.4696 53.0841 66.0196C54.1576 66.9197 55.41 67.5498 56.7518 67.8198C57.2886 67.9099 57.9148 67.9999 58.4515 67.9999C61.672 67.9999 64.6241 66.1096 65.9659 63.0491C66.2343 62.599 66.1448 62.0589 65.787 61.6989ZM58.0042 57.1982C58.1831 55.7579 58.9883 54.4978 60.2407 53.7776C60.6879 53.5076 60.9563 52.9675 60.8669 52.4274C60.7774 51.8873 60.3301 51.5273 59.7934 51.3473C58.8093 51.1672 57.7358 51.1672 56.6624 51.4373C53.4419 52.1574 50.9371 54.6778 50.2214 57.8283C49.7741 60.0786 50.132 62.329 51.3844 64.2193C51.5633 64.4893 51.8317 64.8494 52.0106 65.1194C51.116 65.3895 50.3109 65.4795 49.4163 65.5695V63.7692C49.4163 63.4091 49.1479 63.1391 48.7901 63.1391C48.4323 63.1391 48.1639 63.4091 48.1639 63.7692V65.5695C45.3907 65.3895 42.707 64.2193 40.6495 62.329L41.9019 61.0688C42.1702 60.7987 42.1702 60.4387 41.9019 60.1686C41.6335 59.8986 41.2757 59.8986 41.0073 60.1686L39.7549 61.4288C37.8763 59.3585 36.7133 56.6581 36.6239 53.7776H38.413C38.7709 53.7776 39.0392 53.5076 39.0392 53.1475C39.0392 52.7875 38.7709 52.5174 38.413 52.5174H36.6239C36.8028 49.547 37.9657 46.8466 39.7549 44.8662L41.0073 46.1264C41.0968 46.2165 41.2757 46.3065 41.4546 46.3065C41.6335 46.3065 41.8124 46.2165 41.9019 46.1264C42.1702 45.8564 42.1702 45.4963 41.9019 45.2263L40.6495 43.9661C42.707 42.0758 45.3907 40.9056 48.2534 40.8156V42.6159C48.2534 42.976 48.5217 43.246 48.8796 43.246C49.2374 43.246 49.5058 42.976 49.5058 42.6159V40.8156C52.4579 40.9956 55.1416 42.1658 57.1096 43.9661L55.8572 45.2263C55.5889 45.4963 55.5889 45.8564 55.8572 46.1264C55.9467 46.2165 56.1256 46.3065 56.3045 46.3065C56.4834 46.3065 56.6624 46.2165 56.7518 46.1264L58.0042 44.8662C59.9723 47.0266 61.2247 49.9971 61.2247 53.1475C61.2247 55.758 60.4196 58.1883 58.9883 60.2587C58.2726 59.4485 57.9148 58.3684 58.0042 57.1982ZM49.5058 46.3065V54.1377C49.5058 54.4077 49.3268 54.5878 49.0585 54.6778L41.6335 57.3782C41.544 57.3782 41.4546 57.3782 41.4546 57.3782C41.1862 57.3782 41.0073 57.1982 40.9178 56.9281C40.8284 56.5681 41.0073 56.208 41.2757 56.118L48.2534 53.5976V46.3065C48.2534 45.9464 48.5217 45.6764 48.8796 45.6764C49.2374 45.6764 49.5058 46.0364 49.5058 46.3065Z" fill="black"/>
<path d="M65.787 61.6989C65.4292 61.3388 64.803 61.2488 64.3557 61.5189C63.2822 62.0589 62.0298 62.1489 60.8669 61.6989C60.509 61.6089 60.2407 61.4288 59.8828 61.1588C61.5825 58.8184 62.4771 56.028 62.4771 53.1475C62.4771 49.367 60.9563 46.0364 58.541 43.516C56.1256 41.0857 52.7262 39.5554 48.969 39.5554C45.2118 39.5554 41.8124 40.9956 39.3971 43.516C36.9817 45.9464 35.4609 49.367 35.4609 53.1475C35.4609 56.9281 36.8923 60.3487 39.3076 62.779C41.723 65.2094 45.1223 66.7397 48.8796 66.7397C50.3109 66.7397 51.7422 66.4696 53.0841 66.0196C54.1576 66.9197 55.41 67.5498 56.7518 67.8198C57.2886 67.9099 57.9148 67.9999 58.4515 67.9999C61.672 67.9999 64.6241 66.1096 65.9659 63.0491C66.2343 62.599 66.1448 62.0589 65.787 61.6989ZM58.0042 57.1982C58.1831 55.7579 58.9883 54.4978 60.2407 53.7776C60.6879 53.5076 60.9563 52.9675 60.8669 52.4274C60.7774 51.8873 60.3301 51.5273 59.7934 51.3473C58.8093 51.1672 57.7358 51.1672 56.6624 51.4373C53.4419 52.1574 50.9371 54.6778 50.2214 57.8283C49.7741 60.0786 50.132 62.329 51.3844 64.2193C51.5633 64.4893 51.8317 64.8494 52.0106 65.1194C51.116 65.3895 50.3109 65.4795 49.4163 65.5695V63.7692C49.4163 63.4091 49.1479 63.1391 48.7901 63.1391C48.4323 63.1391 48.1639 63.4091 48.1639 63.7692V65.5695C45.3907 65.3895 42.707 64.2193 40.6495 62.329L41.9019 61.0688C42.1702 60.7987 42.1702 60.4387 41.9019 60.1686C41.6335 59.8986 41.2757 59.8986 41.0073 60.1686L39.7549 61.4288C37.8763 59.3585 36.7133 56.6581 36.6239 53.7776H38.413C38.7709 53.7776 39.0392 53.5076 39.0392 53.1475C39.0392 52.7875 38.7709 52.5174 38.413 52.5174H36.6239C36.8028 49.547 37.9657 46.8466 39.7549 44.8662L41.0073 46.1264C41.0968 46.2165 41.2757 46.3065 41.4546 46.3065C41.6335 46.3065 41.8124 46.2165 41.9019 46.1264C42.1702 45.8564 42.1702 45.4963 41.9019 45.2263L40.6495 43.9661C42.707 42.0758 45.3907 40.9056 48.2534 40.8156V42.6159C48.2534 42.976 48.5217 43.246 48.8796 43.246C49.2374 43.246 49.5058 42.976 49.5058 42.6159V40.8156C52.4579 40.9956 55.1416 42.1658 57.1096 43.9661L55.8572 45.2263C55.5889 45.4963 55.5889 45.8564 55.8572 46.1264C55.9467 46.2165 56.1256 46.3065 56.3045 46.3065C56.4834 46.3065 56.6624 46.2165 56.7518 46.1264L58.0042 44.8662C59.9723 47.0266 61.2247 49.9971 61.2247 53.1475C61.2247 55.758 60.4196 58.1883 58.9883 60.2587C58.2726 59.4485 57.9148 58.3684 58.0042 57.1982ZM49.5058 46.3065V54.1377C49.5058 54.4077 49.3268 54.5878 49.0585 54.6778L41.6335 57.3782C41.544 57.3782 41.4546 57.3782 41.4546 57.3782C41.1862 57.3782 41.0073 57.1982 40.9178 56.9281C40.8284 56.5681 41.0073 56.208 41.2757 56.118L48.2534 53.5976V46.3065C48.2534 45.9464 48.5217 45.6764 48.8796 45.6764C49.2374 45.6764 49.5058 46.0364 49.5058 46.3065Z" stroke-width="0.474527" mask="url(#path-6-outside-1_6295_46094)" fill="black"/>
</g>
<g id="Vector_4">
<mask id="path-7-outside-2_6295_46094" maskUnits="userSpaceOnUse" x="50.3398" y="51.6079" width="15" height="16" fill="black">
<rect fill="white" x="50.3398" y="51.6079" width="15" height="16"/>
<path d="M58.4517 66.8301C58.0044 66.8301 57.4677 66.7401 57.0204 66.6501C56.4837 66.5601 55.9469 66.3801 55.4102 66.11C54.605 65.75 53.9788 65.2099 53.3526 64.5798L52.9948 64.2197C52.8159 64.0397 52.637 63.7697 52.4581 63.5896C51.9213 62.8695 51.5635 61.9694 51.474 61.0692C51.2951 60.1691 51.2951 59.1789 51.474 58.1888C52.0108 55.5784 54.1578 53.418 56.9309 52.7879C57.4677 52.6979 58.0044 52.6079 58.5412 52.6079C58.899 52.6079 59.2568 52.6079 59.6147 52.6979C58.0044 53.6881 56.9309 55.3083 56.752 57.1986C56.6626 57.9187 56.752 58.6389 56.9309 59.359C57.1099 59.809 57.3782 60.5291 57.915 61.1592C58.2728 61.6093 58.6306 61.9694 59.0779 62.2394C59.6147 62.5995 60.0619 62.7795 60.3303 62.8695C60.5987 62.9595 61.3144 63.2296 62.2984 63.2296C62.5668 63.2296 62.7457 63.2296 63.014 63.1396C63.6402 63.0495 64.2665 62.8695 64.8032 62.5995C63.8192 65.2099 61.2249 66.8301 58.4517 66.8301Z"/>
</mask>
<path d="M58.4517 66.8301C58.0044 66.8301 57.4677 66.7401 57.0204 66.6501C56.4837 66.5601 55.9469 66.3801 55.4102 66.11C54.605 65.75 53.9788 65.2099 53.3526 64.5798L52.9948 64.2197C52.8159 64.0397 52.637 63.7697 52.4581 63.5896C51.9213 62.8695 51.5635 61.9694 51.474 61.0692C51.2951 60.1691 51.2951 59.1789 51.474 58.1888C52.0108 55.5784 54.1578 53.418 56.9309 52.7879C57.4677 52.6979 58.0044 52.6079 58.5412 52.6079C58.899 52.6079 59.2568 52.6079 59.6147 52.6979C58.0044 53.6881 56.9309 55.3083 56.752 57.1986C56.6626 57.9187 56.752 58.6389 56.9309 59.359C57.1099 59.809 57.3782 60.5291 57.915 61.1592C58.2728 61.6093 58.6306 61.9694 59.0779 62.2394C59.6147 62.5995 60.0619 62.7795 60.3303 62.8695C60.5987 62.9595 61.3144 63.2296 62.2984 63.2296C62.5668 63.2296 62.7457 63.2296 63.014 63.1396C63.6402 63.0495 64.2665 62.8695 64.8032 62.5995C63.8192 65.2099 61.2249 66.8301 58.4517 66.8301Z" fill="black"/>
<path d="M58.4517 66.8301C58.0044 66.8301 57.4677 66.7401 57.0204 66.6501C56.4837 66.5601 55.9469 66.3801 55.4102 66.11C54.605 65.75 53.9788 65.2099 53.3526 64.5798L52.9948 64.2197C52.8159 64.0397 52.637 63.7697 52.4581 63.5896C51.9213 62.8695 51.5635 61.9694 51.474 61.0692C51.2951 60.1691 51.2951 59.1789 51.474 58.1888C52.0108 55.5784 54.1578 53.418 56.9309 52.7879C57.4677 52.6979 58.0044 52.6079 58.5412 52.6079C58.899 52.6079 59.2568 52.6079 59.6147 52.6979C58.0044 53.6881 56.9309 55.3083 56.752 57.1986C56.6626 57.9187 56.752 58.6389 56.9309 59.359C57.1099 59.809 57.3782 60.5291 57.915 61.1592C58.2728 61.6093 58.6306 61.9694 59.0779 62.2394C59.6147 62.5995 60.0619 62.7795 60.3303 62.8695C60.5987 62.9595 61.3144 63.2296 62.2984 63.2296C62.5668 63.2296 62.7457 63.2296 63.014 63.1396C63.6402 63.0495 64.2665 62.8695 64.8032 62.5995C63.8192 65.2099 61.2249 66.8301 58.4517 66.8301Z" stroke-width="0.474527" mask="url(#path-7-outside-2_6295_46094)" fill="black"/>
</g>
</g>
</g>
</g>
<path id="Vector_5" d="M35.224 22.085C34.4331 22.3329 33.8666 23.2889 34.02 24.1269C34.1617 24.8705 34.8699 25.5079 35.5662 25.5079C35.7315 25.5079 35.8613 25.5433 35.8613 25.6023C35.8613 25.6495 34.9289 26.6174 33.7958 27.7505L31.7302 29.816L28.8621 26.9479C25.7579 23.8555 25.5808 23.7256 24.6838 23.9617C24.3179 24.0679 23.5625 24.7643 20.6707 27.6561C17.6255 30.7131 17.1062 31.2914 17.0353 31.6691C16.8229 32.8258 17.5901 33.7701 18.7468 33.7701C19.0183 33.7701 19.3488 33.7111 19.4904 33.6402C19.632 33.5694 20.954 32.3065 22.4412 30.8429L25.1205 28.1636L27.9296 30.9609C29.464 32.4953 30.845 33.8055 30.9866 33.8763C31.3171 34.0416 32.1433 34.0416 32.4738 33.8763C32.6155 33.8055 34.0082 32.4717 35.578 30.9137L38.4226 28.081L38.4934 28.5531C38.7649 30.1937 41.0311 30.536 41.7983 29.0488C41.9871 28.6829 41.9989 28.3288 41.9753 25.8974C41.9399 22.8876 41.9281 22.8758 41.1255 22.2738C40.8186 22.0378 40.6298 22.026 38.1865 22.0024C36.7466 21.9906 35.4128 22.026 35.224 22.085Z" fill="black"/>
</g>
</g>
</g>
</svg>