<?xml version="1.0" ?><svg xmlns="http://www.w3.org/2000/svg" fill="none" viewBox="10 4 52.16 64">
<g id="budget-analysis-report">
<g id="Group">
<g id="Group 1171275469">
<g id="Vector">
<path d="M27.8273 4.07233C25.9986 4.37909 24.0872 5.29936 22.8248 6.4792L21.9517 7.29329H18.4122C14.5542 7.29329 14.0232 7.35228 12.9142 7.9068C11.581 8.57931 10.4601 10.0305 10.1416 11.5171C9.95281 12.402 9.95281 59.2887 10.1416 60.1736C10.3304 61.0466 10.8731 62.0849 11.4984 62.7456C12.1119 63.3945 13.3271 64.0788 14.2356 64.2676C15.1205 64.4564 52.8045 64.4564 53.6894 64.2676C55.6951 63.8429 57.3586 62.1675 57.7834 60.1736C57.9722 59.2769 57.9722 12.402 57.7834 11.5171C57.3586 9.52318 55.6715 7.83601 53.6894 7.42307C53.3118 7.34048 51.66 7.29329 49.5127 7.29329H45.9614L45.1709 6.53819C44.2743 5.7005 43.3776 5.12239 42.1741 4.65045C40.6286 4.02514 40.1094 3.98974 33.8681 4.00154C30.7061 4.01334 27.9925 4.04873 27.8273 4.07233ZM40.0858 7.70623C40.4988 7.81242 41.1713 8.06018 41.5606 8.26075C42.7405 8.88606 44.0619 10.3845 44.404 11.5053L44.4748 11.7767H33.9625H23.4501L23.5209 11.5053C23.7215 10.88 24.276 10.0187 24.9485 9.3344C25.7272 8.54391 26.9543 7.84781 27.9571 7.65903C28.2403 7.60004 30.9185 7.55285 33.9035 7.54105C38.3633 7.52925 39.4605 7.56465 40.0858 7.70623ZM19.8398 11.6233C19.7455 12.0716 19.6865 12.8503 19.7101 13.393C19.7455 14.4313 19.9342 14.7734 20.6539 15.151C21.1259 15.3988 46.7991 15.3988 47.271 15.151C47.9907 14.7734 48.1795 14.4313 48.2149 13.393C48.2385 12.8503 48.1795 12.0716 48.0851 11.6233L47.9199 10.8328H50.4094C53.2646 10.8328 53.6422 10.9272 54.1141 11.7649L54.3737 12.225V35.8453V59.4657L54.1259 59.914C53.9843 60.1618 53.6776 60.4685 53.4298 60.6101L52.9814 60.8579H33.9625H14.9435L14.4952 60.6101C14.2474 60.4685 13.9407 60.1618 13.7991 59.914L13.5513 59.4657V35.8453V12.225L13.8109 11.7649C14.2828 10.9272 14.6486 10.8328 17.5156 10.8328H20.005L19.8398 11.6233Z" fill="black"/>
<path d="M40.0858 7.70623C40.4988 7.81242 41.1713 8.06018 41.5606 8.26075C42.7405 8.88606 44.0619 10.3845 44.404 11.5053L44.4748 11.7767H33.9625H23.4501L23.5209 11.5053C23.7215 10.88 24.276 10.0187 24.9485 9.3344C25.7272 8.54391 26.9543 7.84781 27.9571 7.65903C28.2403 7.60004 30.9185 7.55285 33.9035 7.54105C38.3633 7.52925 39.4605 7.56465 40.0858 7.70623Z" fill="black"/>
</g>
<path id="Vector_2" d="M26.3531 48.8827C26.2941 48.9063 26.0817 48.9535 25.8929 49.0007C25.6688 49.0479 25.0317 49.5788 24.0996 50.4991L22.6484 51.9267L22.2119 51.5374C21.7281 51.1126 21.1264 50.8295 20.7253 50.8295C20.2297 50.8295 19.51 51.2778 19.2387 51.7615C18.6841 52.7526 18.9201 53.3307 20.5483 54.9353C21.8461 56.2095 22.1647 56.3747 23.0849 56.1977C23.4507 56.1269 23.8636 55.773 25.6806 53.9796C26.8722 52.7998 27.9341 51.6671 28.0284 51.4784C28.4414 50.6997 28.1464 49.5788 27.4149 49.1659C27.0374 48.9535 26.5419 48.8237 26.3531 48.8827Z" fill="black"/>
<path id="Vector_3" d="M31.7289 50.1798C31.1508 50.4393 30.7969 51.0293 30.7969 51.749C30.7969 52.4097 31.0092 52.8108 31.611 53.2474C31.9295 53.4951 32.0475 53.4951 39.6456 53.4951C47.2438 53.4951 47.3618 53.4951 47.6803 53.2474C48.2821 52.8108 48.4944 52.4097 48.4944 51.749C48.4944 51.0175 48.1405 50.4275 47.5388 50.1798C46.9724 49.9438 32.2717 49.9438 31.7289 50.1798Z" fill="black"/>
<path id="Vector_4" d="M33.5825 20.0459C32.0397 20.0459 30.6669 21.0178 30.1566 22.4756H22.6488V24.9053H25.0178L21.4339 33.4094C20.8629 35.8391 22.6488 37.0539 25.6859 37.0539C28.7231 37.0539 30.6183 35.8391 29.9379 33.4094L26.3541 24.9053H30.1445C30.5454 25.938 31.335 26.7276 32.3677 27.1285V40.6985H21.4339V43.1282H45.7311V40.6985H34.7974V27.1164C35.83 26.7276 36.6197 25.938 37.0084 24.9053H40.8109L37.2271 33.4094C36.6561 35.8391 38.442 37.0539 41.4791 37.0539C44.5163 37.0539 46.4114 35.8391 45.7311 33.4094L42.1473 24.9053H44.5163V22.4756H37.0206C36.4982 21.0178 35.1254 20.0459 33.5825 20.0459ZM33.5825 22.4756C33.9047 22.4756 34.2137 22.6036 34.4416 22.8314C34.6694 23.0593 34.7974 23.3683 34.7974 23.6905C34.7974 24.0127 34.6694 24.3217 34.4416 24.5495C34.2137 24.7773 33.9047 24.9053 33.5825 24.9053C33.2603 24.9053 32.9513 24.7773 32.7235 24.5495C32.4957 24.3217 32.3677 24.0127 32.3677 23.6905C32.3677 23.3683 32.4957 23.0593 32.7235 22.8314C32.9513 22.6036 33.2603 22.4756 33.5825 22.4756ZM25.6859 28.8536L27.5082 33.4094H23.8636L25.6859 28.8536ZM41.4791 28.8536L43.3014 33.4094H39.6568L41.4791 28.8536Z" fill="black"/>
<g id="Vector_5">
<path d="M51.0096 67.9918C44.8108 68.2372 39.5179 63.1233 39.2663 56.6572C39.0242 50.3542 44.008 44.8268 50.1493 44.5961C56.5506 44.3581 61.9106 49.3322 62.1514 55.7332C62.3995 62.3478 57.4996 67.7391 51.0096 67.9918ZM59.6374 56.3026C59.6384 53.884 58.7027 51.5637 57.0355 49.8505C55.3683 48.1372 53.1057 47.1707 50.7436 47.1629C45.7994 47.1555 41.7779 51.2413 41.7707 56.2792C41.7635 61.3172 45.7982 65.4312 50.7184 65.4263C53.0816 65.4217 55.347 64.4595 57.0194 62.7499C58.6918 61.0403 59.6352 58.7223 59.6434 56.3026H59.6374Z" fill="black"/>
<path d="M59.6374 56.3026C59.6384 53.884 58.7027 51.5637 57.0355 49.8505C55.3683 48.1372 53.1057 47.1707 50.7436 47.1629C45.7994 47.1555 41.7779 51.2413 41.7707 56.2792C41.7635 61.3172 45.7982 65.4312 50.7184 65.4263C53.0816 65.4217 55.347 64.4595 57.0194 62.7499C58.6918 61.0403 59.6352 58.7223 59.6434 56.3026H59.6374Z" fill="black"/>
</g>
<path id="Vector_6" d="M51.8091 61.2612C51.8091 61.6183 51.8222 61.9385 51.8091 62.2575C51.7719 62.9937 51.265 63.5066 50.6191 63.4919C49.9733 63.4771 49.4951 62.9618 49.4784 62.2183C49.4724 61.9299 49.4784 61.6428 49.4784 61.287C48.9631 61.287 48.4898 61.3079 48.0176 61.287C47.1788 61.2416 46.6564 60.5189 46.8876 59.7398C47.0398 59.2269 47.452 58.9165 48.0476 58.9104C49.0949 58.8981 50.1422 58.9104 51.1907 58.9104C51.325 58.9176 51.4597 58.9094 51.5922 58.8858C51.9241 58.8073 52.1206 58.5901 52.0979 58.2331C52.0997 58.1555 52.086 58.0783 52.0578 58.0062C52.0296 57.9341 51.9874 57.8687 51.9337 57.8138C51.88 57.759 51.816 57.7159 51.7456 57.6871C51.6751 57.6584 51.5997 57.6446 51.5239 57.6466C51.0158 57.6258 50.5065 57.6466 49.9984 57.6356C48.334 57.6196 47.0722 56.4945 46.8565 54.8344C46.648 53.2848 47.6066 51.8443 49.1644 51.4124C49.4352 51.3376 49.4915 51.2173 49.4796 50.9732C49.4676 50.7131 49.47 50.4526 49.4868 50.1928C49.5032 49.9151 49.6156 49.6525 49.8037 49.4518C49.9918 49.2511 50.2434 49.1254 50.5137 49.0971C50.7917 49.0607 51.0729 49.1328 51.3013 49.299C51.5298 49.4651 51.6888 49.7133 51.7468 49.994C51.8246 50.394 51.8115 50.8136 51.8438 51.2983C52.3028 51.2983 52.7737 51.2983 53.2458 51.2983C54.0727 51.3044 54.6047 51.7719 54.6071 52.4897C54.6095 53.2075 54.0774 53.6749 53.253 53.6823C52.2045 53.6823 51.1572 53.6823 50.1087 53.6823C49.5275 53.6823 49.186 53.9645 49.174 54.4369C49.162 54.9093 49.5167 55.2295 50.1171 55.2344C50.5664 55.2344 51.0158 55.2344 51.464 55.2344C53.0217 55.2602 54.2584 56.3718 54.4262 57.881C54.5975 59.4306 53.6425 60.8073 52.1266 61.1938C52.0403 61.2195 51.9529 61.233 51.8091 61.2612Z" fill="black"/>
</g>
</g>
</g>
</svg>