<?xml version="1.0" ?><svg xmlns="http://www.w3.org/2000/svg" fill="none" viewBox="4 5 64 61.64">
<g id="facilities-area">
<g id="Group">
<g id="Vector">
<path d="M36.446 35.5414L32.6668 31.7705L33.2369 31.2003C33.6387 30.8002 33.6387 30.1501 33.2369 29.75C33.1803 29.6916 33.1152 29.6433 33.0502 29.6016L24.3598 23.5052C23.9447 23.2151 23.3896 23.2718 23.0428 23.6169L20.2972 26.3558C19.9238 26.7276 19.8988 27.3177 20.2188 27.7195L26.3303 36.3916C26.657 36.855 27.2972 36.965 27.7606 36.64C27.8106 36.6049 27.8557 36.5683 27.8973 36.5283L28.4675 35.9581L32.2467 39.729L27.3105 44.6552C26.2519 44.3034 25.125 44.2251 24.0414 44.4185C22.7511 44.6485 21.5158 45.262 20.5206 46.2539C19.5253 47.2475 18.9119 48.4794 18.6818 49.7681C18.4434 51.0867 18.6135 52.467 19.1886 53.7107C19.4253 54.2241 20.0338 54.4475 20.5506 54.2125C20.664 54.1591 20.7623 54.0891 20.8473 54.0074L23.518 51.3434L24.8083 52.6321L22.1393 55.296C21.7375 55.6961 21.7375 56.3463 22.1393 56.7464C22.246 56.8531 22.371 56.9314 22.5027 56.9814C23.7313 57.5282 25.0883 57.6883 26.387 57.4566C27.6756 57.2265 28.9109 56.6147 29.9061 55.6211L29.9645 55.5594C30.9281 54.5742 31.5232 53.3656 31.7466 52.1103C31.94 51.0267 31.8616 49.9031 31.5099 48.8478L36.4494 43.9217L37.9747 45.4437L37.698 45.7204C37.2962 46.1205 37.2962 46.7707 37.698 47.1708L45.9249 55.3794C46.7801 56.2313 47.9054 56.658 49.0273 56.658C50.1226 56.658 51.2195 56.2496 52.0664 55.4394L52.1314 55.3744C52.9866 54.5209 53.4134 53.4006 53.4134 52.282C53.4134 51.1617 52.9866 50.0398 52.1314 49.1863L43.9045 40.9793C43.5027 40.5792 42.8525 40.5792 42.4508 40.9793L42.1741 41.256L40.647 39.7324L44.6796 35.7097C45.7366 36.0615 46.8635 36.1398 47.9471 35.9465C49.2324 35.7164 50.4677 35.1029 51.4679 34.111C52.4632 33.1175 53.0766 31.8855 53.3084 30.5985C53.5451 29.2799 53.375 27.8995 52.7999 26.6559C52.5632 26.1425 51.9547 25.9191 51.4396 26.1541C51.3262 26.2075 51.2262 26.2775 51.1412 26.3592L48.4705 29.0231L47.1802 27.7345L49.8509 25.0705C50.2526 24.6704 50.2526 24.0203 49.8509 23.6202C49.7425 23.5135 49.6175 23.4352 49.4858 23.3851C48.2588 22.8367 46.9002 22.6783 45.5999 22.91C44.3112 23.1401 43.0759 23.7519 42.079 24.7455C41.0821 25.739 40.4703 26.971 40.2386 28.2563C40.0452 29.3399 40.1236 30.4635 40.4753 31.5187L36.446 35.5414ZM51.3562 52.282C51.3562 52.8805 51.1295 53.4789 50.6761 53.9274L50.6327 53.9741C50.186 54.3958 49.6075 54.6059 49.0257 54.6059C48.4272 54.6059 47.8287 54.3792 47.377 53.9291L39.8752 46.4456L43.1743 43.1548L50.6761 50.6383C51.1278 51.0884 51.3562 51.6852 51.3562 52.282ZM34.9923 42.4697L29.5811 47.8709C29.286 48.1677 29.1893 48.6228 29.376 49.0246C29.7711 49.8781 29.8845 50.8333 29.7211 51.7485C29.5661 52.6187 29.1593 53.4506 28.5025 54.1241L28.4508 54.1724C27.764 54.8559 26.9121 55.2794 26.0219 55.4394C25.6335 55.5094 25.2367 55.5294 24.8449 55.4961L26.9871 53.3589C27.3889 52.9588 27.3889 52.3087 26.9871 51.9086L24.2415 49.1696C23.8397 48.7695 23.1879 48.7695 22.7861 49.1696L20.6439 51.3068C20.6139 50.915 20.6323 50.5199 20.7023 50.1315C20.8607 49.2446 21.2841 48.3944 21.9709 47.7092C22.6578 47.0224 23.5096 46.6006 24.3998 46.4423C25.2984 46.2839 26.2336 46.3889 27.0738 46.7624C27.4639 46.9691 27.9573 46.9107 28.2858 46.584L33.6987 41.1827L34.6039 42.0862L34.9923 42.4697ZM39.4284 43.9934L29.1943 33.7826C28.7925 33.3825 28.1424 33.3825 27.7406 33.7826L27.3055 34.2177L22.3594 27.1994L23.8847 25.6774L30.9197 30.6119L30.4846 31.0453C30.0829 31.4471 30.0829 32.0955 30.4846 32.4973L40.717 42.7064L39.4284 43.9934ZM42.6125 31.3404C42.2174 30.4868 42.1024 29.5333 42.2657 28.6164C42.4241 27.7312 42.8492 26.8793 43.5344 26.1941C44.2212 25.5106 45.0747 25.0872 45.9633 24.9288C46.3534 24.8588 46.7501 24.8388 47.1419 24.8722L44.9997 27.0093C44.598 27.4094 44.598 28.0596 44.9997 28.4597L47.7454 31.1987C48.1455 31.6004 48.7973 31.6004 49.1991 31.1987L51.3412 29.0615C51.3712 29.4532 51.3529 29.8483 51.2845 30.2368C51.1262 31.1236 50.7011 31.9738 50.0142 32.6573V32.6623C49.3307 33.3442 48.4772 33.7659 47.587 33.926C46.6868 34.0843 45.7532 33.9793 44.9114 33.6059C44.5229 33.3992 44.0278 33.4575 43.6994 33.7843L39.1933 38.282L37.9014 36.9934L42.4074 32.4956C42.7008 32.2006 42.7975 31.7421 42.6125 31.3404ZM67.9868 26.9993C67.9868 26.6359 67.7968 26.3158 67.5084 26.1358L36.5744 5.17582C36.2126 4.93076 35.7492 4.9491 35.4124 5.18583L4.45844 26.1525C4.16837 26.3508 4.01 26.6726 4.01 26.9993L4 32.7107C4 33.2742 4.45844 33.7326 5.02358 33.7326C5.23863 33.7326 5.43701 33.6659 5.60205 33.5542L7.27411 32.4089L7.28411 59.6337H6.08716C5.52036 59.6337 5.05858 60.0938 5.05858 60.6606V65.6152C5.05858 66.182 5.52036 66.6421 6.08716 66.6421H65.9097C66.4765 66.6421 66.9383 66.182 66.9383 65.6152V60.6606C66.9383 60.0938 66.4765 59.6337 65.9097 59.6337H64.7177V32.4073L66.3948 33.5559C66.8632 33.876 67.5034 33.7543 67.8218 33.2892C67.9535 33.0958 68.0102 32.8724 67.9985 32.654L67.9868 26.9993ZM64.8811 64.5899H7.11574V61.6892H63.6892H63.6908H64.8811V64.5899ZM62.6589 59.6354H9.33293L9.32293 31.007L35.9976 12.7376L62.6572 30.9986V59.6354H62.6589ZM36.5961 10.6638C36.256 10.4204 35.7842 10.4021 35.4208 10.6505L6.05049 30.7652L6.05549 27.5411L35.9976 7.25465L65.9397 27.5411L65.9447 30.7652L36.5961 10.6638Z" fill="black"/>
<path fill-rule="evenodd" clip-rule="evenodd" d="M62.6572 59.6354H9.33293L9.32293 31.007L35.9976 12.7376L62.6572 30.9986V59.6354ZM32.6668 31.7705L36.446 35.5414L40.4753 31.5187C40.1236 30.4635 40.0452 29.3399 40.2386 28.2563C40.4703 26.971 41.0821 25.739 42.079 24.7455C43.0759 23.7519 44.3112 23.1401 45.5999 22.91C46.9002 22.6783 48.2588 22.8367 49.4858 23.3851C49.6175 23.4352 49.7425 23.5135 49.8509 23.6202C50.2526 24.0203 50.2526 24.6704 49.8509 25.0705L47.1802 27.7345L48.4705 29.0231L51.1412 26.3592C51.2262 26.2775 51.3262 26.2075 51.4396 26.1541C51.9547 25.9191 52.5632 26.1425 52.7999 26.6559C53.375 27.8995 53.5451 29.2799 53.3084 30.5985C53.0766 31.8855 52.4632 33.1175 51.4679 34.111C50.4677 35.1029 49.2324 35.7164 47.9471 35.9465C46.8635 36.1398 45.7366 36.0615 44.6796 35.7097L40.647 39.7324L42.1741 41.256L42.4508 40.9793C42.8525 40.5792 43.5027 40.5792 43.9045 40.9793L52.1314 49.1863C52.9866 50.0398 53.4134 51.1617 53.4134 52.282C53.4134 53.4006 52.9866 54.5209 52.1314 55.3744L52.0664 55.4394C51.2195 56.2496 50.1226 56.658 49.0273 56.658C47.9054 56.658 46.7801 56.2313 45.9249 55.3794L37.698 47.1708C37.2962 46.7707 37.2962 46.1205 37.698 45.7204L37.9747 45.4437L36.4494 43.9217L31.5099 48.8478C31.8616 49.9031 31.94 51.0267 31.7466 52.1103C31.5232 53.3656 30.9281 54.5742 29.9645 55.5594L29.9061 55.6211C28.9109 56.6147 27.6756 57.2265 26.387 57.4566C25.0883 57.6883 23.7313 57.5282 22.5027 56.9814C22.371 56.9314 22.246 56.8531 22.1393 56.7464C21.7375 56.3463 21.7375 55.6961 22.1393 55.296L24.8083 52.6321L23.518 51.3434L20.8473 54.0074C20.7623 54.0891 20.664 54.1591 20.5506 54.2125C20.0338 54.4475 19.4253 54.2241 19.1886 53.7107C18.6135 52.467 18.4434 51.0867 18.6818 49.7681C18.9119 48.4794 19.5253 47.2475 20.5206 46.2539C21.5158 45.262 22.7511 44.6485 24.0414 44.4185C25.125 44.2251 26.2519 44.3034 27.3105 44.6552L32.2467 39.729L28.4675 35.9581L27.8973 36.5283C27.8557 36.5683 27.8106 36.6049 27.7606 36.64C27.2972 36.965 26.657 36.855 26.3303 36.3916L20.2188 27.7195C19.8988 27.3177 19.9238 26.7276 20.2972 26.3558L23.0428 23.6169C23.3896 23.2718 23.9447 23.2151 24.3598 23.5052L33.0502 29.6016C33.1152 29.6433 33.1803 29.6916 33.2369 29.75C33.6387 30.1501 33.6387 30.8002 33.2369 31.2003L32.6668 31.7705Z" fill="black"/>
<path d="M36.5961 10.6638C36.256 10.4204 35.7842 10.4021 35.4208 10.6505L6.05049 30.7652L6.05549 27.5411L35.9976 7.25465L65.9397 27.5411L65.9447 30.7652L36.5961 10.6638Z" fill="black"/>
</g>
</g>
</g>
</svg>