<?xml version="1.0" ?><svg xmlns="http://www.w3.org/2000/svg" fill="none" viewBox="9 4 53.27 64">
<g id="job-classification">
<g id="Group 1171275285">
<g id="Group">
<g id="Vector">
<path d="M47.7889 8.59516H44.6399C44.2989 8.02821 43.6908 7.63997 42.9904 7.61532V7.56808C42.9904 5.60019 41.3902 4 39.4202 4H32.2553C30.2854 4 28.6852 5.60019 28.6852 7.56808V7.61532C27.9847 7.63997 27.3767 8.02821 27.0357 8.5931H23.8867C22.0051 8.59516 20.4727 10.1255 20.4727 12.0071V15.2157C20.4727 16.3763 20.7274 17.4568 21.2327 18.4325V27.0456C21.2327 29.1265 22.9274 30.8212 25.0103 30.8212H46.6653C48.7482 30.8212 50.4429 29.1265 50.4429 27.0456V18.4325C50.9482 17.4568 51.2029 16.3763 51.2029 15.2157V12.0071C51.2029 10.1255 49.6705 8.59516 47.7889 8.59516ZM30.7332 8.3466V7.56808C30.7332 6.72998 31.4152 6.048 32.2553 6.048H39.4202C40.2604 6.048 40.9424 6.72998 40.9424 7.56808V8.3466C40.9424 8.43082 40.9506 8.51299 40.967 8.59516H30.7085C30.725 8.51299 30.7332 8.43082 30.7332 8.3466ZM22.5227 12.0071C22.5227 11.2532 23.1348 10.6411 23.8867 10.6411H47.7868C48.5407 10.6411 49.1528 11.2532 49.1528 12.0071V15.2157C49.1528 16.1154 48.9433 16.9392 48.5284 17.6684L48.477 17.7588C47.4849 19.2357 45.6834 20.1436 43.4382 20.1436H39.0053V19.9136C39.0053 19.1186 38.3582 18.4716 37.5633 18.4716H34.1123C33.3173 18.4716 32.6703 19.1186 32.6703 19.9136V20.1436H28.2374C25.9922 20.1436 24.1907 19.2357 23.1965 17.7588L23.1472 17.6684C22.7322 16.9392 22.5227 16.1154 22.5227 15.2157V12.0071ZM37.2983 20.1786V23.6604H34.3773V20.1786H37.2983ZM46.6653 28.7732H25.0103C24.0551 28.7732 23.2807 27.9988 23.2807 27.0456V20.2895C24.583 21.2755 26.2921 21.8486 28.2374 21.8486H32.6703V23.9254C32.6703 24.7203 33.3173 25.3674 34.1123 25.3674H37.5633C38.3582 25.3674 39.0053 24.7203 39.0053 23.9254V21.8486H43.4382C45.3855 21.8486 47.0925 21.2755 48.3949 20.2895V27.0456C48.3949 27.9988 47.6184 28.7732 46.6653 28.7732Z" fill="black"/>
<path d="M22.5227 12.0071C22.5227 11.2532 23.1348 10.6411 23.8867 10.6411H47.7868C48.5407 10.6411 49.1528 11.2532 49.1528 12.0071V15.2157C49.1528 16.1154 48.9433 16.9392 48.5284 17.6684L48.477 17.7588C47.4849 19.2357 45.6834 20.1436 43.4382 20.1436H39.0053V19.9136C39.0053 19.1186 38.3582 18.4716 37.5633 18.4716H34.1123C33.3173 18.4716 32.6703 19.1186 32.6703 19.9136V20.1436H28.2374C25.9922 20.1436 24.1907 19.2357 23.1965 17.7588L23.1472 17.6684C22.7322 16.9392 22.5227 16.1154 22.5227 15.2157V12.0071Z" fill="black"/>
</g>
</g>
<g id="Group_2">
<g id="Vector_2">
<path d="M59.6034 48.5654H50.7258C49.2618 48.5654 48.0625 49.7584 48.0625 51.2159V65.3497C48.0625 66.8072 49.2618 68.0002 50.7258 68.0002H59.6034C61.0674 68.0002 62.2667 66.8072 62.2667 65.3497V51.2159C62.2667 49.7584 61.0674 48.5654 59.6034 48.5654ZM60.4912 65.3497C60.4912 65.8363 60.0921 66.2332 59.6034 66.2332H50.7258C50.2371 66.2332 49.838 65.8363 49.838 65.3497V51.2159C49.838 50.7294 50.2371 50.3324 50.7258 50.3324H59.6034C60.0921 50.3324 60.4912 50.7294 60.4912 51.2159V65.3497Z" fill="black"/>
<path d="M60.4912 65.3497C60.4912 65.8363 60.0921 66.2332 59.6034 66.2332H50.7258C50.2371 66.2332 49.838 65.8363 49.838 65.3497V51.2159C49.838 50.7294 50.2371 50.3324 50.7258 50.3324H59.6034C60.0921 50.3324 60.4912 50.7294 60.4912 51.2159V65.3497Z" fill="black"/>
</g>
</g>
<path id="Vector_3" d="M57.8276 52.0991H52.501C52.0123 52.0991 51.6133 52.4961 51.6133 52.9826C51.6133 53.467 52.0123 53.8661 52.501 53.8661H57.8276C58.3163 53.8661 58.7154 53.467 58.7154 52.9826C58.7154 52.4961 58.3163 52.0991 57.8276 52.0991Z" fill="black"/>
<path id="Vector_4" d="M57.8276 55.6333H52.501C52.0123 55.6333 51.6133 56.0302 51.6133 56.5168C51.6133 57.0012 52.0123 57.4003 52.501 57.4003H57.8276C58.3163 57.4003 58.7154 57.0012 58.7154 56.5168C58.7154 56.0302 58.3163 55.6333 57.8276 55.6333Z" fill="black"/>
<path id="Vector_5" d="M57.8276 59.167H52.501C52.0123 59.167 51.6133 59.5639 51.6133 60.0505C51.6133 60.5349 52.0123 60.934 52.501 60.934H57.8276C58.3163 60.934 58.7154 60.5349 58.7154 60.0505C58.7154 59.5639 58.3163 59.167 57.8276 59.167Z" fill="black"/>
<path id="Vector_6" d="M57.8276 62.6992H52.501C52.0123 62.6992 51.6133 63.0983 51.6133 63.5827C51.6133 64.0693 52.0123 64.4662 52.501 64.4662H57.8276C58.3163 64.4662 58.7154 64.0693 58.7154 63.5827C58.7154 63.0983 58.3163 62.6992 57.8276 62.6992Z" fill="black"/>
<g id="Group_3">
<path id="Vector_7" d="M40.0722 48.5654H31.1945C29.7306 48.5654 28.5312 49.7584 28.5312 51.2159V65.3497C28.5312 66.8072 29.7306 68.0002 31.1945 68.0002H40.0722C41.5361 68.0002 42.7355 66.8072 42.7355 65.3497V51.2159C42.7355 49.7584 41.5361 48.5654 40.0722 48.5654ZM40.9599 65.3497C40.9599 65.8363 40.5609 66.2332 40.0722 66.2332H31.1945C30.7058 66.2332 30.3068 65.8363 30.3068 65.3497V51.2159C30.3068 50.7294 30.7058 50.3324 31.1945 50.3324H40.0722C40.5609 50.3324 40.9599 50.7294 40.9599 51.2159V65.3497Z" fill="black"/>
</g>
<path id="Vector_8" d="M38.2964 52.0991H32.9698C32.4811 52.0991 32.082 52.4961 32.082 52.9826C32.082 53.467 32.4811 53.8661 32.9698 53.8661H38.2964C38.7851 53.8661 39.1841 53.467 39.1841 52.9826C39.1841 52.4961 38.7851 52.0991 38.2964 52.0991Z" fill="black"/>
<path id="Vector_9" d="M38.2964 55.6333H32.9698C32.4811 55.6333 32.082 56.0302 32.082 56.5168C32.082 57.0012 32.4811 57.4003 32.9698 57.4003H38.2964C38.7851 57.4003 39.1841 57.0012 39.1841 56.5168C39.1841 56.0302 38.7851 55.6333 38.2964 55.6333Z" fill="black"/>
<path id="Vector_10" d="M38.2964 59.167H32.9698C32.4811 59.167 32.082 59.5639 32.082 60.0505C32.082 60.5349 32.4811 60.934 32.9698 60.934H38.2964C38.7851 60.934 39.1841 60.5349 39.1841 60.0505C39.1841 59.5639 38.7851 59.167 38.2964 59.167Z" fill="black"/>
<path id="Vector_11" d="M38.2964 62.6992H32.9698C32.4811 62.6992 32.082 63.0983 32.082 63.5827C32.082 64.0693 32.4811 64.4662 32.9698 64.4662H38.2964C38.7851 64.4662 39.1841 64.0693 39.1841 63.5827C39.1841 63.0983 38.7851 62.6992 38.2964 62.6992Z" fill="black"/>
<g id="Group_4">
<g id="Vector_12">
<path d="M20.5409 48.5654H11.6633C10.1993 48.5654 9 49.7584 9 51.2159V65.3497C9 66.8072 10.1993 68.0002 11.6633 68.0002H20.5409C22.0049 68.0002 23.2042 66.8072 23.2042 65.3497V51.2159C23.2042 49.7584 22.0049 48.5654 20.5409 48.5654ZM21.4287 65.3497C21.4287 65.8363 21.0296 66.2332 20.5409 66.2332H11.6633C11.1746 66.2332 10.7755 65.8363 10.7755 65.3497V51.2159C10.7755 50.7294 11.1746 50.3324 11.6633 50.3324H20.5409C21.0296 50.3324 21.4287 50.7294 21.4287 51.2159V65.3497Z" fill="black"/>
<path d="M21.4287 65.3497C21.4287 65.8363 21.0296 66.2332 20.5409 66.2332H11.6633C11.1746 66.2332 10.7755 65.8363 10.7755 65.3497V51.2159C10.7755 50.7294 11.1746 50.3324 11.6633 50.3324H20.5409C21.0296 50.3324 21.4287 50.7294 21.4287 51.2159V65.3497Z" fill="black"/>
</g>
</g>
<path id="Vector_13" d="M18.7651 52.0991H13.4385C12.9498 52.0991 12.5508 52.4961 12.5508 52.9826C12.5508 53.467 12.9498 53.8661 13.4385 53.8661H18.7651C19.2538 53.8661 19.6529 53.467 19.6529 52.9826C19.6529 52.4961 19.2538 52.0991 18.7651 52.0991Z" fill="black"/>
<path id="Vector_14" d="M18.7651 55.6333H13.4385C12.9498 55.6333 12.5508 56.0302 12.5508 56.5168C12.5508 57.0012 12.9498 57.4003 13.4385 57.4003H18.7651C19.2538 57.4003 19.6529 57.0012 19.6529 56.5168C19.6529 56.0302 19.2538 55.6333 18.7651 55.6333Z" fill="black"/>
<path id="Vector_15" d="M18.7651 59.167H13.4385C12.9498 59.167 12.5508 59.5639 12.5508 60.0505C12.5508 60.5349 12.9498 60.934 13.4385 60.934H18.7651C19.2538 60.934 19.6529 60.5349 19.6529 60.0505C19.6529 59.5639 19.2538 59.167 18.7651 59.167Z" fill="black"/>
<path id="Vector_16" d="M18.7651 62.6992H13.4385C12.9498 62.6992 12.5508 63.0983 12.5508 63.5827C12.5508 64.0693 12.9498 64.4662 13.4385 64.4662H18.7651C19.2538 64.4662 19.6529 64.0693 19.6529 63.5827C19.6529 63.0983 19.2538 62.6992 18.7651 62.6992Z" fill="black"/>
<path id="Vector_17" d="M16.1026 46.3566C16.5913 46.3566 16.9904 45.9596 16.9904 45.4731V41.0556H34.7456V45.0313C34.7456 45.5179 35.1447 45.9148 35.6334 45.9148C36.1221 45.9148 36.5211 45.5179 36.5211 45.0313V41.0556H54.2764V45.4731C54.2764 45.9596 54.6755 46.3566 55.1642 46.3566C55.6529 46.3566 56.0519 45.9596 56.0519 45.4731V40.1721C56.0519 39.6855 55.6529 39.2886 55.1642 39.2886H36.5211V34.4294C36.5211 33.945 36.1221 33.5459 35.6334 33.5459C35.1447 33.5459 34.7456 33.945 34.7456 34.4294V39.2886H16.1026C15.6139 39.2886 15.2148 39.6855 15.2148 40.1721V45.4731C15.2148 45.9596 15.6139 46.3566 16.1026 46.3566Z" fill="black"/>
</g>
</g>
</svg>