<?xml version="1.0" ?><svg xmlns="http://www.w3.org/2000/svg" fill="none" viewBox="4 5 63.82 60.4">
<g id="class-schedule">
<g id="Group 1171274887">
<g id="Group 1171274856">
<path id="Vector 359" d="M57.2733 27.5109H5.99609C5.99609 13.3812 11.6936 11.7479 14.5423 12.6975H44.7389C53.8548 12.6975 56.8935 18.0151 57.2733 20.6739V27.5109Z" fill="black"/>
<g id="Group 1171274855">
<path id="Vector" d="M21.3802 7V17.2554M41.8911 7V17.2554M5.99707 27.5109H57.2743" stroke-width="4" stroke-linecap="round" stroke-linejoin="round" fill="black"/>
</g>
</g>
<path id="Subtract" fill-rule="evenodd" clip-rule="evenodd" d="M8 22.3839C8 17.8245 11.6961 14.1284 16.2554 14.1284H47.0218C51.5811 14.1284 55.2772 17.8245 55.2772 22.3839V41.2138C55.5597 41.1948 55.8448 41.1851 56.1321 41.1851C57.2183 41.1851 58.2722 41.3233 59.2772 41.583V22.3839C59.2772 15.6154 53.7903 10.1284 47.0218 10.1284H16.2554C9.48695 10.1284 4 15.6154 4 22.3839V48.0225C4 54.791 9.48695 60.2779 16.2554 60.2779H45.4483C44.7026 59.0657 44.1574 57.717 43.859 56.2779H16.2554C11.6961 56.2779 8 52.5818 8 48.0225V22.3839Z" fill="black"/>
<circle id="Ellipse 2519" cx="57.2732" cy="54.8586" r="9.11595" fill="black"/>
<path id="clock" d="M57.269 65.1139C62.89 65.1139 67.5294 60.4722 67.5294 54.8585C67.5294 49.2448 62.88 44.603 57.2591 44.603C51.6481 44.603 47.0186 49.2448 47.0186 54.8585C47.0186 60.4722 51.658 65.1139 57.269 65.1139ZM57.269 63.0708C52.7188 63.0708 49.0805 59.4109 49.0805 54.8585C49.0805 50.306 52.7188 46.6561 57.2591 46.6561C61.8094 46.6561 65.4674 50.306 65.4774 54.8585C65.4873 59.4109 61.8193 63.0708 57.269 63.0708ZM52.2727 56.1082H57.2591C57.7151 56.1082 58.0621 55.761 58.0621 55.3147V48.8282C58.0621 48.3819 57.7151 48.0347 57.2591 48.0347C56.8229 48.0347 56.476 48.3819 56.476 48.8282V54.5212H52.2727C51.8266 54.5212 51.4796 54.8684 51.4796 55.3147C51.4796 55.761 51.8266 56.1082 52.2727 56.1082Z" fill="black" stroke-width="0.571429"/>
</g>
<text id="31" fill="black" xml:space="preserve" style="white-space: pre" font-family="Inter" font-size="22.1749" font-weight="800" letter-spacing="0em"><tspan x="19" y="49.5636">31</tspan></text>
</g>
</svg>