<?xml version="1.0" ?><svg xmlns="http://www.w3.org/2000/svg" fill="none" viewBox="6.09 0.69 59.95 70.62">
<g id="claim-request">
<g id="Group 76">
<g id="Vector">
<path d="M19.2088 0.968294C18.429 1.38215 6.34895 13.2323 6.20716 13.7289C6.15045 13.9497 6.09375 23.758 6.09375 35.5255C6.09375 56.1632 6.10793 56.9357 6.36315 57.6666C6.88773 59.1566 8.02208 60.481 9.26967 61.1156C10.6876 61.8191 10.4608 61.8055 25.2489 61.8055H39.0302L39.2003 62.3159C39.5409 63.3367 40.6324 65.199 41.5257 66.3027C44.5457 70.0273 49.6925 71.945 54.4848 71.1172C57.9017 70.5377 60.9216 68.8134 62.9776 66.2887C67.0611 61.2673 67.0754 54.4111 62.9919 49.4309C60.9926 46.9754 58.2988 45.4028 54.7682 44.6443L54.3713 44.5613V25.317C54.3713 11.5906 54.329 5.8794 54.2155 5.3552C53.861 3.72734 52.6416 2.1409 51.2238 1.43732C49.6782 0.678613 50.1319 0.6924 34.3088 0.6924C20.2723 0.706187 19.6909 0.719993 19.2088 0.968294ZM49.1394 5.03791C49.3663 5.16205 49.6925 5.45177 49.8343 5.70007C50.1178 6.12773 50.1178 6.54158 50.1178 25.3444V44.5613L49.7351 44.6443C45.8784 45.4717 42.8868 47.3755 40.8877 50.2449C39.5691 52.1348 38.69 54.4803 38.5341 56.5219L38.4488 57.6666H25.0361C12.2187 57.6666 11.6092 57.653 11.2264 57.4046C11.0137 57.2667 10.7159 57.0046 10.5882 56.8254C10.3614 56.5219 10.3473 55.0455 10.3047 36.5325L10.2763 16.5708L15.5792 16.5293C20.6834 16.488 20.9101 16.474 21.2787 16.1983C21.4914 16.0466 21.8034 15.7432 21.9596 15.5361C22.2429 15.1775 22.2572 14.9567 22.2996 9.99048L22.3422 4.83097H35.5282C47.1544 4.83097 48.7708 4.85856 49.1394 5.03791ZM18.0745 10.1421V12.4184H15.7068H13.3248L15.6642 10.1421C16.9546 8.88676 18.0177 7.86602 18.032 7.86602C18.0604 7.86602 18.0745 8.88676 18.0745 10.1421ZM54.2012 48.7827C55.9877 49.1274 57.4908 49.9415 58.9225 51.3209C59.9152 52.273 60.2554 52.7144 60.7232 53.6661C61.5173 55.2388 61.7584 56.2183 61.7584 57.8737C61.7584 60.4672 60.8792 62.5089 58.9935 64.3576C56.9943 66.3163 55.0376 67.1165 52.2446 67.1165C50.8266 67.1165 50.4437 67.0613 49.3522 66.7165C43.6666 64.9093 41.0579 58.6323 43.8511 53.4592C44.4606 52.3281 45.8359 50.8519 46.9701 50.1208C49.0969 48.7549 51.6632 48.2723 54.2012 48.7827Z" fill="black"/>
<path d="M54.2012 48.7827C55.9877 49.1274 57.4908 49.9415 58.9225 51.3209C59.9152 52.273 60.2554 52.7144 60.7232 53.6661C61.5173 55.2388 61.7584 56.2183 61.7584 57.8737C61.7584 60.4672 60.8792 62.5089 58.9935 64.3576C56.9943 66.3163 55.0376 67.1165 52.2446 67.1165C50.8266 67.1165 50.4437 67.0613 49.3522 66.7165C43.6666 64.9093 41.0579 58.6323 43.8511 53.4592C44.4606 52.3281 45.8359 50.8519 46.9701 50.1208C49.0969 48.7549 51.6632 48.2723 54.2012 48.7827Z" fill="black"/>
<path d="M18.0745 10.1421V12.4184H15.7068H13.3248L15.6642 10.1421C16.9546 8.88676 18.0177 7.86602 18.032 7.86602C18.0604 7.86602 18.0745 8.88676 18.0745 10.1421Z" fill="black"/>
</g>
<path id="Vector_2" d="M15.3498 21.7704C14.8536 22.2255 14.7685 22.3911 14.6977 23.0394C14.6126 23.9362 14.9103 24.5571 15.6477 25.0124L16.1582 25.3158H30.1948C43.9761 25.3158 44.2455 25.3158 44.7135 25.0397C46.1454 24.2259 46.2165 22.4464 44.8693 21.5496L44.4015 21.2461H30.1665H15.9312L15.3498 21.7704Z" fill="black"/>
<path id="Vector_3" d="M16.3742 29.2337C15.3535 29.4406 14.8004 30.0476 14.7012 31.0823C14.6161 31.9376 14.928 32.5719 15.6511 33.0136L16.1615 33.3171H30.1984C43.9797 33.3171 44.2491 33.3171 44.7169 33.0411C45.4826 32.5996 45.7943 32.0892 45.7943 31.2754C45.7943 30.4476 45.4118 29.7994 44.6885 29.4129C44.263 29.1921 43.2425 29.1785 30.5527 29.1647C23.0239 29.1508 16.6436 29.1785 16.3742 29.2337Z" fill="black"/>
<path id="Vector_4" d="M15.6929 37.8016C14.2751 38.643 14.3318 40.6571 15.8064 41.4019C16.2742 41.6503 16.9405 41.6641 30.169 41.6641C41.5543 41.6641 44.1064 41.6367 44.4893 41.471C45.0991 41.2227 45.6943 40.5328 45.8079 39.9259C45.9357 39.2637 45.5385 38.2982 44.9714 37.9118L44.5177 37.5947L30.3392 37.553C16.3878 37.5257 16.1464 37.5257 15.6929 37.8016Z" fill="black"/>
<path id="Vector_5" d="M15.6923 46.0767C14.2604 46.9319 14.3455 49.0012 15.8484 49.6634C16.4013 49.9118 16.8266 49.9392 22.172 49.9392C27.6307 49.9392 27.9427 49.9254 28.4954 49.6634C29.9559 48.9735 30.0834 47.0011 28.7225 46.118L28.2403 45.8008H22.2002C16.4297 45.8008 16.146 45.8145 15.6923 46.0767Z" fill="black"/>
<path id="Vector_6" d="M51.6201 50.6293C51.3934 50.6983 51.0528 50.8915 50.8544 51.071C50.188 51.6779 50.1172 52.0504 50.1172 55.2784C50.1172 58.6445 50.188 58.9757 51.0954 59.5549C52.102 60.2171 53.5623 59.8308 54.1297 58.7688C54.3564 58.341 54.3707 57.9272 54.3425 55.0851C54.2997 52.1057 54.2856 51.8709 54.0021 51.5123C53.3925 50.7123 52.4849 50.3675 51.6201 50.6293Z" fill="black"/>
<path id="Vector_7" d="M51.5366 61.405C50.3316 61.874 49.7928 63.212 50.3882 64.288C51.1823 65.7644 53.3655 65.7644 54.1171 64.288C54.9678 62.6464 53.2522 60.743 51.5366 61.405Z" fill="black"/>
</g>
</g>
</svg>