<?xml version="1.0" ?><svg xmlns="http://www.w3.org/2000/svg" fill="none" viewBox="9 4 54.23 64">
<g id="maintenance-work-order">
<path id="Vector 657" d="M50 18L38 6.5L36.5 18H50Z" fill="black"/>
<g id="Group 1171275049">
<path id="Vector" d="M19.6819 28.5998C20.174 28.0378 20.6284 27.519 21.0829 26.9995C21.7359 26.2535 22.3882 25.5074 23.0411 24.7614C23.0747 24.723 23.1082 24.6833 23.1438 24.647C23.3806 24.4041 23.6893 24.3774 23.9214 24.5786C24.1575 24.7833 24.1787 25.1173 23.9542 25.3794C23.5209 25.8859 23.0788 26.3842 22.6394 26.8859C21.8399 27.7989 21.0419 28.7127 20.241 29.6244C19.9029 30.0097 19.6079 30.0186 19.2459 29.6572C18.5799 28.9933 17.9132 28.3308 17.2541 27.6607C17.1555 27.5608 17.0638 27.4348 17.0221 27.3041C16.9481 27.0727 17.0672 26.8298 17.2705 26.7114C17.4834 26.5875 17.749 26.6196 17.9509 26.8181C18.4327 27.2904 18.9091 27.7695 19.3841 28.2493C19.4854 28.3513 19.5717 28.4697 19.6819 28.5998Z" fill="black"/>
<path id="Vector_2" d="M19.6819 46.6642C20.174 46.1023 20.6284 45.5835 21.0829 45.064C21.7359 44.3179 22.3882 43.5719 23.0411 42.8258C23.0747 42.7875 23.1082 42.7478 23.1438 42.7115C23.3806 42.4685 23.6893 42.4418 23.9214 42.6431C24.1575 42.8477 24.1787 43.1817 23.9542 43.4439C23.5209 43.9504 23.0788 44.4486 22.6394 44.9503C21.8399 45.8634 21.0419 46.7771 20.241 47.6888C19.9029 48.0742 19.6079 48.0831 19.2459 47.7217C18.5799 47.0578 17.9132 46.3952 17.2541 45.7251C17.1555 45.6252 17.0638 45.4993 17.0221 45.3685C16.9481 45.1372 17.0672 44.8942 17.2705 44.7758C17.4834 44.6519 17.749 44.6841 17.9509 44.8826C18.4327 45.3549 18.9091 45.834 19.3841 46.3138C19.4854 46.4158 19.5717 46.5342 19.6819 46.6642Z" fill="black"/>
<path id="Vector_3" d="M19.6819 37.632C20.174 37.0701 20.6284 36.5512 21.0829 36.0317C21.7359 35.2857 22.3882 34.5396 23.0411 33.7936C23.0747 33.7552 23.1082 33.7155 23.1438 33.6793C23.3806 33.4363 23.6893 33.4096 23.9214 33.6108C24.1575 33.8155 24.1787 34.1495 23.9542 34.4116C23.5209 34.9181 23.0788 35.4164 22.6394 35.9181C21.8399 36.8312 21.0419 37.7449 20.241 38.6566C19.9029 39.042 19.6079 39.0509 19.2459 38.6895C18.5799 38.0255 17.9132 37.363 17.2541 36.6929C17.1555 36.593 17.0638 36.467 17.0221 36.3363C16.9481 36.105 17.0672 35.862 17.2705 35.7436C17.4834 35.6197 17.749 35.6519 17.9509 35.8504C18.4327 36.3226 18.9091 36.8017 19.3841 37.2815C19.4854 37.3835 19.5717 37.5019 19.6819 37.632Z" fill="black"/>
<path id="Vector_4" d="M36.5261 27.1099C33.7009 27.1099 30.8756 27.1135 28.0493 27.1076C27.1309 27.1064 26.5377 26.1873 26.8713 25.2848C27.0714 24.7431 27.4499 24.4616 27.969 24.4498C28.4632 24.4391 28.9584 24.4474 29.4536 24.4474C34.6485 24.4474 39.8445 24.4462 45.0395 24.4486C45.9829 24.4486 46.5845 25.3771 46.23 26.2914C46.0069 26.8663 45.591 27.1111 45.0415 27.1099C42.2038 27.1076 39.365 27.1099 36.5261 27.1099Z" fill="black"/>
<path id="Vector_5" d="M36.5581 36.8881C33.7194 36.8881 30.8817 36.8917 28.0429 36.8858C27.1276 36.8846 26.5344 35.9536 26.8743 35.0535C27.0848 34.4944 27.4799 34.2244 28.0158 34.2232C28.9926 34.222 29.9684 34.2232 30.9452 34.2232C35.6459 34.2232 40.3455 34.222 45.0462 34.2244C45.9865 34.2256 46.587 35.1648 46.2274 36.0768C46.0011 36.6501 45.5831 36.8905 45.0347 36.8893C42.5869 36.8846 40.1391 36.887 37.6913 36.887C37.3139 36.8881 36.9365 36.8881 36.5581 36.8881Z" fill="black"/>
<path id="Vector_6" d="M32.454 46.955C31.1771 46.955 29.8987 46.9573 28.6217 46.9538C27.5389 46.9502 26.7863 46.4091 26.7774 45.6347C26.7671 44.8438 27.5285 44.292 28.6469 44.2908C31.2023 44.2885 33.7576 44.2885 36.313 44.2908C37.4225 44.292 38.2032 44.8521 38.1929 45.6312C38.1825 46.4127 37.4107 46.9514 36.2893 46.9538C35.0094 46.9561 33.731 46.955 32.454 46.955Z" fill="black"/>
<g id="Group">
<g id="Vector_7">
<path d="M36.5561 63.1572C36.5998 62.9649 36.6408 62.7726 36.6887 62.5816C36.897 61.7421 37.3386 61.0436 37.9483 60.4354C40.9159 57.476 43.8774 54.5097 46.8409 51.5462C47.6755 50.7116 48.508 49.8749 49.3475 49.0458C49.4746 48.9202 49.5287 48.7993 49.5162 48.616C49.2795 44.9832 51.9472 41.7933 55.5578 41.3787C56.7105 41.2468 57.8235 41.4017 58.9005 41.8252C59.6594 42.1238 59.7899 42.7765 59.2122 43.3556C58.5324 44.0374 57.8464 44.7144 57.1736 45.4032C57.0889 45.49 57.0278 45.6386 57.0243 45.7601C57.009 46.3483 57.0174 46.9371 57.0174 47.5481C57.2923 47.5481 57.5749 47.553 57.8575 47.5467C58.2464 47.5391 58.6776 47.6238 59.0122 47.4828C59.3386 47.3454 59.5663 46.9739 59.8364 46.7045C60.3156 46.2261 60.7905 45.7435 61.2738 45.2699C61.7598 44.7943 62.4195 44.9318 62.6896 45.5574C64.4484 49.634 61.7459 54.4014 57.3402 54.9798C56.8785 55.0402 56.407 55.0374 55.9397 55.036C55.7585 55.0353 55.6363 55.0819 55.5099 55.2082C51.7458 58.9793 47.9734 62.7413 44.2141 66.5172C43.4413 67.2935 42.5636 67.8282 41.4638 67.9636C41.4409 67.9663 41.42 67.9872 41.3978 67.9997C41.0854 67.9997 40.7729 67.9997 40.4604 67.9997C40.4118 67.9844 40.3639 67.9636 40.3139 67.9545C38.5044 67.6435 37.3157 66.6096 36.7373 64.873C36.6533 64.6209 36.6144 64.3536 36.5547 64.0932C36.5561 63.7822 36.5561 63.4697 36.5561 63.1572ZM61.4807 47.4106C60.9669 47.9265 60.4836 48.4091 60.0045 48.8959C59.8191 49.084 59.6038 49.1958 59.3372 49.2C58.3047 49.2159 57.2729 49.2368 56.2404 49.2437C55.646 49.2479 55.3044 48.8952 55.3106 48.3008C55.3224 47.2773 55.3419 46.2531 55.3544 45.2296C55.3579 44.9609 55.4634 44.7464 55.6509 44.5603C56.0758 44.1388 56.498 43.7146 56.9208 43.291C56.9861 43.2257 57.0465 43.1563 57.1326 43.064C56.9604 43.0424 56.825 43.0174 56.6896 43.0098C53.4192 42.8237 50.8133 45.5761 51.2063 48.825C51.2625 49.2902 51.1376 49.6152 50.8154 49.936C46.9374 53.8015 43.0684 57.6746 39.1974 61.547C39.0808 61.6637 38.9648 61.781 38.8586 61.9067C37.7983 63.1586 38.1087 65.075 39.5085 65.9319C40.6139 66.6089 41.9387 66.429 42.9074 65.4618C46.3569 62.015 49.8044 58.5661 53.2526 55.118C53.756 54.6146 54.2608 54.1139 54.7614 53.6078C54.985 53.3821 55.244 53.2814 55.562 53.3321C56.23 53.4383 56.8931 53.4064 57.5513 53.2578C60.1496 52.6704 61.9431 50.036 61.4807 47.4106Z" fill="black"/>
<path d="M61.4807 47.4106C60.9669 47.9265 60.4836 48.4091 60.0045 48.8959C59.8191 49.084 59.6038 49.1958 59.3372 49.2C58.3047 49.2159 57.2729 49.2368 56.2404 49.2437C55.646 49.2479 55.3044 48.8952 55.3106 48.3008C55.3224 47.2773 55.3419 46.2531 55.3544 45.2296C55.3579 44.9609 55.4634 44.7464 55.6509 44.5603C56.0758 44.1388 56.498 43.7146 56.9208 43.291C56.9861 43.2257 57.0465 43.1563 57.1326 43.064C56.9604 43.0424 56.825 43.0174 56.6896 43.0098C53.4192 42.8237 50.8133 45.5761 51.2063 48.825C51.2625 49.2902 51.1376 49.6152 50.8154 49.936C46.9374 53.8015 43.0684 57.6746 39.1974 61.547C39.0808 61.6637 38.9648 61.781 38.8586 61.9067C37.7983 63.1586 38.1087 65.075 39.5085 65.9319C40.6139 66.6089 41.9387 66.429 42.9074 65.4618C46.3569 62.015 49.8044 58.5661 53.2526 55.118C53.756 54.6146 54.2608 54.1139 54.7614 53.6078C54.985 53.3821 55.244 53.2814 55.562 53.3321C56.23 53.4383 56.8931 53.4064 57.5513 53.2578C60.1496 52.6704 61.9431 50.036 61.4807 47.4106Z" fill="black"/>
</g>
<path id="Vector_8" d="M41.5535 63.9001C41.1653 63.8931 40.9223 63.7466 40.7702 63.464C40.6126 63.1717 40.6321 62.8787 40.8181 62.6037C40.8758 62.5183 40.9515 62.444 41.0251 62.3711C44.2767 59.118 47.5298 55.8657 50.7801 52.6119C50.9766 52.4147 51.1842 52.2606 51.4786 52.2647C51.814 52.2696 52.0674 52.4161 52.2167 52.7112C52.3701 53.0139 52.3452 53.3167 52.141 53.5937C52.0799 53.6771 52.0028 53.7493 51.9292 53.8229C48.6894 57.0634 45.4488 60.3033 42.2103 63.5452C42.0076 63.7466 41.7965 63.916 41.5535 63.9001Z" fill="black"/>
</g>
<path id="Subtract" fill-rule="evenodd" clip-rule="evenodd" d="M14.3389 60.8889C14.1119 60.8088 13.8796 60.738 13.6473 60.6673L13.6473 60.6673C13.1365 60.5118 12.6258 60.3564 12.1717 60.1008C10.0814 58.9231 9.02227 57.0803 9.01042 54.6805C8.99675 51.8167 8.9995 48.9523 9.00225 46.0881C9.00337 44.9164 9.0045 43.7448 9.0045 42.5733C9.0045 39.4997 9.00425 36.4262 9.00401 33.3527C9.00341 25.6706 9.0028 17.9888 9.00598 10.3062C9.00746 7.27678 10.8651 4.85771 13.7241 4.17925C14.2396 4.05629 14.7863 4.01185 15.3181 4.01037C18.9533 4.00472 22.5886 4.00435 26.2236 4.00398C29.2528 4.00368 32.2819 4.00337 35.3106 4C37.0838 3.99852 38.5888 4.6044 39.8732 5.82356C43.2951 9.07516 46.7201 12.3238 50.1628 15.5532C51.6412 16.9397 52.3448 18.6063 52.3419 20.6357L52.3407 21.4628C52.331 28.0992 52.3214 34.736 52.3242 41.3727C50.7784 42.2396 49.5923 43.649 49.002 45.3202C49.0021 40.9945 49.0019 36.6687 49.0017 32.343C49.0015 28.6583 49.0014 24.9737 49.0014 21.289V20.6698H48.3229C47.3106 20.6698 46.2984 20.67 45.2861 20.6701C43.2616 20.6705 41.237 20.6708 39.2125 20.6698C36.6068 20.6683 35.0025 19.0536 35.0025 16.4346C35.0015 14.5582 35.0018 12.6818 35.0021 10.8054C35.0023 9.8672 35.0025 8.929 35.0025 7.9908C35.0039 7.7923 35.0039 7.59231 35.0039 7.33752H34.3596H15.4173C13.4693 7.33752 12.339 8.45892 12.339 10.3951C12.3376 25.0961 12.3376 39.7987 12.339 54.4998C12.339 56.4329 13.4708 57.5558 15.4188 57.5558C23.4571 57.557 31.4953 57.5572 39.5336 57.5566C38.4445 58.6451 37.3551 59.7331 36.2649 60.8203C36.2422 60.8429 36.2198 60.8656 36.1975 60.8884C28.9395 60.8889 21.681 60.8889 14.4224 60.8889H14.3389ZM47.1897 17.3367L43.5038 13.8508L43.5011 13.8483C41.7881 12.2281 40.0907 10.6227 38.3726 8.99813C38.3649 9.06847 38.358 9.12188 38.3524 9.16497C38.3439 9.23076 38.3385 9.27248 38.3385 9.31366L38.3377 10.5234C38.3362 12.5426 38.3348 14.5624 38.3385 16.5812C38.34 17.1575 38.5207 17.3323 39.1088 17.3353C40.1392 17.3384 41.1689 17.3378 42.1989 17.3372H42.1991C42.6113 17.337 43.0235 17.3367 43.4359 17.3367H47.1897Z" fill="black"/>
</g>
</g>
</svg>