<?xml version="1.0" ?><svg xmlns="http://www.w3.org/2000/svg" fill="none" viewBox="11 4 51.24 65">
<g id="maintenance-repair-order">
<path id="Vector 653" d="M39.5 18.5V7L53 18.5H39.5Z" fill="black"/>
<g id="Group 1171275040">
<path id="Subtract" fill-rule="evenodd" clip-rule="evenodd" d="M15.7128 61.4655C15.9484 61.5372 16.1839 61.6089 16.4141 61.6901H16.4977C23.6181 61.6901 30.7385 61.6901 37.8585 61.6897C37.2928 60.6975 36.8561 59.6183 36.5649 58.4736C36.5518 58.4204 36.539 58.3663 36.5266 58.3112C30.1875 58.3114 23.8483 58.311 17.5092 58.3101C15.5338 58.3101 14.3861 57.1714 14.3861 55.211C14.3846 40.3029 14.3846 25.3933 14.3861 10.4851C14.3861 8.52172 15.5323 7.38453 17.5077 7.38453H36.7167H37.3702C37.3702 7.64291 37.3702 7.84571 37.3687 8.04701C37.3687 8.99842 37.3685 9.94983 37.3684 10.9012C37.368 12.8041 37.3677 14.7069 37.3687 16.6097C37.3687 19.2657 38.9956 20.9031 41.638 20.9046C43.6911 20.9056 45.7441 20.9053 47.7972 20.9049C48.8237 20.9048 49.8502 20.9046 50.8768 20.9046H51.5648V21.5325C51.5648 25.2691 51.5649 29.0056 51.5651 32.7422C51.5653 36.1589 51.5654 39.5757 51.5654 42.9925C51.7024 43.0193 51.8338 43.0485 51.9586 43.08C53.0121 43.3479 54.0101 43.7391 54.9359 44.2408C54.9293 36.7291 54.9402 29.2171 54.9511 21.7058L54.9523 20.87C54.9553 18.812 54.2417 17.122 52.7425 15.7159C49.2513 12.441 45.7782 9.14664 42.308 5.84925C41.0056 4.61291 39.4793 3.9985 37.6812 4C34.6098 4.00342 31.5381 4.00373 28.4662 4.00404C24.78 4.00441 21.0935 4.00478 17.4071 4.01052C16.8678 4.01202 16.3134 4.05709 15.7907 4.18177C12.8914 4.86979 11.0076 7.32294 11.0061 10.395C11.0028 18.1858 11.0035 25.9758 11.0041 33.7662C11.0043 36.8829 11.0046 39.9997 11.0046 43.1166C11.0046 44.3046 11.0034 45.4927 11.0023 46.6809C10.9995 49.5854 10.9967 52.4902 11.0106 55.3943C11.0226 57.8279 12.0967 59.6967 14.2163 60.891C14.6768 61.1501 15.1949 61.3078 15.7128 61.4655ZM45.9796 13.98C47.2165 15.1498 48.4613 16.3272 49.7275 17.5246H45.9209C45.5028 17.5246 45.0848 17.5248 44.6668 17.5251C43.6222 17.5257 42.5779 17.5263 41.5329 17.5231C40.9365 17.5201 40.7532 17.3428 40.7517 16.7584C40.748 14.7112 40.7494 12.6629 40.7509 10.6153C40.7512 10.2063 40.7515 9.79741 40.7517 9.3885C40.7517 9.34674 40.7572 9.30443 40.7659 9.2377C40.7715 9.19401 40.7785 9.13985 40.7863 9.06853C42.5261 10.7137 44.245 12.3394 45.9796 13.98Z" fill="black"/>
<g id="Group 1171275037">
<g id="Vector">
<mask id="path-3-outside-1_6461_47135" maskUnits="userSpaceOnUse" x="35.2383" y="42" width="27" height="27" fill="black">
<rect fill="white" x="35.2383" y="42" width="27" height="27"/>
<path d="M45.7115 43.0799C41.2637 44.2313 37.6834 47.8274 36.5636 52.2909C36.122 54.0101 36.1378 56.7544 36.5636 58.4736C37.4784 62.0697 39.8285 65.0191 43.1091 66.6594C45.0806 67.653 46.5789 68 48.8659 68C51.1687 68 52.6512 67.653 54.7016 66.6278C55.9792 65.9969 56.4208 65.6499 57.7772 64.2935C59.1336 62.9371 59.4806 62.4955 60.1115 61.218C61.1367 59.1676 61.4837 57.685 61.4837 55.3823C61.4837 53.0953 61.1367 51.5969 60.143 49.6254C58.5027 46.3448 55.5533 43.9947 51.9573 43.0799C50.2696 42.6541 47.3833 42.6541 45.7115 43.0799ZM52.1938 45.982C55.0171 46.9599 57.4144 49.4204 58.345 52.2594C58.6604 53.2372 58.7235 53.7262 58.7235 55.4611C58.7235 57.2749 58.6762 57.6377 58.3135 58.6471C55.3956 66.6436 44.6863 67.7319 40.2858 60.4609C39.2764 58.789 39.0083 57.7639 39.0083 55.4611C39.0083 52.9691 39.3553 51.6758 40.5382 49.9251C43.1248 46.0451 47.8249 44.4679 52.1938 45.982Z"/>
<path d="M52.1938 45.982C55.0171 46.9599 57.4144 49.4204 58.345 52.2594C58.6604 53.2372 58.7235 53.7262 58.7235 55.4611C58.7235 57.2749 58.6762 57.6377 58.3135 58.6471C55.3956 66.6436 44.6863 67.7319 40.2858 60.4609C39.2764 58.789 39.0083 57.7639 39.0083 55.4611C39.0083 52.9691 39.3553 51.6758 40.5382 49.9251C43.1248 46.0451 47.8249 44.4679 52.1938 45.982Z"/>
</mask>
<path d="M45.7115 43.0799C41.2637 44.2313 37.6834 47.8274 36.5636 52.2909C36.122 54.0101 36.1378 56.7544 36.5636 58.4736C37.4784 62.0697 39.8285 65.0191 43.1091 66.6594C45.0806 67.653 46.5789 68 48.8659 68C51.1687 68 52.6512 67.653 54.7016 66.6278C55.9792 65.9969 56.4208 65.6499 57.7772 64.2935C59.1336 62.9371 59.4806 62.4955 60.1115 61.218C61.1367 59.1676 61.4837 57.685 61.4837 55.3823C61.4837 53.0953 61.1367 51.5969 60.143 49.6254C58.5027 46.3448 55.5533 43.9947 51.9573 43.0799C50.2696 42.6541 47.3833 42.6541 45.7115 43.0799ZM52.1938 45.982C55.0171 46.9599 57.4144 49.4204 58.345 52.2594C58.6604 53.2372 58.7235 53.7262 58.7235 55.4611C58.7235 57.2749 58.6762 57.6377 58.3135 58.6471C55.3956 66.6436 44.6863 67.7319 40.2858 60.4609C39.2764 58.789 39.0083 57.7639 39.0083 55.4611C39.0083 52.9691 39.3553 51.6758 40.5382 49.9251C43.1248 46.0451 47.8249 44.4679 52.1938 45.982Z" fill="black"/>
<path d="M52.1938 45.982C55.0171 46.9599 57.4144 49.4204 58.345 52.2594C58.6604 53.2372 58.7235 53.7262 58.7235 55.4611C58.7235 57.2749 58.6762 57.6377 58.3135 58.6471C55.3956 66.6436 44.6863 67.7319 40.2858 60.4609C39.2764 58.789 39.0083 57.7639 39.0083 55.4611C39.0083 52.9691 39.3553 51.6758 40.5382 49.9251C43.1248 46.0451 47.8249 44.4679 52.1938 45.982Z" fill="black"/>
<path d="M52.1938 45.982L52.1775 46.0293L52.1775 46.0293L52.1938 45.982ZM58.345 52.2594L58.3925 52.2438L58.3926 52.244L58.345 52.2594ZM58.3135 58.6471L58.3605 58.664L58.3604 58.6642L58.3135 58.6471ZM40.2858 60.4609L40.2431 60.4868L40.243 60.4867L40.2858 60.4609ZM40.5382 49.9251L40.5798 49.9528L40.5796 49.9531L40.5382 49.9251ZM52.2102 45.9348C55.0484 46.9178 57.4571 49.3901 58.3925 52.2438L58.2975 52.2749C57.3717 49.4506 54.9858 47.002 52.1775 46.0293L52.2102 45.9348ZM58.3926 52.244C58.7103 53.2289 58.7735 53.7237 58.7735 55.4611H58.6735C58.6735 53.7286 58.6106 53.2455 58.2974 52.2747L58.3926 52.244ZM58.7735 55.4611C58.7735 56.3676 58.7618 56.9149 58.7041 57.3621C58.6463 57.811 58.5424 58.1579 58.3605 58.664L58.2664 58.6302C58.4473 58.1269 58.5484 57.7877 58.6049 57.3494C58.6616 56.9094 58.6735 56.3684 58.6735 55.4611H58.7735ZM58.3604 58.6642C55.4284 66.6997 44.6655 67.7941 40.2431 60.4868L40.3286 60.435C44.7071 67.6696 55.3628 66.5875 58.2665 58.63L58.3604 58.6642ZM40.243 60.4867C39.737 59.6485 39.415 58.9696 39.2201 58.21C39.0254 57.4509 38.9583 56.6141 38.9583 55.4611H39.0583C39.0583 56.6109 39.1253 57.438 39.317 58.1852C39.5085 58.9318 39.8253 59.6014 40.3286 60.4351L40.243 60.4867ZM38.9583 55.4611C38.9583 54.2131 39.0451 53.2617 39.2814 52.4019C39.5179 51.5415 39.9032 50.7755 40.4968 49.8971L40.5796 49.9531C39.9903 50.8253 39.6106 51.5814 39.3779 52.4284C39.1449 53.2759 39.0583 54.2172 39.0583 55.4611H38.9583ZM40.4966 49.8973C43.0958 45.9985 47.8197 44.4132 52.2102 45.9348L52.1775 46.0293C47.8302 44.5226 43.1539 46.0917 40.5798 49.9528L40.4966 49.8973ZM45.7115 43.0799L45.6864 42.9831L45.6868 42.983L45.7115 43.0799ZM36.5636 52.2909L36.6606 52.3152L36.6605 52.3158L36.5636 52.2909ZM36.5636 58.4736L36.4667 58.4983L36.4665 58.4976L36.5636 58.4736ZM43.1091 66.6594L43.1538 66.5699L43.1541 66.5701L43.1091 66.6594ZM54.7016 66.6278L54.6569 66.5384L54.6573 66.5382L54.7016 66.6278ZM60.1115 61.218L60.0218 61.1737L60.022 61.1732L60.1115 61.218ZM60.143 49.6254L60.0537 49.6704L60.0536 49.6701L60.143 49.6254ZM51.9573 43.0799L51.9817 42.983L51.9819 42.983L51.9573 43.0799ZM45.7365 43.1768C41.3241 44.319 37.7715 47.8873 36.6606 52.3152L36.4666 52.2666C37.5954 47.7674 41.2033 44.1437 45.6864 42.9831L45.7365 43.1768ZM36.6605 52.3158C36.2232 54.0181 36.2386 56.7456 36.6607 58.4496L36.4665 58.4976C36.0369 56.7632 36.0208 54.002 36.4668 52.266L36.6605 52.3158ZM36.6605 58.4489C37.5683 62.0174 39.8997 64.9429 43.1538 66.5699L43.0643 66.7488C39.7572 65.0952 37.3885 62.1219 36.4667 58.4983L36.6605 58.4489ZM43.1541 66.5701C45.111 67.5564 46.5939 67.9 48.8659 67.9V68.1C46.564 68.1 45.0501 67.7496 43.0641 66.7487L43.1541 66.5701ZM48.8659 67.9C51.1533 67.9 52.6205 67.5566 54.6569 66.5384L54.7463 66.7173C52.6819 67.7495 51.184 68.1 48.8659 68.1V67.9ZM54.6573 66.5382C55.2935 66.224 55.7169 65.9828 56.1492 65.6532C56.583 65.3226 57.0283 64.9011 57.7065 64.2228L57.8479 64.3642C57.1697 65.0424 56.716 65.4726 56.2705 65.8123C55.8235 66.153 55.3873 66.4008 54.7459 66.7175L54.6573 66.5382ZM57.7065 64.2228C58.3847 63.5446 58.8062 63.0993 59.1369 62.6656C59.4665 62.2332 59.7077 61.8099 60.0218 61.1737L60.2011 61.2622C59.8844 61.9036 59.6367 62.3398 59.2959 62.7868C58.9563 63.2324 58.5261 63.6861 57.8479 64.3642L57.7065 64.2228ZM60.022 61.1732C61.0402 59.1369 61.3837 57.6696 61.3837 55.3823H61.5837C61.5837 57.7004 61.2331 59.1983 60.2009 61.2627L60.022 61.1732ZM61.3837 55.3823C61.3837 53.1102 61.04 51.6274 60.0537 49.6704L60.2323 49.5804C61.2333 51.5665 61.5837 53.0803 61.5837 55.3823H61.3837ZM60.0536 49.6701C58.4265 46.416 55.5011 44.0846 51.9326 43.1769L51.9819 42.983C55.6055 43.9048 58.5789 46.2736 60.2325 49.5807L60.0536 49.6701ZM51.9328 43.1769C51.0998 42.9667 49.9653 42.8606 48.8285 42.8606C47.6916 42.8606 46.5611 42.9667 45.7362 43.1769L45.6868 42.983C46.5337 42.7673 47.6823 42.6606 48.8285 42.6606C49.9746 42.6606 51.1271 42.7673 51.9817 42.983L51.9328 43.1769Z" fill="black" mask="url(#path-3-outside-1_6461_47135)"/>
</g>
<path id="Vector_2" d="M47.796 57.9498C48.6145 57.0153 49.3703 56.1525 50.1261 55.2885C51.2121 54.0478 52.2969 52.807 53.3828 51.5663C53.4386 51.5025 53.4944 51.4365 53.5535 51.3762C53.9474 50.9721 54.4608 50.9277 54.8466 51.2624C55.2394 51.6027 55.2746 52.1582 54.9013 52.5942C54.1807 53.4365 53.4454 54.2652 52.7146 55.0995C51.3851 56.618 50.0578 58.1377 48.726 59.6539C48.1637 60.2947 47.6731 60.3095 47.071 59.7085C45.9634 58.6044 44.8547 57.5025 43.7585 56.3881C43.5946 56.2219 43.4421 56.0125 43.3726 55.795C43.2497 55.4103 43.4478 55.0062 43.7858 54.8093C44.1398 54.6032 44.5815 54.6567 44.9173 54.9869C45.7187 55.7723 46.5109 56.5691 47.3009 57.367C47.4694 57.5366 47.6128 57.7336 47.796 57.9498Z" fill="black"/>
</g>
</g>
<g id="Group 1171275050">
<path id="Vector_3" d="M21.0171 25.6749C21.5707 25.0427 22.082 24.459 22.5933 23.8746C23.3279 23.0353 24.0617 22.196 24.7963 21.3566C24.834 21.3135 24.8717 21.2689 24.9118 21.228C25.1782 20.9547 25.5255 20.9247 25.7865 21.151C26.0522 21.3813 26.076 21.757 25.8235 22.052C25.3361 22.6218 24.8386 23.1823 24.3443 23.7467C23.4449 24.7739 22.5471 25.8019 21.6462 26.8276C21.2658 27.2611 20.9339 27.2711 20.5266 26.8645C19.7774 26.1176 19.0274 25.3722 18.2859 24.6184C18.175 24.506 18.0718 24.3643 18.0248 24.2172C17.9417 23.957 18.0756 23.6836 18.3043 23.5504C18.5438 23.411 18.8426 23.4472 19.0697 23.6705C19.6118 24.2018 20.1477 24.7408 20.6821 25.2806C20.7961 25.3953 20.8931 25.5286 21.0171 25.6749Z" fill="black"/>
<path id="Vector_4" d="M21.0171 45.9971C21.5707 45.3649 22.082 44.7813 22.5933 44.1968C23.3279 43.3575 24.0617 42.5182 24.7963 41.6789C24.834 41.6358 24.8717 41.5911 24.9118 41.5503C25.1782 41.277 25.5255 41.2469 25.7865 41.4733C26.0522 41.7035 26.076 42.0793 25.8235 42.3742C25.3361 42.944 24.8386 43.5046 24.3443 44.069C23.4449 45.0962 22.5471 46.1242 21.6462 47.1498C21.2658 47.5833 20.9339 47.5933 20.5266 47.1868C19.7774 46.4399 19.0274 45.6945 18.2859 44.9407C18.175 44.8282 18.0718 44.6866 18.0248 44.5395C17.9417 44.2792 18.0756 44.0059 18.3043 43.8727C18.5438 43.7333 18.8426 43.7695 19.0697 43.9928C19.6118 44.5241 20.1477 45.0631 20.6821 45.6029C20.7961 45.7176 20.8931 45.8508 21.0171 45.9971Z" fill="black"/>
<path id="Vector_5" d="M21.0171 35.836C21.5707 35.2038 22.082 34.6201 22.5933 34.0357C23.3279 33.1964 24.0617 32.3571 24.7963 31.5178C24.834 31.4747 24.8717 31.43 24.9118 31.3892C25.1782 31.1158 25.5255 31.0858 25.7865 31.3122C26.0522 31.5424 26.076 31.9182 25.8235 32.2131C25.3361 32.7829 24.8386 33.3435 24.3443 33.9079C23.4449 34.9351 22.5471 35.963 21.6462 36.9887C21.2658 37.4222 20.9339 37.4322 20.5266 37.0256C19.7774 36.2787 19.0274 35.5334 18.2859 34.7795C18.175 34.6671 18.0718 34.5254 18.0248 34.3784C17.9417 34.1181 18.0756 33.8447 18.3043 33.7115C18.5438 33.5722 18.8426 33.6083 19.0697 33.8317C19.6118 34.363 20.1477 34.902 20.6821 35.4417C20.7961 35.5565 20.8931 35.6897 21.0171 35.836Z" fill="black"/>
<path id="Vector_6" d="M37.9733 24.9988C35.3728 24.9988 32.7723 25.0028 30.1708 24.9962C29.3254 24.9948 28.7794 23.9609 29.0864 22.9456C29.2707 22.3361 29.619 22.0194 30.0969 22.0061C30.5518 21.9941 31.0076 22.0035 31.4634 22.0035C36.2451 22.0035 41.0277 22.0021 45.8094 22.0048C46.6779 22.0048 47.2316 23.0494 46.9053 24.078C46.7 24.7247 46.3171 25.0001 45.8114 24.9988C43.1993 24.9962 40.5863 24.9988 37.9733 24.9988Z" fill="black"/>
<path id="Vector_7" d="M38.0027 35.9987C35.3898 35.9987 32.7778 36.0027 30.1649 35.996C29.3224 35.9947 28.7764 34.9473 29.0892 33.9347C29.283 33.3057 29.6467 33.0019 30.1399 33.0006C31.0391 32.9993 31.9372 33.0006 32.8364 33.0006C37.1631 33.0006 41.4889 32.9993 45.8156 33.0019C46.6812 33.0033 47.2339 34.0599 46.9029 35.0859C46.6946 35.7308 46.3098 36.0013 45.8051 36C43.552 35.9947 41.2989 35.9973 39.0458 35.9973C38.6984 35.9987 38.3511 35.9987 38.0027 35.9987Z" fill="black"/>
<path id="Vector_8" d="M34.47 45.9991C33.2396 45.9991 32.0077 46.0018 30.7773 45.9978C29.7338 45.9938 29.0087 45.3851 29.0001 44.5139C28.9901 43.6241 29.7238 43.0033 30.8015 43.002C33.2638 42.9993 35.7262 42.9993 38.1885 43.002C39.2576 43.0033 40.0099 43.6334 39.9999 44.5099C39.9899 45.389 39.2462 45.9951 38.1657 45.9978C36.9323 46.0005 35.7005 45.9991 34.47 45.9991Z" fill="black"/>
</g>
</g>
</svg>