<?xml version="1.0" ?><svg xmlns="http://www.w3.org/2000/svg" fill="none" viewBox="4 4 64 64">
<g id="progressive-claim">
<circle id="Ellipse 2607" cx="19" cy="40" r="3" fill="black"/>
<circle id="Ellipse 2608" cx="19" cy="51" r="3" fill="black"/>
<path id="Vector" d="M15.7333 4C14.3194 4.00169 12.9638 4.56414 11.964 5.56397C10.9641 6.5638 10.4017 7.91937 10.4 9.33333V59.4667H5.06667C4.78377 59.4667 4.51246 59.579 4.31242 59.7791C4.11238 59.9791 4 60.2504 4 60.5333C4.00226 62.5129 4.78965 64.4108 6.18943 65.8106C7.58921 67.2104 9.48708 67.9977 11.4667 68H59.4667C59.7496 68 60.0209 67.8876 60.2209 67.6876C60.421 67.4875 60.5333 67.2162 60.5333 66.9333V12.5333H66.9333C67.2162 12.5333 67.4875 12.421 67.6876 12.2209C67.8876 12.0209 68 11.7496 68 11.4667C67.9977 9.48708 67.2104 7.58921 65.8106 6.18943C64.4108 4.78965 62.5129 4.00226 60.5333 4H15.7333ZM15.7333 6.13333H58.4V65.8667C55.2085 65.8667 50.9333 63.2299 50.9333 60.5333C50.9333 60.2504 50.821 59.9791 50.6209 59.7791C50.4209 59.579 50.1496 59.4667 49.8667 59.4667H12.5333V9.33333C12.5333 8.48464 12.8705 7.67071 13.4706 7.07059C14.0707 6.47048 14.8846 6.13333 15.7333 6.13333ZM60.5333 6.13333C61.7625 6.13459 62.9536 6.55968 63.9058 7.33693C64.858 8.11417 65.513 9.19601 65.7604 10.4H60.5333V6.13333ZM47.7996 9.33333V11.5729C46.503 11.8357 45.3503 12.571 44.5654 13.636C43.7806 14.701 43.4196 16.0197 43.5525 17.336C43.6855 18.6523 44.3029 19.8721 45.2849 20.7587C46.2669 21.6452 47.5433 22.1352 48.8663 22.1333C49.4992 22.1333 50.1179 22.321 50.6441 22.6726C51.1703 23.0243 51.5805 23.524 51.8227 24.1087C52.0649 24.6935 52.1283 25.3369 52.0048 25.9576C51.8813 26.5784 51.5765 27.1485 51.129 27.5961C50.6815 28.0436 50.1113 28.3484 49.4906 28.4718C48.8698 28.5953 48.2264 28.5319 47.6417 28.2897C47.057 28.0475 46.5572 27.6374 46.2056 27.1112C45.854 26.5849 45.6663 25.9662 45.6663 25.3333H43.5329C43.5344 26.5624 43.9596 27.7534 44.7368 28.7056C45.514 29.6577 46.5957 30.3128 47.7996 30.5604V32.8H49.9329V30.5604C51.2296 30.2977 52.3823 29.5624 53.1671 28.4974C53.952 27.4323 54.313 26.1136 54.18 24.7974C54.0471 23.4811 53.4297 22.2612 52.4477 21.3746C51.4657 20.4881 50.1893 19.9982 48.8663 20C48.0176 20 47.2037 19.6629 46.6035 19.0627C46.0034 18.4626 45.6663 17.6487 45.6663 16.8C45.6663 15.9513 46.0034 15.1374 46.6035 14.5373C47.2037 13.9371 48.0176 13.6 48.8663 13.6C49.715 13.6 50.5289 13.9371 51.129 14.5373C51.7291 15.1374 52.0663 15.9513 52.0663 16.8H54.1996C54.1982 15.5709 53.773 14.3799 52.9958 13.4277C52.2186 12.4756 51.1368 11.8205 49.9329 11.5729V9.33333H47.7996ZM39.0871 11.9458L37.3121 13.1313L38.3392 14.6667H36.0663V16.8H38.3413L37.3121 18.3417L39.0871 19.525L41.2204 16.325H41.2121C41.2313 16.2962 41.2575 16.2726 41.2746 16.2417C41.3657 16.0712 41.4088 15.8793 41.3992 15.6863C41.3897 15.4932 41.3279 15.3065 41.2204 15.1458L39.0871 11.9458ZM37.3121 22.6083L35.1788 25.8083C35.0713 25.969 35.0095 26.1557 35 26.3488C34.9905 26.5418 35.0335 26.7337 35.1246 26.9042C35.1417 26.934 35.1679 26.9587 35.1871 26.9875H35.1788L37.3121 30.1875L39.0871 29.0021L38.0579 27.4667H40.3329V25.3333H38.06L39.0871 23.7917L37.3121 22.6083ZM18.9333 36C18.0895 36 17.2646 36.2502 16.5629 36.7191C15.8613 37.1879 15.3144 37.8543 14.9914 38.6339C14.6685 39.4135 14.584 40.2714 14.7486 41.0991C14.9133 41.9267 15.3196 42.687 15.9163 43.2837C16.513 43.8804 17.2733 44.2867 18.1009 44.4514C18.9286 44.616 19.7865 44.5315 20.5661 44.2086C21.3457 43.8856 22.0121 43.3388 22.4809 42.6371C22.9498 41.9355 23.2 41.1105 23.2 40.2667C23.2 39.1351 22.7505 38.0498 21.9503 37.2497C21.1502 36.4495 20.0649 36 18.9333 36ZM18.8438 38.1354C19.1312 38.1233 19.4181 38.1695 19.6872 38.2712C19.9563 38.3728 20.2021 38.5279 20.4097 38.727C20.6174 38.9261 20.7826 39.1651 20.8955 39.4297C21.0084 39.6943 21.0666 39.979 21.0667 40.2667C21.0667 40.8325 20.8419 41.3751 20.4418 41.7752C20.0418 42.1752 19.4991 42.4 18.9333 42.4C18.3761 42.3988 17.8414 42.1796 17.4437 41.7893C17.046 41.399 16.8167 40.8686 16.805 40.3115C16.7933 39.7544 17.0001 39.2148 17.3811 38.8081C17.7621 38.4014 18.287 38.16 18.8438 38.1354ZM25.3333 39.2V41.3333H27.4667V39.2H25.3333ZM29.6 39.2V41.3333H56.2667V39.2H29.6ZM18.9333 46.6667C18.0895 46.6667 17.2646 46.9169 16.5629 47.3857C15.8613 47.8546 15.3144 48.5209 14.9914 49.3006C14.6685 50.0802 14.584 50.9381 14.7486 51.7657C14.9133 52.5934 15.3196 53.3536 15.9163 53.9503C16.513 54.547 17.2733 54.9534 18.1009 55.118C18.9286 55.2826 19.7865 55.1982 20.5661 54.8752C21.3457 54.5523 22.0121 54.0054 22.4809 53.3038C22.9498 52.6021 23.2 51.7772 23.2 50.9333C23.2 49.8017 22.7505 48.7165 21.9503 47.9163C21.1502 47.1162 20.0649 46.6667 18.9333 46.6667ZM18.8438 48.8021C19.1312 48.79 19.4181 48.8362 19.6872 48.9378C19.9563 49.0395 20.2021 49.1945 20.4097 49.3936C20.6174 49.5927 20.7826 49.8318 20.8955 50.0964C21.0084 50.361 21.0666 50.6457 21.0667 50.9333C21.0667 51.4991 20.8419 52.0418 20.4418 52.4418C20.0418 52.8419 19.4991 53.0667 18.9333 53.0667C18.3761 53.0655 17.8414 52.8463 17.4437 52.456C17.046 52.0657 16.8167 51.5353 16.805 50.9781C16.7933 50.421 17.0001 49.8814 17.3811 49.4748C17.7621 49.0681 18.287 48.8267 18.8438 48.8021ZM25.3333 49.8667V52H27.4667V49.8667H25.3333ZM29.6 49.8667V52H56.2667V49.8667H29.6ZM6.23958 61.6H48.9167C49.4169 63.37 50.5575 64.8908 52.1167 65.8667H11.4667C10.2375 65.8654 9.04642 65.4403 8.09422 64.6631C7.14201 63.8858 6.48698 62.804 6.23958 61.6Z" fill="black"/>
<g id="Group 1171275004">
<ellipse id="Ellipse 13" cx="24.5057" cy="15.6877" rx="3.23616" ry="3.69847" fill="black"/>
<path id="Vector 25" d="M24.0428 23.5469C17.7554 23.5469 16.1836 27.2453 16.1836 29.0946L17.1082 30.0192H24.7363H32.3644L32.8267 29.0946C32.5185 27.2453 30.3302 23.5469 24.0428 23.5469Z" fill="black"/>
<path id="person.3" d="M24.5054 20.8942C27.1194 20.8942 29.2365 18.5934 29.2365 15.7634C29.2365 12.9766 27.1302 10.7515 24.5054 10.7515C21.913 10.7515 19.7743 13.009 19.7743 15.785C19.7851 18.6042 21.8914 20.8942 24.5054 20.8942ZM24.5054 19.0039C23.0148 19.0039 21.751 17.5997 21.751 15.7742C21.751 14.0135 23.004 12.6417 24.5054 12.6417C26.0176 12.6417 27.2598 13.9919 27.2598 15.7634C27.2598 17.5781 26.0068 19.0039 24.5054 19.0039ZM17.776 31.0693H31.2348C33.1035 31.0693 34 30.4752 34 29.2006C34 26.2301 30.2951 22.2768 24.5054 22.2768C18.7157 22.2768 15 26.2301 15 29.2006C15 30.4752 15.9073 31.0693 17.776 31.0693ZM17.4304 29.179C17.1819 29.179 17.0847 29.0926 17.0847 28.8981C17.0847 27.2455 19.7527 24.167 24.5054 24.167C29.2581 24.167 31.9261 27.2455 31.9261 28.8981C31.9261 29.0926 31.8289 29.179 31.5696 29.179H17.4304Z" fill="black"/>
</g>
</g>
</svg>