<?xml version="1.0" ?><svg xmlns="http://www.w3.org/2000/svg" fill="none" viewBox="19.25 2.44 47 56">
<g id="day-wise-purchase-report">
<g id="Group 1171275734">
<g id="Group">
<g id="Vector">
<mask id="path-1-outside-1_7010_46781" maskUnits="userSpaceOnUse" x="19.25" y="2.44336" width="47" height="56" fill="black">
<rect fill="white" x="19.25" y="2.44336" width="47" height="56"/>
<path d="M21.9668 4.13255C21.3815 4.34161 20.8484 4.812 20.5452 5.39737L20.2839 5.89912L20.2525 27.0039C20.2421 41.3038 20.263 48.2446 20.3361 48.5164C20.5034 49.1331 21.047 49.7812 21.6846 50.0948L22.2595 50.3875H24.7892H27.3293L27.3606 53.0322C27.392 55.4991 27.4024 55.6977 27.622 56.0845C27.8833 56.5758 28.291 56.973 28.8032 57.2448C29.1586 57.4329 29.6603 57.4434 41.0333 57.4434H52.8976L53.8174 57.1193C54.3192 56.9312 54.9986 56.628 55.3227 56.4399C55.929 56.074 63.267 49.269 63.9151 48.4746C64.4169 47.8474 64.95 46.7185 65.1904 45.8091C65.3786 45.046 65.389 44.492 65.389 29.1782C65.389 18.5787 65.3472 13.2058 65.2845 12.9445C65.1068 12.3278 64.5632 11.6901 63.936 11.3661L63.3611 11.0839H60.8315H58.2914L58.26 8.43922C58.2286 6.10818 58.2077 5.76323 58.03 5.43919C57.7582 4.92698 57.361 4.51931 56.8697 4.25799L56.4516 4.02802L39.4131 4.00711C25.1132 3.98621 22.3118 4.00711 21.9668 4.13255ZM56.2007 6.13954C56.3157 6.26498 56.3471 6.819 56.3471 8.66919V11.0316L42.758 11.0839L29.169 11.1361L28.7509 11.3661C28.2073 11.6588 27.8206 12.0769 27.5592 12.6518C27.3502 13.1222 27.3397 13.2372 27.3397 30.8193V48.5164L24.9564 48.4851C23.1167 48.4641 22.5208 48.4223 22.3954 48.3073C22.2282 48.1819 22.2177 46.5617 22.2177 27.2234C22.2177 8.33469 22.2386 6.27543 22.385 6.12909C22.5313 5.98275 24.2038 5.96184 39.2981 5.96184C54.7582 5.96184 56.0753 5.97229 56.2007 6.13954ZM63.0893 13.1013L63.3507 13.2372V29.22V45.2132L59.2217 45.2655L55.0927 45.3178L54.5073 45.6104C53.8488 45.924 53.2007 46.5721 52.8244 47.2725C52.584 47.7115 52.584 47.7951 52.5317 51.5896L52.4794 55.4573H40.981H29.4931L29.3572 55.1959C29.2526 54.9869 29.2317 50.7743 29.2526 34.1539L29.2735 13.3626L29.5244 13.164C29.7648 12.9654 30.1725 12.9654 46.3016 12.9654C59.4203 12.9654 62.8803 12.9968 63.0893 13.1013ZM62.2949 47.377C61.8559 47.8683 54.591 54.6733 54.4969 54.6733C54.4446 54.6733 54.4133 53.3876 54.4342 51.4433C54.4655 47.7742 54.4551 47.8474 55.354 47.377C55.8035 47.1575 55.8976 47.1471 59.159 47.1471H62.4935L62.2949 47.377Z"/>
<path d="M56.2007 6.13954C56.3157 6.26498 56.3471 6.819 56.3471 8.66919V11.0316L42.758 11.0839L29.169 11.1361L28.7509 11.3661C28.2073 11.6588 27.8206 12.0769 27.5592 12.6518C27.3502 13.1222 27.3397 13.2372 27.3397 30.8193V48.5164L24.9564 48.4851C23.1167 48.4641 22.5208 48.4223 22.3954 48.3073C22.2282 48.1819 22.2177 46.5617 22.2177 27.2234C22.2177 8.33469 22.2386 6.27543 22.385 6.12909C22.5313 5.98275 24.2038 5.96184 39.2981 5.96184C54.7582 5.96184 56.0753 5.97229 56.2007 6.13954Z"/>
<path d="M62.2949 47.377C61.8559 47.8683 54.591 54.6733 54.4969 54.6733C54.4446 54.6733 54.4133 53.3876 54.4342 51.4433C54.4655 47.7742 54.4551 47.8474 55.354 47.377C55.8035 47.1575 55.8976 47.1471 59.159 47.1471H62.4935L62.2949 47.377Z"/>
</mask>
<path d="M21.9668 4.13255C21.3815 4.34161 20.8484 4.812 20.5452 5.39737L20.2839 5.89912L20.2525 27.0039C20.2421 41.3038 20.263 48.2446 20.3361 48.5164C20.5034 49.1331 21.047 49.7812 21.6846 50.0948L22.2595 50.3875H24.7892H27.3293L27.3606 53.0322C27.392 55.4991 27.4024 55.6977 27.622 56.0845C27.8833 56.5758 28.291 56.973 28.8032 57.2448C29.1586 57.4329 29.6603 57.4434 41.0333 57.4434H52.8976L53.8174 57.1193C54.3192 56.9312 54.9986 56.628 55.3227 56.4399C55.929 56.074 63.267 49.269 63.9151 48.4746C64.4169 47.8474 64.95 46.7185 65.1904 45.8091C65.3786 45.046 65.389 44.492 65.389 29.1782C65.389 18.5787 65.3472 13.2058 65.2845 12.9445C65.1068 12.3278 64.5632 11.6901 63.936 11.3661L63.3611 11.0839H60.8315H58.2914L58.26 8.43922C58.2286 6.10818 58.2077 5.76323 58.03 5.43919C57.7582 4.92698 57.361 4.51931 56.8697 4.25799L56.4516 4.02802L39.4131 4.00711C25.1132 3.98621 22.3118 4.00711 21.9668 4.13255ZM56.2007 6.13954C56.3157 6.26498 56.3471 6.819 56.3471 8.66919V11.0316L42.758 11.0839L29.169 11.1361L28.7509 11.3661C28.2073 11.6588 27.8206 12.0769 27.5592 12.6518C27.3502 13.1222 27.3397 13.2372 27.3397 30.8193V48.5164L24.9564 48.4851C23.1167 48.4641 22.5208 48.4223 22.3954 48.3073C22.2282 48.1819 22.2177 46.5617 22.2177 27.2234C22.2177 8.33469 22.2386 6.27543 22.385 6.12909C22.5313 5.98275 24.2038 5.96184 39.2981 5.96184C54.7582 5.96184 56.0753 5.97229 56.2007 6.13954ZM63.0893 13.1013L63.3507 13.2372V29.22V45.2132L59.2217 45.2655L55.0927 45.3178L54.5073 45.6104C53.8488 45.924 53.2007 46.5721 52.8244 47.2725C52.584 47.7115 52.584 47.7951 52.5317 51.5896L52.4794 55.4573H40.981H29.4931L29.3572 55.1959C29.2526 54.9869 29.2317 50.7743 29.2526 34.1539L29.2735 13.3626L29.5244 13.164C29.7648 12.9654 30.1725 12.9654 46.3016 12.9654C59.4203 12.9654 62.8803 12.9968 63.0893 13.1013ZM62.2949 47.377C61.8559 47.8683 54.591 54.6733 54.4969 54.6733C54.4446 54.6733 54.4133 53.3876 54.4342 51.4433C54.4655 47.7742 54.4551 47.8474 55.354 47.377C55.8035 47.1575 55.8976 47.1471 59.159 47.1471H62.4935L62.2949 47.377Z" fill="black"/>
<path d="M56.2007 6.13954C56.3157 6.26498 56.3471 6.819 56.3471 8.66919V11.0316L42.758 11.0839L29.169 11.1361L28.7509 11.3661C28.2073 11.6588 27.8206 12.0769 27.5592 12.6518C27.3502 13.1222 27.3397 13.2372 27.3397 30.8193V48.5164L24.9564 48.4851C23.1167 48.4641 22.5208 48.4223 22.3954 48.3073C22.2282 48.1819 22.2177 46.5617 22.2177 27.2234C22.2177 8.33469 22.2386 6.27543 22.385 6.12909C22.5313 5.98275 24.2038 5.96184 39.2981 5.96184C54.7582 5.96184 56.0753 5.97229 56.2007 6.13954Z" fill="black"/>
<path d="M62.2949 47.377C61.8559 47.8683 54.591 54.6733 54.4969 54.6733C54.4446 54.6733 54.4133 53.3876 54.4342 51.4433C54.4655 47.7742 54.4551 47.8474 55.354 47.377C55.8035 47.1575 55.8976 47.1471 59.159 47.1471H62.4935L62.2949 47.377Z" fill="black"/>
<path d="M21.9668 4.13255C21.3815 4.34161 20.8484 4.812 20.5452 5.39737L20.2839 5.89912L20.2525 27.0039C20.2421 41.3038 20.263 48.2446 20.3361 48.5164C20.5034 49.1331 21.047 49.7812 21.6846 50.0948L22.2595 50.3875H24.7892H27.3293L27.3606 53.0322C27.392 55.4991 27.4024 55.6977 27.622 56.0845C27.8833 56.5758 28.291 56.973 28.8032 57.2448C29.1586 57.4329 29.6603 57.4434 41.0333 57.4434H52.8976L53.8174 57.1193C54.3192 56.9312 54.9986 56.628 55.3227 56.4399C55.929 56.074 63.267 49.269 63.9151 48.4746C64.4169 47.8474 64.95 46.7185 65.1904 45.8091C65.3786 45.046 65.389 44.492 65.389 29.1782C65.389 18.5787 65.3472 13.2058 65.2845 12.9445C65.1068 12.3278 64.5632 11.6901 63.936 11.3661L63.3611 11.0839H60.8315H58.2914L58.26 8.43922C58.2286 6.10818 58.2077 5.76323 58.03 5.43919C57.7582 4.92698 57.361 4.51931 56.8697 4.25799L56.4516 4.02802L39.4131 4.00711C25.1132 3.98621 22.3118 4.00711 21.9668 4.13255ZM56.2007 6.13954C56.3157 6.26498 56.3471 6.819 56.3471 8.66919V11.0316L42.758 11.0839L29.169 11.1361L28.7509 11.3661C28.2073 11.6588 27.8206 12.0769 27.5592 12.6518C27.3502 13.1222 27.3397 13.2372 27.3397 30.8193V48.5164L24.9564 48.4851C23.1167 48.4641 22.5208 48.4223 22.3954 48.3073C22.2282 48.1819 22.2177 46.5617 22.2177 27.2234C22.2177 8.33469 22.2386 6.27543 22.385 6.12909C22.5313 5.98275 24.2038 5.96184 39.2981 5.96184C54.7582 5.96184 56.0753 5.97229 56.2007 6.13954ZM63.0893 13.1013L63.3507 13.2372V29.22V45.2132L59.2217 45.2655L55.0927 45.3178L54.5073 45.6104C53.8488 45.924 53.2007 46.5721 52.8244 47.2725C52.584 47.7115 52.584 47.7951 52.5317 51.5896L52.4794 55.4573H40.981H29.4931L29.3572 55.1959C29.2526 54.9869 29.2317 50.7743 29.2526 34.1539L29.2735 13.3626L29.5244 13.164C29.7648 12.9654 30.1725 12.9654 46.3016 12.9654C59.4203 12.9654 62.8803 12.9968 63.0893 13.1013ZM62.2949 47.377C61.8559 47.8683 54.591 54.6733 54.4969 54.6733C54.4446 54.6733 54.4133 53.3876 54.4342 51.4433C54.4655 47.7742 54.4551 47.8474 55.354 47.377C55.8035 47.1575 55.8976 47.1471 59.159 47.1471H62.4935L62.2949 47.377Z" stroke-width="1.6" mask="url(#path-1-outside-1_7010_46781)" fill="black"/>
<path d="M56.2007 6.13954C56.3157 6.26498 56.3471 6.819 56.3471 8.66919V11.0316L42.758 11.0839L29.169 11.1361L28.7509 11.3661C28.2073 11.6588 27.8206 12.0769 27.5592 12.6518C27.3502 13.1222 27.3397 13.2372 27.3397 30.8193V48.5164L24.9564 48.4851C23.1167 48.4641 22.5208 48.4223 22.3954 48.3073C22.2282 48.1819 22.2177 46.5617 22.2177 27.2234C22.2177 8.33469 22.2386 6.27543 22.385 6.12909C22.5313 5.98275 24.2038 5.96184 39.2981 5.96184C54.7582 5.96184 56.0753 5.97229 56.2007 6.13954Z" stroke-width="1.6" mask="url(#path-1-outside-1_7010_46781)" fill="black"/>
<path d="M62.2949 47.377C61.8559 47.8683 54.591 54.6733 54.4969 54.6733C54.4446 54.6733 54.4133 53.3876 54.4342 51.4433C54.4655 47.7742 54.4551 47.8474 55.354 47.377C55.8035 47.1575 55.8976 47.1471 59.159 47.1471H62.4935L62.2949 47.377Z" stroke-width="1.6" mask="url(#path-1-outside-1_7010_46781)" fill="black"/>
</g>
<g id="Vector_2">
<mask id="path-2-outside-2_7010_46781" maskUnits="userSpaceOnUse" x="35.0391" y="19.0073" width="23" height="4" fill="black">
<rect fill="white" x="35.0391" y="19.0073" width="23" height="4"/>
<path d="M36.5484 20.2198C35.9735 20.5439 35.8689 21.1606 36.3184 21.6624L36.6216 22.0073H46.3534H56.0852L56.3675 21.7251C56.7751 21.307 56.7647 20.7739 56.3152 20.3766L55.9807 20.0735H46.3848C38.6286 20.084 36.747 20.1049 36.5484 20.2198Z"/>
</mask>
<path d="M36.5484 20.2198C35.9735 20.5439 35.8689 21.1606 36.3184 21.6624L36.6216 22.0073H46.3534H56.0852L56.3675 21.7251C56.7751 21.307 56.7647 20.7739 56.3152 20.3766L55.9807 20.0735H46.3848C38.6286 20.084 36.747 20.1049 36.5484 20.2198Z" fill="black"/>
<path d="M36.5484 20.2198C35.9735 20.5439 35.8689 21.1606 36.3184 21.6624L36.6216 22.0073H46.3534H56.0852L56.3675 21.7251C56.7751 21.307 56.7647 20.7739 56.3152 20.3766L55.9807 20.0735H46.3848C38.6286 20.084 36.747 20.1049 36.5484 20.2198Z" stroke-width="1.6" mask="url(#path-2-outside-2_7010_46781)" fill="black"/>
</g>
<g id="Vector_3">
<mask id="path-3-outside-3_7010_46781" maskUnits="userSpaceOnUse" x="35.0547" y="25.436" width="23" height="4" fill="black">
<rect fill="white" x="35.0547" y="25.436" width="23" height="4"/>
<path d="M36.5096 26.6695C36.4155 26.7217 36.2587 26.9203 36.1646 27.0876C35.9555 27.4953 36.0496 27.9447 36.405 28.227C36.6664 28.436 36.8127 28.436 46.3355 28.436C53.0568 28.436 56.0569 28.4047 56.2136 28.3211C56.3286 28.2583 56.4854 28.0493 56.5691 27.8507C56.6945 27.5475 56.6945 27.443 56.5691 27.1399C56.4854 26.9412 56.3286 26.7322 56.2136 26.6695C55.921 26.5127 36.7813 26.5127 36.5096 26.6695Z"/>
</mask>
<path d="M36.5096 26.6695C36.4155 26.7217 36.2587 26.9203 36.1646 27.0876C35.9555 27.4953 36.0496 27.9447 36.405 28.227C36.6664 28.436 36.8127 28.436 46.3355 28.436C53.0568 28.436 56.0569 28.4047 56.2136 28.3211C56.3286 28.2583 56.4854 28.0493 56.5691 27.8507C56.6945 27.5475 56.6945 27.443 56.5691 27.1399C56.4854 26.9412 56.3286 26.7322 56.2136 26.6695C55.921 26.5127 36.7813 26.5127 36.5096 26.6695Z" fill="black"/>
<path d="M36.5096 26.6695C36.4155 26.7217 36.2587 26.9203 36.1646 27.0876C35.9555 27.4953 36.0496 27.9447 36.405 28.227C36.6664 28.436 36.8127 28.436 46.3355 28.436C53.0568 28.436 56.0569 28.4047 56.2136 28.3211C56.3286 28.2583 56.4854 28.0493 56.5691 27.8507C56.6945 27.5475 56.6945 27.443 56.5691 27.1399C56.4854 26.9412 56.3286 26.7322 56.2136 26.6695C55.921 26.5127 36.7813 26.5127 36.5096 26.6695Z" stroke-width="1.6" mask="url(#path-3-outside-3_7010_46781)" fill="black"/>
</g>
<g id="Vector_4">
<mask id="path-4-outside-4_7010_46781" maskUnits="userSpaceOnUse" x="35.0547" y="31.9207" width="23" height="4" fill="black">
<rect fill="white" x="35.0547" y="31.9207" width="23" height="4"/>
<path d="M36.4029 33.2442C36.2565 33.3592 36.1102 33.5892 36.0684 33.7564C35.9952 34.1118 36.2252 34.6449 36.5283 34.8122C36.821 34.9585 55.9188 34.9585 56.2115 34.8017C56.4833 34.6554 56.7132 34.1014 56.6401 33.7355C56.6087 33.5787 56.4624 33.3592 56.316 33.2442C56.0651 33.0351 55.8665 33.0351 46.3647 33.0351C36.8105 33.0351 36.6642 33.0351 36.4029 33.2442Z"/>
</mask>
<path d="M36.4029 33.2442C36.2565 33.3592 36.1102 33.5892 36.0684 33.7564C35.9952 34.1118 36.2252 34.6449 36.5283 34.8122C36.821 34.9585 55.9188 34.9585 56.2115 34.8017C56.4833 34.6554 56.7132 34.1014 56.6401 33.7355C56.6087 33.5787 56.4624 33.3592 56.316 33.2442C56.0651 33.0351 55.8665 33.0351 46.3647 33.0351C36.8105 33.0351 36.6642 33.0351 36.4029 33.2442Z" fill="black"/>
<path d="M36.4029 33.2442C36.2565 33.3592 36.1102 33.5892 36.0684 33.7564C35.9952 34.1118 36.2252 34.6449 36.5283 34.8122C36.821 34.9585 55.9188 34.9585 56.2115 34.8017C56.4833 34.6554 56.7132 34.1014 56.6401 33.7355C56.6087 33.5787 56.4624 33.3592 56.316 33.2442C56.0651 33.0351 55.8665 33.0351 46.3647 33.0351C36.8105 33.0351 36.6642 33.0351 36.4029 33.2442Z" stroke-width="1.6" mask="url(#path-4-outside-4_7010_46781)" fill="black"/>
</g>
<g id="Vector_5">
<mask id="path-5-outside-5_7010_46781" maskUnits="userSpaceOnUse" x="35.0156" y="38.3831" width="15" height="4" fill="black">
<rect fill="white" x="35.0156" y="38.3831" width="15" height="4"/>
<path d="M36.6846 39.5161C36.3919 39.6311 36.0156 40.1224 36.0156 40.3733C36.0156 40.7078 36.3083 41.1573 36.6115 41.2827C36.831 41.3663 38.378 41.3977 42.3293 41.3768L47.744 41.3454L47.9949 41.0527C48.3294 40.666 48.3294 40.1433 47.9949 39.7566L47.744 39.4639L42.3188 39.443C39.3397 39.4325 36.7996 39.4639 36.6846 39.5161Z"/>
</mask>
<path d="M36.6846 39.5161C36.3919 39.6311 36.0156 40.1224 36.0156 40.3733C36.0156 40.7078 36.3083 41.1573 36.6115 41.2827C36.831 41.3663 38.378 41.3977 42.3293 41.3768L47.744 41.3454L47.9949 41.0527C48.3294 40.666 48.3294 40.1433 47.9949 39.7566L47.744 39.4639L42.3188 39.443C39.3397 39.4325 36.7996 39.4639 36.6846 39.5161Z" fill="black"/>
<path d="M36.6846 39.5161C36.3919 39.6311 36.0156 40.1224 36.0156 40.3733C36.0156 40.7078 36.3083 41.1573 36.6115 41.2827C36.831 41.3663 38.378 41.3977 42.3293 41.3768L47.744 41.3454L47.9949 41.0527C48.3294 40.666 48.3294 40.1433 47.9949 39.7566L47.744 39.4639L42.3188 39.443C39.3397 39.4325 36.7996 39.4639 36.6846 39.5161Z" stroke-width="1.6" mask="url(#path-5-outside-5_7010_46781)" fill="black"/>
</g>
</g>
</g>
</g>
</svg>