<?xml version="1.0" ?><svg xmlns="http://www.w3.org/2000/svg" fill="none" viewBox="4 5 64 62.77">
<g id="top-purchasing-products">
<g id="Group 1171275739">
<g id="Group 1171275738">
<g id="Group 159054">
<rect id="Rectangle 34624447" x="7.58594" y="8.19986" width="50.3987" height="9.60006" fill="black"/>
<rect id="Rectangle 47" x="5.91998" y="6.91998" width="53.7586" height="12.1601" rx="3.19997" stroke-width="3.83996" fill="black"/>
<rect id="Rectangle 48" x="25.5938" y="27.4" width="14.3996" height="6.40004" rx="0.439996" fill="black"/>
</g>
<path id="Subtract" fill-rule="evenodd" clip-rule="evenodd" d="M12.7215 21.6397H52.8803C53.5873 21.6397 54.1603 22.2128 54.1603 22.9197V28.3215C55.1768 28.1352 56.2243 28.0379 57.2946 28.0379C57.531 28.0379 57.7662 28.0427 58.0003 28.0521V22.9197C58.0003 20.0921 55.708 17.7998 52.8803 17.7998H12.7215C9.89384 17.7998 7.60156 20.0921 7.60156 22.9197V47.8801C7.60156 50.7077 9.89385 53 12.7215 53H41.8133C41.2132 51.7933 40.75 50.5066 40.4441 49.16H12.7215C12.0146 49.16 11.4415 48.587 11.4415 47.8801V22.9197C11.4415 22.2128 12.0146 21.6397 12.7215 21.6397Z" fill="black"/>
</g>
<g id="Vector">
<path d="M55.114 30.8461C54.931 30.8556 54.7575 30.9277 54.6218 31.0499L52.3026 33.1099L49.2639 32.439C48.86 32.3512 48.4529 32.58 48.3236 32.972L47.3517 35.9068L44.3824 36.8348C43.988 36.9603 43.7513 37.3585 43.8334 37.7629L44.4676 40.7886L42.3693 43.065C42.0884 43.3691 42.0853 43.8363 42.3598 44.1436L44.4298 46.4481L43.7577 49.4675C43.6693 49.8689 43.8996 50.2734 44.2909 50.4019L47.2444 51.3676L47.8629 53.321H47.8092V66.9665C47.8092 67.2455 47.9544 67.5026 48.191 67.65C48.4308 67.7942 48.7275 67.8099 48.9799 67.6845L55.0793 64.6525L61.1788 67.6845C61.4312 67.8099 61.7278 67.7942 61.9676 67.65C62.2043 67.5026 62.3494 67.2455 62.3494 66.9665V52.857L62.807 51.4742L65.7762 50.543C66.1707 50.4176 66.4073 50.0194 66.3253 49.6149L65.691 46.5892L67.7894 44.3129C68.0702 44.0087 68.0734 43.5416 67.7989 43.2343L65.7289 40.9297L66.401 37.9103C66.4893 37.509 66.259 37.1045 65.8677 36.9759L62.9142 36.0071L61.9771 33.0598C61.8509 32.6678 61.4501 32.4327 61.0431 32.5142L57.9981 33.1444L55.7073 31.0594C55.5653 30.9308 55.3822 30.8556 55.1929 30.8461C55.1677 30.8461 55.1393 30.8461 55.114 30.8461ZM55.1519 32.7305L57.2124 34.6055C57.4017 34.7811 57.6668 34.8532 57.9224 34.7999L60.6581 34.2356L61.4943 36.8819C61.5732 37.1296 61.7657 37.324 62.0118 37.4055L64.6655 38.2709L64.0628 40.983C64.006 41.2339 64.0754 41.5004 64.2458 41.6916L66.1075 43.761L64.2206 45.8085C64.0439 45.9966 63.9713 46.26 64.025 46.514L64.5929 49.2324L61.9298 50.0633C61.6805 50.1417 61.4848 50.3329 61.4028 50.5775L60.7591 52.5183H60.7339V52.603L60.5319 53.2144L57.8025 52.6155C57.55 52.5591 57.2818 52.6281 57.0893 52.7974L55.0068 54.6473L52.9463 52.7723C52.7569 52.5967 52.4919 52.5246 52.2363 52.5779L49.5005 53.1423L48.6643 50.496C48.5855 50.2483 48.393 50.0539 48.1469 49.9724L45.4931 49.107L46.0958 46.3948C46.1526 46.144 46.0832 45.8775 45.9128 45.6862L44.0511 43.6168L45.9381 41.5694C46.1148 41.3812 46.1873 41.1179 46.1337 40.8639L45.5657 38.1455L48.2289 37.3146C48.4782 37.2362 48.6738 37.0449 48.7559 36.7972L49.6267 34.1634L52.3562 34.7655C52.6086 34.8188 52.8768 34.7498 53.0693 34.5773L55.1519 32.7305ZM55.0793 35.6622C50.627 35.6622 47.0014 39.2648 47.0014 43.6889C47.0014 48.113 50.627 51.7157 55.0793 51.7157C59.5316 51.7157 63.1572 48.113 63.1572 43.6889C63.1572 39.2648 59.5316 35.6622 55.0793 35.6622ZM55.0793 37.2675C58.6576 37.2675 61.5416 40.1333 61.5416 43.6889C61.5416 47.2445 58.6576 50.1103 55.0793 50.1103C51.5011 50.1103 48.617 47.2445 48.617 43.6889C48.617 40.1333 51.5011 37.2675 55.0793 37.2675ZM52.1606 54.2334L54.4514 56.3185C54.7575 56.5975 55.2276 56.6007 55.5369 56.3279L57.8561 54.271L60.7339 54.9044V65.6684L55.4422 63.0378C55.2119 62.9249 54.9468 62.9249 54.7165 63.0378L49.4248 65.6684V54.7978L52.1606 54.2334Z" fill="black"/>
<path d="M55.0793 37.2675C58.6576 37.2675 61.5416 40.1333 61.5416 43.6889C61.5416 47.2445 58.6576 50.1103 55.0793 50.1103C51.5011 50.1103 48.617 47.2445 48.617 43.6889C48.617 40.1333 51.5011 37.2675 55.0793 37.2675Z" fill="black"/>
</g>
</g>
</g>
</svg>