<?xml version="1.0" ?><svg xmlns="http://www.w3.org/2000/svg" fill="none" viewBox="3 5.43 66.29 61.8">
<g id="career-transition-approval">
<g id="Group 1171275405">
<path id="Vector 780" d="M61.8814 17.7644L7.29492 16.8232V36.1167H28.4707L29.4118 39.4107L34.5881 42.7047L38.8233 40.8225L40.235 36.1167H54.8228L61.8814 33.7639V17.7644Z" fill="black"/>
<g id="Group">
<g id="Vector">
<mask id="path-2-outside-1_6295_46278" maskUnits="userSpaceOnUse" x="3" y="5.43164" width="62" height="54" fill="black">
<rect fill="white" x="3" y="5.43164" width="62" height="54"/>
<path d="M26.7014 6.15993C25.8775 6.33648 25.1006 6.78375 24.5357 7.41935C23.7588 8.26681 23.5587 8.89063 23.1703 11.5742C22.982 12.9278 22.8172 14.046 22.8172 14.0695C22.8172 14.0813 19.5451 14.1166 15.555 14.1402C8.49281 14.1872 8.2574 14.1872 7.62181 14.4344C6.1623 14.9876 5.12652 15.9292 4.46738 17.2946L4.04365 18.1774L4.00834 36.0093C3.9848 49.5569 4.00834 53.9707 4.11427 54.3709C4.59685 56.1953 5.90335 57.5606 7.77482 58.2198C8.37511 58.4199 9.42266 58.4316 34.1167 58.4316C58.8107 58.4316 59.8582 58.4199 60.4585 58.2198C62.33 57.5606 63.6365 56.1953 64.119 54.3709C64.225 53.9707 64.2485 49.5569 64.225 36.0093L64.1897 18.1774L63.7659 17.2946C63.1068 15.9292 62.071 14.9876 60.6115 14.4344C59.9759 14.1872 59.7405 14.1872 52.6901 14.1402C48.6882 14.1166 45.4161 14.0813 45.4161 14.0695C45.4161 14.046 45.2513 12.9278 45.063 11.5742C44.6628 8.85532 44.4627 8.24327 43.6623 7.38404C43.062 6.7249 42.2617 6.2894 41.3671 6.12462C40.3549 5.93629 27.5724 5.97161 26.7014 6.15993ZM40.7551 9.76163C41.1082 9.8911 41.0964 9.86756 41.4495 12.2569L41.732 14.1166H34.1167H26.5013L26.7838 12.2569C27.1369 9.8911 27.1369 9.8911 27.4429 9.76163C27.796 9.62038 40.3784 9.60862 40.7551 9.76163ZM59.3168 17.8949C59.7876 18.0597 60.2113 18.4128 60.4349 18.8483C60.6939 19.3544 60.6703 29.465 60.4114 30.3713C59.8111 32.4076 57.9985 34.0201 55.9387 34.3615C55.5503 34.4321 52.2311 34.4792 48.2763 34.4792H41.3201L41.273 32.8431C41.2377 31.054 41.167 30.8657 40.4255 30.3125C40.1077 30.0653 39.9782 30.0653 34.1167 30.0653C28.2551 30.0653 28.1256 30.0653 27.8078 30.3125C27.0663 30.8657 26.9957 31.054 26.9603 32.8431L26.9133 34.4792H19.957C16.0022 34.4792 12.683 34.4321 12.2946 34.3615C10.2348 34.0201 8.42219 32.4076 7.8219 30.3713C7.56296 29.465 7.53942 19.3544 7.79836 18.8483C8.022 18.4245 8.43396 18.0597 8.86946 17.9066C9.38735 17.7301 58.7753 17.7183 59.3168 17.8949ZM37.6477 36.1623V38.6694L35.9528 39.5757C35.023 40.07 34.199 40.482 34.1167 40.482C34.0343 40.482 33.2103 40.07 32.2805 39.5757L30.5856 38.6694V36.1623V33.6553H34.1167H37.6477V36.1623ZM8.29271 36.7391C8.58697 36.9392 9.23434 37.2569 9.72869 37.4453C11.4236 38.1044 11.7061 38.1279 19.651 38.1279H26.9368V38.9636C26.9368 40.0936 27.1251 40.7763 27.5371 41.1176C27.8313 41.3648 30.5973 42.8949 32.8808 44.0602C34.2108 44.7428 33.999 44.8017 38.2716 42.5183C39.425 41.9062 40.5197 41.2706 40.6962 41.1176C41.1082 40.7763 41.2965 40.0936 41.2965 38.9636V38.1279H48.5823C56.5272 38.1279 56.8097 38.1044 58.5046 37.4453C58.999 37.2569 59.6463 36.9392 59.9406 36.7391C60.2466 36.5272 60.5173 36.3624 60.5526 36.3624C60.5762 36.3624 60.5997 40.2231 60.5997 44.9429V53.5117L60.329 53.9001C60.1878 54.112 59.9171 54.4062 59.7405 54.5357L59.4109 54.7829H34.1167H8.82238L8.49281 54.5357C8.31626 54.4062 8.04554 54.112 7.89253 53.9001L7.63358 53.5117V44.9429C7.63358 40.2231 7.65712 36.3624 7.68066 36.3624C7.71597 36.3624 7.98669 36.5272 8.29271 36.7391Z"/>
</mask>
<path d="M26.7014 6.15993C25.8775 6.33648 25.1006 6.78375 24.5357 7.41935C23.7588 8.26681 23.5587 8.89063 23.1703 11.5742C22.982 12.9278 22.8172 14.046 22.8172 14.0695C22.8172 14.0813 19.5451 14.1166 15.555 14.1402C8.49281 14.1872 8.2574 14.1872 7.62181 14.4344C6.1623 14.9876 5.12652 15.9292 4.46738 17.2946L4.04365 18.1774L4.00834 36.0093C3.9848 49.5569 4.00834 53.9707 4.11427 54.3709C4.59685 56.1953 5.90335 57.5606 7.77482 58.2198C8.37511 58.4199 9.42266 58.4316 34.1167 58.4316C58.8107 58.4316 59.8582 58.4199 60.4585 58.2198C62.33 57.5606 63.6365 56.1953 64.119 54.3709C64.225 53.9707 64.2485 49.5569 64.225 36.0093L64.1897 18.1774L63.7659 17.2946C63.1068 15.9292 62.071 14.9876 60.6115 14.4344C59.9759 14.1872 59.7405 14.1872 52.6901 14.1402C48.6882 14.1166 45.4161 14.0813 45.4161 14.0695C45.4161 14.046 45.2513 12.9278 45.063 11.5742C44.6628 8.85532 44.4627 8.24327 43.6623 7.38404C43.062 6.7249 42.2617 6.2894 41.3671 6.12462C40.3549 5.93629 27.5724 5.97161 26.7014 6.15993ZM40.7551 9.76163C41.1082 9.8911 41.0964 9.86756 41.4495 12.2569L41.732 14.1166H34.1167H26.5013L26.7838 12.2569C27.1369 9.8911 27.1369 9.8911 27.4429 9.76163C27.796 9.62038 40.3784 9.60862 40.7551 9.76163ZM59.3168 17.8949C59.7876 18.0597 60.2113 18.4128 60.4349 18.8483C60.6939 19.3544 60.6703 29.465 60.4114 30.3713C59.8111 32.4076 57.9985 34.0201 55.9387 34.3615C55.5503 34.4321 52.2311 34.4792 48.2763 34.4792H41.3201L41.273 32.8431C41.2377 31.054 41.167 30.8657 40.4255 30.3125C40.1077 30.0653 39.9782 30.0653 34.1167 30.0653C28.2551 30.0653 28.1256 30.0653 27.8078 30.3125C27.0663 30.8657 26.9957 31.054 26.9603 32.8431L26.9133 34.4792H19.957C16.0022 34.4792 12.683 34.4321 12.2946 34.3615C10.2348 34.0201 8.42219 32.4076 7.8219 30.3713C7.56296 29.465 7.53942 19.3544 7.79836 18.8483C8.022 18.4245 8.43396 18.0597 8.86946 17.9066C9.38735 17.7301 58.7753 17.7183 59.3168 17.8949ZM37.6477 36.1623V38.6694L35.9528 39.5757C35.023 40.07 34.199 40.482 34.1167 40.482C34.0343 40.482 33.2103 40.07 32.2805 39.5757L30.5856 38.6694V36.1623V33.6553H34.1167H37.6477V36.1623ZM8.29271 36.7391C8.58697 36.9392 9.23434 37.2569 9.72869 37.4453C11.4236 38.1044 11.7061 38.1279 19.651 38.1279H26.9368V38.9636C26.9368 40.0936 27.1251 40.7763 27.5371 41.1176C27.8313 41.3648 30.5973 42.8949 32.8808 44.0602C34.2108 44.7428 33.999 44.8017 38.2716 42.5183C39.425 41.9062 40.5197 41.2706 40.6962 41.1176C41.1082 40.7763 41.2965 40.0936 41.2965 38.9636V38.1279H48.5823C56.5272 38.1279 56.8097 38.1044 58.5046 37.4453C58.999 37.2569 59.6463 36.9392 59.9406 36.7391C60.2466 36.5272 60.5173 36.3624 60.5526 36.3624C60.5762 36.3624 60.5997 40.2231 60.5997 44.9429V53.5117L60.329 53.9001C60.1878 54.112 59.9171 54.4062 59.7405 54.5357L59.4109 54.7829H34.1167H8.82238L8.49281 54.5357C8.31626 54.4062 8.04554 54.112 7.89253 53.9001L7.63358 53.5117V44.9429C7.63358 40.2231 7.65712 36.3624 7.68066 36.3624C7.71597 36.3624 7.98669 36.5272 8.29271 36.7391Z" fill="black"/>
<path d="M26.7014 6.15993C25.8775 6.33648 25.1006 6.78375 24.5357 7.41935C23.7588 8.26681 23.5587 8.89063 23.1703 11.5742C22.982 12.9278 22.8172 14.046 22.8172 14.0695C22.8172 14.0813 19.5451 14.1166 15.555 14.1402C8.49281 14.1872 8.2574 14.1872 7.62181 14.4344C6.1623 14.9876 5.12652 15.9292 4.46738 17.2946L4.04365 18.1774L4.00834 36.0093C3.9848 49.5569 4.00834 53.9707 4.11427 54.3709C4.59685 56.1953 5.90335 57.5606 7.77482 58.2198C8.37511 58.4199 9.42266 58.4316 34.1167 58.4316C58.8107 58.4316 59.8582 58.4199 60.4585 58.2198C62.33 57.5606 63.6365 56.1953 64.119 54.3709C64.225 53.9707 64.2485 49.5569 64.225 36.0093L64.1897 18.1774L63.7659 17.2946C63.1068 15.9292 62.071 14.9876 60.6115 14.4344C59.9759 14.1872 59.7405 14.1872 52.6901 14.1402C48.6882 14.1166 45.4161 14.0813 45.4161 14.0695C45.4161 14.046 45.2513 12.9278 45.063 11.5742C44.6628 8.85532 44.4627 8.24327 43.6623 7.38404C43.062 6.7249 42.2617 6.2894 41.3671 6.12462C40.3549 5.93629 27.5724 5.97161 26.7014 6.15993ZM40.7551 9.76163C41.1082 9.8911 41.0964 9.86756 41.4495 12.2569L41.732 14.1166H34.1167H26.5013L26.7838 12.2569C27.1369 9.8911 27.1369 9.8911 27.4429 9.76163C27.796 9.62038 40.3784 9.60862 40.7551 9.76163ZM59.3168 17.8949C59.7876 18.0597 60.2113 18.4128 60.4349 18.8483C60.6939 19.3544 60.6703 29.465 60.4114 30.3713C59.8111 32.4076 57.9985 34.0201 55.9387 34.3615C55.5503 34.4321 52.2311 34.4792 48.2763 34.4792H41.3201L41.273 32.8431C41.2377 31.054 41.167 30.8657 40.4255 30.3125C40.1077 30.0653 39.9782 30.0653 34.1167 30.0653C28.2551 30.0653 28.1256 30.0653 27.8078 30.3125C27.0663 30.8657 26.9957 31.054 26.9603 32.8431L26.9133 34.4792H19.957C16.0022 34.4792 12.683 34.4321 12.2946 34.3615C10.2348 34.0201 8.42219 32.4076 7.8219 30.3713C7.56296 29.465 7.53942 19.3544 7.79836 18.8483C8.022 18.4245 8.43396 18.0597 8.86946 17.9066C9.38735 17.7301 58.7753 17.7183 59.3168 17.8949ZM37.6477 36.1623V38.6694L35.9528 39.5757C35.023 40.07 34.199 40.482 34.1167 40.482C34.0343 40.482 33.2103 40.07 32.2805 39.5757L30.5856 38.6694V36.1623V33.6553H34.1167H37.6477V36.1623ZM8.29271 36.7391C8.58697 36.9392 9.23434 37.2569 9.72869 37.4453C11.4236 38.1044 11.7061 38.1279 19.651 38.1279H26.9368V38.9636C26.9368 40.0936 27.1251 40.7763 27.5371 41.1176C27.8313 41.3648 30.5973 42.8949 32.8808 44.0602C34.2108 44.7428 33.999 44.8017 38.2716 42.5183C39.425 41.9062 40.5197 41.2706 40.6962 41.1176C41.1082 40.7763 41.2965 40.0936 41.2965 38.9636V38.1279H48.5823C56.5272 38.1279 56.8097 38.1044 58.5046 37.4453C58.999 37.2569 59.6463 36.9392 59.9406 36.7391C60.2466 36.5272 60.5173 36.3624 60.5526 36.3624C60.5762 36.3624 60.5997 40.2231 60.5997 44.9429V53.5117L60.329 53.9001C60.1878 54.112 59.9171 54.4062 59.7405 54.5357L59.4109 54.7829H34.1167H8.82238L8.49281 54.5357C8.31626 54.4062 8.04554 54.112 7.89253 53.9001L7.63358 53.5117V44.9429C7.63358 40.2231 7.65712 36.3624 7.68066 36.3624C7.71597 36.3624 7.98669 36.5272 8.29271 36.7391Z" mask="url(#path-2-outside-1_6295_46278)" fill="black"/>
</g>
</g>
<g id="Group 1171275273">
<circle id="Ellipse 2648" cx="57.6473" cy="55.8815" r="9.05945" fill="black"/>
<g id="Group_2">
<g id="Vector_2">
<mask id="path-4-outside-2_6295_46278" maskUnits="userSpaceOnUse" x="46.293" y="44.2332" width="23" height="23" fill="black">
<rect fill="white" x="46.293" y="44.2332" width="23" height="23"/>
<path d="M56.5502 45.5561C54.5564 45.7987 52.7214 46.5485 51.1952 47.7528C50.7938 48.066 49.841 49.0187 49.5278 49.4202C48.4339 50.8096 47.6707 52.552 47.3973 54.2944C47.2958 54.934 47.2605 56.222 47.3267 56.8705C47.5296 58.8422 48.2354 60.6243 49.4616 62.252C49.8057 62.7063 50.8247 63.7253 51.279 64.0693C52.7435 65.1721 54.327 65.8558 56.0871 66.1337C56.7752 66.244 58.0853 66.266 58.8087 66.1822C60.7584 65.9573 62.3949 65.2912 64.027 64.0649C64.4813 63.7297 65.5003 62.7063 65.8444 62.252C66.956 60.7743 67.6397 59.1907 67.9176 57.413C68.0278 56.7117 68.0278 55.0443 67.9176 54.3429C67.6397 52.5653 66.956 50.9817 65.8444 49.504C65.5003 49.0496 64.4813 48.0307 64.027 47.6866C62.5537 46.575 60.9745 45.8957 59.2189 45.6178C58.6984 45.534 57.0443 45.4987 56.5502 45.5561ZM58.844 47.5234C62.1214 47.9998 64.8431 50.3597 65.7473 53.5004C66.0164 54.4267 66.0561 54.7311 66.0561 55.878C66.0561 57.0248 66.0164 57.3292 65.7473 58.2555C65.4782 59.1907 64.9974 60.1479 64.3799 60.9728C64.0402 61.4271 63.2021 62.2652 62.7478 62.6049C60.6569 64.1708 58.0279 64.6913 55.5136 64.0429C52.2538 63.1959 49.7836 60.4258 49.294 57.0645C49.2058 56.4514 49.2058 55.3001 49.294 54.6914C49.9689 50.0686 54.2521 46.8573 58.844 47.5234Z"/>
</mask>
<path d="M56.5502 45.5561C54.5564 45.7987 52.7214 46.5485 51.1952 47.7528C50.7938 48.066 49.841 49.0187 49.5278 49.4202C48.4339 50.8096 47.6707 52.552 47.3973 54.2944C47.2958 54.934 47.2605 56.222 47.3267 56.8705C47.5296 58.8422 48.2354 60.6243 49.4616 62.252C49.8057 62.7063 50.8247 63.7253 51.279 64.0693C52.7435 65.1721 54.327 65.8558 56.0871 66.1337C56.7752 66.244 58.0853 66.266 58.8087 66.1822C60.7584 65.9573 62.3949 65.2912 64.027 64.0649C64.4813 63.7297 65.5003 62.7063 65.8444 62.252C66.956 60.7743 67.6397 59.1907 67.9176 57.413C68.0278 56.7117 68.0278 55.0443 67.9176 54.3429C67.6397 52.5653 66.956 50.9817 65.8444 49.504C65.5003 49.0496 64.4813 48.0307 64.027 47.6866C62.5537 46.575 60.9745 45.8957 59.2189 45.6178C58.6984 45.534 57.0443 45.4987 56.5502 45.5561ZM58.844 47.5234C62.1214 47.9998 64.8431 50.3597 65.7473 53.5004C66.0164 54.4267 66.0561 54.7311 66.0561 55.878C66.0561 57.0248 66.0164 57.3292 65.7473 58.2555C65.4782 59.1907 64.9974 60.1479 64.3799 60.9728C64.0402 61.4271 63.2021 62.2652 62.7478 62.6049C60.6569 64.1708 58.0279 64.6913 55.5136 64.0429C52.2538 63.1959 49.7836 60.4258 49.294 57.0645C49.2058 56.4514 49.2058 55.3001 49.294 54.6914C49.9689 50.0686 54.2521 46.8573 58.844 47.5234Z" fill="black"/>
<path d="M56.5502 45.5561C54.5564 45.7987 52.7214 46.5485 51.1952 47.7528C50.7938 48.066 49.841 49.0187 49.5278 49.4202C48.4339 50.8096 47.6707 52.552 47.3973 54.2944C47.2958 54.934 47.2605 56.222 47.3267 56.8705C47.5296 58.8422 48.2354 60.6243 49.4616 62.252C49.8057 62.7063 50.8247 63.7253 51.279 64.0693C52.7435 65.1721 54.327 65.8558 56.0871 66.1337C56.7752 66.244 58.0853 66.266 58.8087 66.1822C60.7584 65.9573 62.3949 65.2912 64.027 64.0649C64.4813 63.7297 65.5003 62.7063 65.8444 62.252C66.956 60.7743 67.6397 59.1907 67.9176 57.413C68.0278 56.7117 68.0278 55.0443 67.9176 54.3429C67.6397 52.5653 66.956 50.9817 65.8444 49.504C65.5003 49.0496 64.4813 48.0307 64.027 47.6866C62.5537 46.575 60.9745 45.8957 59.2189 45.6178C58.6984 45.534 57.0443 45.4987 56.5502 45.5561ZM58.844 47.5234C62.1214 47.9998 64.8431 50.3597 65.7473 53.5004C66.0164 54.4267 66.0561 54.7311 66.0561 55.878C66.0561 57.0248 66.0164 57.3292 65.7473 58.2555C65.4782 59.1907 64.9974 60.1479 64.3799 60.9728C64.0402 61.4271 63.2021 62.2652 62.7478 62.6049C60.6569 64.1708 58.0279 64.6913 55.5136 64.0429C52.2538 63.1959 49.7836 60.4258 49.294 57.0645C49.2058 56.4514 49.2058 55.3001 49.294 54.6914C49.9689 50.0686 54.2521 46.8573 58.844 47.5234Z" mask="url(#path-4-outside-2_6295_46278)" fill="black"/>
</g>
<g id="Vector_3">
<mask id="path-5-outside-3_6295_46278" maskUnits="userSpaceOnUse" x="51.9375" y="51.3621" width="12" height="9" fill="black">
<rect fill="white" x="51.9375" y="51.3621" width="12" height="9"/>
<path d="M61.0053 52.4641C60.9083 52.5038 60.0217 53.3595 58.5969 54.7799L56.3472 57.0296L55.3856 56.0371C54.5034 55.1196 54.4064 55.0358 54.1946 54.9696C53.7756 54.8373 53.3433 54.9828 53.0919 55.3401C52.9816 55.4945 52.9551 55.5827 52.9419 55.8253C52.9287 56.0724 52.9419 56.1518 53.0301 56.3061C53.0875 56.4076 53.7226 57.1045 54.4461 57.8588C55.4297 58.8822 55.8047 59.2395 55.937 59.2924C56.1796 59.3895 56.559 59.3851 56.7619 59.2792C57.0089 59.1513 62.2228 53.9109 62.3066 53.708C62.4963 53.2449 62.2581 52.6405 61.8126 52.4553C61.6273 52.3759 61.1994 52.3803 61.0053 52.4641Z"/>
</mask>
<path d="M61.0053 52.4641C60.9083 52.5038 60.0217 53.3595 58.5969 54.7799L56.3472 57.0296L55.3856 56.0371C54.5034 55.1196 54.4064 55.0358 54.1946 54.9696C53.7756 54.8373 53.3433 54.9828 53.0919 55.3401C52.9816 55.4945 52.9551 55.5827 52.9419 55.8253C52.9287 56.0724 52.9419 56.1518 53.0301 56.3061C53.0875 56.4076 53.7226 57.1045 54.4461 57.8588C55.4297 58.8822 55.8047 59.2395 55.937 59.2924C56.1796 59.3895 56.559 59.3851 56.7619 59.2792C57.0089 59.1513 62.2228 53.9109 62.3066 53.708C62.4963 53.2449 62.2581 52.6405 61.8126 52.4553C61.6273 52.3759 61.1994 52.3803 61.0053 52.4641Z" fill="black"/>
<path d="M61.0053 52.4641C60.9083 52.5038 60.0217 53.3595 58.5969 54.7799L56.3472 57.0296L55.3856 56.0371C54.5034 55.1196 54.4064 55.0358 54.1946 54.9696C53.7756 54.8373 53.3433 54.9828 53.0919 55.3401C52.9816 55.4945 52.9551 55.5827 52.9419 55.8253C52.9287 56.0724 52.9419 56.1518 53.0301 56.3061C53.0875 56.4076 53.7226 57.1045 54.4461 57.8588C55.4297 58.8822 55.8047 59.2395 55.937 59.2924C56.1796 59.3895 56.559 59.3851 56.7619 59.2792C57.0089 59.1513 62.2228 53.9109 62.3066 53.708C62.4963 53.2449 62.2581 52.6405 61.8126 52.4553C61.6273 52.3759 61.1994 52.3803 61.0053 52.4641Z" stroke-width="1.2" mask="url(#path-5-outside-3_6295_46278)" fill="black"/>
</g>
</g>
</g>
</g>
</g>
</svg>