<?xml version="1.0" ?><svg xmlns="http://www.w3.org/2000/svg" fill="none" viewBox="4 7 64.86 57">
<g id="stock-count">
<path id="Vector 651" d="M66.5 10H55.5L54 49.5H34.5V61.5H67L66.5 10Z" fill="black"/>
<g id="Group 1171274985">
<g id="Vector">
<mask id="path-2-outside-1_5883_47017" maskUnits="userSpaceOnUse" x="31.8633" y="7" width="37" height="57" fill="black">
<rect fill="white" x="31.8633" y="7" width="37" height="57"/>
<path d="M64.2357 8H56.7063C54.6307 8 52.9416 9.6891 52.9416 11.7647V49.4118C52.9416 49.7456 53.0734 50.0643 53.3093 50.299L63.7162 60.7059H36.628C35.9365 60.7059 35.3731 60.1437 35.3731 59.451V51.9216C35.3731 51.2289 35.9365 50.6667 36.628 50.6667H49.1769C49.8696 50.6667 50.4318 50.1057 50.4318 49.4118C50.4318 48.7178 49.8696 48.1569 49.1769 48.1569H36.628C34.5524 48.1569 32.8633 49.846 32.8633 51.9216V59.451C32.8633 61.5266 34.5524 63.2157 36.628 63.2157H66.7455C67.2525 63.2157 67.7105 62.9107 67.905 62.4414C68.0995 61.9721 67.9916 61.4325 67.6327 61.0736L55.4514 48.8922V11.7647C55.4514 11.0733 56.0149 10.5098 56.7063 10.5098H64.2357C64.9272 10.5098 65.4906 11.0733 65.4906 11.7647V13.0196H61.7259C61.0332 13.0196 60.471 13.5818 60.471 14.2745C60.471 14.9672 61.0332 15.5294 61.7259 15.5294H65.4906V18.0392H64.2357C63.543 18.0392 62.9808 18.6002 62.9808 19.2941C62.9808 19.9881 63.543 20.549 64.2357 20.549H65.4906V23.0588H61.7259C61.0332 23.0588 60.471 23.6198 60.471 24.3137C60.471 25.0077 61.0332 25.5686 61.7259 25.5686H65.4906V28.0784H64.2357C63.543 28.0784 62.9808 28.6394 62.9808 29.3333C62.9808 30.0273 63.543 30.5882 64.2357 30.5882H65.4906V33.098H61.7259C61.0332 33.098 60.471 33.659 60.471 34.3529C60.471 35.0469 61.0332 35.6078 61.7259 35.6078H65.4906V38.1176H64.2357C63.543 38.1176 62.9808 38.6786 62.9808 39.3726C62.9808 40.0665 63.543 40.6275 64.2357 40.6275H65.4906V43.1373H61.7259C61.0332 43.1373 60.471 43.6982 60.471 44.3922C60.471 45.0861 61.0332 45.6471 61.7259 45.6471H65.4906V55.6863C65.4906 56.3802 66.0528 56.9412 66.7455 56.9412C67.4382 56.9412 68.0004 56.3802 68.0004 55.6863V11.7647C68.0004 9.6891 66.3113 8 64.2357 8Z"/>
</mask>
<path d="M64.2357 8H56.7063C54.6307 8 52.9416 9.6891 52.9416 11.7647V49.4118C52.9416 49.7456 53.0734 50.0643 53.3093 50.299L63.7162 60.7059H36.628C35.9365 60.7059 35.3731 60.1437 35.3731 59.451V51.9216C35.3731 51.2289 35.9365 50.6667 36.628 50.6667H49.1769C49.8696 50.6667 50.4318 50.1057 50.4318 49.4118C50.4318 48.7178 49.8696 48.1569 49.1769 48.1569H36.628C34.5524 48.1569 32.8633 49.846 32.8633 51.9216V59.451C32.8633 61.5266 34.5524 63.2157 36.628 63.2157H66.7455C67.2525 63.2157 67.7105 62.9107 67.905 62.4414C68.0995 61.9721 67.9916 61.4325 67.6327 61.0736L55.4514 48.8922V11.7647C55.4514 11.0733 56.0149 10.5098 56.7063 10.5098H64.2357C64.9272 10.5098 65.4906 11.0733 65.4906 11.7647V13.0196H61.7259C61.0332 13.0196 60.471 13.5818 60.471 14.2745C60.471 14.9672 61.0332 15.5294 61.7259 15.5294H65.4906V18.0392H64.2357C63.543 18.0392 62.9808 18.6002 62.9808 19.2941C62.9808 19.9881 63.543 20.549 64.2357 20.549H65.4906V23.0588H61.7259C61.0332 23.0588 60.471 23.6198 60.471 24.3137C60.471 25.0077 61.0332 25.5686 61.7259 25.5686H65.4906V28.0784H64.2357C63.543 28.0784 62.9808 28.6394 62.9808 29.3333C62.9808 30.0273 63.543 30.5882 64.2357 30.5882H65.4906V33.098H61.7259C61.0332 33.098 60.471 33.659 60.471 34.3529C60.471 35.0469 61.0332 35.6078 61.7259 35.6078H65.4906V38.1176H64.2357C63.543 38.1176 62.9808 38.6786 62.9808 39.3726C62.9808 40.0665 63.543 40.6275 64.2357 40.6275H65.4906V43.1373H61.7259C61.0332 43.1373 60.471 43.6982 60.471 44.3922C60.471 45.0861 61.0332 45.6471 61.7259 45.6471H65.4906V55.6863C65.4906 56.3802 66.0528 56.9412 66.7455 56.9412C67.4382 56.9412 68.0004 56.3802 68.0004 55.6863V11.7647C68.0004 9.6891 66.3113 8 64.2357 8Z" fill="black"/>
<path d="M64.2357 8H56.7063C54.6307 8 52.9416 9.6891 52.9416 11.7647V49.4118C52.9416 49.7456 53.0734 50.0643 53.3093 50.299L63.7162 60.7059H36.628C35.9365 60.7059 35.3731 60.1437 35.3731 59.451V51.9216C35.3731 51.2289 35.9365 50.6667 36.628 50.6667H49.1769C49.8696 50.6667 50.4318 50.1057 50.4318 49.4118C50.4318 48.7178 49.8696 48.1569 49.1769 48.1569H36.628C34.5524 48.1569 32.8633 49.846 32.8633 51.9216V59.451C32.8633 61.5266 34.5524 63.2157 36.628 63.2157H66.7455C67.2525 63.2157 67.7105 62.9107 67.905 62.4414C68.0995 61.9721 67.9916 61.4325 67.6327 61.0736L55.4514 48.8922V11.7647C55.4514 11.0733 56.0149 10.5098 56.7063 10.5098H64.2357C64.9272 10.5098 65.4906 11.0733 65.4906 11.7647V13.0196H61.7259C61.0332 13.0196 60.471 13.5818 60.471 14.2745C60.471 14.9672 61.0332 15.5294 61.7259 15.5294H65.4906V18.0392H64.2357C63.543 18.0392 62.9808 18.6002 62.9808 19.2941C62.9808 19.9881 63.543 20.549 64.2357 20.549H65.4906V23.0588H61.7259C61.0332 23.0588 60.471 23.6198 60.471 24.3137C60.471 25.0077 61.0332 25.5686 61.7259 25.5686H65.4906V28.0784H64.2357C63.543 28.0784 62.9808 28.6394 62.9808 29.3333C62.9808 30.0273 63.543 30.5882 64.2357 30.5882H65.4906V33.098H61.7259C61.0332 33.098 60.471 33.659 60.471 34.3529C60.471 35.0469 61.0332 35.6078 61.7259 35.6078H65.4906V38.1176H64.2357C63.543 38.1176 62.9808 38.6786 62.9808 39.3726C62.9808 40.0665 63.543 40.6275 64.2357 40.6275H65.4906V43.1373H61.7259C61.0332 43.1373 60.471 43.6982 60.471 44.3922C60.471 45.0861 61.0332 45.6471 61.7259 45.6471H65.4906V55.6863C65.4906 56.3802 66.0528 56.9412 66.7455 56.9412C67.4382 56.9412 68.0004 56.3802 68.0004 55.6863V11.7647C68.0004 9.6891 66.3113 8 64.2357 8Z" stroke-width="1.00392" mask="url(#path-2-outside-1_5883_47017)" fill="black"/>
</g>
<g id="products">
<g id="Group 159054">
<path id="Rectangle 34624447" d="M46.7681 10.5342H6.85156V18.1373H46.7681V10.5342Z" fill="black"/>
<path id="Rectangle 47 (Stroke)" fill-rule="evenodd" clip-rule="evenodd" d="M8.055 11.0413C7.49513 11.0413 7.04126 11.4951 7.04126 12.055V16.6169C7.04126 17.1768 7.49513 17.6307 8.055 17.6307H45.5639C46.1237 17.6307 46.5776 17.1768 46.5776 16.6169V12.055C46.5776 11.4951 46.1237 11.0413 45.5639 11.0413H8.055ZM4 12.055C4 9.8155 5.81549 8 8.055 8H45.5639C47.8034 8 49.6189 9.8155 49.6189 12.055V16.6169C49.6189 18.8565 47.8034 20.6719 45.5639 20.6719H8.055C5.81549 20.6719 4 18.8565 4 16.6169V12.055Z" fill="black"/>
<path id="Rectangle 48" d="M32.1637 25.7402H21.4559C21.2634 25.7402 21.1074 25.8963 21.1074 26.0887V30.4605C21.1074 30.653 21.2634 30.809 21.4559 30.809H32.1637C32.3561 30.809 32.5121 30.653 32.5121 30.4605V26.0887C32.5121 25.8963 32.3561 25.7402 32.1637 25.7402Z" fill="black"/>
<g id="Rectangle 46">
<path id="Vector (Stroke)" fill-rule="evenodd" clip-rule="evenodd" d="M9.89143 21.1785V42.9744H43.7254V21.1785H9.89143ZM6.61914 21.1785C6.61914 18.3791 7.09203 17.4055 9.89143 17.4055L26.3313 17.4053H43.7254C47.0284 17.4055 47.028 17.4053 47.028 21.3477L47.0284 32.1892L47.0284 42.9744C47.0284 45.9878 47.0284 45.9878 43.7254 45.9878H27.3165H9.89116C6.61914 45.9878 6.61914 46.0442 6.61914 43.0308V32.1892V21.1785Z" fill="black"/>
</g>
</g>
</g>
</g>
</g>
</svg>