<?xml version="1.0" ?><svg xmlns="http://www.w3.org/2000/svg" fill="none" viewBox="4 4 64 63.23">
<g id="product-grading">
<g id="Group 1171275766">
<g id="products">
<g id="Group 159054">
<path id="Rectangle 34624447" d="M60.2936 7.33582H7.75258V17.3438H60.2936V7.33582Z" fill="black"/>
<path id="Rectangle 47 (Stroke)" fill-rule="evenodd" clip-rule="evenodd" d="M9.3375 8.00319C8.60055 8.00319 8.00314 8.60061 8.00314 9.33756V15.3423C8.00314 16.0793 8.60055 16.6767 9.3375 16.6767H58.7094C59.4464 16.6767 60.0438 16.0793 60.0438 15.3423V9.33756C60.0438 8.60061 59.4464 8.00319 58.7094 8.00319H9.3375ZM4 9.33756C4 6.38971 6.38968 4 9.3375 4H58.7094C61.6573 4 64.0469 6.38971 64.0469 9.33756V15.3423C64.0469 18.2902 61.6573 20.6799 58.7094 20.6799H9.3375C6.38968 20.6799 4 18.2902 4 15.3423V9.33756Z" fill="black"/>
<path id="Rectangle 48" d="M41.071 27.3516H26.9766C26.7233 27.3516 26.5179 27.5569 26.5179 27.8103V33.5648C26.5179 33.8182 26.7233 34.0235 26.9766 34.0235H41.071C41.3243 34.0235 41.5296 33.8182 41.5296 33.5648V27.8103C41.5296 27.5569 41.3243 27.3516 41.071 27.3516Z" fill="black"/>
<path id="Subtract" fill-rule="evenodd" clip-rule="evenodd" d="M11.7554 50.0363V21.3467H56.2902V40.0384C57.9651 40.2021 59.4759 40.8802 60.6379 41.9005L60.6379 35.8399L60.6374 21.5693C60.6374 18.8218 60.6375 17.529 59.9923 16.9207C59.4189 16.3802 58.3359 16.3802 56.2902 16.38H33.3947L11.7554 16.3803C8.07064 16.3803 7.44818 17.6619 7.44818 21.3467V35.8399V50.1105C7.44818 52.0279 7.44818 53.0011 7.93472 53.4949C8.45465 54.0226 9.53018 54.0027 11.7551 54.0027H34.6916H56.2902C58.5305 54.0027 59.6164 54.0027 60.1427 53.4601C60.4101 53.1843 60.5331 52.7685 60.5897 52.1415C59.2525 53.2951 57.4645 54 55.5 54C52.5235 54 49.9519 52.3816 48.7403 50.0363H11.7554Z" fill="black"/>
</g>
</g>
<g id="Group 1000001382">
<g id="Subtract_2">
<path fill-rule="evenodd" clip-rule="evenodd" d="M46.5832 39V44.4545L44 47L46.5832 51.7273V55.7273H50.6424L54.7017 59L58.0229 55.7273L63.4636 55.086L64.2963 51.7273L66.5105 47L64.2963 44.4545L63.4636 39H58.0229L54.7017 35L50.6424 39H46.5832ZM55.0708 52.8183C58.3317 52.8183 60.9751 50.2134 60.9751 47.0002C60.9751 43.7869 58.3317 41.182 55.0708 41.182C51.8099 41.182 49.1664 43.7869 49.1664 47.0002C49.1664 50.2134 51.8099 52.8183 55.0708 52.8183Z" fill="black"/>
<path d="M46.5832 44.4545L46.7704 44.6446L46.85 44.5662V44.4545H46.5832ZM46.5832 39V38.7332H46.3163V39H46.5832ZM44 47L43.8127 46.8099L43.6693 46.9513L43.7659 47.1279L44 47ZM46.5832 51.7273H46.85V51.6591L46.8173 51.5993L46.5832 51.7273ZM46.5832 55.7273H46.3163V55.9941H46.5832V55.7273ZM50.6424 55.7273L50.8099 55.5196L50.7366 55.4605H50.6424V55.7273ZM54.7017 59L54.5342 59.2077L54.7195 59.3571L54.889 59.1901L54.7017 59ZM58.0229 55.7273L57.9917 55.4623L57.9008 55.473L57.8356 55.5372L58.0229 55.7273ZM63.4636 55.086L63.4949 55.351L63.6782 55.3293L63.7226 55.1502L63.4636 55.086ZM64.2963 51.7273L64.0547 51.6141L64.0436 51.6377L64.0373 51.6631L64.2963 51.7273ZM66.5105 47L66.7521 47.1132L66.8257 46.9559L66.7118 46.8249L66.5105 47ZM64.2963 44.4545L64.0326 44.4948L64.0442 44.5713L64.095 44.6297L64.2963 44.4545ZM63.4636 39L63.7274 38.9597L63.6928 38.7332H63.4636V39ZM58.0229 39L57.8176 39.1704L57.8976 39.2668H58.0229V39ZM54.7017 35L54.907 34.8296L54.7214 34.606L54.5144 34.8099L54.7017 35ZM50.6424 39V39.2668H50.7518L50.8297 39.1901L50.6424 39ZM46.85 44.4545V39H46.3163V44.4545H46.85ZM44.1873 47.1901L46.7704 44.6446L46.3959 44.2645L43.8127 46.8099L44.1873 47.1901ZM46.8173 51.5993L44.2341 46.8721L43.7659 47.1279L46.349 51.8552L46.8173 51.5993ZM46.85 55.7273V51.7273H46.3163V55.7273H46.85ZM50.6424 55.4605H46.5832V55.9941H50.6424V55.4605ZM54.8692 58.7923L50.8099 55.5196L50.475 55.935L54.5342 59.2077L54.8692 58.7923ZM57.8356 55.5372L54.5144 58.8099L54.889 59.1901L58.2102 55.9173L57.8356 55.5372ZM63.4324 54.821L57.9917 55.4623L58.0541 55.9923L63.4949 55.351L63.4324 54.821ZM64.0373 51.6631L63.2046 55.0218L63.7226 55.1502L64.5553 51.7915L64.0373 51.6631ZM66.2688 46.8868L64.0547 51.6141L64.5379 51.8404L66.7521 47.1132L66.2688 46.8868ZM64.095 44.6297L66.3091 47.1751L66.7118 46.8249L64.4976 44.2794L64.095 44.6297ZM63.1999 39.0403L64.0326 44.4948L64.5601 44.4143L63.7274 38.9597L63.1999 39.0403ZM58.0229 39.2668H63.4636V38.7332H58.0229V39.2668ZM54.4964 35.1704L57.8176 39.1704L58.2282 38.8296L54.907 34.8296L54.4964 35.1704ZM50.8297 39.1901L54.889 35.1901L54.5144 34.8099L50.4552 38.8099L50.8297 39.1901ZM46.5832 39.2668H50.6424V38.7332H46.5832V39.2668ZM60.7083 47.0002C60.7083 50.0624 58.188 52.5515 55.0708 52.5515V53.0852C58.4753 53.0852 61.242 50.3645 61.242 47.0002H60.7083ZM55.0708 41.4488C58.188 41.4488 60.7083 43.9379 60.7083 47.0002H61.242C61.242 43.6358 58.4753 40.9152 55.0708 40.9152V41.4488ZM49.4332 47.0002C49.4332 43.9379 51.9535 41.4488 55.0708 41.4488V40.9152C51.6662 40.9152 48.8996 43.6358 48.8996 47.0002H49.4332ZM55.0708 52.5515C51.9535 52.5515 49.4332 50.0624 49.4332 47.0002H48.8996C48.8996 50.3645 51.6662 53.0852 55.0708 53.0852V52.5515Z" fill="black"/>
</g>
<g id="Group">
<path id="Vector" d="M54.3545 34.1468C53.7837 34.3544 53.3166 34.7112 52.2853 35.7102C51.6885 36.294 51.189 36.7286 51.0398 36.7934C50.8452 36.8713 50.443 36.9037 49.204 36.9426C47.4137 37.001 47.1867 37.0464 46.5575 37.4616C46.0969 37.7729 45.7466 38.2465 45.5585 38.8303C45.4417 39.1871 45.4158 39.479 45.3834 40.8347C45.3444 42.2164 45.325 42.4564 45.2147 42.6834C45.1433 42.8261 44.6374 43.4099 44.0795 43.9808C43.5281 44.5581 42.9833 45.1873 42.8665 45.3754C42.3346 46.2771 42.3346 47.3279 42.8665 48.2296C42.9833 48.4177 43.5281 49.0469 44.0795 49.6242C44.6374 50.1951 45.1433 50.7789 45.2147 50.9216C45.325 51.1486 45.3444 51.3886 45.3834 52.7703C45.4158 54.1325 45.4417 54.4179 45.5585 54.7812C45.8828 55.7866 46.6288 56.4094 47.7316 56.5975L48.1662 56.6753V61.6053C48.1662 66.9374 48.1532 66.6974 48.5165 67.0347C48.6462 67.1579 48.7759 67.2033 49.0613 67.2228C49.4181 67.2487 49.5154 67.2098 52.3371 66.0098L55.2367 64.7773L58.1428 66.0098C60.9516 67.2098 61.0553 67.2422 61.4121 67.2228C61.6975 67.2033 61.8273 67.1579 61.957 67.0347C62.3203 66.6974 62.3073 66.9374 62.3073 61.6053V56.6753L62.7484 56.5975C63.8382 56.4094 64.5906 55.7866 64.915 54.7812C65.0317 54.4179 65.0577 54.139 65.0901 52.7703C65.129 51.3951 65.1485 51.1486 65.2588 50.9216C65.3236 50.7789 65.8101 50.221 66.3291 49.6891C66.8545 49.1507 67.3734 48.5799 67.4837 48.4177C68.1259 47.4706 68.1713 46.3355 67.607 45.3754C67.4902 45.1873 66.9453 44.5581 66.3939 43.9808C65.8361 43.4099 65.3301 42.8261 65.2588 42.6834C65.1485 42.4564 65.129 42.2164 65.0901 40.8347C65.0577 39.466 65.0317 39.1871 64.915 38.8238C64.6295 37.9481 64.0068 37.3448 63.1181 37.0724C62.9689 37.027 62.1775 36.9751 61.2564 36.9491C59.7385 36.8972 59.6347 36.8907 59.3558 36.7415C59.1936 36.6572 58.6423 36.1707 58.1298 35.6647C56.7741 34.322 56.2357 34.0236 55.2238 34.0236C54.867 34.0301 54.5686 34.069 54.3545 34.1468ZM55.7427 36.2291C55.8919 36.3329 56.3849 36.7934 56.839 37.254C57.293 37.7146 57.8314 38.1946 58.026 38.3243C58.7525 38.8043 59.4985 38.947 61.3018 38.9535C62.45 38.96 62.7095 39.0184 62.917 39.2973C63.0403 39.466 63.0533 39.6022 63.0987 41.0812C63.1635 43.5072 63.2025 43.6045 64.8371 45.2781C65.3561 45.81 65.8361 46.3614 65.9009 46.4976C66.1085 46.9452 65.9334 47.2436 64.8371 48.3269C63.7863 49.3518 63.3971 49.9161 63.2089 50.6621C63.17 50.8048 63.1181 51.6416 63.0987 52.5238C63.0338 54.6904 63.0792 54.6385 61.3018 54.6515C59.4985 54.6579 58.7525 54.8007 58.026 55.2807C57.8314 55.4104 57.293 55.8904 56.839 56.351C55.827 57.3629 55.5611 57.5705 55.2367 57.5705C54.9124 57.5705 54.6464 57.3629 53.6345 56.351C53.1804 55.8904 52.642 55.4104 52.4474 55.2807C51.7209 54.8007 50.9749 54.6579 49.1716 54.6515C48.0235 54.645 47.764 54.5866 47.5564 54.3077C47.4332 54.139 47.4202 54.0093 47.3813 52.5238C47.3164 50.1302 47.2515 49.981 45.7012 48.3917C44.4622 47.1268 44.3584 46.9517 44.5725 46.4976C44.6374 46.3614 45.1174 45.81 45.6363 45.2781C47.271 43.6045 47.3099 43.5072 47.3748 41.0812C47.4397 38.9146 47.3942 38.9665 49.1716 38.9535C50.9749 38.947 51.7209 38.8043 52.4474 38.3243C52.642 38.1946 53.1804 37.7146 53.6345 37.254C54.6464 36.2421 54.9124 36.0345 55.2367 36.0345C55.3989 36.0345 55.5611 36.0994 55.7427 36.2291ZM51.0139 56.8051C51.1695 56.8505 51.5652 57.1943 52.2593 57.8689C53.7383 59.3025 54.2183 59.5814 55.2367 59.5814C56.2422 59.5814 56.7481 59.2895 58.2077 57.8689C59.2715 56.8375 59.3688 56.7791 59.9915 56.7013L60.2964 56.6624V60.6906C60.2964 63.8886 60.2769 64.7124 60.2185 64.6865C60.1731 64.6735 59.0963 64.2129 57.8249 63.6745C56.0541 62.9221 55.4508 62.695 55.2367 62.695C55.0227 62.695 54.4259 62.9221 52.6485 63.6745C51.3771 64.2129 50.3003 64.6735 50.2614 64.6865C50.1965 64.7124 50.1771 63.8886 50.1771 60.6906V56.6624L50.4884 56.7013C50.6571 56.7207 50.8906 56.7726 51.0139 56.8051Z" fill="black"/>
<path id="Vector_2" d="M54.3931 39.7382C52.8363 39.9198 51.2081 40.7436 50.1248 41.8983C49.1583 42.9361 48.4966 44.3113 48.2955 45.693C48.1788 46.4844 48.2436 47.7169 48.4512 48.5018C49.1258 51.1289 51.3378 53.1852 53.9844 53.6458C57.1499 54.1971 60.2376 52.5884 61.5999 49.6823C62.3264 48.145 62.4366 46.1925 61.9047 44.5319C61.0744 41.9372 58.7392 40.043 55.9953 39.7382C55.3012 39.6603 55.0936 39.6603 54.3931 39.7382ZM56.404 41.8464C56.9943 41.9826 57.9154 42.4496 58.4213 42.8648C59.1673 43.481 59.8095 44.4865 60.0755 45.44C60.1663 45.7579 60.1922 46.0822 60.1922 46.7698C60.1922 47.5806 60.1728 47.7363 60.0171 48.1969C59.7317 49.0531 59.3749 49.6175 58.7068 50.2856C58.1878 50.8046 58.0257 50.9148 57.4354 51.2002C56.631 51.5895 56.0407 51.7322 55.2364 51.7322C54.432 51.7322 53.8417 51.5895 53.0373 51.2002C52.447 50.9148 52.2849 50.8046 51.7659 50.2856C51.0978 49.6175 50.741 49.0531 50.4556 48.1969C50.2999 47.7363 50.2805 47.5806 50.2805 46.7698C50.274 45.7449 50.3648 45.3233 50.7345 44.5643C51.4805 43.0464 52.8817 42.0085 54.5552 41.7491C55.0353 41.6712 55.8396 41.7166 56.404 41.8464Z" fill="black"/>
</g>
</g>
</g>
<text id="A" fill="black" xml:space="preserve" style="white-space: pre" font-family="Poppins" font-size="9" font-weight="bold" letter-spacing="0em"><tspan x="52" y="49.15">A</tspan></text>
</g>
</svg>