<?xml version="1.0" ?><svg xmlns="http://www.w3.org/2000/svg" fill="none" viewBox="4 4 63.47 64">
<g id="period">
<g id="Group 1171275600">
<path id="Subtract" fill-rule="evenodd" clip-rule="evenodd" d="M4 11.2C4 7.25313 7.25313 4 11.2 4H47.7333C50.0898 4 52 5.91025 52 8.26667V29.6H47.2V13.0667C47.2 10.7103 45.2897 8.8 42.9333 8.8H11.2C9.84063 8.8 8.8 9.84063 8.8 11.2V45.1959C8.8 46.3914 10.0045 47.2 11.2 47.2H25.8667V52H11.2C9.84063 52 8.8 53.0406 8.8 54.4C8.8 55.7594 9.84063 56.8 11.2 56.8H25.8667V61.6H11.2C7.25313 61.6 4 58.3469 4 54.4V11.2ZM16 18.4C16 17.0745 17.0745 16 18.4 16H40C41.3255 16 42.4 17.0745 42.4 18.4C42.4 19.7255 41.3255 20.8 40 20.8H18.4C17.0745 20.8 16 19.7255 16 18.4Z" fill="black"/>
<g id="Icon (Stroke)">
<path fill-rule="evenodd" clip-rule="evenodd" d="M41.4513 30.6665C42.6295 30.6665 43.5847 31.6216 43.5847 32.7998V34.3406H54.0143V32.7998C54.0143 31.6216 54.9694 30.6665 56.1476 30.6665C57.3258 30.6665 58.281 31.6216 58.281 32.7998V34.3406H61.6587C64.8661 34.3406 67.4661 36.9406 67.4661 40.148V62.1924C67.4661 65.3998 64.8661 67.9998 61.6587 67.9998H35.9402C32.7329 67.9998 30.1328 65.3998 30.1328 62.1924V40.148C30.1328 36.9406 32.7329 34.3406 35.9402 34.3406H39.318V32.7998C39.318 31.6216 40.2731 30.6665 41.4513 30.6665ZM39.318 38.6072H35.9402C35.0893 38.6072 34.3995 39.2971 34.3995 40.148V62.1924C34.3995 63.0434 35.0893 63.7332 35.9402 63.7332H61.6587C62.5097 63.7332 63.1995 63.0434 63.1995 62.1924V40.148C63.1995 39.2971 62.5097 38.6072 61.6587 38.6072H58.281V40.148C58.281 41.3262 57.3258 42.2813 56.1476 42.2813C54.9694 42.2813 54.0143 41.3262 54.0143 40.148V38.6072H43.5847V40.148C43.5847 41.3262 42.6295 42.2813 41.4513 42.2813C40.2731 42.2813 39.318 41.3262 39.318 40.148V38.6072ZM37.481 47.4961C37.481 46.3179 38.4361 45.3628 39.6143 45.3628H57.9847C59.1629 45.3628 60.118 46.3179 60.118 47.4961C60.118 48.6743 59.1629 49.6295 57.9847 49.6295H39.6143C38.4361 49.6295 37.481 48.6743 37.481 47.4961Z" fill="black"/>
<path fill-rule="evenodd" clip-rule="evenodd" d="M35.9402 38.6072H39.318V40.148C39.318 41.3262 40.2731 42.2813 41.4513 42.2813C42.6295 42.2813 43.5847 41.3262 43.5847 40.148V38.6072H54.0143V40.148C54.0143 41.3262 54.9694 42.2813 56.1476 42.2813C57.3258 42.2813 58.281 41.3262 58.281 40.148V38.6072H61.6587C62.5097 38.6072 63.1995 39.2971 63.1995 40.148V62.1924C63.1995 63.0434 62.5097 63.7332 61.6587 63.7332H35.9402C35.0893 63.7332 34.3995 63.0434 34.3995 62.1924V40.148C34.3995 39.2971 35.0893 38.6072 35.9402 38.6072ZM37.481 47.4961C37.481 46.3179 38.4361 45.3628 39.6143 45.3628H57.9847C59.1629 45.3628 60.118 46.3179 60.118 47.4961C60.118 48.6743 59.1629 49.6295 57.9847 49.6295H39.6143C38.4361 49.6295 37.481 48.6743 37.481 47.4961Z" fill="black"/>
</g>
</g>
</g>
</svg>