<?xml version="1.0" ?><svg xmlns="http://www.w3.org/2000/svg" fill="none" viewBox="0 0 72 72.95">
<g id="expense-products" clip-path="url(#clip0_6242_46218)">
<g id="Group 1171275377">
<g id="Group 159054">
<rect id="Rectangle 34624447" x="8.00026" y="13.5554" width="56" height="10.6667" fill="black"/>
<rect id="Rectangle 47" x="6.03333" y="12.0333" width="59.9333" height="13.7111" rx="3.38889" stroke-width="4.06667" fill="black"/>
<rect id="Rectangle 48" x="27.9997" y="34.8889" width="16" height="7.11111" rx="0.465972" fill="black"/>
<rect id="Rectangle 46" x="10.0336" y="26.2553" width="51.9333" height="35.0444" rx="3.38889" stroke-width="4.06667" fill="black"/>
</g>
<g id="Group 1171275376">
<circle id="Ellipse 2648" cx="55.514" cy="59.6389" r="10.8533" fill="black"/>
<g id="Vector">
<mask id="path-6-outside-1_6242_46218" maskUnits="userSpaceOnUse" x="42" y="45.9497" width="27" height="27" fill="black">
<rect fill="white" x="42" y="45.9497" width="27" height="27"/>
<path d="M54.2563 47.0157C54.1728 47.0366 53.745 47.1096 53.3173 47.1722C51.7105 47.4331 49.8428 48.1843 48.3821 49.1755C47.537 49.7389 45.7528 51.5335 45.179 52.3787C43.4887 54.9036 42.7375 57.9503 43.0818 60.9343C43.7078 66.2868 47.6726 70.6064 53.0042 71.7541C54.225 72.0149 56.7812 72.0149 57.9916 71.7541C62.9893 70.6794 66.6933 66.9754 67.7784 61.9672C67.914 61.3412 67.9662 60.6526 67.9662 59.484C67.9662 57.2303 67.6323 55.7279 66.6724 53.8394C66.0151 52.5247 65.483 51.8048 64.3353 50.6571C63.1667 49.4885 62.4468 48.9668 61.0695 48.2886C59.3271 47.4226 57.8768 47.0679 55.8213 47.0157C55.0492 46.9949 54.3398 46.9949 54.2563 47.0157ZM57.1256 48.9981C59.3062 49.3529 61.1843 50.2815 62.7911 51.8048C64.4292 53.3594 65.4725 55.2479 65.9525 57.5538C66.1299 58.3572 66.1299 60.6109 65.9525 61.4143C65.0239 65.8173 61.8416 68.9996 57.4386 69.9282C56.6143 70.1055 54.2563 70.1055 53.5259 69.9282C51.1157 69.3543 49.3629 68.384 47.8291 66.7668C44.7199 63.4906 44.0208 58.7745 46.0345 54.7367C48.09 50.6362 52.6599 48.2678 57.1256 48.9981Z"/>
</mask>
<path d="M54.2563 47.0157C54.1728 47.0366 53.745 47.1096 53.3173 47.1722C51.7105 47.4331 49.8428 48.1843 48.3821 49.1755C47.537 49.7389 45.7528 51.5335 45.179 52.3787C43.4887 54.9036 42.7375 57.9503 43.0818 60.9343C43.7078 66.2868 47.6726 70.6064 53.0042 71.7541C54.225 72.0149 56.7812 72.0149 57.9916 71.7541C62.9893 70.6794 66.6933 66.9754 67.7784 61.9672C67.914 61.3412 67.9662 60.6526 67.9662 59.484C67.9662 57.2303 67.6323 55.7279 66.6724 53.8394C66.0151 52.5247 65.483 51.8048 64.3353 50.6571C63.1667 49.4885 62.4468 48.9668 61.0695 48.2886C59.3271 47.4226 57.8768 47.0679 55.8213 47.0157C55.0492 46.9949 54.3398 46.9949 54.2563 47.0157ZM57.1256 48.9981C59.3062 49.3529 61.1843 50.2815 62.7911 51.8048C64.4292 53.3594 65.4725 55.2479 65.9525 57.5538C66.1299 58.3572 66.1299 60.6109 65.9525 61.4143C65.0239 65.8173 61.8416 68.9996 57.4386 69.9282C56.6143 70.1055 54.2563 70.1055 53.5259 69.9282C51.1157 69.3543 49.3629 68.384 47.8291 66.7668C44.7199 63.4906 44.0208 58.7745 46.0345 54.7367C48.09 50.6362 52.6599 48.2678 57.1256 48.9981Z" fill="black"/>
<path d="M54.2563 47.0157C54.1728 47.0366 53.745 47.1096 53.3173 47.1722C51.7105 47.4331 49.8428 48.1843 48.3821 49.1755C47.537 49.7389 45.7528 51.5335 45.179 52.3787C43.4887 54.9036 42.7375 57.9503 43.0818 60.9343C43.7078 66.2868 47.6726 70.6064 53.0042 71.7541C54.225 72.0149 56.7812 72.0149 57.9916 71.7541C62.9893 70.6794 66.6933 66.9754 67.7784 61.9672C67.914 61.3412 67.9662 60.6526 67.9662 59.484C67.9662 57.2303 67.6323 55.7279 66.6724 53.8394C66.0151 52.5247 65.483 51.8048 64.3353 50.6571C63.1667 49.4885 62.4468 48.9668 61.0695 48.2886C59.3271 47.4226 57.8768 47.0679 55.8213 47.0157C55.0492 46.9949 54.3398 46.9949 54.2563 47.0157ZM57.1256 48.9981C59.3062 49.3529 61.1843 50.2815 62.7911 51.8048C64.4292 53.3594 65.4725 55.2479 65.9525 57.5538C66.1299 58.3572 66.1299 60.6109 65.9525 61.4143C65.0239 65.8173 61.8416 68.9996 57.4386 69.9282C56.6143 70.1055 54.2563 70.1055 53.5259 69.9282C51.1157 69.3543 49.3629 68.384 47.8291 66.7668C44.7199 63.4906 44.0208 58.7745 46.0345 54.7367C48.09 50.6362 52.6599 48.2678 57.1256 48.9981Z" stroke-width="1.11403" mask="url(#path-6-outside-1_6242_46218)" fill="black"/>
</g>
<g id="Vector_2">
<mask id="path-7-outside-2_6242_46218" maskUnits="userSpaceOnUse" x="50.9083" y="50.5178" width="9" height="18" fill="black">
<rect fill="white" x="50.9083" y="50.5178" width="9" height="18"/>
<path d="M54.8301 51.7107C54.611 51.9299 54.5692 52.0551 54.5692 52.6289V53.2967L54.058 53.5158C51.8565 54.4235 51.2096 57.4076 52.8164 59.2335C53.4319 59.9325 54.5066 60.4229 55.4456 60.4229C55.936 60.4229 56.5934 60.7672 56.8855 61.1637C57.3446 61.7793 57.3133 62.6348 56.7916 63.2504C56.0508 64.1269 54.8092 64.0538 53.7137 63.0522C53.1502 62.5409 52.952 62.4783 52.5138 62.6244C51.8773 62.8331 51.7208 63.5008 52.1486 64.1582C52.4094 64.5546 53.4528 65.285 54.0475 65.4832L54.5692 65.6606V66.3284C54.5692 67.1839 54.8301 67.5178 55.5083 67.5178C56.1864 67.5178 56.4473 67.1839 56.4473 66.3388V65.6711L56.9585 65.4519C59.1601 64.5442 59.8069 61.5602 58.2002 59.7343C57.5846 59.0352 56.5099 58.5448 55.5917 58.5448C55.1013 58.5448 54.4544 58.2318 54.1623 57.8562C53.2754 56.7294 54.1206 55.1017 55.5917 55.1017C56.0821 55.1017 56.9794 55.5399 57.3133 55.9364C57.6576 56.3433 57.981 56.4894 58.3567 56.4163C59.0766 56.2703 59.3479 55.5921 58.9514 54.9348C58.6384 54.4444 57.6367 53.7036 56.969 53.4845L56.4473 53.3071V52.6393C56.4473 52.0551 56.4056 51.9299 56.1864 51.7107C55.8317 51.3456 55.1848 51.3456 54.8301 51.7107Z"/>
</mask>
<path d="M54.8301 51.7107C54.611 51.9299 54.5692 52.0551 54.5692 52.6289V53.2967L54.058 53.5158C51.8565 54.4235 51.2096 57.4076 52.8164 59.2335C53.4319 59.9325 54.5066 60.4229 55.4456 60.4229C55.936 60.4229 56.5934 60.7672 56.8855 61.1637C57.3446 61.7793 57.3133 62.6348 56.7916 63.2504C56.0508 64.1269 54.8092 64.0538 53.7137 63.0522C53.1502 62.5409 52.952 62.4783 52.5138 62.6244C51.8773 62.8331 51.7208 63.5008 52.1486 64.1582C52.4094 64.5546 53.4528 65.285 54.0475 65.4832L54.5692 65.6606V66.3284C54.5692 67.1839 54.8301 67.5178 55.5083 67.5178C56.1864 67.5178 56.4473 67.1839 56.4473 66.3388V65.6711L56.9585 65.4519C59.1601 64.5442 59.8069 61.5602 58.2002 59.7343C57.5846 59.0352 56.5099 58.5448 55.5917 58.5448C55.1013 58.5448 54.4544 58.2318 54.1623 57.8562C53.2754 56.7294 54.1206 55.1017 55.5917 55.1017C56.0821 55.1017 56.9794 55.5399 57.3133 55.9364C57.6576 56.3433 57.981 56.4894 58.3567 56.4163C59.0766 56.2703 59.3479 55.5921 58.9514 54.9348C58.6384 54.4444 57.6367 53.7036 56.969 53.4845L56.4473 53.3071V52.6393C56.4473 52.0551 56.4056 51.9299 56.1864 51.7107C55.8317 51.3456 55.1848 51.3456 54.8301 51.7107Z" fill="black"/>
<path d="M54.8301 51.7107C54.611 51.9299 54.5692 52.0551 54.5692 52.6289V53.2967L54.058 53.5158C51.8565 54.4235 51.2096 57.4076 52.8164 59.2335C53.4319 59.9325 54.5066 60.4229 55.4456 60.4229C55.936 60.4229 56.5934 60.7672 56.8855 61.1637C57.3446 61.7793 57.3133 62.6348 56.7916 63.2504C56.0508 64.1269 54.8092 64.0538 53.7137 63.0522C53.1502 62.5409 52.952 62.4783 52.5138 62.6244C51.8773 62.8331 51.7208 63.5008 52.1486 64.1582C52.4094 64.5546 53.4528 65.285 54.0475 65.4832L54.5692 65.6606V66.3284C54.5692 67.1839 54.8301 67.5178 55.5083 67.5178C56.1864 67.5178 56.4473 67.1839 56.4473 66.3388V65.6711L56.9585 65.4519C59.1601 64.5442 59.8069 61.5602 58.2002 59.7343C57.5846 59.0352 56.5099 58.5448 55.5917 58.5448C55.1013 58.5448 54.4544 58.2318 54.1623 57.8562C53.2754 56.7294 54.1206 55.1017 55.5917 55.1017C56.0821 55.1017 56.9794 55.5399 57.3133 55.9364C57.6576 56.3433 57.981 56.4894 58.3567 56.4163C59.0766 56.2703 59.3479 55.5921 58.9514 54.9348C58.6384 54.4444 57.6367 53.7036 56.969 53.4845L56.4473 53.3071V52.6393C56.4473 52.0551 56.4056 51.9299 56.1864 51.7107C55.8317 51.3456 55.1848 51.3456 54.8301 51.7107Z" stroke-width="1.11403" mask="url(#path-7-outside-2_6242_46218)" fill="black"/>
</g>
</g>
</g>
</g>
<defs>
<clipPath id="clip0_6242_46218">
<rect width="72" height="72" fill="white"/>
</clipPath>
</defs>
</svg>