<?xml version="1.0" ?><svg xmlns="http://www.w3.org/2000/svg" fill="none" viewBox="9 4 53.04 64">
<g id="subcon-purchase-request">
<rect id="Rectangle 34624864" x="14" y="14" width="21" height="20" fill="black"/>
<rect id="Rectangle 34624865" x="21" y="44" width="29" height="15" fill="black"/>
<g id="Group 1171275183">
<path id="Vector" d="M45.4033 4C46.595 4.39167 47.5033 5.07667 47.8116 6.36667C47.8701 6.609 47.8998 6.85738 47.9 7.10667C47.9077 8.71222 47.9077 10.3167 47.9 11.92C47.9 12.6717 47.54 13.105 46.9283 13.1217C46.3166 13.1383 45.9116 12.68 45.9083 11.9C45.9083 10.3783 45.9083 8.85833 45.9083 7.33667C45.9083 6.395 45.52 6.00333 44.5883 6.00333H12.34C11.3683 6.00333 10.995 6.40667 10.995 7.45333C10.995 14.3289 10.995 21.2039 10.995 28.0783C10.995 36.8706 10.995 45.6617 10.995 54.4517C10.995 55.54 11.3683 56.0917 12.0967 56.0883C12.825 56.085 13.1933 55.5283 13.1933 54.4417C13.1933 51.1506 13.1933 47.8594 13.1933 44.5683C13.1933 42.4267 14.4167 41.1983 16.565 41.2C26.045 41.2 35.5261 41.2094 45.0083 41.2283H45.9083C45.9083 40.7617 45.9083 40.335 45.9083 39.9067C45.925 39.175 46.32 38.74 46.9316 38.7517C47.5433 38.7633 47.8866 39.195 47.9 39.895C47.9 40.3083 47.9 40.7283 47.9 41.2283H50.0433C50.7283 41.2283 51.415 41.2283 52.1016 41.2283C53.935 41.2583 55.14 42.4717 55.1416 44.3067C55.1483 50.66 55.1483 57.0139 55.1416 63.3683C55.1416 64.4517 55.12 65.535 55.1416 66.6183C55.1583 67.2067 55.005 67.6733 54.4983 67.9983H53.75L49.6966 64.3867C48.3266 65.6067 46.9833 66.8017 45.6416 67.9983H44.8933L40.8283 64.4183L36.6616 67.9983H36.0383L31.9433 64.4183L27.8133 68H27.1883L23.01 64.3817C21.73 65.4233 20.4833 66.4283 19.245 67.445C18.86 67.7617 18.4733 68.0317 17.9517 67.7967C17.43 67.5617 17.3317 67.0783 17.3333 66.5467C17.3333 63.9633 17.3333 61.38 17.3333 58.7967V58.0933H12.58C10.2283 58.0933 9 56.87 9 54.52V31.0833C9 23.1878 9 15.2922 9 7.39667C9 5.67667 9.72 4.66833 11.32 4.10333C11.3739 4.07578 11.4238 4.04102 11.4683 4H45.4033ZM45.265 65.6667C46.4066 64.6533 47.4966 63.69 48.5833 62.7233C49.5833 61.8333 49.82 61.835 50.8366 62.735C51.5733 63.3867 52.3116 64.035 53.15 64.7733V44.5733C53.15 43.48 52.895 43.2283 51.785 43.2283H19.8617C19.6483 43.2283 19.435 43.2483 19.3267 43.255V64.755C19.5633 64.5883 19.6833 64.5133 19.7917 64.4217C20.5983 63.765 21.4 63.1033 22.2067 62.4483C22.855 61.9217 23.27 61.9333 23.9117 62.4867C24.305 62.82 24.69 63.175 25.0783 63.52L27.4767 65.6317C27.5342 65.6006 27.5899 65.5661 27.6433 65.5283C28.5767 64.695 29.5133 63.875 30.4416 63.0417C31.93 61.7083 31.9266 61.7083 33.3983 63.0183C34.385 63.8983 35.38 64.77 36.3816 65.655C37.5833 64.5883 38.7333 63.5667 39.8816 62.5467C40.6233 61.88 41.0083 61.8917 41.7633 62.5583L45.265 65.6667ZM17.3383 56.0717V49.1667C17.3383 47.5833 17.3383 46 17.3383 44.42C17.3383 43.5867 16.85 43.15 16.0933 43.235C15.5033 43.3017 15.1933 43.7267 15.1933 44.5117C15.1933 48.3583 15.1933 52.2033 15.1933 56.0783L17.3383 56.0717Z" fill="black"/>
<path id="Vector_2" d="M38.1656 33.6666C38.9056 32.4666 39.7489 31.8116 40.9489 31.7366C42.4089 31.6433 43.4756 32.28 44.1489 33.57C44.2956 33.85 44.4106 34.0233 44.7789 34.0183C46.4006 33.9933 48.0222 33.9983 49.6439 34.0183C49.9639 34.0183 50.1039 33.905 50.2406 33.625C50.9522 32.1633 52.4606 31.4383 53.9622 31.8033C54.6832 31.9738 55.3258 32.3823 55.7861 32.9628C56.2463 33.5434 56.4975 34.2622 56.4991 35.0031C56.5006 35.7439 56.2524 36.4637 55.7946 37.0462C55.3367 37.6287 54.6959 38.0398 53.9756 38.2133C53.2414 38.394 52.4672 38.3125 51.7867 37.9829C51.1062 37.6533 50.5623 37.0964 50.2489 36.4083C50.2042 36.2753 50.1149 36.1618 49.9962 36.0871C49.8774 36.0124 49.7365 35.981 49.5972 35.9983C47.9972 36.0166 46.3956 35.9983 44.7956 36.0233C44.6771 36.0376 44.5631 36.0777 44.4617 36.1407C44.3604 36.2038 44.2741 36.2883 44.2089 36.3883C43.5072 37.69 42.4489 38.375 40.9672 38.2733C39.5356 38.1766 38.6089 37.3683 38.0789 36.0533C37.9854 35.8351 37.8279 35.6503 37.6272 35.5233C36.2239 34.6816 35.4706 33.4633 35.5139 31.8183C35.5589 30.1433 36.3906 28.9366 37.8956 28.235C38.3006 28.0466 38.3323 27.8483 38.2489 27.4716C37.1667 22.6628 36.0917 17.8533 35.0239 13.0433C34.8089 12.0766 34.7839 12.0583 33.7722 11.8766C32.8539 11.71 31.9389 11.5433 31.0173 11.365C30.2989 11.225 29.9456 10.7767 30.0489 10.1567C30.1439 9.57998 30.6189 9.26665 31.3256 9.38832C32.5106 9.59498 33.6956 9.81165 34.8689 10.08C35.9122 10.3183 36.5656 11.0033 36.8189 12.05C37.0422 12.9767 37.2522 13.9067 37.4856 14.8833H60.0022C60.1687 14.8951 60.3358 14.8951 60.5022 14.8833C61.7522 14.705 62.5022 15.4733 61.7239 16.9183C60.1956 19.73 58.7756 22.6016 57.3122 25.4483C56.7122 26.615 56.0839 27.765 55.5289 28.9483C55.2056 29.6366 54.7222 29.8666 53.9972 29.865C49.2372 29.8494 44.4772 29.8494 39.7172 29.865C38.2739 29.865 37.3123 30.91 37.5506 32.27C37.6256 32.7016 37.9106 33.1066 38.1656 33.6666ZM59.3972 16.9333H37.9189C38.6972 20.41 39.4756 23.8333 40.2139 27.2667C40.3239 27.7667 40.5473 27.8666 41.0106 27.865C45.0828 27.8461 49.1545 27.8461 53.2256 27.865C53.6556 27.865 53.8922 27.7433 54.0889 27.35C55.7556 24.0533 57.4622 20.7666 59.1522 17.4766C59.2356 17.3133 59.3006 17.1466 59.3972 16.935V16.9333ZM41.1856 33.7266C40.8465 33.7315 40.5233 33.8709 40.287 34.114C40.0507 34.3572 39.9207 34.6843 39.9256 35.0233C39.9304 35.3624 40.0698 35.6856 40.313 35.9219C40.5561 36.1582 40.8832 36.2882 41.2222 36.2833C41.3901 36.2809 41.5559 36.2455 41.71 36.179C41.8642 36.1125 42.0038 36.0163 42.1208 35.8959C42.2378 35.7755 42.3299 35.6333 42.392 35.4772C42.454 35.3212 42.4846 35.1545 42.4822 34.9866C42.4798 34.8188 42.4444 34.653 42.3779 34.4988C42.3115 34.3447 42.2153 34.2051 42.0949 34.0881C41.9745 33.9711 41.8322 33.879 41.6762 33.8169C41.5202 33.7549 41.3535 33.7242 41.1856 33.7266V33.7266ZM53.2222 36.2816C53.5613 36.2761 53.8842 36.1361 54.1201 35.8925C54.3559 35.6489 54.4853 35.3215 54.4797 34.9825C54.4742 34.6434 54.3342 34.3205 54.0906 34.0847C53.847 33.8488 53.5196 33.7195 53.1806 33.725C53.0127 33.7277 52.847 33.7635 52.693 33.8303C52.5389 33.897 52.3995 33.9935 52.2828 34.1141C52.166 34.2348 52.0741 34.3772 52.0124 34.5334C51.9507 34.6895 51.9203 34.8563 51.9231 35.0241C51.9258 35.192 51.9616 35.3577 52.0283 35.5118C52.0951 35.6658 52.1916 35.8052 52.3122 35.922C52.4329 36.0387 52.5753 36.1306 52.7315 36.1923C52.8876 36.254 53.0544 36.2844 53.2222 36.2816V36.2816Z" fill="black"/>
<path id="Vector_3" d="M24.4443 36.9448C22.0754 36.9448 19.7081 36.9448 17.3426 36.9448C17.073 36.9557 16.8031 36.9327 16.5393 36.8764C16.3401 36.8184 16.1645 36.6989 16.0375 36.5349C15.9106 36.3709 15.8388 36.171 15.8325 35.9637C15.8262 35.7564 15.8857 35.5524 16.0025 35.3811C16.1193 35.2097 16.2874 35.0797 16.4826 35.0098C16.7423 34.9382 17.0118 34.9084 17.2809 34.9214C22.0587 34.9214 26.8365 34.9214 31.6143 34.9214C31.863 34.9111 32.1119 34.9346 32.3543 34.9914C32.5643 35.0513 32.7483 35.1796 32.877 35.3559C33.0058 35.5323 33.072 35.7466 33.0651 35.9648C33.0582 36.1831 32.9787 36.3928 32.839 36.5606C32.6993 36.7285 32.5076 36.8449 32.2942 36.8914C32.0497 36.9359 31.801 36.9538 31.5526 36.9448C29.1793 36.947 26.8098 36.947 24.4443 36.9448Z" fill="black"/>
<path id="Vector_4" d="M24.6939 25.5219C22.1606 25.5219 19.6272 25.5319 17.0956 25.5119C16.7695 25.5191 16.4484 25.4304 16.1722 25.2569C15.5672 24.8036 15.7606 23.8586 16.4889 23.6119C16.7483 23.5415 17.0172 23.5128 17.2856 23.5269C22.2478 23.5269 27.2094 23.5269 32.1705 23.5269C32.2755 23.5269 32.3789 23.5269 32.4822 23.5269C33.1872 23.5553 33.6489 23.9786 33.6389 24.5669C33.6289 25.1553 33.1805 25.5203 32.4722 25.5219C29.8839 25.5269 27.2889 25.5219 24.6939 25.5219Z" fill="black"/>
<path id="Vector_5" d="M20.8266 14.13C19.5582 14.13 18.2899 14.13 17.0216 14.13C16.2616 14.13 15.8366 13.77 15.8282 13.155C15.8199 12.54 16.2616 12.135 17.0482 12.1333C19.5638 12.1333 22.0793 12.1333 24.5949 12.1333C25.3799 12.1333 25.8249 12.515 25.8182 13.1516C25.8116 13.7883 25.3799 14.1283 24.5682 14.13C23.3216 14.1316 22.0732 14.13 20.8266 14.13Z" fill="black"/>
<path id="Vector_6" d="M45.2648 65.6668L41.7765 62.5668C41.0215 61.9002 40.6365 61.9002 39.8948 62.5552C38.7432 63.5752 37.5932 64.5968 36.3948 65.6635C35.3948 64.7785 34.3948 63.9068 33.4115 63.0268C31.9398 61.7135 31.9432 61.7135 30.4548 63.0501C29.5265 63.8835 28.5898 64.7168 27.6565 65.5368C27.6031 65.5746 27.5474 65.6091 27.4898 65.6402L25.0915 63.5285C24.7015 63.1835 24.3165 62.8351 23.9248 62.4951C23.2832 61.9418 22.8682 61.9301 22.2198 62.4568C21.4132 63.1118 20.6115 63.7735 19.8048 64.4302C19.6965 64.5185 19.5765 64.5968 19.3398 64.7635V43.2635C19.4482 43.2635 19.6615 43.2368 19.8748 43.2368H51.7848C52.8948 43.2368 53.1498 43.4885 53.1498 44.5818V64.7718C52.3165 64.0335 51.5732 63.3852 50.8365 62.7335C49.8198 61.8335 49.5832 61.8318 48.5832 62.7218C47.4965 63.6885 46.4065 64.6518 45.2648 65.6668ZM30.5615 54.2568C32.4915 54.2568 34.4221 54.2568 36.3532 54.2568C37.1782 54.2568 37.6515 53.8801 37.6398 53.2418C37.6398 52.6318 37.1648 52.2601 36.3782 52.2601C32.4771 52.2601 28.5754 52.2601 24.6732 52.2601C23.8648 52.2601 23.4332 52.6118 23.4282 53.2468C23.4282 53.9135 23.8615 54.2551 24.7098 54.2568C26.6598 54.2579 28.6104 54.2574 30.5615 54.2551V54.2568ZM30.4948 48.5568C32.1615 48.5568 33.8243 48.5568 35.4832 48.5568C35.9195 48.5702 36.3562 48.5602 36.7915 48.5268C37.033 48.5027 37.2558 48.3859 37.4131 48.201C37.5704 48.0161 37.6498 47.7774 37.6348 47.5351C37.5948 47.0268 37.3315 46.6751 36.8015 46.5985C36.5951 46.5765 36.3873 46.5687 36.1798 46.5751H24.8882C24.6806 46.5676 24.4728 46.576 24.2665 46.6001C24.1364 46.6136 24.0105 46.6539 23.8968 46.7184C23.783 46.7829 23.6838 46.8703 23.6055 46.9751C23.5273 47.0798 23.4715 47.1997 23.4418 47.3271C23.4122 47.4544 23.4092 47.5866 23.4332 47.7151C23.5098 48.2601 23.9065 48.5485 24.6265 48.5485C26.5865 48.5585 28.5398 48.5535 30.4948 48.5551V48.5568ZM45.7065 54.2551C46.3282 54.2551 46.9498 54.2635 47.5715 54.2551C48.2582 54.2435 48.6782 53.8601 48.6832 53.2651C48.6882 52.6701 48.2715 52.2651 47.5815 52.2651C46.2959 52.2507 45.0109 52.2507 43.7265 52.2651C43.0382 52.2735 42.6332 52.6818 42.6498 53.2885C42.6648 53.8668 43.0665 54.2418 43.7165 54.2551C44.3665 54.2685 45.0432 54.2535 45.7065 54.2535V54.2551ZM45.6532 46.5751C44.9865 46.5751 44.3198 46.5585 43.6665 46.5751C43.0382 46.5968 42.6665 46.9635 42.6498 47.5201C42.6332 48.1051 43.0198 48.5301 43.6498 48.5401C44.9832 48.5635 46.2998 48.5618 47.6248 48.5401C48.2782 48.5301 48.6732 48.1301 48.6782 47.5568C48.6832 46.9835 48.2915 46.5918 47.6332 46.5718C46.9748 46.5518 46.3165 46.5735 45.6532 46.5735V46.5751Z" fill="black"/>
<path id="Vector_7" d="M17.3375 56.0719H15.1875C15.1875 52.1969 15.1875 48.3519 15.1875 44.5052C15.1875 43.7202 15.4975 43.2952 16.0875 43.2286C16.8442 43.1436 17.3258 43.5886 17.3325 44.4136C17.3425 45.9952 17.3325 47.5802 17.3325 49.1602V56.0719H17.3375Z" fill="black"/>
<path id="Vector_8" d="M30.5611 54.255C28.6111 54.255 26.6606 54.255 24.7094 54.255C23.8611 54.255 23.4228 53.905 23.4278 53.245C23.4278 52.61 23.8644 52.2583 24.6728 52.2583C28.5739 52.2583 32.4755 52.2583 36.3778 52.2583C37.1644 52.2583 37.6311 52.63 37.6394 53.24C37.6511 53.8783 37.1778 54.255 36.3528 54.255C34.4217 54.2572 32.4911 54.2572 30.5611 54.255Z" fill="black"/>
<path id="Vector_9" d="M45.7076 54.2533C45.0409 54.2533 44.3742 54.2649 43.7176 54.2533C43.0609 54.2416 42.6659 53.8649 42.6509 53.2866C42.6342 52.6799 43.0392 52.2716 43.7276 52.2633C45.012 52.2488 46.297 52.2488 47.5826 52.2633C48.2726 52.2633 48.6892 52.6699 48.6842 53.2633C48.6792 53.8566 48.2592 54.2416 47.5726 54.2533C46.9442 54.2616 46.3292 54.2533 45.7076 54.2533Z" fill="black"/>
<path id="Vector_10" d="M46.9074 22.7283L49.2407 19.3266C49.5141 18.9266 49.9074 18.68 50.354 18.88C50.6712 19.0429 50.92 19.3135 51.0557 19.6433C51.1407 19.8533 51.0107 20.2216 50.8624 20.445C49.9157 21.8816 48.9485 23.3061 47.9607 24.7183C47.5457 25.3133 46.9707 25.385 46.4074 24.92C45.6707 24.3133 44.9485 23.6905 44.2407 23.0516C44.0346 22.8877 43.9015 22.649 43.8703 22.3876C43.8391 22.1261 43.9123 21.8628 44.0741 21.655C44.4274 21.215 45.0241 21.155 45.5157 21.55C45.9724 21.91 46.4007 22.2966 46.9074 22.7283Z" fill="black"/>
<path id="Subtract" fill-rule="evenodd" clip-rule="evenodd" d="M47.1656 13.094C47.0917 13.1112 47.0125 13.121 46.9283 13.1232C46.3033 13.1399 45.9083 12.6816 45.9083 11.9016V7.33822C45.9066 6.39822 45.52 6.00488 44.5883 6.00488H12.345C11.3733 6.00488 11 6.40822 11 7.45488V28.0799V54.4532C11 55.5416 11.3767 56.0949 12.1017 56.0899C12.8267 56.0849 13.1983 55.5299 13.1983 54.4432V44.5699C13.2 42.4282 14.4217 41.2016 16.57 41.2016C26.0511 41.2104 35.5322 41.2199 45.0133 41.2299H45.9133C45.9133 41.0714 45.9122 40.9176 45.911 40.7668V40.7666V40.7664V40.766V40.7659C45.9088 40.4728 45.9067 40.1909 45.9133 39.9082C45.9366 39.1766 46.3483 38.7365 46.9366 38.7532C47.0172 38.7555 47.0936 38.7655 47.1656 38.7828V35.9972C46.3736 35.9966 45.5816 35.9967 44.79 36.0116C44.6715 36.0258 44.5575 36.0659 44.4561 36.129C44.3548 36.192 44.2685 36.2765 44.2033 36.3766C43.5016 37.6782 42.4433 38.3632 40.9616 38.2616C39.53 38.1649 38.6033 37.3566 38.0733 36.0416C37.9798 35.8233 37.8223 35.6385 37.6216 35.5116C36.2183 34.6699 35.465 33.4515 35.5083 31.8065C35.5567 30.1315 36.39 28.9249 37.89 28.2232C38.295 28.0349 38.3266 27.8366 38.2433 27.4599C37.1666 22.651 36.0917 17.8416 35.0183 13.0316C34.8033 12.0682 34.7783 12.0499 33.7666 11.8649L33.5728 11.8295L33.5726 11.8294L33.5725 11.8294C32.7162 11.6731 31.8639 11.5175 31.0116 11.3532C30.2933 11.2132 29.94 10.7649 30.0433 10.1449C30.1383 9.56822 30.6133 9.25488 31.32 9.37655C32.505 9.58322 33.6967 9.79989 34.8633 10.0682C35.9067 10.3066 36.56 10.9916 36.8133 12.0382C36.9901 12.7504 37.1558 13.4686 37.3276 14.2129C37.3778 14.4301 37.4284 14.6495 37.48 14.8716H47.1656V13.094ZM47.1656 29.8482V33.9921C46.3681 33.9917 45.5707 33.9959 44.7733 34.0065C44.405 34.0065 44.29 33.8399 44.1433 33.5582C43.4766 32.2732 42.4033 31.6366 40.9433 31.7249C39.7483 31.8132 38.905 32.4682 38.165 33.6665C38.0807 33.481 37.9932 33.3125 37.9109 33.1541L37.9109 33.1541L37.9109 33.1541C37.7442 32.8332 37.5991 32.5539 37.5466 32.2582C37.305 30.8982 38.2666 29.8549 39.7133 29.8532C42.1974 29.8497 44.6815 29.8481 47.1656 29.8482ZM31.545 36.9449H24.4433C22.0755 36.9471 19.7061 36.9471 17.335 36.9449C17.0654 36.9558 16.7955 36.9328 16.5317 36.8766C16.3326 36.8186 16.1569 36.699 16.0299 36.5351C15.903 36.3711 15.8312 36.1711 15.8249 35.9638C15.8186 35.7565 15.8781 35.5526 15.9949 35.3812C16.1117 35.2098 16.2798 35.0798 16.475 35.0099C16.7348 34.9384 17.0042 34.9086 17.2733 34.9216H31.6066C31.8553 34.9112 32.1043 34.9347 32.3466 34.9916C32.5567 35.0514 32.7406 35.1797 32.8694 35.356C32.9982 35.5324 33.0644 35.7467 33.0575 35.9649C33.0506 36.1832 32.971 36.3929 32.8314 36.5608C32.6917 36.7286 32.5 36.8451 32.2866 36.8916C32.0421 36.9361 31.7934 36.9539 31.545 36.9449ZM32.4783 25.5216H24.6933C24.2106 25.5219 23.7278 25.5224 23.2451 25.523C21.1948 25.5254 19.1455 25.5277 17.1017 25.5116C16.7756 25.5187 16.4545 25.4301 16.1783 25.2566C15.5733 24.8032 15.7667 23.8582 16.495 23.6116C16.7544 23.5411 17.0233 23.5124 17.2917 23.5266H32.1767H32.4883C33.1933 23.5549 33.6717 23.9932 33.645 24.5666C33.6183 25.1399 33.18 25.5216 32.4783 25.5216ZM18.235 17.8432H24.0967L30.9516 17.8449C31.1593 17.8353 31.3673 17.8442 31.5733 17.8716C31.7937 17.901 31.9956 18.0105 32.1404 18.1793C32.2851 18.3481 32.3627 18.5642 32.3583 18.7866C32.3873 18.9966 32.3388 19.21 32.2219 19.387C32.1051 19.5639 31.9279 19.6923 31.7233 19.7482C31.4425 19.8199 31.1529 19.8507 30.8633 19.8399H17.3317C17.0831 19.8504 16.8341 19.8314 16.59 19.7832C16.0517 19.6516 15.7767 19.2816 15.835 18.7282C15.8424 18.4946 15.9405 18.2731 16.1085 18.1107C16.2766 17.9482 16.5013 17.8577 16.735 17.8582C17.1068 17.8347 17.4786 17.8378 17.8503 17.841H17.8504C17.9786 17.8421 18.1068 17.8432 18.235 17.8432ZM16.9667 29.2349H23.6333C24.2569 29.2349 24.8804 29.2341 25.504 29.2333H25.5044H25.5047H25.5051H25.5054C27.065 29.2312 28.6254 29.2292 30.1883 29.2399C31.0616 29.2466 31.6 30.0649 31.1366 30.7082C31.0248 30.8495 30.8854 30.9667 30.727 31.0526C30.5686 31.1386 30.3944 31.1915 30.215 31.2082C25.7867 31.2399 21.3583 31.2349 16.93 31.2249C16.24 31.2232 15.8233 30.8016 15.835 30.2082C15.8467 29.6149 16.2633 29.2349 16.9667 29.2349ZM24.5683 14.1299H20.8267C20.4039 14.1299 19.9811 14.1303 19.5583 14.1306C18.7128 14.1314 17.8672 14.1321 17.0217 14.1299C16.2617 14.1249 15.835 13.7932 15.8283 13.1549C15.8217 12.5166 16.2617 12.1332 17.0483 12.1332H24.595C25.38 12.1349 25.8233 12.5182 25.8183 13.1516C25.8133 13.7849 25.38 14.1299 24.5683 14.1299Z" fill="black"/>
</g>
</g>
</svg>