<?xml version="1.0" ?><svg xmlns="http://www.w3.org/2000/svg" fill="none" viewBox="4 11 67 52.98">
<g id="create-employee">
<g id="Group 1171275646">
<g id="Vector 846">
<path d="M18.022 13.3367L13.8158 18.945L14.7505 25.9553L19.8914 28.7594L26.4344 27.8247C27.0575 25.6437 28.3038 21.0014 28.3038 19.8797C28.3038 18.7581 27.0575 16.6082 26.4344 15.6735L23.1629 12.402L18.022 13.3367Z" fill="black"/>
<path d="M7.27287 39.9759L4.46875 47.4536L24.565 49.7904H37.6509L36.2488 43.7148L30.6406 37.6392L25.4997 35.3024L14.7505 35.7697L7.27287 39.9759Z" fill="black"/>
</g>
<path id="Subtract" fill-rule="evenodd" clip-rule="evenodd" d="M22.7675 31.0642C17.6064 31.0642 13.4264 26.5129 13.4264 20.9146C13.4264 15.4017 17.5851 11 22.7675 11C27.8859 11 32.1085 15.4658 32.1085 20.9573C32.0872 26.5342 27.9072 31.0642 22.7675 31.0642ZM47.4851 31.5556C42.9851 31.5556 39.3596 27.5599 39.3596 22.624C39.3596 17.8163 42.9851 13.9274 47.4851 13.9274C51.9423 13.9274 55.6319 17.8804 55.6105 22.6453C55.6105 27.5813 51.9637 31.5556 47.4851 31.5556ZM22.7675 27.3248C25.7105 27.3248 28.2058 24.5471 28.2058 20.9359C28.2058 17.453 25.7319 14.7393 22.7675 14.7393C19.7817 14.7393 17.3292 17.4103 17.3292 20.9146C17.3292 24.5043 19.8031 27.3248 22.7675 27.3248ZM47.4851 27.859C49.895 27.859 51.9424 25.5513 51.9424 22.6453C51.9424 19.8676 49.9163 17.6026 47.4851 17.6026C45.0112 17.6026 43.0065 19.8248 43.0065 22.624C43.0065 25.5513 45.0538 27.859 47.4851 27.859ZM60.6163 39.4233C57.6453 36.0697 52.8826 33.7779 47.5064 33.7779C44.1794 33.7779 40.8098 34.6753 38.1013 36.342C39.2743 37.1112 40.17 38.0086 40.8951 39.0556C42.7292 38.03 45.1178 37.4317 47.5064 37.4317C50.2395 37.4317 52.8017 38.193 54.8846 39.4233H60.6163ZM45.2632 51.1924C45.3565 50.5512 45.9123 50.0545 46.5783 50.0545H46.7427V47.5386H44.4567C44.606 48.9488 43.8169 50.5087 42.6439 51.1924H45.2632ZM9.48095 51.1924C5.79144 51.1924 4 50.0172 4 47.4958C4 41.6198 11.3364 33.7992 22.7675 33.7992C34.1986 33.7992 41.5349 41.6198 41.5349 47.4958C41.5349 50.0172 39.7435 51.1924 36.054 51.1924H9.48095ZM36.7364 47.4531C37.227 47.4531 37.4189 47.2822 37.4189 46.8976C37.4189 43.6283 32.1512 37.5386 22.7675 37.5386C13.3837 37.5386 8.11605 43.6283 8.11605 46.8976C8.11605 47.2822 8.30798 47.4531 8.81982 47.4531H36.7364Z" fill="black"/>
<g id="Group 1171275644">
<circle id="Ellipse 2748" cx="56.5614" cy="49.543" r="12.9364" fill="black" stroke-width="3"/>
<path id="Vector" d="M47.5907 49.4293C47.4664 50.0678 47.6157 50.5488 48.1298 51.063C48.4201 51.3532 48.7186 51.5522 48.9259 51.5937C49.1166 51.6352 50.5595 51.6685 52.1185 51.6686L54.971 51.6854L54.9795 54.5296C54.9879 56.0969 55.0212 57.5398 55.0627 57.7305C55.1622 58.2114 55.9418 58.9578 56.4476 59.0656C57.0861 59.1901 57.5671 59.0409 58.0811 58.5268C58.3714 58.2366 58.5703 57.938 58.6118 57.7307C58.6532 57.54 58.6863 56.0972 58.6945 54.5299L58.7026 51.6857L61.5551 51.6693C63.1141 51.6694 64.5569 51.6363 64.7477 51.5949C64.955 51.5534 65.2535 51.3544 65.5437 51.0642C66.0578 50.5501 66.207 50.0692 66.0826 49.4307C65.9747 48.9248 65.2284 48.1453 64.7474 48.0458C64.5567 48.0043 63.1138 47.971 61.5466 47.9626L58.7023 47.9541L58.6855 45.1016C58.6854 43.5426 58.6521 42.0997 58.6106 41.909C58.5692 41.7017 58.3701 41.4032 58.0799 41.1129C57.5657 40.5987 57.0847 40.4494 56.4463 40.5738C55.9404 40.6815 55.161 41.4278 55.0615 41.9087C55.0201 42.0995 54.987 43.5423 54.9871 45.1013L54.9708 47.9538L52.1265 47.9619C50.5592 47.9701 49.1164 48.0032 48.9257 48.0446C48.4447 48.1441 47.6985 48.9235 47.5907 49.4293Z" fill="black"/>
</g>
</g>
</g>
</svg>