<?xml version="1.0" ?><svg xmlns="http://www.w3.org/2000/svg" fill="none" viewBox="2 4 67.76 61.76">
<g id="my-employee-leave-cancelation">
<g id="my-leaves">
<g id="Group 1171274798">
<path id="Ellipse 2497" d="M28.9298 28.0127C33.7883 28.0127 37.7269 23.716 37.7269 18.4159C37.7269 13.1157 33.7883 8.81909 28.9298 8.81909C24.0714 8.81909 20.1328 13.1157 20.1328 18.4159C20.1328 23.716 24.0714 28.0127 28.9298 28.0127Z" fill="black"/>
<path id="Subtract" fill-rule="evenodd" clip-rule="evenodd" d="M41.4773 17.868C41.4773 25.7157 35.6067 32.1255 28.3583 32.1255C21.1098 32.1255 15.269 25.7455 15.2389 17.928C15.209 10.2301 21.1396 4 28.3583 4C35.6067 4 41.4773 10.1403 41.4773 17.868ZM20.7204 17.928C20.7204 22.96 24.2248 26.8837 28.3583 26.8837C32.5216 26.8837 35.9962 22.9 35.9962 17.868C35.9962 12.9559 32.5514 9.24169 28.3583 9.24169C24.1949 9.24169 20.6902 13.0156 20.7204 17.928ZM40.9243 59.9811H9.66783C4.48606 59.9811 2 58.3338 2 54.7996C2 46.5625 12.3037 35.5998 28.3583 35.5998C34.3962 35.5998 39.6167 37.1506 43.7803 39.5238C42.1076 40.1848 40.9243 41.816 40.9243 43.7237V43.9288C37.6555 42.1089 33.4359 40.8416 28.3583 40.8416C15.1491 40.8416 7.75086 49.3781 7.75086 53.9607C7.75086 54.5 8.02046 54.7396 8.73931 54.7396H40.9243V59.9811Z" fill="black"/>
</g>
</g>
<g id="Group 1171275499">
<circle id="Ellipse 2694" cx="56.3819" cy="52.3807" r="12.2648" fill="black"/>
<path id="Vector" d="M50.6264 58.133C50.8717 58.3783 51.1839 58.501 51.563 58.501C51.9421 58.501 52.2543 58.3783 52.4996 58.133L56.3797 54.2529L60.2933 58.1665C60.5386 58.4118 60.8454 58.5286 61.2138 58.517C61.5813 58.5063 61.8877 58.3783 62.133 58.133C62.3783 57.8877 62.501 57.5755 62.501 57.1964C62.501 56.8173 62.3783 56.5051 62.133 56.2599L58.2529 52.3797L62.1665 48.4662C62.4118 48.2209 62.5286 47.914 62.517 47.5456C62.5063 47.1781 62.3783 46.8717 62.133 46.6264C61.8877 46.3812 61.5755 46.2585 61.1964 46.2585C60.8173 46.2585 60.5051 46.3812 60.2599 46.6264L56.3797 50.5066L52.4662 46.593C52.2209 46.3477 51.9145 46.2304 51.547 46.2411C51.1786 46.2527 50.8717 46.3812 50.6264 46.6264C50.3812 46.8717 50.2585 47.1839 50.2585 47.563C50.2585 47.9421 50.3812 48.2543 50.6264 48.4996L54.5066 52.3797L50.593 56.2933C50.3477 56.5386 50.2309 56.845 50.2424 57.2125C50.2532 57.5809 50.3812 57.8877 50.6264 58.133ZM56.3797 65.7595C54.5289 65.7595 52.7895 65.408 51.1616 64.7051C49.5338 64.0031 48.1177 63.0501 46.9136 61.8459C45.7094 60.6417 44.7563 59.2257 44.0543 57.5978C43.3514 55.97 43 54.2306 43 52.3797C43 50.5289 43.3514 48.7895 44.0543 47.1616C44.7563 45.5338 45.7094 44.1177 46.9136 42.9136C48.1177 41.7094 49.5338 40.7559 51.1616 40.053C52.7895 39.351 54.5289 39 56.3797 39C58.2306 39 59.97 39.351 61.5978 40.053C63.2257 40.7559 64.6417 41.7094 65.8459 42.9136C67.0501 44.1177 68.0031 45.5338 68.7051 47.1616C69.408 48.7895 69.7595 50.5289 69.7595 52.3797C69.7595 54.2306 69.408 55.97 68.7051 57.5978C68.0031 59.2257 67.0501 60.6417 65.8459 61.8459C64.6417 63.0501 63.2257 64.0031 61.5978 64.7051C59.97 65.408 58.2306 65.7595 56.3797 65.7595ZM56.3797 63.0835C59.3456 63.0835 61.8712 62.0412 63.9567 59.9567C66.0412 57.8712 67.0835 55.3456 67.0835 52.3797C67.0835 49.4139 66.0412 46.8882 63.9567 44.8028C61.8712 42.7182 59.3456 41.6759 56.3797 41.6759C53.4139 41.6759 50.8887 42.7182 48.8041 44.8028C46.7187 46.8882 45.6759 49.4139 45.6759 52.3797C45.6759 55.3456 46.7187 57.8712 48.8041 59.9567C50.8887 62.0412 53.4139 63.0835 56.3797 63.0835Z" fill="black"/>
</g>
</g>
</svg>