<?xml version="1.0" ?><svg xmlns="http://www.w3.org/2000/svg" fill="none" viewBox="6.06 6.97 60.25 57.41">
<g id="bill-payment-report">
<g id="payments">
<g id="Vector">
<path id="Vector_2" d="M49.7883 7.61996C45.4125 8.43028 41.5576 11.4401 39.7055 15.4917L39.2539 16.4757H27.1802H15.1062L14.8399 16.742C14.5737 17.0082 14.5621 17.0545 14.4926 20.3075C14.4579 22.1133 14.3884 29.7767 14.3537 37.3359L14.2843 51.0885H10.8114C7.06075 51.0885 6.74818 51.1348 6.5977 51.7136C6.56296 51.8639 6.55139 53.3574 6.57456 55.036C6.62084 57.9994 6.62084 58.1151 6.92182 58.8675C7.35013 59.9903 7.89424 60.8587 8.69298 61.6689C9.53804 62.5373 10.4757 63.1161 11.7028 63.5559L12.6289 63.88H29.009H45.3894L46.1997 63.6138C48.5034 62.8499 50.2514 61.1365 51.0964 58.8212L51.409 57.9761L51.4436 46.3885L51.4669 34.8007L53.0065 34.7313C54.1293 34.685 54.8356 34.5923 55.6922 34.3609C60.8203 33.0064 64.7563 28.7117 65.6708 23.4794C65.914 22.0437 65.8213 19.092 65.4972 17.8648C64.5247 14.2299 62.3947 11.3243 59.2923 9.40269C58.1462 8.69654 56.954 8.19878 55.5301 7.82832C54.1062 7.45789 51.247 7.35372 49.7883 7.61996ZM54.4418 9.71524C57.9959 10.4445 60.9824 12.7366 62.5798 15.9548C64.8257 20.4811 63.9691 25.7598 60.3921 29.3369C55.8312 33.8978 48.5843 33.9093 44.0001 29.3715C42.5532 27.9361 41.5228 26.1533 40.9094 24.0464C40.6778 23.2592 40.6432 22.8657 40.6432 21.1641C40.6432 19.4625 40.6778 19.0572 40.9094 18.2122C42.0901 13.8711 45.6093 10.5719 49.9618 9.70367C51.0386 9.48372 53.3769 9.49529 54.4418 9.71524ZM38.6868 18.7562C38.5248 19.5085 38.4785 21.7893 38.6057 22.75C38.7562 23.9077 39.1151 25.3546 39.4277 26.0491L39.6476 26.547H34.9129H30.1899L29.8889 26.9059C29.5069 27.3573 29.5069 27.7046 29.8889 28.156L30.1899 28.5149H35.4338H40.6777L41.1987 29.2442C42.8773 31.5941 45.5745 33.481 48.3759 34.2682L49.499 34.5808V45.5317C49.499 52.628 49.4527 56.7376 49.3715 57.2237C48.9432 59.8861 46.6049 61.8658 43.8844 61.8773C41.222 61.8773 38.8719 59.921 38.3973 57.2931C38.3279 56.9112 38.2701 55.4988 38.2701 54.1446C38.2701 51.8987 38.2468 51.6673 38.0502 51.4241L37.8303 51.1463L27.0411 51.1115L16.2638 51.0885L16.3217 46.7705C16.368 44.4089 16.4258 37.0581 16.4607 30.4482L16.53 18.4436H27.6433H38.7562L38.6868 18.7562ZM36.3252 55.5685C36.3601 57.7099 36.3946 58.0573 36.6378 58.7285C36.9619 59.6662 37.6449 60.8239 38.2585 61.4838L38.7099 61.9815L25.9647 61.9467C13.2656 61.9121 13.2077 61.9121 12.4899 61.6689C11.5407 61.3448 10.7651 60.8354 10.0474 60.0715C8.86663 58.8212 8.51934 57.6984 8.51934 54.9896V53.172H22.3991H36.2789L36.3252 55.5685Z" fill="black"/>
<g id="Vector_3">
<path d="M54.4418 9.71524C57.9959 10.4445 60.9824 12.7366 62.5798 15.9548C64.8257 20.4811 63.9691 25.7598 60.3921 29.3369C55.8312 33.8978 48.5843 33.9093 44.0001 29.3715C42.5532 27.9361 41.5228 26.1533 40.9094 24.0464C40.6778 23.2592 40.6432 22.8657 40.6432 21.1641C40.6432 19.4625 40.6778 19.0572 40.9094 18.2122C42.0901 13.8711 45.6093 10.5719 49.9618 9.70367C51.0386 9.48372 53.3769 9.49529 54.4418 9.71524Z" fill="black"/>
<path d="M36.3252 55.5685C36.3601 57.7099 36.3946 58.0573 36.6378 58.7285C36.9619 59.6662 37.6449 60.8239 38.2585 61.4838L38.7099 61.9815L25.9647 61.9467L25.9398 61.9466C13.2655 61.9121 13.2072 61.912 12.4899 61.6689C11.5407 61.3448 10.7651 60.8354 10.0474 60.0715C8.86663 58.8212 8.51934 57.6984 8.51934 54.9896V53.172H22.3991H36.2789L36.3252 55.5685Z" fill="black"/>
<path d="M25.9647 61.9467L38.7099 61.9815L38.2585 61.4838C37.6449 60.8239 36.9619 59.6662 36.6378 58.7285C36.3946 58.0573 36.3601 57.7099 36.3252 55.5685L36.2789 53.172H22.3991H8.51934V54.9896C8.51934 57.6984 8.86663 58.8212 10.0474 60.0715C10.7651 60.8354 11.5407 61.3448 12.4899 61.6689C13.2072 61.912 13.2655 61.9121 25.9398 61.9466M25.9647 61.9467L25.9398 61.9466M25.9647 61.9467C25.9564 61.9467 25.9481 61.9466 25.9398 61.9466M49.7883 7.61996C45.4125 8.43028 41.5576 11.4401 39.7055 15.4917L39.2539 16.4757H27.1802H15.1062L14.8399 16.742C14.5737 17.0082 14.5621 17.0545 14.4926 20.3075C14.4579 22.1133 14.3884 29.7767 14.3537 37.3359L14.2843 51.0885H10.8114C7.06075 51.0885 6.74818 51.1348 6.5977 51.7136C6.56296 51.8639 6.55139 53.3574 6.57456 55.036C6.62084 57.9994 6.62084 58.1151 6.92182 58.8675C7.35013 59.9903 7.89424 60.8587 8.69298 61.6689C9.53804 62.5373 10.4757 63.1161 11.7028 63.5559L12.6289 63.88H29.009H45.3894L46.1997 63.6138C48.5034 62.8499 50.2514 61.1365 51.0964 58.8212L51.409 57.9761L51.4436 46.3885L51.4669 34.8007L53.0065 34.7313C54.1293 34.685 54.8356 34.5923 55.6922 34.3609C60.8203 33.0064 64.7563 28.7117 65.6708 23.4794C65.914 22.0437 65.8213 19.092 65.4972 17.8648C64.5247 14.2299 62.3947 11.3243 59.2923 9.40269C58.1462 8.69654 56.954 8.19878 55.5301 7.82832C54.1062 7.45789 51.247 7.35372 49.7883 7.61996ZM54.4418 9.71524C57.9959 10.4445 60.9824 12.7366 62.5798 15.9548C64.8257 20.4811 63.9691 25.7598 60.3921 29.3369C55.8312 33.8978 48.5843 33.9093 44.0001 29.3715C42.5532 27.9361 41.5228 26.1533 40.9094 24.0464C40.6778 23.2592 40.6432 22.8657 40.6432 21.1641C40.6432 19.4625 40.6778 19.0572 40.9094 18.2122C42.0901 13.8711 45.6093 10.5719 49.9618 9.70367C51.0386 9.48372 53.3769 9.49529 54.4418 9.71524ZM38.6868 18.7562C38.5248 19.5085 38.4785 21.7893 38.6057 22.75C38.7562 23.9077 39.1151 25.3546 39.4277 26.0491L39.6476 26.547H34.9129H30.1899L29.8889 26.9059C29.5069 27.3573 29.5069 27.7046 29.8889 28.156L30.1899 28.5149H35.4338H40.6777L41.1987 29.2442C42.8773 31.5941 45.5745 33.481 48.3759 34.2682L49.499 34.5808V45.5317C49.499 52.628 49.4527 56.7376 49.3715 57.2237C48.9432 59.8861 46.6049 61.8658 43.8844 61.8773C41.222 61.8773 38.8719 59.921 38.3973 57.2931C38.3279 56.9112 38.2701 55.4988 38.2701 54.1446C38.2701 51.8987 38.2468 51.6673 38.0502 51.4241L37.8303 51.1463L27.0411 51.1115L16.2638 51.0885L16.3217 46.7705C16.368 44.4089 16.4258 37.0581 16.4607 30.4482L16.53 18.4436H27.6433H38.7562L38.6868 18.7562Z" fill="black"/>
</g>
</g>
<g id="Vector_2_2">
<path id="Vector_4" d="M51.5862 12.2157C51.2042 12.4241 51.0073 12.8408 51.0073 13.4659V13.9869L50.255 14.3689C48.9583 15.0403 48.1711 16.2095 48.0324 17.6564C47.8122 20.018 49.7455 22.1482 52.1186 22.1482C53.1951 22.1482 54.2022 23.1435 54.237 24.2433C54.2486 24.4053 54.1213 24.7875 53.9593 25.1116C52.9637 27.0795 50.3359 26.5007 50.0466 24.2433C49.9654 23.6299 49.6877 23.3173 49.1204 23.2247C48.7615 23.1668 48.6573 23.2131 48.3332 23.5257C47.9743 23.8844 47.9743 23.9192 48.0439 24.6022C48.1944 26.0724 49.2015 27.4847 50.4749 28.0057L51.0073 28.2256V28.8853C51.0073 29.7652 51.343 30.1935 52.0375 30.1935C52.7205 30.1935 52.9867 29.8809 53.0794 28.9665C53.1488 28.2487 53.1488 28.2487 53.6119 28.0866C54.6886 27.7277 55.7999 26.5007 56.1125 25.3315C56.1819 25.0768 56.2167 24.4517 56.1934 23.9425C56.1586 23.1668 56.0777 22.9006 55.7536 22.2869C55.0706 21.0021 54.1098 20.3769 52.4079 20.1222C51.2621 19.9486 51.0882 19.8792 50.6369 19.4046C50.0118 18.7447 49.896 17.7954 50.3707 16.9967C50.6948 16.4294 51.0073 16.198 51.6788 16.0126C52.9289 15.677 54.2486 16.7883 54.2486 18.1891C54.2486 18.93 55.3716 19.3004 55.9272 18.7331C56.3091 18.3627 56.3209 17.4598 55.962 16.5105C55.6261 15.6076 54.5496 14.5079 53.7046 14.2068L53.1142 13.9984L53.0679 13.327C53.01 12.563 52.7784 12.2389 52.2228 12.1347C52.026 12.1 51.7482 12.1347 51.5862 12.2157Z" fill="black"/>
<path id="Vector_5" d="M51.5862 12.2157C51.2042 12.4241 51.0073 12.8408 51.0073 13.4659V13.9869L50.255 14.3689C48.9583 15.0403 48.1711 16.2095 48.0324 17.6564C47.8122 20.018 49.7455 22.1482 52.1186 22.1482C53.1951 22.1482 54.2022 23.1435 54.237 24.2433C54.2486 24.4053 54.1213 24.7875 53.9593 25.1116C52.9637 27.0795 50.3359 26.5007 50.0466 24.2433C49.9654 23.6299 49.6877 23.3173 49.1204 23.2247C48.7615 23.1668 48.6573 23.2131 48.3332 23.5257C47.9743 23.8844 47.9743 23.9192 48.0439 24.6022C48.1944 26.0724 49.2015 27.4847 50.4749 28.0057L51.0073 28.2256V28.8853C51.0073 29.7652 51.343 30.1935 52.0375 30.1935C52.7205 30.1935 52.9867 29.8809 53.0794 28.9665C53.1488 28.2487 53.1488 28.2487 53.6119 28.0866C54.6886 27.7277 55.7999 26.5007 56.1125 25.3315C56.1819 25.0768 56.2167 24.4517 56.1934 23.9425C56.1586 23.1668 56.0777 22.9006 55.7536 22.2869C55.0706 21.0021 54.1098 20.3769 52.4079 20.1222C51.2621 19.9486 51.0882 19.8792 50.6369 19.4046C50.0118 18.7447 49.896 17.7954 50.3707 16.9967C50.6948 16.4294 51.0073 16.198 51.6788 16.0126C52.9289 15.677 54.2486 16.7883 54.2486 18.1891C54.2486 18.93 55.3716 19.3004 55.9272 18.7331C56.3091 18.3627 56.3209 17.4598 55.962 16.5105C55.6261 15.6076 54.5496 14.5079 53.7046 14.2068L53.1142 13.9984L53.0679 13.327C53.01 12.563 52.7784 12.2389 52.2228 12.1347C52.026 12.1 51.7482 12.1347 51.5862 12.2157Z" fill="black"/>
</g>
<g id="Vector_3_2">
<path id="Vector_6" d="M23.162 24.8453C21.275 25.7482 20.7773 28.0405 22.1431 29.5568C22.8379 30.3324 23.6018 30.645 24.6667 30.5756C25.5929 30.5178 26.2181 30.2398 26.7621 29.6494C27.3872 28.9897 27.5608 28.5496 27.5608 27.5889C27.5608 26.6281 27.3872 26.1883 26.7621 25.5283C26.1948 24.9147 25.5929 24.6602 24.6089 24.6139C23.868 24.5791 23.6481 24.6139 23.162 24.8453ZM25.1529 26.848C25.7435 27.2184 25.616 28.0983 24.9445 28.4339C24.4932 28.6538 24.0764 28.5729 23.6596 28.2025C23.3819 27.9593 23.3819 27.2184 23.6596 26.9755C24.1342 26.547 24.6089 26.5009 25.1529 26.848Z" fill="black"/>
<path id="Vector_7" d="M23.162 24.8453C21.275 25.7482 20.7773 28.0405 22.1431 29.5568C22.8379 30.3324 23.6018 30.645 24.6667 30.5756C25.5929 30.5178 26.2181 30.2398 26.7621 29.6494C27.3872 28.9897 27.5608 28.5496 27.5608 27.5889C27.5608 26.6281 27.3872 26.1883 26.7621 25.5283C26.1948 24.9147 25.5929 24.6602 24.6089 24.6139C23.868 24.5791 23.6481 24.6139 23.162 24.8453ZM25.1529 26.848C25.7435 27.2184 25.616 28.0983 24.9445 28.4339C24.4932 28.6538 24.0764 28.5729 23.6596 28.2025C23.3819 27.9593 23.3819 27.2184 23.6596 26.9755C24.1342 26.547 24.6089 26.5009 25.1529 26.848Z" fill="black"/>
</g>
<g id="Vector_4_2">
<path id="Vector_8" d="M23.5657 33.0179C21.4125 33.6776 20.6371 36.4096 22.1651 37.984C22.7555 38.5859 23.3688 38.8521 24.2951 38.9102C25.2558 38.9681 25.9388 38.7364 26.5988 38.1461C27.3164 37.4979 27.548 36.9421 27.5596 35.9235C27.5596 35.1826 27.5132 34.9742 27.247 34.5111C26.8417 33.8396 26.2284 33.3189 25.5454 33.0873C25.0011 32.9022 24.0519 32.8674 23.5657 33.0179ZM25.2443 35.2868C25.7304 35.7614 25.5917 36.4675 24.9432 36.8034C23.9246 37.3243 22.8827 35.9929 23.7393 35.252C24.1678 34.8931 24.8739 34.9049 25.2443 35.2868Z" fill="black"/>
<path id="Vector_9" d="M23.5657 33.0179C21.4125 33.6776 20.6371 36.4096 22.1651 37.984C22.7555 38.5859 23.3688 38.8521 24.2951 38.9102C25.2558 38.9681 25.9388 38.7364 26.5988 38.1461C27.3164 37.4979 27.548 36.9421 27.5596 35.9235C27.5596 35.1826 27.5132 34.9742 27.247 34.5111C26.8417 33.8396 26.2284 33.3189 25.5454 33.0873C25.0011 32.9022 24.0519 32.8674 23.5657 33.0179ZM25.2443 35.2868C25.7304 35.7614 25.5917 36.4675 24.9432 36.8034C23.9246 37.3243 22.8827 35.9929 23.7393 35.252C24.1678 34.8931 24.8739 34.9049 25.2443 35.2868Z" fill="black"/>
</g>
<g id="Vector_5_2">
<path id="Vector_10" d="M30.1636 35.0324C29.5269 35.3565 29.446 36.2827 30.0133 36.7341C30.3141 36.9657 30.4301 36.9657 37.1442 36.9424L43.9625 36.9076L44.1824 36.6299C44.4023 36.3636 44.4719 35.7733 44.3329 35.4029C44.1361 34.8934 43.974 34.8819 37.0285 34.8819C31.9579 34.8819 30.3837 34.9167 30.1636 35.0324Z" fill="black"/>
<path id="Vector_11" d="M30.1636 35.0324C29.5269 35.3565 29.446 36.2827 30.0133 36.7341C30.3141 36.9657 30.4301 36.9657 37.1442 36.9424L43.9625 36.9076L44.1824 36.6299C44.4023 36.3636 44.4719 35.7733 44.3329 35.4029C44.1361 34.8934 43.974 34.8819 37.0285 34.8819C31.9579 34.8819 30.3837 34.9167 30.1636 35.0324Z" fill="black"/>
</g>
<g id="Vector_6_2">
<path id="Vector_12" d="M23.2929 41.4803C22.5639 41.7695 21.9154 42.3947 21.5913 43.1471C21.3947 43.6102 21.3599 43.8764 21.3947 44.4901C21.4641 45.3466 21.6725 45.8212 22.2398 46.4001C22.8183 46.9789 23.2929 47.1757 24.1728 47.2451C25.2032 47.3145 25.8744 47.1179 26.5344 46.5391C27.1711 45.9833 27.5067 45.3466 27.5879 44.5479C27.8193 42.3138 25.4577 40.6352 23.2929 41.4803ZM25.2378 43.6217C25.62 43.9806 25.6315 44.4785 25.2611 44.9183C24.5781 45.7171 23.1427 44.9762 23.4783 43.9921C23.7215 43.2976 24.6707 43.1007 25.2378 43.6217Z" fill="black"/>
<path id="Vector_13" d="M23.2929 41.4803C22.5639 41.7695 21.9154 42.3947 21.5913 43.1471C21.3947 43.6102 21.3599 43.8764 21.3947 44.4901C21.4641 45.3466 21.6725 45.8212 22.2398 46.4001C22.8183 46.9789 23.2929 47.1757 24.1728 47.2451C25.2032 47.3145 25.8744 47.1179 26.5344 46.5391C27.1711 45.9833 27.5067 45.3466 27.5879 44.5479C27.8193 42.3138 25.4577 40.6352 23.2929 41.4803ZM25.2378 43.6217C25.62 43.9806 25.6315 44.4785 25.2611 44.9183C24.5781 45.7171 23.1427 44.9762 23.4783 43.9921C23.7215 43.2976 24.6707 43.1007 25.2378 43.6217Z" fill="black"/>
</g>
<g id="Vector_7_2">
<path id="Vector_14" d="M30.0185 43.5638C29.8564 43.6913 29.6944 43.946 29.648 44.1311C29.5671 44.513 29.8216 45.1151 30.1111 45.2308C30.2153 45.2656 33.3641 45.3002 37.103 45.3002H43.9098L44.153 45.034C44.5349 44.6287 44.5004 43.8879 44.1066 43.5755C43.8056 43.3323 43.7014 43.3323 37.0569 43.3323C30.4816 43.3323 30.308 43.3323 30.0185 43.5638Z" fill="black"/>
<path id="Vector_15" d="M30.0185 43.5638C29.8564 43.6913 29.6944 43.946 29.648 44.1311C29.5671 44.513 29.8216 45.1151 30.1111 45.2308C30.2153 45.2656 33.3641 45.3002 37.103 45.3002H43.9098L44.153 45.034C44.5349 44.6287 44.5004 43.8879 44.1066 43.5755C43.8056 43.3323 43.7014 43.3323 37.0569 43.3323C30.4816 43.3323 30.308 43.3323 30.0185 43.5638Z" fill="black"/>
</g>
</g>
</g>
</svg>