<?xml version="1.0" ?><svg xmlns="http://www.w3.org/2000/svg" fill="none" viewBox="3 4.31 65.69 64.33">
<g id="product-categories">
<rect id="Rectangle 34624807" x="5" y="39" width="28" height="27" fill="black"/>
<rect id="Rectangle 34624705" x="5" y="6" width="27" height="27" fill="black"/>
<g id="Group">
<g id="Vector">
<mask id="path-3-outside-1_5883_47331" maskUnits="userSpaceOnUse" x="3" y="4.3125" width="32" height="32" fill="black">
<rect fill="white" x="3" y="4.3125" width="32" height="32"/>
<path d="M6.07138 5.23961C5.32619 5.58063 4.69467 6.18689 4.32839 6.91945L4 7.57623V20.1561V32.7359L4.32839 33.3927C4.69467 34.1252 5.32619 34.7315 6.07138 35.0725C6.56396 35.2999 7.20811 35.3125 19.1691 35.3125H31.7363L32.3931 34.9841C33.1256 34.6178 33.7319 33.9863 34.0729 33.2411C34.3002 32.7485 34.3129 32.1044 34.3129 20.1561C34.3129 8.20775 34.3002 7.5636 34.0729 7.07101C33.7319 6.32582 33.1256 5.6943 32.3931 5.32802L31.7363 4.99963H19.1691C7.20811 4.99963 6.56396 5.01226 6.07138 5.23961ZM31.4458 7.31099C31.6352 7.42466 31.8878 7.67727 32.0015 7.86673C32.2162 8.18248 32.2289 8.95294 32.2289 20.1561C32.2289 31.3592 32.2162 32.1296 32.0015 32.4454C31.8878 32.6349 31.6352 32.8875 31.4458 33.0011C31.13 33.2159 30.3596 33.2285 19.1564 33.2285C7.9533 33.2285 7.18285 33.2159 6.86709 33.0011C6.67764 32.8875 6.42503 32.6349 6.31136 32.4454C6.09664 32.1296 6.08401 31.3339 6.04612 20.5981C6.02086 14.2829 6.04612 8.86452 6.08401 8.57403C6.17242 7.91725 6.65238 7.32362 7.19548 7.15943C7.43546 7.08364 12.4371 7.04575 19.3459 7.05838C30.3469 7.08364 31.13 7.09627 31.4458 7.31099Z"/>
</mask>
<path d="M6.07138 5.23961C5.32619 5.58063 4.69467 6.18689 4.32839 6.91945L4 7.57623V20.1561V32.7359L4.32839 33.3927C4.69467 34.1252 5.32619 34.7315 6.07138 35.0725C6.56396 35.2999 7.20811 35.3125 19.1691 35.3125H31.7363L32.3931 34.9841C33.1256 34.6178 33.7319 33.9863 34.0729 33.2411C34.3002 32.7485 34.3129 32.1044 34.3129 20.1561C34.3129 8.20775 34.3002 7.5636 34.0729 7.07101C33.7319 6.32582 33.1256 5.6943 32.3931 5.32802L31.7363 4.99963H19.1691C7.20811 4.99963 6.56396 5.01226 6.07138 5.23961ZM31.4458 7.31099C31.6352 7.42466 31.8878 7.67727 32.0015 7.86673C32.2162 8.18248 32.2289 8.95294 32.2289 20.1561C32.2289 31.3592 32.2162 32.1296 32.0015 32.4454C31.8878 32.6349 31.6352 32.8875 31.4458 33.0011C31.13 33.2159 30.3596 33.2285 19.1564 33.2285C7.9533 33.2285 7.18285 33.2159 6.86709 33.0011C6.67764 32.8875 6.42503 32.6349 6.31136 32.4454C6.09664 32.1296 6.08401 31.3339 6.04612 20.5981C6.02086 14.2829 6.04612 8.86452 6.08401 8.57403C6.17242 7.91725 6.65238 7.32362 7.19548 7.15943C7.43546 7.08364 12.4371 7.04575 19.3459 7.05838C30.3469 7.08364 31.13 7.09627 31.4458 7.31099Z" fill="black"/>
<path d="M6.07138 5.23961C5.32619 5.58063 4.69467 6.18689 4.32839 6.91945L4 7.57623V20.1561V32.7359L4.32839 33.3927C4.69467 34.1252 5.32619 34.7315 6.07138 35.0725C6.56396 35.2999 7.20811 35.3125 19.1691 35.3125H31.7363L32.3931 34.9841C33.1256 34.6178 33.7319 33.9863 34.0729 33.2411C34.3002 32.7485 34.3129 32.1044 34.3129 20.1561C34.3129 8.20775 34.3002 7.5636 34.0729 7.07101C33.7319 6.32582 33.1256 5.6943 32.3931 5.32802L31.7363 4.99963H19.1691C7.20811 4.99963 6.56396 5.01226 6.07138 5.23961ZM31.4458 7.31099C31.6352 7.42466 31.8878 7.67727 32.0015 7.86673C32.2162 8.18248 32.2289 8.95294 32.2289 20.1561C32.2289 31.3592 32.2162 32.1296 32.0015 32.4454C31.8878 32.6349 31.6352 32.8875 31.4458 33.0011C31.13 33.2159 30.3596 33.2285 19.1564 33.2285C7.9533 33.2285 7.18285 33.2159 6.86709 33.0011C6.67764 32.8875 6.42503 32.6349 6.31136 32.4454C6.09664 32.1296 6.08401 31.3339 6.04612 20.5981C6.02086 14.2829 6.04612 8.86452 6.08401 8.57403C6.17242 7.91725 6.65238 7.32362 7.19548 7.15943C7.43546 7.08364 12.4371 7.04575 19.3459 7.05838C30.3469 7.08364 31.13 7.09627 31.4458 7.31099Z" mask="url(#path-3-outside-1_5883_47331)" fill="black"/>
</g>
<g id="Vector_2">
<mask id="path-4-outside-2_5883_47331" maskUnits="userSpaceOnUse" x="35.332" y="4.3125" width="32" height="32" fill="black">
<rect fill="white" x="35.332" y="4.3125" width="32" height="32"/>
<path d="M38.4034 5.23961C37.6582 5.58063 37.0267 6.18689 36.6604 6.91945L36.332 7.57623V20.1561V32.7359L36.6604 33.3927C37.0267 34.1252 37.6582 34.7315 38.4034 35.0725C38.896 35.2999 39.5401 35.3125 51.5011 35.3125H64.0683L64.7251 34.9841C65.4576 34.6178 66.0639 33.9863 66.4049 33.2411C66.6323 32.7485 66.6449 32.1044 66.6449 20.1561C66.6449 8.20775 66.6323 7.5636 66.4049 7.07101C66.0639 6.32582 65.4576 5.6943 64.7251 5.32802L64.0683 4.99963H51.5011C39.5401 4.99963 38.896 5.01226 38.4034 5.23961ZM63.7778 7.31099C63.9673 7.42466 64.2199 7.67727 64.3335 7.86673C64.5483 8.18248 64.5609 8.95294 64.5609 20.1561C64.5609 31.3592 64.5483 32.1296 64.3335 32.4454C64.2199 32.6349 63.9673 32.8875 63.7778 33.0011C63.462 33.2159 62.6916 33.2285 51.4885 33.2285C40.2853 33.2285 39.5149 33.2159 39.1991 33.0011C39.0097 32.8875 38.7571 32.6349 38.6434 32.4454C38.4287 32.1296 38.416 31.3339 38.3781 20.5981C38.3529 14.2829 38.3781 8.86452 38.416 8.57403C38.5045 7.91725 38.9844 7.32362 39.5275 7.15943C39.7675 7.08364 44.7691 7.04575 51.6779 7.05838C62.679 7.08364 63.462 7.09627 63.7778 7.31099Z"/>
</mask>
<path d="M38.4034 5.23961C37.6582 5.58063 37.0267 6.18689 36.6604 6.91945L36.332 7.57623V20.1561V32.7359L36.6604 33.3927C37.0267 34.1252 37.6582 34.7315 38.4034 35.0725C38.896 35.2999 39.5401 35.3125 51.5011 35.3125H64.0683L64.7251 34.9841C65.4576 34.6178 66.0639 33.9863 66.4049 33.2411C66.6323 32.7485 66.6449 32.1044 66.6449 20.1561C66.6449 8.20775 66.6323 7.5636 66.4049 7.07101C66.0639 6.32582 65.4576 5.6943 64.7251 5.32802L64.0683 4.99963H51.5011C39.5401 4.99963 38.896 5.01226 38.4034 5.23961ZM63.7778 7.31099C63.9673 7.42466 64.2199 7.67727 64.3335 7.86673C64.5483 8.18248 64.5609 8.95294 64.5609 20.1561C64.5609 31.3592 64.5483 32.1296 64.3335 32.4454C64.2199 32.6349 63.9673 32.8875 63.7778 33.0011C63.462 33.2159 62.6916 33.2285 51.4885 33.2285C40.2853 33.2285 39.5149 33.2159 39.1991 33.0011C39.0097 32.8875 38.7571 32.6349 38.6434 32.4454C38.4287 32.1296 38.416 31.3339 38.3781 20.5981C38.3529 14.2829 38.3781 8.86452 38.416 8.57403C38.5045 7.91725 38.9844 7.32362 39.5275 7.15943C39.7675 7.08364 44.7691 7.04575 51.6779 7.05838C62.679 7.08364 63.462 7.09627 63.7778 7.31099Z" fill="black"/>
<path d="M38.4034 5.23961C37.6582 5.58063 37.0267 6.18689 36.6604 6.91945L36.332 7.57623V20.1561V32.7359L36.6604 33.3927C37.0267 34.1252 37.6582 34.7315 38.4034 35.0725C38.896 35.2999 39.5401 35.3125 51.5011 35.3125H64.0683L64.7251 34.9841C65.4576 34.6178 66.0639 33.9863 66.4049 33.2411C66.6323 32.7485 66.6449 32.1044 66.6449 20.1561C66.6449 8.20775 66.6323 7.5636 66.4049 7.07101C66.0639 6.32582 65.4576 5.6943 64.7251 5.32802L64.0683 4.99963H51.5011C39.5401 4.99963 38.896 5.01226 38.4034 5.23961ZM63.7778 7.31099C63.9673 7.42466 64.2199 7.67727 64.3335 7.86673C64.5483 8.18248 64.5609 8.95294 64.5609 20.1561C64.5609 31.3592 64.5483 32.1296 64.3335 32.4454C64.2199 32.6349 63.9673 32.8875 63.7778 33.0011C63.462 33.2159 62.6916 33.2285 51.4885 33.2285C40.2853 33.2285 39.5149 33.2159 39.1991 33.0011C39.0097 32.8875 38.7571 32.6349 38.6434 32.4454C38.4287 32.1296 38.416 31.3339 38.3781 20.5981C38.3529 14.2829 38.3781 8.86452 38.416 8.57403C38.5045 7.91725 38.9844 7.32362 39.5275 7.15943C39.7675 7.08364 44.7691 7.04575 51.6779 7.05838C62.679 7.08364 63.462 7.09627 63.7778 7.31099Z" mask="url(#path-4-outside-2_5883_47331)" fill="black"/>
</g>
<g id="Vector_3">
<mask id="path-5-outside-3_5883_47331" maskUnits="userSpaceOnUse" x="3" y="36.6465" width="32" height="32" fill="black">
<rect fill="white" x="3" y="36.6465" width="32" height="32"/>
<path d="M6.07138 37.5736C5.32619 37.9146 4.69467 38.5209 4.32839 39.2534L4 39.9102V52.4901V65.0699L4.32839 65.7267C4.69467 66.4592 5.32619 67.0655 6.07138 67.4065C6.56396 67.6339 7.20811 67.6465 19.1691 67.6465H31.7363L32.3931 67.3181C33.1256 66.9518 33.7319 66.3203 34.0729 65.5751C34.3002 65.0825 34.3129 64.4384 34.3129 52.4901C34.3129 40.5417 34.3002 39.8976 34.0729 39.405C33.7319 38.6598 33.1256 38.0283 32.3931 37.662L31.7363 37.3336H19.1691C7.20811 37.3336 6.56396 37.3462 6.07138 37.5736ZM31.4458 39.645C31.6352 39.7586 31.8878 40.0113 32.0015 40.2007C32.2162 40.5165 32.2289 41.2869 32.2289 52.4901C32.2289 63.6932 32.2162 64.4636 32.0015 64.7794C31.8878 64.9688 31.6352 65.2215 31.4458 65.3351C31.13 65.5498 30.3596 65.5625 19.1564 65.5625C7.9533 65.5625 7.18285 65.5498 6.86709 65.3351C6.67764 65.2215 6.42503 64.9688 6.31136 64.7794C6.09664 64.4636 6.08401 63.6679 6.04612 52.9321C6.02086 46.6169 6.04612 41.1985 6.08401 40.908C6.17242 40.2512 6.65238 39.6576 7.19548 39.4934C7.43546 39.4176 12.4371 39.3797 19.3459 39.3924C30.3469 39.4176 31.13 39.4303 31.4458 39.645Z"/>
</mask>
<path d="M6.07138 37.5736C5.32619 37.9146 4.69467 38.5209 4.32839 39.2534L4 39.9102V52.4901V65.0699L4.32839 65.7267C4.69467 66.4592 5.32619 67.0655 6.07138 67.4065C6.56396 67.6339 7.20811 67.6465 19.1691 67.6465H31.7363L32.3931 67.3181C33.1256 66.9518 33.7319 66.3203 34.0729 65.5751C34.3002 65.0825 34.3129 64.4384 34.3129 52.4901C34.3129 40.5417 34.3002 39.8976 34.0729 39.405C33.7319 38.6598 33.1256 38.0283 32.3931 37.662L31.7363 37.3336H19.1691C7.20811 37.3336 6.56396 37.3462 6.07138 37.5736ZM31.4458 39.645C31.6352 39.7586 31.8878 40.0113 32.0015 40.2007C32.2162 40.5165 32.2289 41.2869 32.2289 52.4901C32.2289 63.6932 32.2162 64.4636 32.0015 64.7794C31.8878 64.9688 31.6352 65.2215 31.4458 65.3351C31.13 65.5498 30.3596 65.5625 19.1564 65.5625C7.9533 65.5625 7.18285 65.5498 6.86709 65.3351C6.67764 65.2215 6.42503 64.9688 6.31136 64.7794C6.09664 64.4636 6.08401 63.6679 6.04612 52.9321C6.02086 46.6169 6.04612 41.1985 6.08401 40.908C6.17242 40.2512 6.65238 39.6576 7.19548 39.4934C7.43546 39.4176 12.4371 39.3797 19.3459 39.3924C30.3469 39.4176 31.13 39.4303 31.4458 39.645Z" fill="black"/>
<path d="M6.07138 37.5736C5.32619 37.9146 4.69467 38.5209 4.32839 39.2534L4 39.9102V52.4901V65.0699L4.32839 65.7267C4.69467 66.4592 5.32619 67.0655 6.07138 67.4065C6.56396 67.6339 7.20811 67.6465 19.1691 67.6465H31.7363L32.3931 67.3181C33.1256 66.9518 33.7319 66.3203 34.0729 65.5751C34.3002 65.0825 34.3129 64.4384 34.3129 52.4901C34.3129 40.5417 34.3002 39.8976 34.0729 39.405C33.7319 38.6598 33.1256 38.0283 32.3931 37.662L31.7363 37.3336H19.1691C7.20811 37.3336 6.56396 37.3462 6.07138 37.5736ZM31.4458 39.645C31.6352 39.7586 31.8878 40.0113 32.0015 40.2007C32.2162 40.5165 32.2289 41.2869 32.2289 52.4901C32.2289 63.6932 32.2162 64.4636 32.0015 64.7794C31.8878 64.9688 31.6352 65.2215 31.4458 65.3351C31.13 65.5498 30.3596 65.5625 19.1564 65.5625C7.9533 65.5625 7.18285 65.5498 6.86709 65.3351C6.67764 65.2215 6.42503 64.9688 6.31136 64.7794C6.09664 64.4636 6.08401 63.6679 6.04612 52.9321C6.02086 46.6169 6.04612 41.1985 6.08401 40.908C6.17242 40.2512 6.65238 39.6576 7.19548 39.4934C7.43546 39.4176 12.4371 39.3797 19.3459 39.3924C30.3469 39.4176 31.13 39.4303 31.4458 39.645Z" mask="url(#path-5-outside-3_5883_47331)" fill="black"/>
</g>
<g id="products">
<g id="Group 159054">
<g id="Rectangle 34624447">
<mask id="path-6-outside-4_5883_47331" maskUnits="userSpaceOnUse" x="38.582" y="40.5527" width="29" height="7" fill="black">
<rect fill="white" x="38.582" y="40.5527" width="29" height="7"/>
<path d="M66.1056 41.5527H39.582V46.6048H66.1056V41.5527Z"/>
</mask>
<path d="M66.1056 41.5527H39.582V46.6048H66.1056V41.5527Z" fill="black"/>
<path d="M66.1056 41.5527H39.582V46.6048H66.1056V41.5527Z" mask="url(#path-6-outside-4_5883_47331)" fill="black"/>
</g>
<g id="Rectangle 47 (Stroke)">
<mask id="path-7-outside-5_5883_47331" maskUnits="userSpaceOnUse" x="36.6875" y="38.8691" width="32" height="10" fill="black">
<rect fill="white" x="36.6875" y="38.8691" width="32" height="10"/>
<path fill-rule="evenodd" clip-rule="evenodd" d="M40.382 41.89C40.0099 41.89 39.7083 42.1916 39.7083 42.5636V45.5949C39.7083 45.9669 40.0099 46.2685 40.382 46.2685H65.3057C65.6777 46.2685 65.9793 45.9669 65.9793 45.5949V42.5636C65.9793 42.1916 65.6777 41.89 65.3057 41.89H40.382ZM37.6875 42.5636C37.6875 41.0755 38.8938 39.8691 40.382 39.8691H65.3057C66.7938 39.8691 68.0002 41.0755 68.0002 42.5636V45.5949C68.0002 47.083 66.7938 48.2893 65.3057 48.2893H40.382C38.8938 48.2893 37.6875 47.083 37.6875 45.5949V42.5636Z"/>
</mask>
<path fill-rule="evenodd" clip-rule="evenodd" d="M40.382 41.89C40.0099 41.89 39.7083 42.1916 39.7083 42.5636V45.5949C39.7083 45.9669 40.0099 46.2685 40.382 46.2685H65.3057C65.6777 46.2685 65.9793 45.9669 65.9793 45.5949V42.5636C65.9793 42.1916 65.6777 41.89 65.3057 41.89H40.382ZM37.6875 42.5636C37.6875 41.0755 38.8938 39.8691 40.382 39.8691H65.3057C66.7938 39.8691 68.0002 41.0755 68.0002 42.5636V45.5949C68.0002 47.083 66.7938 48.2893 65.3057 48.2893H40.382C38.8938 48.2893 37.6875 47.083 37.6875 45.5949V42.5636Z" fill="black"/>
<path fill-rule="evenodd" clip-rule="evenodd" d="M40.382 41.89C40.0099 41.89 39.7083 42.1916 39.7083 42.5636V45.5949C39.7083 45.9669 40.0099 46.2685 40.382 46.2685H65.3057C65.6777 46.2685 65.9793 45.9669 65.9793 45.5949V42.5636C65.9793 42.1916 65.6777 41.89 65.3057 41.89H40.382ZM37.6875 42.5636C37.6875 41.0755 38.8938 39.8691 40.382 39.8691H65.3057C66.7938 39.8691 68.0002 41.0755 68.0002 42.5636V45.5949C68.0002 47.083 66.7938 48.2893 65.3057 48.2893H40.382C38.8938 48.2893 37.6875 47.083 37.6875 45.5949V42.5636Z" mask="url(#path-7-outside-5_5883_47331)" fill="black"/>
</g>
<g id="Rectangle 48">
<mask id="path-8-outside-6_5883_47331" maskUnits="userSpaceOnUse" x="48.0547" y="50.6572" width="10" height="5" fill="black">
<rect fill="white" x="48.0547" y="50.6572" width="10" height="5"/>
<path d="M56.4013 51.6572H49.2862C49.1584 51.6572 49.0547 51.7609 49.0547 51.8888V54.7937C49.0547 54.9216 49.1584 55.0253 49.2862 55.0253H56.4013C56.5292 55.0253 56.6328 54.9216 56.6328 54.7937V51.8888C56.6328 51.7609 56.5292 51.6572 56.4013 51.6572Z"/>
</mask>
<path d="M56.4013 51.6572H49.2862C49.1584 51.6572 49.0547 51.7609 49.0547 51.8888V54.7937C49.0547 54.9216 49.1584 55.0253 49.2862 55.0253H56.4013C56.5292 55.0253 56.6328 54.9216 56.6328 54.7937V51.8888C56.6328 51.7609 56.5292 51.6572 56.4013 51.6572Z" fill="black"/>
<path d="M56.4013 51.6572H49.2862C49.1584 51.6572 49.0547 51.7609 49.0547 51.8888V54.7937C49.0547 54.9216 49.1584 55.0253 49.2862 55.0253H56.4013C56.5292 55.0253 56.6328 54.9216 56.6328 54.7937V51.8888C56.6328 51.7609 56.5292 51.6572 56.4013 51.6572Z" mask="url(#path-8-outside-6_5883_47331)" fill="black"/>
</g>
<g id="Rectangle 46">
<g id="Vector (Stroke)">
<mask id="path-9-outside-7_5883_47331" maskUnits="userSpaceOnUse" x="38.4297" y="45.1191" width="29" height="21" fill="black">
<rect fill="white" x="38.4297" y="45.1191" width="29" height="21"/>
<path fill-rule="evenodd" clip-rule="evenodd" d="M41.604 48.6264V63.1092H64.086V48.6264H41.604ZM39.4297 48.6264C39.4297 46.7662 39.7439 46.1193 41.604 46.1193L52.5279 46.1191H64.086C66.2807 46.1193 66.2805 46.1191 66.2805 48.7388L66.2807 55.9427L66.2807 63.1092C66.2807 65.1115 66.2807 65.1115 64.086 65.1115H53.1826H41.6039C39.4297 65.1115 39.4297 65.149 39.4297 63.1466V55.9427V48.6264Z"/>
</mask>
<path fill-rule="evenodd" clip-rule="evenodd" d="M41.604 48.6264V63.1092H64.086V48.6264H41.604ZM39.4297 48.6264C39.4297 46.7662 39.7439 46.1193 41.604 46.1193L52.5279 46.1191H64.086C66.2807 46.1193 66.2805 46.1191 66.2805 48.7388L66.2807 55.9427L66.2807 63.1092C66.2807 65.1115 66.2807 65.1115 64.086 65.1115H53.1826H41.6039C39.4297 65.1115 39.4297 65.149 39.4297 63.1466V55.9427V48.6264Z" fill="black"/>
<path fill-rule="evenodd" clip-rule="evenodd" d="M41.604 48.6264V63.1092H64.086V48.6264H41.604ZM39.4297 48.6264C39.4297 46.7662 39.7439 46.1193 41.604 46.1193L52.5279 46.1191H64.086C66.2807 46.1193 66.2805 46.1191 66.2805 48.7388L66.2807 55.9427L66.2807 63.1092C66.2807 65.1115 66.2807 65.1115 64.086 65.1115H53.1826H41.6039C39.4297 65.1115 39.4297 65.149 39.4297 63.1466V55.9427V48.6264Z" mask="url(#path-9-outside-7_5883_47331)" fill="black"/>
</g>
</g>
</g>
</g>
</g>
</g>
</svg>