<?xml version="1.0" ?><svg xmlns="http://www.w3.org/2000/svg" fill="none" viewBox="4 7 64 58.5">
<g id="interwarehouse-transfer-request">
<g id="Group 1171275612">
<g id="Vector">
<path d="M61.6 24.12V58.2005H55.1999V32.6002H16.8001V58.2005H10.4V24.12L36.0001 13.88L61.6 24.12ZM68 64.6002V19.8001L36.0001 7L4 19.8001V64.6002H23.2001V39.0003H48.8002V64.6002H68Z" fill="black"/>
<path d="M61.6 24.12V58.2005H55.1999V32.6002H16.8001V58.2005H10.4V24.12L36.0001 13.88L61.6 24.12Z" fill="black"/>
</g>
<g id="Group 1171275362">
<g id="Group">
<g id="Vector_2">
<mask id="path-2-outside-1_7296_47153" maskUnits="userSpaceOnUse" x="26" y="45" width="20" height="11" fill="black">
<rect fill="white" x="26" y="45" width="20" height="11"/>
<path d="M36.578 48.1102C37.0597 48.1114 37.5377 48.159 38.0099 48.252C38.4831 48.3438 38.9421 48.4809 39.388 48.6621C39.8339 48.8434 40.2583 49.0651 40.6613 49.3274C41.0642 49.5897 41.4386 49.8877 41.7831 50.2215H38.7061V52.3329H44.028C44.1687 52.3329 44.3046 52.3055 44.4345 52.253C44.5657 52.1994 44.6801 52.1231 44.7803 52.0241C44.8804 51.9252 44.9567 51.8107 45.0115 51.6808C45.0652 51.552 45.0926 51.4173 45.0926 51.2778V46H42.9634V48.4487C42.6224 48.1424 42.26 47.8622 41.8785 47.6071C41.4958 47.3531 41.0976 47.1266 40.6815 46.9299C40.2667 46.7332 39.8399 46.5663 39.3999 46.4304C38.9612 46.2945 38.5141 46.1907 38.0587 46.118C37.6045 46.0465 37.1467 46.0072 36.6865 46.0012C36.2263 45.994 35.7685 46.0215 35.3119 46.0799C34.8553 46.1395 34.4059 46.2313 33.9624 46.3553C33.5201 46.4793 33.0873 46.6342 32.6677 46.819C32.2468 47.005 31.8415 47.2196 31.4528 47.464C31.0642 47.7072 30.6946 47.9778 30.3441 48.2747C29.9948 48.5715 29.6681 48.891 29.3653 49.2356C29.0613 49.5789 28.7847 49.9426 28.5344 50.3252C28.284 50.7079 28.0635 51.1073 27.8715 51.5222C27.6796 51.9371 27.5186 52.3639 27.3887 52.8014C27.2587 53.2401 27.161 53.6848 27.0954 54.1367C27.031 54.5885 26.9988 55.0427 27 55.4993H29.1281C29.1281 55.2573 29.1412 55.0165 29.165 54.7757C29.1889 54.5348 29.2246 54.2952 29.2723 54.058C29.3212 53.8207 29.3796 53.5871 29.4512 53.3558C29.5215 53.1245 29.6038 52.8968 29.6979 52.6727C29.7909 52.4497 29.8958 52.2315 30.0103 52.0181C30.1259 51.8047 30.2511 51.5973 30.387 51.397C30.5217 51.1955 30.6672 51.0012 30.8222 50.814C30.9772 50.6269 31.1405 50.448 31.3134 50.2776C31.485 50.1059 31.6662 49.9437 31.8546 49.79C32.043 49.6374 32.2385 49.4931 32.4412 49.3584C32.6438 49.2237 32.8525 49.0997 33.0682 48.9852C33.2828 48.872 33.5034 48.7683 33.7287 48.6753C33.954 48.5823 34.1829 48.5012 34.4166 48.4309C34.6503 48.3605 34.8863 48.3009 35.1248 48.2544C35.3644 48.2067 35.6052 48.171 35.8484 48.1471C36.0904 48.1233 36.3336 48.1114 36.578 48.1102Z"/>
</mask>
<path d="M36.578 48.1102C37.0597 48.1114 37.5377 48.159 38.0099 48.252C38.4831 48.3438 38.9421 48.4809 39.388 48.6621C39.8339 48.8434 40.2583 49.0651 40.6613 49.3274C41.0642 49.5897 41.4386 49.8877 41.7831 50.2215H38.7061V52.3329H44.028C44.1687 52.3329 44.3046 52.3055 44.4345 52.253C44.5657 52.1994 44.6801 52.1231 44.7803 52.0241C44.8804 51.9252 44.9567 51.8107 45.0115 51.6808C45.0652 51.552 45.0926 51.4173 45.0926 51.2778V46H42.9634V48.4487C42.6224 48.1424 42.26 47.8622 41.8785 47.6071C41.4958 47.3531 41.0976 47.1266 40.6815 46.9299C40.2667 46.7332 39.8399 46.5663 39.3999 46.4304C38.9612 46.2945 38.5141 46.1907 38.0587 46.118C37.6045 46.0465 37.1467 46.0072 36.6865 46.0012C36.2263 45.994 35.7685 46.0215 35.3119 46.0799C34.8553 46.1395 34.4059 46.2313 33.9624 46.3553C33.5201 46.4793 33.0873 46.6342 32.6677 46.819C32.2468 47.005 31.8415 47.2196 31.4528 47.464C31.0642 47.7072 30.6946 47.9778 30.3441 48.2747C29.9948 48.5715 29.6681 48.891 29.3653 49.2356C29.0613 49.5789 28.7847 49.9426 28.5344 50.3252C28.284 50.7079 28.0635 51.1073 27.8715 51.5222C27.6796 51.9371 27.5186 52.3639 27.3887 52.8014C27.2587 53.2401 27.161 53.6848 27.0954 54.1367C27.031 54.5885 26.9988 55.0427 27 55.4993H29.1281C29.1281 55.2573 29.1412 55.0165 29.165 54.7757C29.1889 54.5348 29.2246 54.2952 29.2723 54.058C29.3212 53.8207 29.3796 53.5871 29.4512 53.3558C29.5215 53.1245 29.6038 52.8968 29.6979 52.6727C29.7909 52.4497 29.8958 52.2315 30.0103 52.0181C30.1259 51.8047 30.2511 51.5973 30.387 51.397C30.5217 51.1955 30.6672 51.0012 30.8222 50.814C30.9772 50.6269 31.1405 50.448 31.3134 50.2776C31.485 50.1059 31.6662 49.9437 31.8546 49.79C32.043 49.6374 32.2385 49.4931 32.4412 49.3584C32.6438 49.2237 32.8525 49.0997 33.0682 48.9852C33.2828 48.872 33.5034 48.7683 33.7287 48.6753C33.954 48.5823 34.1829 48.5012 34.4166 48.4309C34.6503 48.3605 34.8863 48.3009 35.1248 48.2544C35.3644 48.2067 35.6052 48.171 35.8484 48.1471C36.0904 48.1233 36.3336 48.1114 36.578 48.1102Z" fill="black"/>
<path d="M36.578 48.1102C37.0597 48.1114 37.5377 48.159 38.0099 48.252C38.4831 48.3438 38.9421 48.4809 39.388 48.6621C39.8339 48.8434 40.2583 49.0651 40.6613 49.3274C41.0642 49.5897 41.4386 49.8877 41.7831 50.2215H38.7061V52.3329H44.028C44.1687 52.3329 44.3046 52.3055 44.4345 52.253C44.5657 52.1994 44.6801 52.1231 44.7803 52.0241C44.8804 51.9252 44.9567 51.8107 45.0115 51.6808C45.0652 51.552 45.0926 51.4173 45.0926 51.2778V46H42.9634V48.4487C42.6224 48.1424 42.26 47.8622 41.8785 47.6071C41.4958 47.3531 41.0976 47.1266 40.6815 46.9299C40.2667 46.7332 39.8399 46.5663 39.3999 46.4304C38.9612 46.2945 38.5141 46.1907 38.0587 46.118C37.6045 46.0465 37.1467 46.0072 36.6865 46.0012C36.2263 45.994 35.7685 46.0215 35.3119 46.0799C34.8553 46.1395 34.4059 46.2313 33.9624 46.3553C33.5201 46.4793 33.0873 46.6342 32.6677 46.819C32.2468 47.005 31.8415 47.2196 31.4528 47.464C31.0642 47.7072 30.6946 47.9778 30.3441 48.2747C29.9948 48.5715 29.6681 48.891 29.3653 49.2356C29.0613 49.5789 28.7847 49.9426 28.5344 50.3252C28.284 50.7079 28.0635 51.1073 27.8715 51.5222C27.6796 51.9371 27.5186 52.3639 27.3887 52.8014C27.2587 53.2401 27.161 53.6848 27.0954 54.1367C27.031 54.5885 26.9988 55.0427 27 55.4993H29.1281C29.1281 55.2573 29.1412 55.0165 29.165 54.7757C29.1889 54.5348 29.2246 54.2952 29.2723 54.058C29.3212 53.8207 29.3796 53.5871 29.4512 53.3558C29.5215 53.1245 29.6038 52.8968 29.6979 52.6727C29.7909 52.4497 29.8958 52.2315 30.0103 52.0181C30.1259 51.8047 30.2511 51.5973 30.387 51.397C30.5217 51.1955 30.6672 51.0012 30.8222 50.814C30.9772 50.6269 31.1405 50.448 31.3134 50.2776C31.485 50.1059 31.6662 49.9437 31.8546 49.79C32.043 49.6374 32.2385 49.4931 32.4412 49.3584C32.6438 49.2237 32.8525 49.0997 33.0682 48.9852C33.2828 48.872 33.5034 48.7683 33.7287 48.6753C33.954 48.5823 34.1829 48.5012 34.4166 48.4309C34.6503 48.3605 34.8863 48.3009 35.1248 48.2544C35.3644 48.2067 35.6052 48.171 35.8484 48.1471C36.0904 48.1233 36.3336 48.1114 36.578 48.1102Z" stroke-width="0.8" mask="url(#path-2-outside-1_7296_47153)" fill="black"/>
</g>
</g>
<g id="Vector_3">
<mask id="path-3-outside-2_7296_47153" maskUnits="userSpaceOnUse" x="27.063" y="54.4999" width="20" height="11" fill="black">
<rect fill="white" x="27.063" y="54.4999" width="20" height="11"/>
<path d="M44.0264 55.4999C44.0264 55.8611 44.0001 56.2211 43.9477 56.5788C43.894 56.9365 43.8153 57.2893 43.7104 57.6351C43.6043 57.982 43.4744 58.3182 43.3194 58.6461C43.1644 58.9727 42.9856 59.2874 42.7841 59.5891C42.5826 59.8895 42.3597 60.1756 42.1165 60.4439C41.8721 60.7133 41.6098 60.9625 41.3296 61.1926C41.0483 61.4238 40.7514 61.6325 40.4403 61.8196C40.1279 62.008 39.8036 62.1713 39.4674 62.312C39.1324 62.4515 38.7867 62.5671 38.4338 62.6566C38.0809 62.7472 37.7233 62.8104 37.3608 62.8485C36.9972 62.8867 36.6336 62.8974 36.27 62.8819C35.9052 62.8676 35.544 62.8258 35.1863 62.7579C34.8275 62.6899 34.477 62.5958 34.1324 62.4777C33.7879 62.3585 33.4541 62.2155 33.131 62.0474C32.8079 61.8793 32.4991 61.6897 32.2047 61.4763C31.9102 61.2641 31.6324 61.0304 31.3713 60.7777H34.4483V58.6663H29.1264C28.9858 58.6663 28.8498 58.6937 28.7199 58.7474C28.5888 58.801 28.4743 58.8773 28.3742 58.9763C28.274 59.0752 28.1977 59.1885 28.1429 59.3184C28.0892 59.4472 28.063 59.5819 28.063 59.7226V65.0004H30.1911V62.5505C30.532 62.8568 30.8944 63.1382 31.2759 63.3921C31.6586 63.6461 32.0568 63.8726 32.4729 64.0693C32.8878 64.2672 33.3146 64.4329 33.7545 64.5688C34.1932 64.7047 34.6403 64.8096 35.0957 64.8812C35.5499 64.9527 36.0077 64.992 36.4679 64.998C36.9281 65.0052 37.3859 64.9789 37.8425 64.9193C38.2991 64.8597 38.7486 64.7679 39.192 64.6439C39.6343 64.5199 40.0671 64.3662 40.4868 64.1802C40.9076 63.9942 41.3129 63.7796 41.7016 63.5352C42.0914 63.292 42.4598 63.0214 42.8103 62.7245C43.1596 62.4277 43.4863 62.1082 43.7903 61.7648C44.0931 61.4203 44.3697 61.0578 44.6201 60.674C44.8704 60.2913 45.091 59.8919 45.2829 59.477C45.4749 59.0621 45.6358 58.6353 45.7657 58.1978C45.8957 57.7603 45.9935 57.3144 46.059 56.8625C46.1234 56.4107 46.1556 55.9565 46.1544 55.4999H44.0264Z"/>
</mask>
<path d="M44.0264 55.4999C44.0264 55.8611 44.0001 56.2211 43.9477 56.5788C43.894 56.9365 43.8153 57.2893 43.7104 57.6351C43.6043 57.982 43.4744 58.3182 43.3194 58.6461C43.1644 58.9727 42.9856 59.2874 42.7841 59.5891C42.5826 59.8895 42.3597 60.1756 42.1165 60.4439C41.8721 60.7133 41.6098 60.9625 41.3296 61.1926C41.0483 61.4238 40.7514 61.6325 40.4403 61.8196C40.1279 62.008 39.8036 62.1713 39.4674 62.312C39.1324 62.4515 38.7867 62.5671 38.4338 62.6566C38.0809 62.7472 37.7233 62.8104 37.3608 62.8485C36.9972 62.8867 36.6336 62.8974 36.27 62.8819C35.9052 62.8676 35.544 62.8258 35.1863 62.7579C34.8275 62.6899 34.477 62.5958 34.1324 62.4777C33.7879 62.3585 33.4541 62.2155 33.131 62.0474C32.8079 61.8793 32.4991 61.6897 32.2047 61.4763C31.9102 61.2641 31.6324 61.0304 31.3713 60.7777H34.4483V58.6663H29.1264C28.9858 58.6663 28.8498 58.6937 28.7199 58.7474C28.5888 58.801 28.4743 58.8773 28.3742 58.9763C28.274 59.0752 28.1977 59.1885 28.1429 59.3184C28.0892 59.4472 28.063 59.5819 28.063 59.7226V65.0004H30.1911V62.5505C30.532 62.8568 30.8944 63.1382 31.2759 63.3921C31.6586 63.6461 32.0568 63.8726 32.4729 64.0693C32.8878 64.2672 33.3146 64.4329 33.7545 64.5688C34.1932 64.7047 34.6403 64.8096 35.0957 64.8812C35.5499 64.9527 36.0077 64.992 36.4679 64.998C36.9281 65.0052 37.3859 64.9789 37.8425 64.9193C38.2991 64.8597 38.7486 64.7679 39.192 64.6439C39.6343 64.5199 40.0671 64.3662 40.4868 64.1802C40.9076 63.9942 41.3129 63.7796 41.7016 63.5352C42.0914 63.292 42.4598 63.0214 42.8103 62.7245C43.1596 62.4277 43.4863 62.1082 43.7903 61.7648C44.0931 61.4203 44.3697 61.0578 44.6201 60.674C44.8704 60.2913 45.091 59.8919 45.2829 59.477C45.4749 59.0621 45.6358 58.6353 45.7657 58.1978C45.8957 57.7603 45.9935 57.3144 46.059 56.8625C46.1234 56.4107 46.1556 55.9565 46.1544 55.4999H44.0264Z" fill="black"/>
<path d="M44.0264 55.4999C44.0264 55.8611 44.0001 56.2211 43.9477 56.5788C43.894 56.9365 43.8153 57.2893 43.7104 57.6351C43.6043 57.982 43.4744 58.3182 43.3194 58.6461C43.1644 58.9727 42.9856 59.2874 42.7841 59.5891C42.5826 59.8895 42.3597 60.1756 42.1165 60.4439C41.8721 60.7133 41.6098 60.9625 41.3296 61.1926C41.0483 61.4238 40.7514 61.6325 40.4403 61.8196C40.1279 62.008 39.8036 62.1713 39.4674 62.312C39.1324 62.4515 38.7867 62.5671 38.4338 62.6566C38.0809 62.7472 37.7233 62.8104 37.3608 62.8485C36.9972 62.8867 36.6336 62.8974 36.27 62.8819C35.9052 62.8676 35.544 62.8258 35.1863 62.7579C34.8275 62.6899 34.477 62.5958 34.1324 62.4777C33.7879 62.3585 33.4541 62.2155 33.131 62.0474C32.8079 61.8793 32.4991 61.6897 32.2047 61.4763C31.9102 61.2641 31.6324 61.0304 31.3713 60.7777H34.4483V58.6663H29.1264C28.9858 58.6663 28.8498 58.6937 28.7199 58.7474C28.5888 58.801 28.4743 58.8773 28.3742 58.9763C28.274 59.0752 28.1977 59.1885 28.1429 59.3184C28.0892 59.4472 28.063 59.5819 28.063 59.7226V65.0004H30.1911V62.5505C30.532 62.8568 30.8944 63.1382 31.2759 63.3921C31.6586 63.6461 32.0568 63.8726 32.4729 64.0693C32.8878 64.2672 33.3146 64.4329 33.7545 64.5688C34.1932 64.7047 34.6403 64.8096 35.0957 64.8812C35.5499 64.9527 36.0077 64.992 36.4679 64.998C36.9281 65.0052 37.3859 64.9789 37.8425 64.9193C38.2991 64.8597 38.7486 64.7679 39.192 64.6439C39.6343 64.5199 40.0671 64.3662 40.4868 64.1802C40.9076 63.9942 41.3129 63.7796 41.7016 63.5352C42.0914 63.292 42.4598 63.0214 42.8103 62.7245C43.1596 62.4277 43.4863 62.1082 43.7903 61.7648C44.0931 61.4203 44.3697 61.0578 44.6201 60.674C44.8704 60.2913 45.091 59.8919 45.2829 59.477C45.4749 59.0621 45.6358 58.6353 45.7657 58.1978C45.8957 57.7603 45.9935 57.3144 46.059 56.8625C46.1234 56.4107 46.1556 55.9565 46.1544 55.4999H44.0264Z" stroke-width="0.8" mask="url(#path-3-outside-2_7296_47153)" fill="black"/>
</g>
</g>
</g>
</g>
</svg>