<?xml version="1.0" ?><svg xmlns="http://www.w3.org/2000/svg" fill="none" viewBox="12 4 48.83 64">
<g id="quality-point">
<g id="Group 1171275767">
<g id="Group 1171275135">
<path id="Vector" d="M24.6395 23.3286L22.5712 25.3954L22.4127 25.554L21.6656 24.8069C21.0229 24.1642 19.9788 24.1642 19.336 24.8069C18.6918 25.4511 18.6918 26.4938 19.336 27.138L21.2471 29.0506C21.5571 29.3591 21.9756 29.5333 22.4127 29.5333C22.8497 29.5333 23.2682 29.3591 23.5782 29.0506L26.9691 25.6582C27.6133 25.0155 27.6133 23.9714 26.9691 23.3286C26.3263 22.6844 25.2822 22.6844 24.6395 23.3286Z" fill="black"/>
<path id="Vector_2" d="M24.6395 34.4643L22.5712 36.5312L22.4127 36.6897L21.6656 35.9427C21.0229 35.2999 19.9788 35.2999 19.336 35.9427C18.6918 36.5869 18.6918 37.6296 19.336 38.2737L21.2471 40.1863C21.5571 40.4948 21.9756 40.6691 22.4127 40.6691C22.8497 40.6691 23.2682 40.4948 23.5782 40.1863L26.9691 36.794C27.6133 36.1512 27.6133 35.1071 26.9691 34.4643C26.3263 33.8202 25.2822 33.8202 24.6395 34.4643Z" fill="black"/>
<path id="Vector_3" d="M44.7348 24.5586H34.0881C32.771 24.5586 31.702 25.518 31.702 26.7001C31.702 27.8822 32.771 28.8416 34.0881 28.8416H44.7348C46.0519 28.8416 47.1209 27.8822 47.1209 26.7001C47.1209 25.518 46.0519 24.5586 44.7348 24.5586Z" fill="black"/>
<path id="Vector_4" d="M44.6787 36H34.3213C33.04 36 32 36.896 32 38C32 39.104 33.04 40 34.3213 40H44.6787C45.96 40 47 39.104 47 38C47 36.896 45.96 36 44.6787 36Z" fill="black"/>
<path id="Vector_5" d="M24.6395 45.6003L22.5712 47.6671L22.4127 47.8257L21.6656 47.0787C21.0229 46.4359 19.9788 46.4359 19.336 47.0787C18.6918 47.7229 18.6918 48.7655 19.336 49.4097L21.2471 51.3223C21.5571 51.6308 21.9756 51.8051 22.4127 51.8051C22.8497 51.8051 23.2682 51.6308 23.5782 51.3223L26.9691 47.93C27.6133 47.2872 27.6133 46.2431 26.9691 45.6003C26.3263 44.9561 25.2822 44.9561 24.6395 45.6003Z" fill="black"/>
<path id="Vector_6" d="M38.762 47H33.238C32.5546 47 32 47.896 32 49C32 50.104 32.5546 51 33.238 51H38.762C39.4454 51 40 50.104 40 49C40 47.896 39.4454 47 38.762 47Z" fill="black"/>
</g>
<path id="Subtract" fill-rule="evenodd" clip-rule="evenodd" d="M16.4786 58.6093C16.7024 58.6775 16.9263 58.7456 17.145 58.8228H17.2287C23.7665 58.8228 30.3042 58.8228 36.8416 58.8225V55.6118C30.623 55.6121 24.4043 55.6117 18.1857 55.6108C16.3084 55.6108 15.2178 54.5287 15.2178 52.6658C15.2164 38.4986 15.2164 24.33 15.2178 10.1628C15.2178 8.29698 16.307 7.21631 18.1843 7.21631H36.4386H37.0596C37.0596 7.46185 37.0595 7.65457 37.0581 7.84587C37.0581 8.74999 37.058 9.65412 37.0578 10.5582V10.5664C37.0575 12.3719 37.0572 14.1775 37.0581 15.983C37.0581 18.5069 38.6042 20.063 41.1153 20.0644C43.0634 20.0654 45.0114 20.065 46.9595 20.0647H46.9683C47.9438 20.0646 48.9193 20.0644 49.8948 20.0644H50.5486V20.6611C50.5486 24.1294 50.5488 27.5976 50.5489 31.0659L50.5489 31.3136C50.549 32.7739 50.5491 34.2341 50.5491 35.6944H53.7507C53.7523 30.7385 53.7595 25.7827 53.7667 20.8272V20.8261V20.8249L53.7678 20.0316C53.7706 18.0758 53.0926 16.4698 51.6678 15.1336C48.3502 12.0215 45.0496 8.89085 41.752 5.75734C40.5143 4.58245 39.0639 3.99858 37.3551 4C34.4363 4.00325 31.5173 4.00354 28.5981 4.00384C25.0951 4.00419 21.5919 4.00454 18.0886 4.01C17.5761 4.01142 17.0494 4.05425 16.5526 4.17274C13.7974 4.82656 12.0072 7.15778 12.0058 10.0772C12.0027 17.4807 12.0033 24.8836 12.0039 32.2867C12.0041 35.2486 12.0043 38.2104 12.0043 41.1724C12.0043 42.3014 12.0032 43.4305 12.0022 44.5596C11.9995 47.3197 11.9969 50.0802 12.01 52.8399C12.0215 55.1526 13.0422 56.9285 15.0565 58.0634C15.4941 58.3097 15.9864 58.4595 16.4786 58.6093Z" fill="black"/>
<g id="Group 1000001382">
<g id="Subtract_2">
<path fill-rule="evenodd" clip-rule="evenodd" d="M40.5094 40.0029V45.3885L37.0322 48.2609L40.5094 52.5693V56.5187H44.4588L48.4083 59.75L51.6396 56.5187L56.929 55.9403L57.278 52.4497L59.8975 47.9017L57.7433 45.3885L56.2308 40.2324L51.6396 40.0029L48.4083 36.7417L44.4588 40.0029H40.5094ZM48.7673 53.6463C51.94 53.6463 54.5119 51.0744 54.5119 47.9017C54.5119 44.729 51.94 42.1571 48.7673 42.1571C45.5946 42.1571 43.0227 44.729 43.0227 47.9017C43.0227 51.0744 45.5946 53.6463 48.7673 53.6463Z" fill="black"/>
<path d="M40.5094 45.3885L40.7024 45.6221L40.8125 45.5312V45.3885H40.5094ZM40.5094 40.0029V39.6998H40.2064V40.0029H40.5094ZM37.0322 48.2609L36.8392 48.0272L36.6082 48.2181L36.7964 48.4512L37.0322 48.2609ZM40.5094 52.5693H40.8125V52.4622L40.7452 52.3789L40.5094 52.5693ZM40.5094 56.5187H40.2064V56.8217H40.5094V56.5187ZM44.4588 56.5187L44.6507 56.2841L44.567 56.2156H44.4588V56.5187ZM48.4083 59.75L48.2164 59.9846L48.4286 60.1583L48.6226 59.9643L48.4083 59.75ZM51.6396 56.5187L51.6067 56.2174L51.5007 56.229L51.4253 56.3044L51.6396 56.5187ZM56.929 55.9403L56.9619 56.2416L57.2061 56.2149L57.2305 55.9705L56.929 55.9403ZM57.278 52.4497L57.0154 52.2984L56.9829 52.3548L56.9765 52.4195L57.278 52.4497ZM59.8975 47.9017L60.1601 48.053L60.2671 47.8673L60.1276 47.7045L59.8975 47.9017ZM57.7433 45.3885L57.4525 45.4738L57.4708 45.5363L57.5132 45.5857L57.7433 45.3885ZM56.2308 40.2324L56.5216 40.1471L56.461 39.9404L56.246 39.9297L56.2308 40.2324ZM51.6396 40.0029L51.4244 40.2162L51.5071 40.2997L51.6245 40.3056L51.6396 40.0029ZM48.4083 36.7417L48.6235 36.5284L48.4287 36.3318L48.2153 36.508L48.4083 36.7417ZM44.4588 40.0029V40.3059H44.5678L44.6518 40.2366L44.4588 40.0029ZM40.8125 45.3885V40.0029H40.2064V45.3885H40.8125ZM37.2252 48.4945L40.7024 45.6221L40.3164 45.1548L36.8392 48.0272L37.2252 48.4945ZM40.7452 52.3789L37.268 48.0705L36.7964 48.4512L40.2736 52.7596L40.7452 52.3789ZM40.8125 56.5187V52.5693H40.2064V56.5187H40.8125ZM44.4588 56.2156H40.5094V56.8217H44.4588V56.2156ZM48.6002 59.5155L44.6507 56.2841L44.2669 56.7532L48.2164 59.9846L48.6002 59.5155ZM51.4253 56.3044L48.194 59.5358L48.6226 59.9643L51.8539 56.733L51.4253 56.3044ZM56.896 55.6391L51.6067 56.2174L51.6726 56.82L56.9619 56.2416L56.896 55.6391ZM56.9765 52.4195L56.6274 55.9102L57.2305 55.9705L57.5796 52.4798L56.9765 52.4195ZM59.6349 47.7505L57.0154 52.2984L57.5406 52.6009L60.1601 48.053L59.6349 47.7505ZM57.5132 45.5857L59.6674 48.099L60.1276 47.7045L57.9734 45.1912L57.5132 45.5857ZM55.94 40.3177L57.4525 45.4738L58.0341 45.3032L56.5216 40.1471L55.94 40.3177ZM51.6245 40.3056L56.2157 40.535L56.246 39.9297L51.6548 39.7002L51.6245 40.3056ZM48.193 36.955L51.4244 40.2162L51.8549 39.7896L48.6235 36.5284L48.193 36.955ZM44.6518 40.2366L48.6012 36.9754L48.2153 36.508L44.2659 39.7692L44.6518 40.2366ZM40.5094 40.3059H44.4588V39.6998H40.5094V40.3059ZM54.2089 47.9017C54.2089 50.907 51.7726 53.3433 48.7673 53.3433V53.9494C52.1073 53.9494 54.815 51.2418 54.815 47.9017H54.2089ZM48.7673 42.4601C51.7726 42.4601 54.2089 44.8964 54.2089 47.9017H54.815C54.815 44.5617 52.1073 41.854 48.7673 41.854V42.4601ZM43.3257 47.9017C43.3257 44.8964 45.762 42.4601 48.7673 42.4601V41.854C45.4273 41.854 42.7196 44.5617 42.7196 47.9017H43.3257ZM48.7673 53.3433C45.762 53.3433 43.3257 50.907 43.3257 47.9017H42.7196C42.7196 51.2418 45.4273 53.9494 48.7673 53.9494V53.3433Z" fill="black"/>
</g>
<g id="Group">
<path id="Vector_7" d="M47.5503 35.8144C46.9949 36.0163 46.5405 36.3634 45.537 37.3354C44.9564 37.9034 44.4704 38.3262 44.3253 38.3894C44.1359 38.4651 43.7447 38.4966 42.5392 38.5345C40.7973 38.5913 40.5764 38.6355 39.9642 39.0394C39.5161 39.3424 39.1753 39.8031 38.9923 40.3711C38.8787 40.7182 38.8534 41.0022 38.8219 42.3213C38.784 43.6656 38.7651 43.8991 38.6578 44.12C38.5884 44.2588 38.0961 44.8268 37.5533 45.3822C37.0169 45.9439 36.4867 46.5561 36.3731 46.7391C35.8556 47.6164 35.8556 48.6388 36.3731 49.5161C36.4867 49.6991 37.0169 50.3113 37.5533 50.873C38.0961 51.4284 38.5884 51.9964 38.6578 52.1352C38.7651 52.3561 38.784 52.5896 38.8219 53.9339C38.8534 55.2593 38.8787 55.537 38.9923 55.8904C39.3079 56.8687 40.0336 57.4745 41.1066 57.6576L41.5294 57.7333V62.5298C41.5294 67.7177 41.5168 67.4842 41.8702 67.8123C41.9964 67.9323 42.1227 67.9764 42.4004 67.9954C42.7475 68.0206 42.8421 67.9827 45.5875 66.8152L48.4087 65.616L51.2361 66.8152C53.9689 67.9827 54.0698 68.0143 54.417 67.9954C54.6946 67.9764 54.8209 67.9323 54.9471 67.8123C55.3005 67.4842 55.2879 67.7177 55.2879 62.5298V57.7333L55.7171 57.6576C56.7774 57.4745 57.5095 56.8687 57.825 55.8904C57.9386 55.537 57.9639 55.2656 57.9954 53.9339C58.0333 52.596 58.0522 52.3561 58.1595 52.1352C58.2226 51.9964 58.696 51.4536 59.2009 50.9361C59.7121 50.4123 60.217 49.8569 60.3243 49.6991C60.9491 48.7777 60.9933 47.6732 60.4442 46.7391C60.3306 46.5561 59.8004 45.9439 59.264 45.3822C58.7212 44.8268 58.2289 44.2588 58.1595 44.12C58.0522 43.8991 58.0333 43.6656 57.9954 42.3213C57.9639 40.9896 57.9386 40.7182 57.825 40.3648C57.5473 39.5128 56.9414 38.9258 56.0768 38.6607C55.9317 38.6166 55.1617 38.5661 54.2655 38.5408C52.7887 38.4903 52.6877 38.484 52.4163 38.3389C52.2585 38.2568 51.7221 37.7835 51.2235 37.2912C49.9044 35.9848 49.3806 35.6945 48.396 35.6945C48.0489 35.7008 47.7586 35.7386 47.5503 35.8144ZM48.9009 37.8403C49.0461 37.9413 49.5257 38.3894 49.9675 38.8375C50.4093 39.2856 50.9332 39.7526 51.1225 39.8788C51.8293 40.3458 52.5551 40.4847 54.3097 40.491C55.4268 40.4973 55.6792 40.5541 55.8812 40.8255C56.0011 40.9896 56.0137 41.1221 56.0579 42.5611C56.121 44.9215 56.1589 45.0162 57.7493 46.6445C58.2542 47.162 58.7212 47.6984 58.7843 47.831C58.9863 48.2664 58.8159 48.5568 57.7493 49.6107C56.7269 50.6079 56.3482 51.157 56.1652 51.8828C56.1273 52.0216 56.0768 52.8358 56.0579 53.6941C55.9948 55.8021 56.0389 55.7516 54.3097 55.7642C52.5551 55.7705 51.8293 55.9094 51.1225 56.3764C50.9332 56.5026 50.4093 56.9696 49.9675 57.4177C48.983 58.4023 48.7242 58.6042 48.4087 58.6042C48.0931 58.6042 47.8343 58.4023 46.8498 57.4177C46.408 56.9696 45.8842 56.5026 45.6948 56.3764C44.988 55.9094 44.2622 55.7705 42.5076 55.7642C41.3906 55.7579 41.1381 55.7011 40.9362 55.4297C40.8162 55.2656 40.8036 55.1394 40.7657 53.6941C40.7026 51.3653 40.6395 51.2201 39.1311 49.6738C37.9257 48.4432 37.8247 48.2728 38.033 47.831C38.0961 47.6984 38.5631 47.162 39.068 46.6445C40.6585 45.0162 40.6963 44.9215 40.7594 42.5611C40.8225 40.4531 40.7784 40.5036 42.5076 40.491C44.2622 40.4847 44.988 40.3458 45.6948 39.8788C45.8842 39.7526 46.408 39.2856 46.8498 38.8375C47.8343 37.8529 48.0931 37.6509 48.4087 37.6509C48.5664 37.6509 48.7242 37.7141 48.9009 37.8403ZM44.3 57.8595C44.4515 57.9037 44.8365 58.2382 45.5118 58.8946C46.9508 60.2893 47.4178 60.5607 48.4087 60.5607C49.3869 60.5607 49.8792 60.2767 51.2992 58.8946C52.3342 57.8911 52.4289 57.8343 53.0348 57.7585L53.3314 57.7207V61.64C53.3314 64.7514 53.3125 65.5529 53.2557 65.5277C53.2115 65.5151 52.1638 65.067 50.9268 64.5431C49.2039 63.811 48.6169 63.5901 48.4087 63.5901C48.2004 63.5901 47.6198 63.811 45.8905 64.5431C44.6535 65.067 43.6058 65.5151 43.5679 65.5277C43.5048 65.5529 43.4859 64.7514 43.4859 61.64V57.7207L43.7888 57.7585C43.9529 57.7775 44.1801 57.828 44.3 57.8595Z" fill="black"/>
<path id="Vector_8" d="M47.5878 41.2546C46.0731 41.4313 44.489 42.2328 43.4351 43.3562C42.4947 44.366 41.8509 45.704 41.6553 47.0483C41.5417 47.8183 41.6048 49.0174 41.8068 49.7811C42.4631 52.3371 44.6153 54.3378 47.1902 54.7859C50.2701 55.3223 53.2743 53.7571 54.5996 50.9297C55.3065 49.4339 55.4138 47.5343 54.8963 45.9186C54.0884 43.3941 51.8164 41.5512 49.1467 41.2546C48.4714 41.1788 48.2695 41.1788 47.5878 41.2546ZM49.5443 43.3057C50.1187 43.4383 51.0148 43.8927 51.5071 44.2966C52.2329 44.8962 52.8577 45.8744 53.1165 46.8022C53.2048 47.1114 53.2301 47.427 53.2301 48.096C53.2301 48.8849 53.2112 49.0363 53.0597 49.4844C52.782 50.3175 52.4349 50.8666 51.7848 51.5166C51.2799 52.0215 51.1221 52.1288 50.5478 52.4065C49.7652 52.7852 49.1909 52.9241 48.4083 52.9241C47.6257 52.9241 47.0514 52.7852 46.2688 52.4065C45.6945 52.1288 45.5367 52.0215 45.0318 51.5166C44.3817 50.8666 44.0346 50.3175 43.7569 49.4844C43.6055 49.0363 43.5865 48.8849 43.5865 48.096C43.5802 47.0988 43.6686 46.6885 44.0283 45.9501C44.7541 44.4733 46.1173 43.4635 47.7456 43.2111C48.2127 43.1353 48.9953 43.1795 49.5443 43.3057Z" fill="black"/>
<path id="Vector_9" d="M49.7022 46.1017C49.6013 46.1648 49.1279 46.6066 48.6609 47.0799L47.8089 47.9383L47.4933 47.6227C47.1462 47.2819 46.9379 47.1809 46.5908 47.1809C46.3573 47.1809 45.9849 47.3639 45.8398 47.5533C45.7072 47.7237 45.6252 48.115 45.6694 48.3674C45.7072 48.5505 45.8587 48.7461 46.4456 49.3457C46.8496 49.7622 47.2535 50.1346 47.3481 50.1851C47.569 50.2987 48.0487 50.2987 48.2696 50.1851C48.3643 50.1346 49.0269 49.5034 49.7464 48.7777C50.8446 47.6669 51.0592 47.4207 51.116 47.1998C51.2359 46.7644 51.0718 46.3352 50.7247 46.1143C50.447 45.9439 49.961 45.9376 49.7022 46.1017Z" fill="black"/>
</g>
</g>
</g>
</g>
</svg>