<?xml version="1.0" ?><svg xmlns="http://www.w3.org/2000/svg" fill="none" viewBox="3 5 66 60.42">
<g id="purchase-by-product-category">
<g id="Group 1171275742">
<g id="Group 1171275736">
<g id="Group 1171275729">
<g id="products">
<g id="Group 159054">
<g id="Rectangle 47 (Stroke)">
<mask id="path-1-outside-1_7033_46777" maskUnits="userSpaceOnUse" x="3" y="5" width="66" height="20" fill="black">
<rect fill="white" x="3" y="5" width="66" height="20"/>
<path fill-rule="evenodd" clip-rule="evenodd" d="M9.68888 10.2664C8.90342 10.2664 8.26667 10.9031 8.26667 11.6885V18.0881C8.26667 18.8735 8.90342 19.5102 9.68888 19.5102H62.3111C63.0966 19.5102 63.7333 18.8735 63.7333 18.0881V11.6885C63.7333 10.9031 63.0966 10.2664 62.3111 10.2664H9.68888ZM4 11.6885C4 8.54683 6.547 6 9.68888 6H62.3111C65.453 6 68 8.54683 68 11.6885V18.0881C68 21.2297 65.453 23.7765 62.3111 23.7765H9.68888C6.547 23.7765 4 21.2297 4 18.0881V11.6885Z"/>
<path d="M8.26667 11.6885C8.26667 10.9031 8.90342 10.2664 9.68888 10.2664H62.3111C63.0966 10.2664 63.7333 10.9031 63.7333 11.6885V18.0881C63.7333 18.8735 63.0966 19.5102 62.3111 19.5102H9.68888C8.90342 19.5102 8.26667 18.8735 8.26667 18.0881V11.6885Z"/>
</mask>
<path fill-rule="evenodd" clip-rule="evenodd" d="M9.68888 10.2664C8.90342 10.2664 8.26667 10.9031 8.26667 11.6885V18.0881C8.26667 18.8735 8.90342 19.5102 9.68888 19.5102H62.3111C63.0966 19.5102 63.7333 18.8735 63.7333 18.0881V11.6885C63.7333 10.9031 63.0966 10.2664 62.3111 10.2664H9.68888ZM4 11.6885C4 8.54683 6.547 6 9.68888 6H62.3111C65.453 6 68 8.54683 68 11.6885V18.0881C68 21.2297 65.453 23.7765 62.3111 23.7765H9.68888C6.547 23.7765 4 21.2297 4 18.0881V11.6885Z" fill="black"/>
<path d="M8.26667 11.6885C8.26667 10.9031 8.90342 10.2664 9.68888 10.2664H62.3111C63.0966 10.2664 63.7333 10.9031 63.7333 11.6885V18.0881C63.7333 18.8735 63.0966 19.5102 62.3111 19.5102H9.68888C8.90342 19.5102 8.26667 18.8735 8.26667 18.0881V11.6885Z" fill="black"/>
<path fill-rule="evenodd" clip-rule="evenodd" d="M9.68888 10.2664C8.90342 10.2664 8.26667 10.9031 8.26667 11.6885V18.0881C8.26667 18.8735 8.90342 19.5102 9.68888 19.5102H62.3111C63.0966 19.5102 63.7333 18.8735 63.7333 18.0881V11.6885C63.7333 10.9031 63.0966 10.2664 62.3111 10.2664H9.68888ZM4 11.6885C4 8.54683 6.547 6 9.68888 6H62.3111C65.453 6 68 8.54683 68 11.6885V18.0881C68 21.2297 65.453 23.7765 62.3111 23.7765H9.68888C6.547 23.7765 4 21.2297 4 18.0881V11.6885Z" stroke-width="1.18746" mask="url(#path-1-outside-1_7033_46777)" fill="black"/>
<path d="M8.26667 11.6885C8.26667 10.9031 8.90342 10.2664 9.68888 10.2664H62.3111C63.0966 10.2664 63.7333 10.9031 63.7333 11.6885V18.0881C63.7333 18.8735 63.0966 19.5102 62.3111 19.5102H9.68888C8.90342 19.5102 8.26667 18.8735 8.26667 18.0881V11.6885Z" stroke-width="1.18746" mask="url(#path-1-outside-1_7033_46777)" fill="black"/>
</g>
<path id="Rectangle 48" d="M43.5111 30.8869H28.4889C28.2189 30.8869 28 31.1057 28 31.3757V37.5086C28 37.7786 28.2189 37.9975 28.4889 37.9975H43.5111C43.7811 37.9975 44 37.7786 44 37.5086V31.3757C44 31.1057 43.7811 30.8869 43.5111 30.8869Z" fill="black"/>
</g>
</g>
</g>
</g>
<path id="Vector" d="M48.1637 40.8171C45.1598 40.8171 42.6954 43.2814 42.6954 46.2852C42.6954 49.2889 45.1598 51.7532 48.1637 51.7532C51.1676 51.7532 53.632 49.2889 53.632 46.2852C53.632 43.2814 51.1676 40.8171 48.1637 40.8171ZM59.1004 40.8171C57.6061 40.8171 56.3662 42.0569 56.3662 43.5512V49.0192C56.3662 50.5134 57.6061 51.7532 59.1004 51.7532H64.5687C66.063 51.7532 67.3029 50.5134 67.3029 49.0192V43.5512C67.3029 42.0569 66.063 40.8171 64.5687 40.8171H59.1004ZM48.1637 43.5512C49.69 43.5512 50.8979 44.759 50.8979 46.2852C50.8979 47.8113 49.69 49.0192 48.1637 49.0192C46.6375 49.0192 45.4296 47.8113 45.4296 46.2852C45.4296 44.759 46.6375 43.5512 48.1637 43.5512ZM59.1004 43.5512H64.5687V49.0192H59.1004V43.5512ZM61.1884 54.1241C60.8871 54.1154 60.5915 54.2064 60.3473 54.3831L55.8429 57.6564C55.6096 57.826 55.4359 58.0651 55.3467 58.3394C55.2575 58.6137 55.2573 58.9092 55.3462 59.1836L57.0684 64.4781C57.1576 64.7528 57.3314 64.9922 57.565 65.162C57.7986 65.3318 58.08 65.4232 58.3688 65.4232H63.9332C64.222 65.4232 64.5034 65.3318 64.737 65.162C64.9706 64.9922 65.1444 64.7528 65.2335 64.4781L66.9557 59.1836C67.0447 58.9092 67.0445 58.6137 66.9553 58.3394C66.8661 58.0651 66.6924 57.826 66.4591 57.6564L61.9547 54.3831C61.7312 54.2214 61.4641 54.1312 61.1884 54.1241ZM48.1744 54.4872C47.9187 54.4852 47.6676 54.5549 47.4495 54.6885C47.2314 54.8221 47.0552 55.0141 46.9408 55.2428L42.8396 63.4448C42.7354 63.6533 42.6862 63.8849 42.6967 64.1177C42.7072 64.3504 42.777 64.5767 42.8995 64.7749C43.0221 64.9731 43.1932 65.1367 43.3967 65.2502C43.6003 65.3637 43.8295 65.4232 44.0625 65.4232H52.265C52.498 65.4232 52.7272 65.3637 52.9307 65.2502C53.1342 65.1367 53.3054 64.9731 53.4279 64.7749C53.5504 64.5767 53.6203 64.3504 53.6308 64.1177C53.6412 63.8849 53.5921 63.6533 53.4879 63.4448L49.3866 55.2428C49.2739 55.0173 49.101 54.8274 48.887 54.6941C48.6731 54.5608 48.4265 54.4892 48.1744 54.4872V54.4872ZM61.151 57.1785L64.048 59.2851L62.9399 62.6892H59.3594L58.254 59.2851L61.151 57.1785ZM48.1637 58.9113L50.0541 62.6892H46.2733L48.1637 58.9113Z" fill="black"/>
<g id="Subtract">
<mask id="path-4-outside-2_7033_46777" maskUnits="userSpaceOnUse" x="6.67188" y="20.1937" width="59" height="42" fill="black">
<rect fill="white" x="6.67188" y="20.1937" width="59" height="42"/>
<path fill-rule="evenodd" clip-rule="evenodd" d="M12.2627 57.0627V26.4869H59.7293V38.0548H64.3631L64.3627 26.7242C64.3627 23.7961 64.3628 22.4184 63.6752 21.7701C63.0641 21.1939 61.9098 21.1939 59.7293 21.1937H35.3266L12.2627 21.194C8.33531 21.194 7.67188 22.5599 7.67188 26.4869V41.933V57.1418C7.67188 59.1852 7.67188 60.2224 8.1904 60.7486C8.74454 61.311 9.89088 61.2899 12.2623 61.2899H36.7088H41.3093V57.0627H12.2627Z"/>
</mask>
<path fill-rule="evenodd" clip-rule="evenodd" d="M12.2627 57.0627V26.4869H59.7293V38.0548H64.3631L64.3627 26.7242C64.3627 23.7961 64.3628 22.4184 63.6752 21.7701C63.0641 21.1939 61.9098 21.1939 59.7293 21.1937H35.3266L12.2627 21.194C8.33531 21.194 7.67188 22.5599 7.67188 26.4869V41.933V57.1418C7.67188 59.1852 7.67188 60.2224 8.1904 60.7486C8.74454 61.311 9.89088 61.2899 12.2623 61.2899H36.7088H41.3093V57.0627H12.2627Z" fill="black"/>
<path d="M12.2627 26.4869V25.8932H11.6689V26.4869H12.2627ZM12.2627 57.0627H11.6689V57.6564H12.2627V57.0627ZM59.7293 26.4869H60.3231V25.8932H59.7293V26.4869ZM59.7293 38.0548H59.1356V38.6485H59.7293V38.0548ZM64.3631 38.0548V38.6485H64.9569L64.9568 38.0548L64.3631 38.0548ZM64.3627 26.7242L63.7689 26.7242L63.7689 26.7242L64.3627 26.7242ZM63.6752 21.7701L63.2679 22.2021L63.2679 22.2021L63.6752 21.7701ZM59.7293 21.1937L59.7294 20.6H59.7293V21.1937ZM35.3266 21.1937L35.3266 20.6L35.3266 20.6L35.3266 21.1937ZM12.2627 21.194L12.2627 21.7877L12.2627 21.7877L12.2627 21.194ZM8.1904 60.7486L8.61332 60.3319L8.61332 60.3319L8.1904 60.7486ZM41.3093 61.2899V61.8837H41.903V61.2899H41.3093ZM41.3093 57.0627H41.903V56.4689H41.3093V57.0627ZM11.6689 26.4869V57.0627H12.8564V26.4869H11.6689ZM59.7293 25.8932H12.2627V27.0807H59.7293V25.8932ZM60.3231 38.0548V26.4869H59.1356V38.0548H60.3231ZM59.7293 38.6485H64.3631V37.4611H59.7293V38.6485ZM63.7689 26.7242L63.7694 38.0548L64.9568 38.0548L64.9564 26.7242L63.7689 26.7242ZM63.2679 22.2021C63.4503 22.374 63.604 22.6963 63.6865 23.4563C63.7681 24.2079 63.7689 25.2454 63.7689 26.7242H64.9564C64.9564 25.2749 64.9573 24.1594 64.867 23.3281C64.7777 22.5052 64.5877 21.8144 64.0825 21.3381L63.2679 22.2021ZM59.7293 21.7875C60.8337 21.7875 61.6277 21.7885 62.2241 21.8559C62.8218 21.9234 63.1044 22.0479 63.2679 22.2021L64.0825 21.3381C63.6349 20.9161 63.0347 20.7525 62.3574 20.6759C61.6788 20.5992 60.8054 20.6001 59.7294 20.6L59.7293 21.7875ZM35.3266 21.7875H59.7293V20.6H35.3266V21.7875ZM12.2627 21.7877L35.3266 21.7875L35.3266 20.6L12.2627 20.6003L12.2627 21.7877ZM8.2656 26.4869C8.2656 25.5156 8.30717 24.7364 8.42107 24.1093C8.53458 23.4843 8.71345 23.0489 8.96061 22.7356C9.43511 22.1343 10.3262 21.7877 12.2627 21.7877V20.6003C10.2718 20.6003 8.86747 20.9367 8.02841 22C7.6188 22.5192 7.38634 23.1614 7.25273 23.8971C7.1195 24.6306 7.07815 25.4947 7.07815 26.4869H8.2656ZM8.2656 41.933V26.4869H7.07815V41.933H8.2656ZM8.2656 57.1418V41.933H7.07815V57.1418H8.2656ZM8.61332 60.3319C8.49778 60.2147 8.38741 59.9915 8.32675 59.4483C8.26649 58.9085 8.2656 58.1779 8.2656 57.1418H7.07815C7.07815 58.1491 7.07726 58.9588 7.14663 59.58C7.2156 60.1978 7.3645 60.7564 7.76748 61.1654L8.61332 60.3319ZM12.2623 60.6962C11.0594 60.6962 10.2187 60.7007 9.60376 60.6394C8.98085 60.5773 8.73715 60.4576 8.61332 60.3319L7.76748 61.1654C8.19779 61.6021 8.80433 61.753 9.48597 61.821C10.1756 61.8897 11.0938 61.8837 12.2623 61.8837V60.6962ZM36.7088 60.6962H12.2623V61.8837H36.7088V60.6962ZM41.3093 60.6962H36.7088V61.8837H41.3093V60.6962ZM41.903 61.2899V57.0627H40.7155V61.2899H41.903ZM12.2627 57.6564H41.3093V56.4689H12.2627V57.6564Z" fill="black" mask="url(#path-4-outside-2_7033_46777)"/>
</g>
</g>
</g>
</svg>