<?xml version="1.0" ?><svg xmlns="http://www.w3.org/2000/svg" fill="none" viewBox="3 8 65.31 56">
<g id="unit-of-measure">
<g id="Group 1171275616">
<path id="Rectangle 34624447" d="M65.0791 11.5962H24.1875V19.3852H65.0791V11.5962Z" fill="black"/>
<path id="Rectangle 47 (Stroke)" fill-rule="evenodd" clip-rule="evenodd" d="M25.4216 12.1156C24.8481 12.1156 24.3831 12.5806 24.3831 13.1541V17.8275C24.3831 18.4011 24.8481 18.866 25.4216 18.866H63.8468C64.4203 18.866 64.8853 18.4011 64.8853 17.8275V13.1541C64.8853 12.5806 64.4203 12.1156 63.8468 12.1156H25.4216ZM21.2676 13.1541C21.2676 10.8599 23.1274 9 25.4216 9H63.8468C66.141 9 68.0008 10.8599 68.0008 13.1541V17.8275C68.0008 20.1218 66.141 21.9816 63.8468 21.9816H25.4216C23.1274 21.9816 21.2676 20.1218 21.2676 17.8275V13.1541Z" fill="black"/>
<path id="Rectangle 48" d="M50.1193 27.1738H39.15C38.9528 27.1738 38.793 27.3337 38.793 27.5308V32.0095C38.793 32.2066 38.9528 32.3665 39.15 32.3665H50.1193C50.3164 32.3665 50.4763 32.2066 50.4763 32.0095V27.5308C50.4763 27.3337 50.3164 27.1738 50.1193 27.1738Z" fill="black"/>
<path id="Vector (Stroke)" fill-rule="evenodd" clip-rule="evenodd" d="M27.3034 22.5005V44.829H61.9639V22.5005H27.3034ZM23.9512 22.5005C23.9512 19.6327 24.4356 18.6352 27.3034 18.6352L44.1448 18.635H61.9639C65.3475 18.6353 65.3472 18.635 65.3472 22.6737L65.3476 33.7802L65.3475 44.829C65.3475 47.916 65.3475 47.916 61.9639 47.916H45.1542H27.3031C23.9512 47.916 23.9512 47.9738 23.9512 44.8867V33.7802V22.5005Z" fill="black"/>
<g id="Vector">
<mask id="path-5-outside-1_6487_46421" maskUnits="userSpaceOnUse" x="64.3105" y="48.2896" width="4" height="15" fill="black">
<rect fill="white" x="64.3105" y="48.2896" width="4" height="15"/>
<path d="M66.5929 63.0381C66.8231 62.9695 67.0804 62.8496 67.1616 62.7468C67.2699 62.6355 67.3105 60.5796 67.3105 56.1424V49.7093L66.972 49.5037C66.7554 49.3581 66.4981 49.2896 66.1596 49.2896C65.8211 49.2896 65.5638 49.3581 65.3472 49.5037L65.0086 49.7093V56.1595C65.0086 63.218 64.968 62.8839 65.794 63.0638C66.0648 63.1237 66.295 63.1152 66.5929 63.0381Z"/>
</mask>
<path d="M66.5929 63.0381C66.8231 62.9695 67.0804 62.8496 67.1616 62.7468C67.2699 62.6355 67.3105 60.5796 67.3105 56.1424V49.7093L66.972 49.5037C66.7554 49.3581 66.4981 49.2896 66.1596 49.2896C65.8211 49.2896 65.5638 49.3581 65.3472 49.5037L65.0086 49.7093V56.1595C65.0086 63.218 64.968 62.8839 65.794 63.0638C66.0648 63.1237 66.295 63.1152 66.5929 63.0381Z" fill="black"/>
<path d="M66.5929 63.0381C66.8231 62.9695 67.0804 62.8496 67.1616 62.7468C67.2699 62.6355 67.3105 60.5796 67.3105 56.1424V49.7093L66.972 49.5037C66.7554 49.3581 66.4981 49.2896 66.1596 49.2896C65.8211 49.2896 65.5638 49.3581 65.3472 49.5037L65.0086 49.7093V56.1595C65.0086 63.218 64.968 62.8839 65.794 63.0638C66.0648 63.1237 66.295 63.1152 66.5929 63.0381Z" stroke-width="0.355204" mask="url(#path-5-outside-1_6487_46421)" fill="black"/>
</g>
<g id="Vector_2">
<mask id="path-6-outside-2_6487_46421" maskUnits="userSpaceOnUse" x="20.5684" y="48.2896" width="4" height="15" fill="black">
<rect fill="white" x="20.5684" y="48.2896" width="4" height="15"/>
<path d="M22.8507 63.0381C23.0809 62.9695 23.3382 62.8496 23.4194 62.7468C23.5277 62.6355 23.5684 60.5796 23.5684 56.1424V49.7093L23.2298 49.5037C23.0132 49.3581 22.7559 49.2896 22.4174 49.2896C22.0789 49.2896 21.8216 49.3581 21.605 49.5037L21.2665 49.7093V56.1595C21.2665 63.218 21.2258 62.8839 22.0518 63.0638C22.3226 63.1237 22.5528 63.1152 22.8507 63.0381Z"/>
</mask>
<path d="M22.8507 63.0381C23.0809 62.9695 23.3382 62.8496 23.4194 62.7468C23.5277 62.6355 23.5684 60.5796 23.5684 56.1424V49.7093L23.2298 49.5037C23.0132 49.3581 22.7559 49.2896 22.4174 49.2896C22.0789 49.2896 21.8216 49.3581 21.605 49.5037L21.2665 49.7093V56.1595C21.2665 63.218 21.2258 62.8839 22.0518 63.0638C22.3226 63.1237 22.5528 63.1152 22.8507 63.0381Z" fill="black"/>
<path d="M22.8507 63.0381C23.0809 62.9695 23.3382 62.8496 23.4194 62.7468C23.5277 62.6355 23.5684 60.5796 23.5684 56.1424V49.7093L23.2298 49.5037C23.0132 49.3581 22.7559 49.2896 22.4174 49.2896C22.0789 49.2896 21.8216 49.3581 21.605 49.5037L21.2665 49.7093V56.1595C21.2665 63.218 21.2258 62.8839 22.0518 63.0638C22.3226 63.1237 22.5528 63.1152 22.8507 63.0381Z" stroke-width="0.355204" mask="url(#path-6-outside-2_6487_46421)" fill="black"/>
</g>
<g id="Vector_3">
<path d="M59.1993 61.0118C59.4884 60.7628 62.5882 56.6993 62.6444 56.4986C62.7167 56.2094 62.548 55.9444 61.1025 54.0813C59.1912 51.6079 59.1671 51.5918 58.8861 51.5918C58.2356 51.5918 58.1713 51.8167 58.1713 53.9689V55.6875H44.8406L31.5098 55.6875V53.9689C31.5098 51.8167 31.4455 51.5918 30.795 51.5918C30.514 51.5918 30.4899 51.6079 28.5786 54.0813C27.1331 55.9444 26.9644 56.2094 27.0367 56.4986C27.0929 56.6993 30.1927 60.7628 30.4818 61.0118C30.7067 61.2045 30.9797 61.1804 31.2448 60.9556L31.4696 60.7628L31.4937 58.9078L31.5178 57.0527L44.8406 57.0527H58.1633L58.1874 58.9078L58.2115 60.7628L58.4363 60.9556C58.7014 61.1804 58.9744 61.2045 59.1993 61.0118ZM59.4723 55.2458L59.4964 54.1536L60.2272 55.1012C60.6287 55.6232 61.0061 56.1211 61.0624 56.2175C61.1587 56.3701 61.0945 56.4745 60.3316 57.4622L59.4964 58.5383L59.4723 57.4381C59.4643 56.8278 59.4643 55.84 59.4723 55.2458ZM29.3415 57.4462C28.8918 56.876 28.5384 56.362 28.5625 56.3058C28.5947 56.2175 29.9759 54.3945 30.1526 54.2098C30.1927 54.1616 30.2249 55.045 30.2249 56.3138C30.2249 57.5184 30.2088 58.4982 30.1847 58.4982C30.1687 58.4982 29.7832 58.0244 29.3415 57.4462Z" fill="black"/>
<path d="M29.3415 57.4462C28.8918 56.876 28.5384 56.362 28.5625 56.3058C28.5947 56.2175 29.9759 54.3945 30.1526 54.2098C30.1927 54.1616 30.2249 55.045 30.2249 56.3138C30.2249 57.5184 30.2088 58.4982 30.1847 58.4982C30.1687 58.4982 29.7832 58.0244 29.3415 57.4462Z" fill="black"/>
<path d="M59.4723 55.2458L59.4964 54.1536L60.2272 55.1012C60.6287 55.6232 61.0061 56.1211 61.0624 56.2175C61.1587 56.3701 61.0945 56.4745 60.3316 57.4622L59.4964 58.5383L59.4723 57.4381C59.4643 56.8278 59.4643 55.84 59.4723 55.2458Z" fill="black"/>
</g>
<path id="Vector (Stroke)_2" fill-rule="evenodd" clip-rule="evenodd" d="M59.5001 61.361C59.5721 61.299 59.6797 61.1728 59.7824 61.0493C59.8983 60.9099 60.0459 60.7268 60.2129 60.5161C60.5473 60.0941 60.9655 59.5541 61.3756 59.0167C61.7857 58.4793 62.1894 57.9423 62.4947 57.526C62.6471 57.3183 62.7767 57.1383 62.8708 57.0025C62.9176 56.9351 62.9581 56.875 62.989 56.8261C63.0043 56.802 63.0199 56.7765 63.0336 56.7518L63.0344 56.7503C63.0427 56.7354 63.0709 56.6845 63.0882 56.6229L63.0917 56.6105C63.1283 56.4638 63.1323 56.3087 63.0788 56.1295C63.0321 55.9728 62.945 55.8112 62.8312 55.6329C62.6033 55.2755 62.1842 54.7241 61.467 53.7996C60.5181 52.5718 60.0208 51.9313 59.7266 51.6023C59.5838 51.4427 59.4514 51.3121 59.3077 51.2315C59.1293 51.1315 58.9745 51.1316 58.8901 51.1316L58.8865 51.1316C58.7164 51.1316 58.4844 51.1418 58.275 51.2593C58.038 51.3923 57.9133 51.6102 57.8441 51.8414C57.7785 52.0603 57.7486 52.337 57.7321 52.6667C57.7152 53.0033 57.7113 53.4314 57.7113 53.9691V55.2272L31.9706 55.2272V53.9691C31.9706 53.4314 31.9667 53.0033 31.9498 52.6667C31.9333 52.337 31.9034 52.0603 31.8378 51.8414C31.7686 51.6103 31.6439 51.3923 31.4069 51.2593C31.1975 51.1418 30.9655 51.1316 30.7954 51.1316L30.7918 51.1316C30.7074 51.1316 30.5527 51.1315 30.3742 51.2315C30.2305 51.3121 30.0981 51.4427 29.9553 51.6023C29.6611 51.9313 29.1637 52.5718 28.2147 53.7999C27.4976 54.7242 27.0785 55.2755 26.8507 55.6329C26.7369 55.8112 26.6498 55.9728 26.6031 56.1295C26.5496 56.3087 26.5538 56.4638 26.5904 56.6105L26.5936 56.623C26.6108 56.6846 26.6392 56.7354 26.6475 56.7503L26.6483 56.7518C26.662 56.7765 26.6776 56.802 26.6929 56.8261C26.7238 56.875 26.7643 56.9351 26.8111 57.0025C26.9052 57.1383 27.0348 57.3183 27.1872 57.526C27.4926 57.9423 27.8962 58.4793 28.3063 59.0167C28.7165 59.5541 29.1346 60.0941 29.469 60.5161C29.636 60.7268 29.7836 60.9099 29.8995 61.0493C30.0022 61.1728 30.1098 61.299 30.1818 61.361C30.3772 61.5285 30.6206 61.62 30.8842 61.5996C31.1372 61.58 31.3602 61.4621 31.5431 61.3069L31.5448 61.3054L31.9277 60.9772L31.9727 57.5134L57.7092 57.5134L57.7542 60.9772L58.1388 61.3069C58.3217 61.4621 58.5447 61.58 58.7977 61.5996C59.0613 61.62 59.3047 61.5285 59.5001 61.361ZM28.579 54.0816C30.4903 51.6081 30.5144 51.592 30.7954 51.592C31.4459 51.592 31.5102 51.8169 31.5102 53.9691V55.6877L58.1717 55.6877V53.9691C58.1717 51.8169 58.236 51.592 58.8865 51.592C59.1675 51.592 59.1916 51.6081 61.1029 54.0816C62.5484 55.9447 62.7171 56.2097 62.6448 56.4988C62.5886 56.6996 59.4888 60.7631 59.1997 61.012C58.9748 61.2048 58.7018 61.1807 58.4367 60.9558L58.2119 60.7631L58.1637 57.0529L31.5182 57.0529L31.47 60.7631L31.2452 60.9558C30.9801 61.1807 30.7071 61.2048 30.4823 61.012C30.1932 60.7631 27.0933 56.6996 27.0371 56.4988C26.9649 56.2097 27.1335 55.9447 28.579 54.0816Z" fill="black"/>
<rect id="Rectangle 34624515" x="6.30273" y="9" width="9.20893" height="52.952" fill="black"/>
<g id="Vector_4">
<mask id="path-10-outside-3_6487_46421" maskUnits="userSpaceOnUse" x="3" y="8" width="14" height="56" fill="black">
<rect fill="white" x="3" y="8" width="14" height="56"/>
<path d="M16.5862 9.57114C16.3535 8.98944 16.4805 9.00001 10.3673 9.00001C6.5281 9.00001 4.65609 9.03174 4.50802 9.11635C3.96862 9.40192 4.00035 8.00582 4.00035 36.0758C4.00035 64.1458 3.96862 62.7497 4.50802 63.0353C4.65609 63.1199 6.53868 63.1516 10.3885 63.1516H16.0468L16.343 62.8978L16.6391 62.6439L16.6602 36.2133C16.6708 21.4697 16.6391 9.69806 16.5862 9.57114ZM13.8152 13.5479C12.6201 13.5585 12.4297 13.6325 12.2393 14.1613C12.1547 14.4152 12.1653 14.5527 12.2922 14.7959C12.5037 15.2084 12.9268 15.3459 14.0056 15.3459H14.894V17.1439V18.9419H12.9479C11.0442 18.9419 10.9807 18.9525 10.7058 19.1957C10.325 19.513 10.2933 20.1053 10.6423 20.4543C10.8644 20.6765 10.9702 20.687 12.8845 20.7188L14.894 20.7505V22.5379V24.3148L13.7835 24.3571C12.8105 24.3888 12.6518 24.4205 12.4403 24.6215C12.0913 24.9705 12.123 25.5628 12.5037 25.8801C12.7682 26.1128 12.8845 26.1339 13.8469 26.1339H14.894V27.9319V29.7299H13.022C11.3509 29.7299 11.0971 29.7511 10.8009 29.9309C10.2616 30.2693 10.2404 30.9885 10.7586 31.3904C10.875 31.4856 11.5201 31.5174 12.9162 31.5279H14.894V33.3259V35.1239H14.0796C12.9162 35.1239 12.4932 35.2614 12.2816 35.7162C12.1124 36.0441 12.1124 36.1075 12.2816 36.4354C12.4932 36.8902 12.9162 37.0277 14.0796 37.0277H14.894V38.8257V40.6237H12.9056C11.0548 40.6237 10.8961 40.6343 10.6846 40.8352C10.1875 41.3006 10.3039 42.0092 10.9279 42.2631C11.1923 42.3794 11.7528 42.4217 13.096 42.4217H14.894V44.2197V46.0177H13.8469C12.8845 46.0177 12.7682 46.0389 12.5037 46.2715C12.123 46.5888 12.0913 47.1811 12.4403 47.5301C12.6518 47.7311 12.8105 47.7628 13.7835 47.7946L14.894 47.8369V49.6243V51.4117H12.9479C11.0442 51.4117 10.9807 51.4223 10.7058 51.6656C10.2933 52.0146 10.2933 52.6069 10.7058 52.9559C10.9807 53.1991 11.0442 53.2097 12.9479 53.2097H14.894V55.0077V56.8057H14.0056C12.9268 56.8057 12.5037 56.9432 12.2922 57.3557C12.1653 57.599 12.1547 57.7365 12.2393 57.9903C12.4297 58.5191 12.6201 58.5932 13.8152 58.6037H14.894V59.9787V61.3536L10.3779 61.3325L5.85121 61.3007L5.85121 36.0758L5.85121 10.8509L10.3779 10.8192L14.894 10.798V12.173V13.5479H13.8152Z"/>
</mask>
<path d="M16.5862 9.57114C16.3535 8.98944 16.4805 9.00001 10.3673 9.00001C6.5281 9.00001 4.65609 9.03174 4.50802 9.11635C3.96862 9.40192 4.00035 8.00582 4.00035 36.0758C4.00035 64.1458 3.96862 62.7497 4.50802 63.0353C4.65609 63.1199 6.53868 63.1516 10.3885 63.1516H16.0468L16.343 62.8978L16.6391 62.6439L16.6602 36.2133C16.6708 21.4697 16.6391 9.69806 16.5862 9.57114ZM13.8152 13.5479C12.6201 13.5585 12.4297 13.6325 12.2393 14.1613C12.1547 14.4152 12.1653 14.5527 12.2922 14.7959C12.5037 15.2084 12.9268 15.3459 14.0056 15.3459H14.894V17.1439V18.9419H12.9479C11.0442 18.9419 10.9807 18.9525 10.7058 19.1957C10.325 19.513 10.2933 20.1053 10.6423 20.4543C10.8644 20.6765 10.9702 20.687 12.8845 20.7188L14.894 20.7505V22.5379V24.3148L13.7835 24.3571C12.8105 24.3888 12.6518 24.4205 12.4403 24.6215C12.0913 24.9705 12.123 25.5628 12.5037 25.8801C12.7682 26.1128 12.8845 26.1339 13.8469 26.1339H14.894V27.9319V29.7299H13.022C11.3509 29.7299 11.0971 29.7511 10.8009 29.9309C10.2616 30.2693 10.2404 30.9885 10.7586 31.3904C10.875 31.4856 11.5201 31.5174 12.9162 31.5279H14.894V33.3259V35.1239H14.0796C12.9162 35.1239 12.4932 35.2614 12.2816 35.7162C12.1124 36.0441 12.1124 36.1075 12.2816 36.4354C12.4932 36.8902 12.9162 37.0277 14.0796 37.0277H14.894V38.8257V40.6237H12.9056C11.0548 40.6237 10.8961 40.6343 10.6846 40.8352C10.1875 41.3006 10.3039 42.0092 10.9279 42.2631C11.1923 42.3794 11.7528 42.4217 13.096 42.4217H14.894V44.2197V46.0177H13.8469C12.8845 46.0177 12.7682 46.0389 12.5037 46.2715C12.123 46.5888 12.0913 47.1811 12.4403 47.5301C12.6518 47.7311 12.8105 47.7628 13.7835 47.7946L14.894 47.8369V49.6243V51.4117H12.9479C11.0442 51.4117 10.9807 51.4223 10.7058 51.6656C10.2933 52.0146 10.2933 52.6069 10.7058 52.9559C10.9807 53.1991 11.0442 53.2097 12.9479 53.2097H14.894V55.0077V56.8057H14.0056C12.9268 56.8057 12.5037 56.9432 12.2922 57.3557C12.1653 57.599 12.1547 57.7365 12.2393 57.9903C12.4297 58.5191 12.6201 58.5932 13.8152 58.6037H14.894V59.9787V61.3536L10.3779 61.3325L5.85121 61.3007L5.85121 36.0758L5.85121 10.8509L10.3779 10.8192L14.894 10.798V12.173V13.5479H13.8152Z" fill="black"/>
<path d="M16.5862 9.57114C16.3535 8.98944 16.4805 9.00001 10.3673 9.00001C6.5281 9.00001 4.65609 9.03174 4.50802 9.11635C3.96862 9.40192 4.00035 8.00582 4.00035 36.0758C4.00035 64.1458 3.96862 62.7497 4.50802 63.0353C4.65609 63.1199 6.53868 63.1516 10.3885 63.1516H16.0468L16.343 62.8978L16.6391 62.6439L16.6602 36.2133C16.6708 21.4697 16.6391 9.69806 16.5862 9.57114ZM13.8152 13.5479C12.6201 13.5585 12.4297 13.6325 12.2393 14.1613C12.1547 14.4152 12.1653 14.5527 12.2922 14.7959C12.5037 15.2084 12.9268 15.3459 14.0056 15.3459H14.894V17.1439V18.9419H12.9479C11.0442 18.9419 10.9807 18.9525 10.7058 19.1957C10.325 19.513 10.2933 20.1053 10.6423 20.4543C10.8644 20.6765 10.9702 20.687 12.8845 20.7188L14.894 20.7505V22.5379V24.3148L13.7835 24.3571C12.8105 24.3888 12.6518 24.4205 12.4403 24.6215C12.0913 24.9705 12.123 25.5628 12.5037 25.8801C12.7682 26.1128 12.8845 26.1339 13.8469 26.1339H14.894V27.9319V29.7299H13.022C11.3509 29.7299 11.0971 29.7511 10.8009 29.9309C10.2616 30.2693 10.2404 30.9885 10.7586 31.3904C10.875 31.4856 11.5201 31.5174 12.9162 31.5279H14.894V33.3259V35.1239H14.0796C12.9162 35.1239 12.4932 35.2614 12.2816 35.7162C12.1124 36.0441 12.1124 36.1075 12.2816 36.4354C12.4932 36.8902 12.9162 37.0277 14.0796 37.0277H14.894V38.8257V40.6237H12.9056C11.0548 40.6237 10.8961 40.6343 10.6846 40.8352C10.1875 41.3006 10.3039 42.0092 10.9279 42.2631C11.1923 42.3794 11.7528 42.4217 13.096 42.4217H14.894V44.2197V46.0177H13.8469C12.8845 46.0177 12.7682 46.0389 12.5037 46.2715C12.123 46.5888 12.0913 47.1811 12.4403 47.5301C12.6518 47.7311 12.8105 47.7628 13.7835 47.7946L14.894 47.8369V49.6243V51.4117H12.9479C11.0442 51.4117 10.9807 51.4223 10.7058 51.6656C10.2933 52.0146 10.2933 52.6069 10.7058 52.9559C10.9807 53.1991 11.0442 53.2097 12.9479 53.2097H14.894V55.0077V56.8057H14.0056C12.9268 56.8057 12.5037 56.9432 12.2922 57.3557C12.1653 57.599 12.1547 57.7365 12.2393 57.9903C12.4297 58.5191 12.6201 58.5932 13.8152 58.6037H14.894V59.9787V61.3536L10.3779 61.3325L5.85121 61.3007L5.85121 36.0758L5.85121 10.8509L10.3779 10.8192L14.894 10.798V12.173V13.5479H13.8152Z" stroke-width="0.545929" mask="url(#path-10-outside-3_6487_46421)" fill="black"/>
</g>
</g>
</g>
</svg>