<?xml version="1.0" ?><svg xmlns="http://www.w3.org/2000/svg" fill="none" viewBox="4 5 65.06 66">
<g id="create-asset">
<g id="Group 1171275188">
<path id="Vector" d="M4.01504 32.3677C4.01504 24.133 4.03125 15.8984 4.00002 7.66378C3.99461 6.16787 5.23572 5 6.72432 5C21.2486 5.01041 35.7728 5.01242 50.2969 5.00601C51.8989 5.00601 53.0037 6.06575 53.0512 7.64394C53.0512 7.72745 53.0512 7.81096 53.0512 7.89446C53.0512 17.5294 53.0512 27.1645 53.0512 36.7994C53.0512 37.485 53.0278 37.3624 52.4618 37.3642C51.0243 37.3696 49.5873 37.3642 48.1498 37.3642C47.7143 37.3642 47.7137 37.3642 47.7137 36.9321C47.7137 28.1511 47.7137 19.3694 47.7137 10.5871C47.7137 10.086 47.7137 10.086 47.2097 10.086H9.82286C9.32245 10.086 9.32245 10.086 9.32245 10.5901V54.1573C9.32245 54.2408 9.32786 54.3243 9.32245 54.4078C9.31164 54.5844 9.39213 54.6655 9.57296 54.6583C9.67689 54.6535 9.78081 54.6583 9.88533 54.6583H34.2526C34.8004 54.6583 34.8004 54.6583 34.8004 55.1827C34.8004 56.5741 34.8004 57.9653 34.8004 59.3561C34.8004 59.7335 34.8004 59.7359 34.4292 59.7359C25.1625 59.7359 15.8958 59.7359 6.62941 59.7359C5.13959 59.7359 3.99942 58.4742 4.00362 57.1526C4.02705 48.8928 4.01504 40.6305 4.01504 32.3677Z" fill="black"/>
<path id="Vector_2" d="M28.4858 22.0012C25.3853 22.0012 22.285 22.0012 19.1848 22.0012C17.8957 22.0012 16.8167 21.1704 16.5536 19.999C16.2431 18.613 17.1807 17.2355 18.6166 16.9746C18.8113 16.9369 19.0093 16.9168 19.2076 16.9146C25.4176 16.917 31.6274 16.917 37.8374 16.9146C39.1223 16.9146 40.1803 17.7071 40.4728 18.8743C40.8218 20.2795 39.8589 21.6918 38.3786 21.9477C38.1642 21.9838 37.9472 22.0014 37.7299 22.0006C34.6489 22.0011 31.5677 22.0012 28.4858 22.0012Z" fill="black"/>
<path id="Vector_3" d="M28.5167 33.916C25.3977 33.916 22.2785 33.916 19.1591 33.916C17.888 33.916 16.824 33.0936 16.5555 31.9215C16.2329 30.511 17.2164 29.1147 18.7007 28.8822C18.8964 28.8507 19.0942 28.834 19.2924 28.8324C25.4359 28.83 31.5798 28.83 37.724 28.8324C39.0125 28.8324 40.0068 29.4788 40.402 30.559C40.9931 32.181 39.7328 33.9082 37.9312 33.9148C34.793 33.9244 31.6549 33.916 28.5167 33.916Z" fill="black"/>
<path id="Vector_4" d="M24.3558 45.826C22.5782 45.826 20.8001 45.844 19.0225 45.8188C18.0013 45.8044 17.2343 45.2992 16.7734 44.4137C16.3246 43.551 16.3907 42.6828 16.9536 41.8833C17.5064 41.0957 18.3137 40.7533 19.2682 40.7515C22.6536 40.7443 26.0388 40.7443 29.4241 40.7515C30.7625 40.7563 31.7538 41.4544 32.11 42.5813C32.6008 44.1332 31.3789 45.79 29.7191 45.8254H29.6338L24.3558 45.826Z" fill="black"/>
<path id="Vector_5" d="M4.01504 32.3677C4.01504 24.133 4.03125 15.8984 4.00002 7.66378C3.99461 6.16787 5.23572 5 6.72432 5C21.2486 5.01041 35.7728 5.01242 50.2969 5.00601C51.8989 5.00601 53.0037 6.06575 53.0512 7.64394C53.0512 7.72745 53.0512 7.81096 53.0512 7.89446C53.0512 17.5294 53.0512 27.1645 53.0512 36.7994C53.0512 37.485 53.0278 37.3624 52.4618 37.3642C51.0243 37.3696 49.5873 37.3642 48.1498 37.3642C47.7143 37.3642 47.7137 37.3642 47.7137 36.9321C47.7137 28.1511 47.7137 19.3694 47.7137 10.5871C47.7137 10.086 47.7137 10.086 47.2097 10.086H9.82286C9.32245 10.086 9.32245 10.086 9.32245 10.5901V54.1573C9.32245 54.2408 9.32786 54.3243 9.32245 54.4078C9.31164 54.5844 9.39213 54.6655 9.57296 54.6583C9.67689 54.6535 9.78081 54.6583 9.88533 54.6583H34.2526C34.8004 54.6583 34.8004 54.6583 34.8004 55.1827C34.8004 56.5741 34.8004 57.9653 34.8004 59.3561C34.8004 59.7335 34.8004 59.7359 34.4292 59.7359C25.1625 59.7359 15.8958 59.7359 6.62941 59.7359C5.13959 59.7359 3.99942 58.4742 4.00362 57.1526C4.02705 48.8928 4.01504 40.6305 4.01504 32.3677Z" fill="black"/>
<path id="Vector_6" d="M28.4858 22.0012C25.3853 22.0012 22.285 22.0012 19.1848 22.0012C17.8957 22.0012 16.8167 21.1704 16.5536 19.999C16.2431 18.613 17.1807 17.2355 18.6166 16.9746C18.8113 16.9369 19.0093 16.9168 19.2076 16.9146C25.4176 16.917 31.6274 16.917 37.8374 16.9146C39.1223 16.9146 40.1803 17.7071 40.4728 18.8743C40.8218 20.2795 39.8589 21.6918 38.3786 21.9477C38.1642 21.9838 37.9472 22.0014 37.7299 22.0006C34.6489 22.0011 31.5677 22.0012 28.4858 22.0012Z" fill="black"/>
<path id="Vector_7" d="M28.5167 33.916C25.3977 33.916 22.2785 33.916 19.1591 33.916C17.888 33.916 16.824 33.0936 16.5555 31.9215C16.2329 30.511 17.2164 29.1147 18.7007 28.8822C18.8964 28.8507 19.0942 28.834 19.2924 28.8324C25.4359 28.83 31.5798 28.83 37.724 28.8324C39.0125 28.8324 40.0068 29.4788 40.402 30.559C40.9931 32.181 39.7328 33.9082 37.9312 33.9148C34.793 33.9244 31.6549 33.916 28.5167 33.916Z" fill="black"/>
<path id="Vector_8" d="M24.3538 45.826C22.5762 45.826 20.7982 45.844 19.0206 45.8188C17.9994 45.8044 17.2323 45.2992 16.7714 44.4137C16.3227 43.551 16.3888 42.6828 16.9516 41.8833C17.5044 41.0957 18.3117 40.7533 19.2662 40.7515C22.6516 40.7443 26.0368 40.7443 29.4222 40.7515C30.7605 40.7563 31.7518 41.4544 32.108 42.5813C32.5988 44.1332 31.377 45.79 29.7171 45.8254H29.6318L24.3538 45.826Z" fill="black"/>
<g id="Vector_9">
<mask id="path-9-inside-1_5876_46106" fill="white">
<path d="M59.7434 55.8285H53.8894V61.6825H50.9623V55.8285H45.1083V52.9015H50.9623V47.0475H53.8894V52.9015H59.7434V55.8285Z"/>
<path fill-rule="evenodd" clip-rule="evenodd" d="M52.4259 39.7299C44.3473 39.7299 37.7908 46.2864 37.7908 54.365C37.7908 62.4435 44.3473 69 52.4259 69C60.5044 69 67.0609 62.4435 67.0609 54.365C67.0609 46.2864 60.5044 39.7299 52.4259 39.7299ZM53.8894 55.8285H59.7434V52.9015H53.8894V47.0475H50.9623V52.9015H45.1083V55.8285H50.9623V61.6825H53.8894V55.8285Z"/>
</mask>
<path d="M59.7434 55.8285H53.8894V61.6825H50.9623V55.8285H45.1083V52.9015H50.9623V47.0475H53.8894V52.9015H59.7434V55.8285Z" fill="black"/>
<path fill-rule="evenodd" clip-rule="evenodd" d="M52.4259 39.7299C44.3473 39.7299 37.7908 46.2864 37.7908 54.365C37.7908 62.4435 44.3473 69 52.4259 69C60.5044 69 67.0609 62.4435 67.0609 54.365C67.0609 46.2864 60.5044 39.7299 52.4259 39.7299ZM53.8894 55.8285H59.7434V52.9015H53.8894V47.0475H50.9623V52.9015H45.1083V55.8285H50.9623V61.6825H53.8894V55.8285Z" fill="black"/>
<path d="M59.7434 55.8285V56.8285H60.7434V55.8285H59.7434ZM53.8894 55.8285V54.8285H52.8894V55.8285H53.8894ZM53.8894 61.6825V62.6825H54.8894V61.6825H53.8894ZM50.9623 61.6825H49.9623V62.6825H50.9623V61.6825ZM50.9623 55.8285H51.9623V54.8285H50.9623V55.8285ZM45.1083 55.8285H44.1083V56.8285H45.1083V55.8285ZM45.1083 52.9015V51.9015H44.1083V52.9015H45.1083ZM50.9623 52.9015V53.9015H51.9623V52.9015H50.9623ZM50.9623 47.0475V46.0475H49.9623V47.0475H50.9623ZM53.8894 47.0475H54.8894V46.0475H53.8894V47.0475ZM53.8894 52.9015H52.8894V53.9015H53.8894V52.9015ZM59.7434 52.9015H60.7434V51.9015H59.7434V52.9015ZM59.7434 54.8285H53.8894V56.8285H59.7434V54.8285ZM52.8894 55.8285V61.6825H54.8894V55.8285H52.8894ZM53.8894 60.6825H50.9623V62.6825H53.8894V60.6825ZM51.9623 61.6825V55.8285H49.9623V61.6825H51.9623ZM50.9623 54.8285H45.1083V56.8285H50.9623V54.8285ZM46.1083 55.8285V52.9015H44.1083V55.8285H46.1083ZM45.1083 53.9015H50.9623V51.9015H45.1083V53.9015ZM51.9623 52.9015V47.0475H49.9623V52.9015H51.9623ZM50.9623 48.0475H53.8894V46.0475H50.9623V48.0475ZM52.8894 47.0475V52.9015H54.8894V47.0475H52.8894ZM53.8894 53.9015H59.7434V51.9015H53.8894V53.9015ZM58.7434 52.9015V55.8285H60.7434V52.9015H58.7434ZM52.4259 37.7299C43.2427 37.7299 35.7908 45.1819 35.7908 54.365H39.7908C39.7908 47.391 45.4519 41.7299 52.4259 41.7299V37.7299ZM35.7908 54.365C35.7908 63.5481 43.2427 71 52.4259 71V67C45.4519 67 39.7908 61.339 39.7908 54.365H35.7908ZM52.4259 71C61.609 71 69.0609 63.5481 69.0609 54.365H65.0609C65.0609 61.339 59.3998 67 52.4259 67V71ZM69.0609 54.365C69.0609 45.1819 61.609 37.7299 52.4259 37.7299V41.7299C59.3998 41.7299 65.0609 47.391 65.0609 54.365H69.0609Z" fill="black" mask="url(#path-9-inside-1_5876_46106)"/>
</g>
</g>
</g>
</svg>