<?xml version="1.0" ?><svg xmlns="http://www.w3.org/2000/svg" fill="none" viewBox="4 9 64 54.33">
<g id="dashboard">
<g id="Group 1171275232">
<g id="Group">
<path id="Vector" d="M29.1016 18.7129V19.4258L29.5166 19.9922L29.9316 20.5537V21.1104V21.6621H30.6885H31.4453V20.8418V20.0166L31.0303 19.4648L30.6152 18.9131V18.4541V18H29.8584H29.1016V18.7129Z" fill="black"/>
<path id="Vector_2" d="M32.375 18.7178V19.4404L32.79 20.002L33.2051 20.5586V21.1104V21.6621H33.9619H34.7188V20.8516V20.041L34.3037 19.4746L33.8887 18.9082V18.4541V18H33.1318H32.375V18.7178Z" fill="black"/>
<path id="Vector_3" d="M35.6445 18.7227V19.4502L36.0596 20.002L36.4746 20.5537V21.1104V21.6621H37.2314H37.9883V20.8516V20.041L37.5732 19.4795L37.1582 18.918V18.459V18H36.4014H35.6445V18.7227Z" fill="black"/>
<path id="Vector_4" d="M38.918 18.7227V19.4453L39.333 20.0117L39.748 20.5781V21.1201V21.6621H40.5049H41.2617V20.8516V20.041L40.8467 19.4844L40.4316 18.9277V18.4639V18H39.6748H38.918V18.7227Z" fill="black"/>
<g id="Vector_5">
<path d="M34.7432 22.9166C34.1523 23.1266 33.7422 23.4977 33.4883 24.0348C33.3027 24.4254 33.2637 24.9186 33.3662 25.5289L33.4346 25.9586H30.8174C28.6396 25.9586 28.1465 25.9733 27.9072 26.0319C26.8721 26.2955 26.0225 27.1256 25.7393 28.1559C25.6465 28.483 25.6367 28.6588 25.6367 29.8258V31.1344H24.3184H23V32.8141V34.4889L24.3184 35.6315L25.6367 36.7692V38.6051C25.6367 40.6559 25.6465 40.7487 25.9639 41.3883C26.2178 41.8961 26.75 42.4284 27.248 42.6774C27.9512 43.0192 27.375 42.9996 35.4951 42.9996C43.6543 42.9996 43.0928 43.0241 43.7764 42.6676C44.2549 42.4186 44.7969 41.8668 45.0361 41.3883C45.3535 40.7487 45.3633 40.6559 45.3633 38.6051V36.7692L46.6816 35.6315L48 34.4938V32.8141V31.1344H46.6816H45.3633V29.8502C45.3633 28.7223 45.3535 28.5123 45.2656 28.1803C45.002 27.15 44.1377 26.2955 43.0928 26.0319C42.8535 25.9733 42.3457 25.9586 40.0508 25.9586C37.4531 25.9586 37.3018 25.9537 37.3262 25.8707C37.3359 25.8268 37.375 25.5827 37.4092 25.3336C37.5508 24.2887 37.1553 23.4684 36.2959 23.0436C35.959 22.8776 35.8857 22.858 35.4561 22.8483C35.0996 22.8336 34.9287 22.8532 34.7432 22.9166ZM35.6758 24.4401C35.9346 24.5963 35.9639 24.7477 35.8662 25.3971L35.7783 25.9586H35.3779H34.9727L34.9482 25.7975C34.7773 24.816 34.7871 24.7037 35.0215 24.484C35.1973 24.318 35.4463 24.3034 35.6758 24.4401ZM42.8975 27.5748C43.2588 27.7116 43.6104 28.0631 43.7471 28.4244C43.835 28.6539 43.8496 28.8053 43.8496 29.3766V30.0602H35.5H27.1504V29.3766C27.1504 28.8053 27.165 28.6539 27.2529 28.4244C27.3848 28.068 27.7412 27.7116 28.0879 27.5748C28.3418 27.4772 28.4297 27.4772 35.4854 27.4772C42.6094 27.4723 42.624 27.4723 42.8975 27.5748ZM43.8398 35.9782L43.8252 40.4362L43.6836 40.695C43.5078 41.0123 43.2832 41.2174 42.9219 41.3834L42.6533 41.5104H35.5H28.3467L28.0781 41.3834C27.7168 41.2174 27.4922 41.0123 27.3164 40.695L27.1748 40.4362L27.1602 35.9782L27.1504 31.525H35.5H43.8496L43.8398 35.9782ZM25.6367 33.6979V34.7526L25.0508 34.2496L24.4697 33.7467L24.4648 33.195V32.6481H25.0508H25.6367V33.6979ZM46.5352 33.195L46.5303 33.7467L45.9492 34.2496L45.3633 34.7526V33.6979V32.6481H45.9492H46.5352V33.195Z" fill="black"/>
<path d="M42.8975 27.5748C43.2588 27.7116 43.6104 28.0631 43.7471 28.4244C43.835 28.6539 43.8496 28.8053 43.8496 29.3766V30.0602H35.5H27.1504V29.3766C27.1504 28.8053 27.165 28.6539 27.2529 28.4244C27.3848 28.068 27.7412 27.7116 28.0879 27.5748C28.3418 27.4772 28.4297 27.4772 35.4854 27.4772C42.6094 27.4723 42.624 27.4723 42.8975 27.5748Z" fill="black"/>
<path d="M43.8398 35.9782L43.8252 40.4362L43.6836 40.695C43.5078 41.0123 43.2832 41.2174 42.9219 41.3834L42.6533 41.5104H35.5H28.3467L28.0781 41.3834C27.7168 41.2174 27.4922 41.0123 27.3164 40.695L27.1748 40.4362L27.1602 35.9782L27.1504 31.525H35.5H43.8496L43.8398 35.9782Z" fill="black"/>
</g>
</g>
<g id="Group 1171275218">
<path id="display" d="M4 46.2625C4 51.206 6.52492 53.6512 11.3621 53.6512H27.6013L26.8837 58.4618H24.0664C22.7375 58.4618 21.6478 59.5781 21.6478 60.907C21.6478 62.2093 22.7375 63.3256 24.0664 63.3256H48.1196C49.4751 63.3256 50.5648 62.2093 50.5648 60.907C50.5648 59.5781 49.4751 58.4618 48.1196 58.4618H45.0897L44.3987 53.6512H60.6113C65.4485 53.6512 68 51.206 68 46.2625V16.3621C68 11.4452 65.4485 9 60.6113 9H11.3621C6.52492 9 4 11.4452 4 16.3621V46.2625ZM9.18272 45.9435V16.7076C9.18272 14.8738 9.95349 14.1827 11.7076 14.1827H60.2658C62.0199 14.1827 62.8173 14.8738 62.8173 16.7076V45.9435C62.8173 47.7508 62.0199 48.4684 60.2658 48.4684H11.7076C9.95349 48.4684 9.18272 47.7508 9.18272 45.9435Z" fill="black"/>
</g>
</g>
</g>
</svg>