<?xml version="1.0" ?><svg xmlns="http://www.w3.org/2000/svg" width="72" height="72" viewBox="0 0 72 72" fill="none">
<g id="material-request">
<g id="Group 159087">
<rect id="Rectangle 43" width="6.3225" height="16.637" transform="matrix(0.999989 -0.00476036 0.00521863 0.999986 6.39258 41.0645)" fill="black"/>
<g id="Group">
<g id="Vector">
<mask id="path-2-outside-1_5883_47037" maskUnits="userSpaceOnUse" x="3" y="37.625" width="66" height="26" fill="black">
<rect fill="white" x="3" y="37.625" width="66" height="26"/>
<path d="M66.879 40.5273C65.4422 39.0029 63.1486 38.8508 61.5358 40.1702L52.0767 47.4815C52.0817 47.3918 52.0817 47.3021 52.0817 47.2125C52.0432 45.0316 50.2526 43.259 48.0882 43.259H37.5863C36.9811 43.259 36.4094 42.9243 36.059 42.3655C35.9818 42.2438 35.8779 42.1445 35.7622 42.0565C31.4619 38.8155 25.6845 38.3912 20.737 40.492L18.9079 41.2687H15.2346V39.6658C15.2346 39.091 14.745 38.625 14.1431 38.625H5.09143C4.48788 38.625 4 39.091 4 39.6658V58.9352C4 59.51 4.48788 59.976 5.09143 59.976H14.1431C14.745 59.976 15.2329 59.51 15.2329 58.9352V57.2811H18.9699L31.9011 61.2041C34.8334 62.2401 37.2912 62.7589 39.7491 62.7589C41.7207 62.7589 43.6906 62.4259 45.9053 61.7598C46.1082 61.6989 46.3144 61.6349 46.5223 61.5676C46.9699 61.4027 47.4058 61.2073 47.8267 60.9832C48.172 60.799 48.5006 60.5845 48.8074 60.3443L66.8739 46.2581C66.9343 46.2117 66.9879 46.1605 67.0366 46.1028C68.3795 44.4968 68.3107 42.0485 66.879 40.5273ZM13.0534 57.8928H6.18119V40.7082H13.0534V57.8928ZM65.3969 44.7225L48.5459 57.8607C47.0739 59.0072 45.3487 59.8223 43.4995 60.2354C39.8362 61.0536 36.8168 60.7238 32.6338 59.2426C32.617 59.2362 32.6002 59.2314 32.5852 59.2266L19.4695 55.2475C19.3622 55.2139 19.2516 55.1979 19.1392 55.1979H15.2346V43.3535H19.1392C19.2918 43.3535 19.4427 43.3214 19.5818 43.2622L21.6222 42.3959C25.7901 40.625 30.523 41.0893 34.3187 43.6337C35.0799 44.7081 36.2853 45.3422 37.5863 45.3422H48.0882C49.069 45.3422 49.8821 46.1973 49.9006 47.2477C49.9106 47.8273 49.6927 48.3782 49.3004 48.7577C49.1075 48.945 48.8829 49.0811 48.6431 49.1564C48.333 49.2044 48.0178 49.2284 47.6992 49.2284H36.0187C35.4185 49.2284 34.9206 49.6848 34.9122 50.2564C34.9038 50.8377 35.3951 51.3117 36.002 51.3117H48.1804C48.509 51.3117 48.8309 51.27 49.1411 51.19C50.5008 50.9546 51.785 50.3877 52.9116 49.5167L62.919 41.7811L62.9232 41.7777C62.9314 41.7711 62.9386 41.7655 62.9458 41.7586C63.6499 41.1774 64.6223 41.2462 65.2577 41.922C65.9602 42.6681 66.0155 43.9027 65.3969 44.7225Z"/>
</mask>
<path d="M66.879 40.5273C65.4422 39.0029 63.1486 38.8508 61.5358 40.1702L52.0767 47.4815C52.0817 47.3918 52.0817 47.3021 52.0817 47.2125C52.0432 45.0316 50.2526 43.259 48.0882 43.259H37.5863C36.9811 43.259 36.4094 42.9243 36.059 42.3655C35.9818 42.2438 35.8779 42.1445 35.7622 42.0565C31.4619 38.8155 25.6845 38.3912 20.737 40.492L18.9079 41.2687H15.2346V39.6658C15.2346 39.091 14.745 38.625 14.1431 38.625H5.09143C4.48788 38.625 4 39.091 4 39.6658V58.9352C4 59.51 4.48788 59.976 5.09143 59.976H14.1431C14.745 59.976 15.2329 59.51 15.2329 58.9352V57.2811H18.9699L31.9011 61.2041C34.8334 62.2401 37.2912 62.7589 39.7491 62.7589C41.7207 62.7589 43.6906 62.4259 45.9053 61.7598C46.1082 61.6989 46.3144 61.6349 46.5223 61.5676C46.9699 61.4027 47.4058 61.2073 47.8267 60.9832C48.172 60.799 48.5006 60.5845 48.8074 60.3443L66.8739 46.2581C66.9343 46.2117 66.9879 46.1605 67.0366 46.1028C68.3795 44.4968 68.3107 42.0485 66.879 40.5273ZM13.0534 57.8928H6.18119V40.7082H13.0534V57.8928ZM65.3969 44.7225L48.5459 57.8607C47.0739 59.0072 45.3487 59.8223 43.4995 60.2354C39.8362 61.0536 36.8168 60.7238 32.6338 59.2426C32.617 59.2362 32.6002 59.2314 32.5852 59.2266L19.4695 55.2475C19.3622 55.2139 19.2516 55.1979 19.1392 55.1979H15.2346V43.3535H19.1392C19.2918 43.3535 19.4427 43.3214 19.5818 43.2622L21.6222 42.3959C25.7901 40.625 30.523 41.0893 34.3187 43.6337C35.0799 44.7081 36.2853 45.3422 37.5863 45.3422H48.0882C49.069 45.3422 49.8821 46.1973 49.9006 47.2477C49.9106 47.8273 49.6927 48.3782 49.3004 48.7577C49.1075 48.945 48.8829 49.0811 48.6431 49.1564C48.333 49.2044 48.0178 49.2284 47.6992 49.2284H36.0187C35.4185 49.2284 34.9206 49.6848 34.9122 50.2564C34.9038 50.8377 35.3951 51.3117 36.002 51.3117H48.1804C48.509 51.3117 48.8309 51.27 49.1411 51.19C50.5008 50.9546 51.785 50.3877 52.9116 49.5167L62.919 41.7811L62.9232 41.7777C62.9314 41.7711 62.9386 41.7655 62.9458 41.7586C63.6499 41.1774 64.6223 41.2462 65.2577 41.922C65.9602 42.6681 66.0155 43.9027 65.3969 44.7225Z" fill="black"/>
<path d="M63.0016 41.8852L63.0059 41.8818L62.8406 41.6735L62.8363 41.6769L63.0016 41.8852ZM66.879 40.5273L67.0726 40.345L67.0725 40.3449L66.879 40.5273ZM61.5358 40.1702L61.6985 40.3807L61.7042 40.376L61.5358 40.1702ZM52.0767 47.4815L51.8112 47.4666L51.7786 48.0479L52.2393 47.6919L52.0767 47.4815ZM52.0817 47.2125H52.3477L52.3476 47.2078L52.0817 47.2125ZM36.059 42.3655L36.2842 42.2243L36.2836 42.2232L36.059 42.3655ZM35.7622 42.0565L35.9233 41.8449L35.9222 41.8441L35.7622 42.0565ZM20.737 40.492L20.8409 40.7368L20.8409 40.7368L20.737 40.492ZM18.9079 41.2687V41.5345H18.962L19.0118 41.5134L18.9079 41.2687ZM15.2346 41.2687H14.9687V41.5345H15.2346V41.2687ZM15.2329 57.2811V57.0152H14.967V57.2811H15.2329ZM18.9699 57.2811L19.0471 57.0266L19.0094 57.0152H18.9699V57.2811ZM31.9011 61.2041L31.9898 60.9532L31.9783 60.9497L31.9011 61.2041ZM45.9053 61.7598L45.8289 61.5051L45.8288 61.5051L45.9053 61.7598ZM46.5223 61.5676L46.6042 61.8208L46.6142 61.8171L46.5223 61.5676ZM47.8267 60.9832L47.9517 61.2178L47.9518 61.2178L47.8267 60.9832ZM48.8074 60.3443L48.644 60.1346L48.6435 60.1349L48.8074 60.3443ZM66.8739 46.2581L66.7118 46.0474L66.7104 46.0484L66.8739 46.2581ZM67.0366 46.1028L67.2398 46.2742L67.2405 46.2734L67.0366 46.1028ZM13.0534 57.8928V58.1587H13.3193V57.8928H13.0534ZM6.18119 57.8928H5.9153V58.1587H6.18119V57.8928ZM6.18119 40.7082V40.4423H5.9153V40.7082H6.18119ZM13.0534 40.7082H13.3193V40.4423H13.0534V40.7082ZM65.3969 44.7225L65.5604 44.9322L65.588 44.9107L65.6091 44.8827L65.3969 44.7225ZM48.5459 57.8607L48.7093 58.0705L48.7094 58.0704L48.5459 57.8607ZM43.4995 60.2354L43.5575 60.4949L43.5575 60.4949L43.4995 60.2354ZM32.6338 59.2426L32.5389 59.4911L32.545 59.4933L32.6338 59.2426ZM32.5852 59.2266L32.6658 58.9732L32.6624 58.9722L32.5852 59.2266ZM19.4695 55.2475L19.39 55.5012L19.3923 55.502L19.4695 55.2475ZM15.2346 55.1979H14.9687V55.4638H15.2346V55.1979ZM15.2346 43.3535V43.0876H14.9687V43.3535H15.2346ZM19.5818 43.2622L19.4779 43.0175L19.4777 43.0176L19.5818 43.2622ZM21.6222 42.3959L21.7261 42.6407L21.7262 42.6406L21.6222 42.3959ZM34.3187 43.6337L34.5357 43.48L34.5074 43.4401L34.4668 43.4128L34.3187 43.6337ZM49.9006 47.2477L50.1664 47.2431V47.243L49.9006 47.2477ZM49.3004 48.7577L49.1155 48.5666L49.1151 48.567L49.3004 48.7577ZM48.6431 49.1564L48.6838 49.4191L48.7037 49.4161L48.7228 49.4101L48.6431 49.1564ZM34.9122 50.2564L34.6463 50.2525V50.2526L34.9122 50.2564ZM49.1411 51.19L49.0957 50.928L49.0851 50.9298L49.0746 50.9325L49.1411 51.19ZM52.9116 49.5167L52.749 49.3063L52.749 49.3063L52.9116 49.5167ZM62.919 41.7811L63.0816 41.9914L63.0842 41.9894L62.919 41.7811ZM62.9458 41.7586L62.7765 41.5536L62.7691 41.5597L62.7622 41.5663L62.9458 41.7586ZM65.2577 41.922L65.064 42.1041L65.0641 42.1042L65.2577 41.922ZM62.9232 41.7777L62.7581 41.5692L62.758 41.5694L62.9232 41.7777ZM67.0725 40.3449C65.5405 38.7196 63.0891 38.556 61.3674 39.9644L61.7042 40.376C63.2082 39.1456 65.3438 39.2862 66.6855 40.7097L67.0725 40.3449ZM61.3732 39.9598L51.9141 47.2711L52.2393 47.6919L61.6984 40.3806L61.3732 39.9598ZM52.3422 47.4964C52.3477 47.398 52.3476 47.3009 52.3476 47.2125H51.8159C51.8159 47.3034 51.8158 47.3856 51.8112 47.4666L52.3422 47.4964ZM52.3476 47.2078C52.3065 44.8838 50.3995 42.9931 48.0882 42.9931V43.5249C50.1057 43.5249 51.7799 45.1794 51.8159 47.2172L52.3476 47.2078ZM48.0882 42.9931H37.5863V43.5249H48.0882V42.9931ZM37.5863 42.9931C37.0821 42.9931 36.5913 42.714 36.2842 42.2243L35.8337 42.5068C36.2274 43.1347 36.88 43.5249 37.5863 43.5249V42.9931ZM36.2836 42.2232C36.1837 42.0656 36.0536 41.9441 35.9233 41.8449L35.6012 42.268C35.7022 42.345 35.78 42.422 35.8344 42.5078L36.2836 42.2232ZM35.9222 41.8441C31.5375 38.5396 25.6577 38.1137 20.6331 40.2473L20.8409 40.7368C25.7113 38.6687 31.3863 39.0915 35.6022 42.2688L35.9222 41.8441ZM20.6331 40.2473L18.804 41.0239L19.0118 41.5134L20.8409 40.7368L20.6331 40.2473ZM18.9079 41.0028H15.2346V41.5345H18.9079V41.0028ZM15.5004 41.2687V39.6658H14.9687V41.2687H15.5004ZM15.5004 39.6658C15.5004 38.9322 14.8797 38.3591 14.1431 38.3591V38.8909C14.6103 38.8909 14.9687 39.2497 14.9687 39.6658H15.5004ZM14.1431 38.3591H5.09143V38.8909H14.1431V38.3591ZM5.09143 38.3591C4.35295 38.3591 3.73411 38.9325 3.73411 39.6658H4.26589C4.26589 39.2495 4.6228 38.8909 5.09143 38.8909V38.3591ZM3.73411 39.6658V58.9352H4.26589V39.6658H3.73411ZM3.73411 58.9352C3.73411 59.6685 4.35295 60.2419 5.09143 60.2419V59.7101C4.6228 59.7101 4.26589 59.3515 4.26589 58.9352H3.73411ZM5.09143 60.2419H14.1431V59.7101H5.09143V60.2419ZM14.1431 60.2419C14.8802 60.2419 15.4988 59.6683 15.4988 58.9352H14.967C14.967 59.3518 14.6098 59.7101 14.1431 59.7101V60.2419ZM15.4988 58.9352V57.2811H14.967V58.9352H15.4988ZM15.2329 57.547H18.9699V57.0152H15.2329V57.547ZM18.8927 57.5355L31.8239 61.4586L31.9783 60.9497L19.0471 57.0266L18.8927 57.5355ZM31.8125 61.4548C34.7627 62.4972 37.2516 63.0248 39.7491 63.0248V62.493C37.3309 62.493 34.9041 61.9831 31.9897 60.9534L31.8125 61.4548ZM39.7491 63.0248C41.7522 63.0248 43.7483 62.6862 45.9819 62.0144L45.8288 61.5051C43.6329 62.1656 41.6892 62.493 39.7491 62.493V63.0248ZM45.9817 62.0145C46.1863 61.9531 46.3943 61.8885 46.6041 61.8206L46.4405 61.3146C46.2345 61.3813 46.0301 61.4447 45.8289 61.5051L45.9817 62.0145ZM46.6142 61.8171C47.0732 61.648 47.5202 61.4477 47.9517 61.2178L47.7016 60.7485C47.2915 60.967 46.8667 61.1574 46.4304 61.3181L46.6142 61.8171ZM47.9518 61.2178C48.311 61.0263 48.6525 60.8032 48.9714 60.5536L48.6435 60.1349C48.3487 60.3657 48.0331 60.5718 47.7016 60.7485L47.9518 61.2178ZM48.9709 60.554L67.0374 46.4678L66.7104 46.0484L48.644 60.1346L48.9709 60.554ZM67.0361 46.4689C67.1114 46.4109 67.1788 46.3466 67.2398 46.2742L66.8333 45.9314C66.7971 45.9743 66.7572 46.0124 66.7118 46.0474L67.0361 46.4689ZM67.2405 46.2734C68.6694 44.5645 68.597 41.9646 67.0726 40.345L66.6853 40.7095C68.0245 42.1323 68.0895 44.429 66.8326 45.9322L67.2405 46.2734ZM13.0534 57.6269H6.18119V58.1587H13.0534V57.6269ZM6.44708 57.8928V40.7082H5.9153V57.8928H6.44708ZM6.18119 40.9741H13.0534V40.4423H6.18119V40.9741ZM12.7875 40.7082V57.8928H13.3193V40.7082H12.7875ZM65.2334 44.5128L48.3824 57.651L48.7094 58.0704L65.5604 44.9322L65.2334 44.5128ZM48.3825 57.651C46.9417 58.7732 45.2526 59.5713 43.4415 59.9759L43.5575 60.4949C45.4449 60.0732 47.2061 59.2413 48.7093 58.0705L48.3825 57.651ZM43.4415 59.9759C39.8388 60.7806 36.8712 60.461 32.7225 58.992L32.545 59.4933C36.7623 60.9866 39.8337 61.3266 43.5575 60.4949L43.4415 59.9759ZM32.7287 58.9942C32.7025 58.9842 32.6713 58.975 32.6658 58.9732L32.5045 59.48C32.5094 59.4815 32.5143 59.483 32.518 59.4842C32.5221 59.4855 32.5252 59.4864 32.5282 59.4874C32.5341 59.4893 32.5372 59.4903 32.5389 59.491L32.7287 58.9942ZM32.6624 58.9722L19.5467 54.9931L19.3923 55.502L32.508 59.481L32.6624 58.9722ZM19.549 54.9938C19.4146 54.9517 19.2771 54.932 19.1392 54.932V55.4638C19.2261 55.4638 19.3098 55.4761 19.39 55.5012L19.549 54.9938ZM19.1392 54.932H15.2346V55.4638H19.1392V54.932ZM15.5004 55.1979V43.3535H14.9687V55.1979H15.5004ZM15.2346 43.6194H19.1392V43.0876H15.2346V43.6194ZM19.1392 43.6194C19.3289 43.6194 19.5151 43.5796 19.686 43.5068L19.4777 43.0176C19.3703 43.0633 19.2547 43.0876 19.1392 43.0876V43.6194ZM19.6858 43.5069L21.7261 42.6407L21.5183 42.1512L19.4779 43.0175L19.6858 43.5069ZM21.7262 42.6406C25.8103 40.9053 30.4485 41.3595 34.1707 43.8546L34.4668 43.4128C30.5975 40.8191 25.7699 40.3446 21.5182 42.1512L21.7262 42.6406ZM34.1017 43.7874C34.9115 44.9305 36.197 45.6081 37.5863 45.6081V45.0763C36.3736 45.0763 35.2482 44.4858 34.5357 43.48L34.1017 43.7874ZM37.5863 45.6081H48.0882V45.0763H37.5863V45.6081ZM48.0882 45.6081C48.9074 45.6081 49.6185 46.3298 49.6347 47.2524L50.1664 47.243C50.1457 46.0647 49.2305 45.0763 48.0882 45.0763V45.6081ZM49.6347 47.2523C49.6436 47.764 49.4509 48.2421 49.1155 48.5666L49.4852 48.9488C49.9344 48.5143 50.1776 47.8907 50.1664 47.2431L49.6347 47.2523ZM49.1151 48.567C48.9501 48.7273 48.761 48.8407 48.5635 48.9027L48.7228 49.4101C49.0048 49.3215 49.265 49.1627 49.4856 48.9484L49.1151 48.567ZM48.6024 48.8936C48.306 48.9395 48.0044 48.9625 47.6992 48.9625V49.4943C48.0312 49.4943 48.36 49.4693 48.6838 49.4191L48.6024 48.8936ZM47.6992 48.9625H36.0187V49.4943H47.6992V48.9625ZM36.0187 48.9625C35.2891 48.9625 34.6571 49.5201 34.6463 50.2525L35.1781 50.2603C35.1841 49.8494 35.5479 49.4943 36.0187 49.4943V48.9625ZM34.6463 50.2526C34.6356 50.9941 35.2589 51.5775 36.002 51.5775V51.0458C35.5312 51.0458 35.172 50.6813 35.1781 50.2603L34.6463 50.2526ZM36.002 51.5775H48.1804V51.0458H36.002V51.5775ZM48.1804 51.5775C48.5316 51.5775 48.8758 51.533 49.2075 51.4474L49.0746 50.9325C48.786 51.007 48.4865 51.0458 48.1804 51.0458V51.5775ZM49.1864 51.452C50.5897 51.209 51.914 50.6241 53.0743 49.727L52.749 49.3063C51.656 50.1514 50.4118 50.7001 49.0957 50.928L49.1864 51.452ZM53.0743 49.727L63.0816 41.9914L62.7563 41.5707L52.749 49.3063L53.0743 49.727ZM63.115 41.9637C63.7083 41.474 64.5221 41.5278 65.064 42.1041L65.4514 41.7398C64.7225 40.9646 63.5916 40.8808 62.7765 41.5536L63.115 41.9637ZM65.0641 42.1042C65.6758 42.754 65.727 43.8437 65.1847 44.5624L65.6091 44.8827C66.3041 43.9617 66.2446 42.5823 65.4513 41.7397L65.0641 42.1042ZM63.0883 41.9861C63.0952 41.9807 63.1119 41.9676 63.1294 41.951L62.7622 41.5663C62.7641 41.5645 62.7653 41.5635 62.7649 41.5638C62.7641 41.5645 62.7627 41.5656 62.7581 41.5692L63.0883 41.9861ZM63.0842 41.9894L63.0885 41.986L62.758 41.5694L62.7537 41.5727L63.0842 41.9894Z" fill="black" mask="url(#path-2-outside-1_5883_47037)"/>
</g>
</g>
</g>
</g>
</svg>