<?xml version="1.0" ?><svg xmlns="http://www.w3.org/2000/svg" fill="none" viewBox="-32 0 104 72">
<g id="cash-advance" clip-path="url(#clip0_6242_46155)">
<g id="Group 1171275383">
<g id="Group 1171275271">
<path id="Subtract" d="M47.6735 57.5513H48.1735V58.0513H47.6735V57.5513ZM47.6735 6.61255V6.11255H48.1735V6.61255H47.6735ZM11.1021 57.5513V58.0513H10.6021V57.5513H11.1021ZM11.1021 6.61255H10.6021V6.11255H11.1021V6.61255ZM37.2246 15.7553V15.2553H37.7246V15.7553H37.2246ZM20.245 15.7553H19.745V15.2553H20.245V15.7553ZM37.2246 26.2043H37.7246V26.7043H37.2246V26.2043ZM20.245 26.2043V26.7043H19.745V26.2043H20.245ZM47.1735 57.5513V6.61255H48.1735V57.5513H47.1735ZM11.1021 57.0513H47.6735V58.0513H11.1021V57.0513ZM11.6021 6.61255V57.5513H10.6021V6.61255H11.6021ZM47.6735 7.11255H11.1021V6.11255H47.6735V7.11255ZM37.2246 16.2553H20.245V15.2553H37.2246V16.2553ZM36.7246 26.2043V15.7553H37.7246V26.2043H36.7246ZM20.245 25.7043H37.2246V26.7043H20.245V25.7043ZM20.745 15.7553V26.2043H19.745V15.7553H20.745Z" fill="black"/>
<g id="Group">
<path id="Vector" d="M39.9673 13.4575C40.2612 13.6371 40.6367 14.0126 40.8163 14.3065C41.1265 14.8126 41.1429 15.1391 41.1429 20.9677C41.1429 26.7963 41.1265 27.1228 40.8163 27.6289C40.6367 27.9228 40.2612 28.2983 39.9673 28.4779C39.4449 28.7881 39.1184 28.8044 29.3878 28.8044C19.6571 28.8044 19.3306 28.7881 18.8082 28.4779C18.5143 28.2983 18.1388 27.9228 17.9592 27.6289C17.649 27.1228 17.6326 26.7963 17.6326 20.9677C17.6326 15.1391 17.649 14.8126 17.9592 14.3065C18.1388 14.0126 18.5143 13.6371 18.8082 13.4575C19.3306 13.1473 19.6571 13.131 29.3878 13.131C39.1184 13.131 39.4449 13.1473 39.9673 13.4575ZM22.8571 20.9677V23.58H29.3878H35.9184V20.9677V18.3555H29.3878H22.8571V20.9677Z" fill="black"/>
<path id="Vector_2" d="M39.9673 34.3555C40.751 34.8453 41.1429 35.5799 41.1429 36.6412C41.1429 37.7024 40.751 38.4371 39.9673 38.9269C39.4775 39.2208 39.1347 39.2534 35.9837 39.2534C32.6857 39.2534 32.5224 39.2371 32 38.8779C30.3837 37.8004 30.3837 35.482 32 34.4044C32.5224 34.0453 32.6857 34.0289 35.9837 34.0289C39.1347 34.0289 39.4775 34.0616 39.9673 34.3555Z" fill="black"/>
<path id="Vector_3" d="M26.9061 34.3555C27.6898 34.8453 28.0816 35.5799 28.0816 36.6412C28.0816 37.7024 27.6898 38.4371 26.9061 38.9269C26.4163 39.2208 26.0735 39.2534 22.9225 39.2534C19.6245 39.2534 19.4612 39.2371 18.9388 38.8779C17.3225 37.8004 17.3225 35.482 18.9388 34.4044C19.4612 34.0453 19.6245 34.0289 22.9225 34.0289C26.0735 34.0289 26.4163 34.0616 26.9061 34.3555Z" fill="black"/>
<path id="Vector_4" d="M39.9673 44.8044C40.751 45.2942 41.1429 46.0289 41.1429 47.0901C41.1429 48.1514 40.751 48.8861 39.9673 49.3759C39.4775 49.6697 39.1347 49.7024 35.9837 49.7024C32.6857 49.7024 32.5224 49.6861 32 49.3269C30.3837 48.2493 30.3837 45.931 32 44.8534C32.5224 44.4942 32.6857 44.4779 35.9837 44.4779C39.1347 44.4779 39.4775 44.5106 39.9673 44.8044Z" fill="black"/>
<path id="Vector_5" d="M26.9061 44.8044C27.6898 45.2942 28.0816 46.0289 28.0816 47.0901C28.0816 48.1514 27.6898 48.8861 26.9061 49.3759C26.4163 49.6697 26.0735 49.7024 22.9225 49.7024C19.6245 49.7024 19.4612 49.6861 18.9388 49.3269C17.3225 48.2493 17.3225 45.931 18.9388 44.8534C19.4612 44.4942 19.6245 44.4779 22.9225 44.4779C26.0735 44.4779 26.4163 44.5106 26.9061 44.8044Z" fill="black"/>
</g>
</g>
<path id="Subtract_2" fill-rule="evenodd" clip-rule="evenodd" d="M7.18367 54.8483V30.1224H7.18363V20.2636C7.18363 11.0377 7.19995 10.3356 7.49383 9.40486C8.24485 7.00451 10.302 4.9634 12.7183 4.26126C13.502 4.03266 15.4612 4 29.3877 4C43.3142 4 45.2734 4.03266 46.0571 4.26126C48.4734 4.9634 50.5306 7.00451 51.2816 9.40486C51.5755 10.3683 51.5918 11.5113 51.5918 45.7856C51.5918 51.1815 51.5908 55.7677 51.5882 59.6676C50.9232 60.3797 49.7326 60.7643 47.6735 60.8163H11.7042C9.57461 59.8443 7.96541 57.9485 7.37954 55.6319L7.18367 54.8483ZM-32 60.1092V57.6209C-32 58.0278 -32 58.4425 -32 58.865C-32 59.2875 -32 59.7022 -32 60.1092ZM12.5714 54.0317C12.751 54.8318 13.1755 55.4196 13.8938 55.8442C14.4314 56.17 14.7576 56.1708 28.9633 56.2032L29.0612 56.2034C37.0938 56.2034 43.9183 56.1708 44.2285 56.0891C44.9469 55.9258 45.551 55.4523 45.9591 54.7665C46.2848 54.229 46.2857 53.8703 46.3343 33.6351L46.3346 33.4736C46.3673 22.0761 46.3346 12.3604 46.2857 11.8868C46.1714 10.8745 45.6816 10.107 44.8979 9.64979C44.3265 9.30688 44.1632 9.30688 29.3877 9.30688C14.7428 9.30688 14.4326 9.30688 13.8938 9.63346C13.1755 10.058 12.751 10.6459 12.5714 11.446C12.3755 12.2951 12.3755 53.1826 12.5714 54.0317Z" fill="black"/>
<g id="Group 1171275382">
<ellipse id="Ellipse 2666" cx="49.6327" cy="56.2449" rx="11.102" ry="10.449" fill="black"/>
<g id="Group_2">
<path id="Vector_6" d="M48.9796 68C55.4718 68 60.7347 62.737 60.7347 56.2448C60.7347 49.7527 55.4718 44.4897 48.9796 44.4897C42.4874 44.4897 37.2245 49.7527 37.2245 56.2448C37.2245 62.737 42.4874 68 48.9796 68Z" stroke-width="3" stroke-linecap="round" stroke-linejoin="round" fill="black"/>
<path id="Vector_7" d="M52.6368 52.3266C52.4002 51.9162 52.0564 51.5778 51.6423 51.3477C51.2281 51.1177 50.7592 51.0045 50.2858 51.0205H47.6735C46.9807 51.0205 46.3163 51.2957 45.8264 51.7856C45.3365 52.2755 45.0613 52.9399 45.0613 53.6327C45.0613 54.3255 45.3365 54.99 45.8264 55.4799C46.3163 55.9697 46.9807 56.245 47.6735 56.245H50.2858C50.9786 56.245 51.643 56.5202 52.1329 57.0101C52.6228 57.5 52.898 58.1644 52.898 58.8572C52.898 59.55 52.6228 60.2145 52.1329 60.7043C51.643 61.1942 50.9786 61.4695 50.2858 61.4695H47.6735C47.2 61.4854 46.7311 61.3723 46.317 61.1422C45.9029 60.9121 45.5591 60.5738 45.3225 60.1633M48.9796 49.7144V62.7756" stroke-width="2" stroke-linecap="round" stroke-linejoin="round" fill="black"/>
</g>
</g>
</g>
</g>
<defs>
<clipPath id="clip0_6242_46155">
<rect width="72" height="72" fill="white"/>
</clipPath>
</defs>
</svg>