<?xml version="1.0" ?><svg xmlns="http://www.w3.org/2000/svg" fill="none" viewBox="3 14 66 44">
<g id="subject">
<rect id="Rectangle 34624898" x="10" y="21" width="52" height="32" fill="black"/>
<g id="Group 1171275133">
<g id="Group 1171274862">
<g id="Group">
<g id="Vector">
<mask id="path-2-outside-1_5978_45477" maskUnits="userSpaceOnUse" x="3" y="14" width="66" height="44" fill="black">
<rect fill="white" x="3" y="14" width="66" height="44"/>
<path d="M9.23682 16.0938C6.99134 16.0938 5.16345 17.8123 5.16345 19.9235V52.7432C5.16345 54.8543 6.99134 56.5728 9.23682 56.5728H62.7632C65.0087 56.5728 66.8366 54.8543 66.8366 52.7432V19.9235C66.8366 17.8123 65.0087 16.0938 62.7632 16.0938H9.23682ZM62.7632 57.6667H9.23682C6.35053 57.6667 4 55.4568 4 52.7432V19.9235C4 17.2099 6.35053 15 9.23682 15H62.7632C65.6521 15 68 17.2099 68 19.9235V52.7432C68 55.4568 65.6521 57.6667 62.7632 57.6667Z"/>
</mask>
<path d="M9.23682 16.0938C6.99134 16.0938 5.16345 17.8123 5.16345 19.9235V52.7432C5.16345 54.8543 6.99134 56.5728 9.23682 56.5728H62.7632C65.0087 56.5728 66.8366 54.8543 66.8366 52.7432V19.9235C66.8366 17.8123 65.0087 16.0938 62.7632 16.0938H9.23682ZM62.7632 57.6667H9.23682C6.35053 57.6667 4 55.4568 4 52.7432V19.9235C4 17.2099 6.35053 15 9.23682 15H62.7632C65.6521 15 68 17.2099 68 19.9235V52.7432C68 55.4568 65.6521 57.6667 62.7632 57.6667Z" fill="black"/>
<path d="M9.23682 16.0938C6.99134 16.0938 5.16345 17.8123 5.16345 19.9235V52.7432C5.16345 54.8543 6.99134 56.5728 9.23682 56.5728H62.7632C65.0087 56.5728 66.8366 54.8543 66.8366 52.7432V19.9235C66.8366 17.8123 65.0087 16.0938 62.7632 16.0938H9.23682ZM62.7632 57.6667H9.23682C6.35053 57.6667 4 55.4568 4 52.7432V19.9235C4 17.2099 6.35053 15 9.23682 15H62.7632C65.6521 15 68 17.2099 68 19.9235V52.7432C68 55.4568 65.6521 57.6667 62.7632 57.6667Z" stroke-width="0.617143" mask="url(#path-2-outside-1_5978_45477)" fill="black"/>
</g>
</g>
<g id="Vector_2">
<mask id="path-3-outside-2_5978_45477" maskUnits="userSpaceOnUse" x="7.65625" y="18.3755" width="57" height="36" fill="black">
<rect fill="white" x="7.65625" y="18.3755" width="57" height="36"/>
<path d="M9.8197 52.1952H62.1852V20.4693H9.8197V52.1952ZM62.7657 53.2891H9.23929C8.91625 53.2891 8.65625 53.0471 8.65625 52.7434V19.9236C8.65625 19.6199 8.91625 19.3755 9.23929 19.3755H62.7657C63.0887 19.3755 63.3487 19.6199 63.3487 19.9236V52.7434C63.3487 53.0471 63.0887 53.2891 62.7657 53.2891Z"/>
</mask>
<path d="M9.8197 52.1952H62.1852V20.4693H9.8197V52.1952ZM62.7657 53.2891H9.23929C8.91625 53.2891 8.65625 53.0471 8.65625 52.7434V19.9236C8.65625 19.6199 8.91625 19.3755 9.23929 19.3755H62.7657C63.0887 19.3755 63.3487 19.6199 63.3487 19.9236V52.7434C63.3487 53.0471 63.0887 53.2891 62.7657 53.2891Z" fill="black"/>
<path d="M9.8197 52.1952H62.1852V20.4693H9.8197V52.1952ZM62.7657 53.2891H9.23929C8.91625 53.2891 8.65625 53.0471 8.65625 52.7434V19.9236C8.65625 19.6199 8.91625 19.3755 9.23929 19.3755H62.7657C63.0887 19.3755 63.3487 19.6199 63.3487 19.9236V52.7434C63.3487 53.0471 63.0887 53.2891 62.7657 53.2891Z" stroke-width="0.617143" mask="url(#path-3-outside-2_5978_45477)" fill="black"/>
</g>
</g>
<g id="Group_2">
<path id="Vector_3" d="M29.9919 32.2249H48.0067C48.1052 32.2249 48.2024 32.215 48.2995 32.196C48.3959 32.1763 48.4902 32.1482 48.5809 32.1102C48.6717 32.0729 48.7583 32.0264 48.8406 31.9715C48.9222 31.9166 48.9982 31.8547 49.0679 31.7851C49.1376 31.7154 49.2002 31.6394 49.2544 31.5578C49.3093 31.4754 49.3557 31.3889 49.3937 31.2981C49.431 31.2066 49.4599 31.113 49.4789 31.0166C49.4979 30.9195 49.5077 30.8217 49.5077 30.7232C49.5077 30.6246 49.4979 30.5275 49.4789 30.4304C49.4599 30.334 49.431 30.2397 49.3937 30.1489C49.3557 30.0582 49.3093 29.9716 49.2544 29.8893C49.2002 29.8076 49.1376 29.7316 49.0679 29.662C48.9982 29.5923 48.9222 29.5297 48.8406 29.4755C48.7583 29.4206 48.6717 29.3742 48.5809 29.3362C48.4902 29.2989 48.3959 29.27 48.2995 29.251C48.2024 29.232 48.1052 29.2222 48.0067 29.2222H29.9919C29.8934 29.2222 29.7956 29.232 29.6985 29.251C29.6021 29.27 29.5085 29.2989 29.417 29.3362C29.3262 29.3742 29.2397 29.4206 29.1573 29.4755C29.0757 29.5297 28.9997 29.5923 28.93 29.662C28.8604 29.7316 28.7985 29.8076 28.7436 29.8893C28.6887 29.9716 28.6422 30.0582 28.6049 30.1489C28.5669 30.2397 28.5388 30.334 28.5191 30.4304C28.5001 30.5275 28.4902 30.6246 28.4902 30.7232C28.4902 30.8217 28.5001 30.9195 28.5191 31.0166C28.5388 31.113 28.5669 31.2066 28.6049 31.2981C28.6422 31.3889 28.6887 31.4754 28.7436 31.5578C28.7985 31.6394 28.8604 31.7154 28.93 31.7851C28.9997 31.8547 29.0757 31.9166 29.1573 31.9715C29.2397 32.0264 29.3262 32.0729 29.417 32.1102C29.5085 32.1482 29.6021 32.1763 29.6985 32.196C29.7956 32.215 29.8934 32.2249 29.9919 32.2249Z" fill="black"/>
</g>
<g id="Group_3">
<path id="Vector_4" d="M48.0067 35.2271H29.9919C29.8934 35.2271 29.7956 35.2369 29.6985 35.2559C29.6021 35.2756 29.5085 35.3038 29.417 35.3418C29.3262 35.3791 29.2397 35.4255 29.1573 35.4804C29.0757 35.5353 28.9997 35.5972 28.93 35.6669C28.8604 35.7365 28.7985 35.8125 28.7436 35.8942C28.6887 35.9765 28.6422 36.063 28.6049 36.1538C28.5669 36.2453 28.5388 36.3389 28.5191 36.4353C28.5001 36.5324 28.4902 36.6302 28.4902 36.7288C28.4902 36.8273 28.5001 36.9244 28.5191 37.0215C28.5388 37.1179 28.5669 37.2122 28.6049 37.303C28.6422 37.3938 28.6887 37.4803 28.7436 37.5626C28.7985 37.6443 28.8604 37.7203 28.93 37.7899C28.9997 37.8596 29.0757 37.9222 29.1573 37.9764C29.2397 38.0313 29.3262 38.0778 29.417 38.1158C29.5085 38.153 29.6021 38.1819 29.6985 38.2009C29.7956 38.2199 29.8934 38.2298 29.9919 38.2298H48.0067C48.1052 38.2298 48.2024 38.2199 48.2995 38.2009C48.3959 38.1819 48.4902 38.153 48.5809 38.1158C48.6717 38.0778 48.7583 38.0313 48.8406 37.9764C48.9222 37.9222 48.9982 37.8596 49.0679 37.7899C49.1376 37.7203 49.2002 37.6443 49.2544 37.5626C49.3093 37.4803 49.3557 37.3938 49.3937 37.303C49.431 37.2122 49.4599 37.1179 49.4789 37.0215C49.4979 36.9244 49.5077 36.8273 49.5077 36.7288C49.5077 36.6302 49.4979 36.5324 49.4789 36.4353C49.4599 36.3389 49.431 36.2453 49.3937 36.1538C49.3557 36.063 49.3093 35.9765 49.2544 35.8942C49.2002 35.8125 49.1376 35.7365 49.0679 35.6669C48.9982 35.5972 48.9222 35.5353 48.8406 35.4804C48.7583 35.4255 48.6717 35.3791 48.5809 35.3418C48.4902 35.3038 48.3959 35.2756 48.2995 35.2559C48.2024 35.2369 48.1052 35.2271 48.0067 35.2271Z" fill="black"/>
</g>
<g id="Group_4">
<path id="Vector_5" d="M48.0067 41.2319H29.9919C29.8934 41.2319 29.7956 41.2411 29.6985 41.2608C29.6021 41.2798 29.5085 41.3079 29.417 41.3459C29.3262 41.3839 29.2397 41.4297 29.1573 41.4846C29.0757 41.5395 28.9997 41.6014 28.93 41.671C28.8604 41.7414 28.7985 41.8167 28.7436 41.899C28.6887 41.9807 28.6422 42.0672 28.6049 42.1587C28.5669 42.2495 28.5388 42.3431 28.5191 42.4402C28.5001 42.5366 28.4902 42.6344 28.4902 42.7329C28.4902 42.8315 28.5001 42.9293 28.5191 43.0257C28.5388 43.1228 28.5669 43.2164 28.6049 43.3072C28.6422 43.3986 28.6887 43.4852 28.7436 43.5668C28.7985 43.6492 28.8604 43.7244 28.93 43.7941C28.9997 43.8645 29.0757 43.9264 29.1573 43.9813C29.2397 44.0362 29.3262 44.0819 29.417 44.1199C29.5085 44.1579 29.6021 44.1861 29.6985 44.2051C29.7956 44.2248 29.8934 44.2339 29.9919 44.2339H48.0067C48.1052 44.2339 48.2024 44.2248 48.2995 44.2051C48.3959 44.1861 48.4902 44.1579 48.5809 44.1199C48.6717 44.0819 48.7583 44.0362 48.8406 43.9813C48.9222 43.9264 48.9982 43.8645 49.0679 43.7941C49.1376 43.7244 49.2002 43.6492 49.2544 43.5668C49.3093 43.4852 49.3557 43.3986 49.3937 43.3072C49.431 43.2164 49.4599 43.1228 49.4789 43.0257C49.4979 42.9293 49.5077 42.8315 49.5077 42.7329C49.5077 42.6344 49.4979 42.5366 49.4789 42.4402C49.4599 42.3431 49.431 42.2495 49.3937 42.1587C49.3557 42.0672 49.3093 41.9807 49.2544 41.899C49.2002 41.8167 49.1376 41.7414 49.0679 41.671C48.9982 41.6014 48.9222 41.5395 48.8406 41.4846C48.7583 41.4297 48.6717 41.3839 48.5809 41.3459C48.4902 41.3079 48.3959 41.2798 48.2995 41.2608C48.2024 41.2411 48.1052 41.2319 48.0067 41.2319Z" fill="black"/>
</g>
<g id="Group_5">
<path id="Vector_6" d="M25.4841 30.7232C25.4841 30.8217 25.4743 30.9195 25.4553 31.0166C25.4356 31.113 25.4074 31.2066 25.3694 31.2981C25.3321 31.3889 25.2857 31.4754 25.2308 31.5578C25.1759 31.6394 25.114 31.7154 25.0443 31.7851C24.9747 31.8547 24.8987 31.9166 24.817 31.9715C24.7347 32.0264 24.6481 32.0729 24.5574 32.1102C24.4659 32.1482 24.3723 32.1763 24.2759 32.196C24.1788 32.215 24.081 32.2249 23.9824 32.2249C23.8839 32.2249 23.7868 32.215 23.6897 32.196C23.5933 32.1763 23.499 32.1482 23.4082 32.1102C23.3174 32.0729 23.2309 32.0264 23.1486 31.9715C23.0669 31.9166 22.9909 31.8547 22.9213 31.7851C22.8516 31.7154 22.789 31.6394 22.7348 31.5578C22.6799 31.4754 22.6334 31.3889 22.5954 31.2981C22.5581 31.2066 22.5293 31.113 22.5103 31.0166C22.4913 30.9195 22.4814 30.8217 22.4814 30.7232C22.4814 30.6246 22.4913 30.5275 22.5103 30.4304C22.5293 30.334 22.5581 30.2397 22.5954 30.1489C22.6334 30.0582 22.6799 29.9716 22.7348 29.8893C22.789 29.8076 22.8516 29.7316 22.9213 29.662C22.9909 29.5923 23.0669 29.5297 23.1486 29.4755C23.2309 29.4206 23.3174 29.3742 23.4082 29.3362C23.499 29.2989 23.5933 29.27 23.6897 29.251C23.7868 29.232 23.8839 29.2222 23.9824 29.2222C24.081 29.2222 24.1788 29.232 24.2759 29.251C24.3723 29.27 24.4659 29.2989 24.5574 29.3362C24.6481 29.3742 24.7347 29.4206 24.817 29.4755C24.8987 29.5297 24.9747 29.5923 25.0443 29.662C25.114 29.7316 25.1759 29.8076 25.2308 29.8893C25.2857 29.9716 25.3321 30.0582 25.3694 30.1489C25.4074 30.2397 25.4356 30.334 25.4553 30.4304C25.4743 30.5275 25.4841 30.6246 25.4841 30.7232Z" fill="black"/>
</g>
<g id="Group_6">
<path id="Vector_7" d="M25.4841 36.7288C25.4841 36.8273 25.4743 36.9244 25.4553 37.0215C25.4356 37.1179 25.4074 37.2122 25.3694 37.303C25.3321 37.3938 25.2857 37.4803 25.2308 37.5626C25.1759 37.6443 25.114 37.7203 25.0443 37.7899C24.9747 37.8596 24.8987 37.9222 24.817 37.9764C24.7347 38.0313 24.6481 38.0778 24.5574 38.1158C24.4659 38.153 24.3723 38.1819 24.2759 38.2009C24.1788 38.2199 24.081 38.2298 23.9824 38.2298C23.8839 38.2298 23.7868 38.2199 23.6897 38.2009C23.5933 38.1819 23.499 38.153 23.4082 38.1158C23.3174 38.0778 23.2309 38.0313 23.1486 37.9764C23.0669 37.9222 22.9909 37.8596 22.9213 37.7899C22.8516 37.7203 22.789 37.6443 22.7348 37.5626C22.6799 37.4803 22.6334 37.3938 22.5954 37.303C22.5581 37.2122 22.5293 37.1179 22.5103 37.0215C22.4913 36.9244 22.4814 36.8273 22.4814 36.7288C22.4814 36.6302 22.4913 36.5324 22.5103 36.4353C22.5293 36.3389 22.5581 36.2453 22.5954 36.1538C22.6334 36.063 22.6799 35.9765 22.7348 35.8942C22.789 35.8125 22.8516 35.7365 22.9213 35.6669C22.9909 35.5972 23.0669 35.5353 23.1486 35.4804C23.2309 35.4255 23.3174 35.3791 23.4082 35.3418C23.499 35.3038 23.5933 35.2756 23.6897 35.2559C23.7868 35.2369 23.8839 35.2271 23.9824 35.2271C24.081 35.2271 24.1788 35.2369 24.2759 35.2559C24.3723 35.2756 24.4659 35.3038 24.5574 35.3418C24.6481 35.3791 24.7347 35.4255 24.817 35.4804C24.8987 35.5353 24.9747 35.5972 25.0443 35.6669C25.114 35.7365 25.1759 35.8125 25.2308 35.8942C25.2857 35.9765 25.3321 36.063 25.3694 36.1538C25.4074 36.2453 25.4356 36.3389 25.4553 36.4353C25.4743 36.5324 25.4841 36.6302 25.4841 36.7288Z" fill="black"/>
</g>
<g id="Group_7">
<path id="Vector_8" d="M25.4841 42.7329C25.4841 42.8315 25.4743 42.9293 25.4553 43.0257C25.4356 43.1228 25.4074 43.2164 25.3694 43.3072C25.3321 43.3986 25.2857 43.4852 25.2308 43.5668C25.1759 43.6492 25.114 43.7244 25.0443 43.7941C24.9747 43.8645 24.8987 43.9264 24.817 43.9813C24.7347 44.0362 24.6481 44.0819 24.5574 44.1199C24.4659 44.1579 24.3723 44.1861 24.2759 44.2051C24.1788 44.2248 24.081 44.2339 23.9824 44.2339C23.8839 44.2339 23.7868 44.2248 23.6897 44.2051C23.5933 44.1861 23.499 44.1579 23.4082 44.1199C23.3174 44.0819 23.2309 44.0362 23.1486 43.9813C23.0669 43.9264 22.9909 43.8645 22.9213 43.7941C22.8516 43.7244 22.789 43.6492 22.7348 43.5668C22.6799 43.4852 22.6334 43.3986 22.5954 43.3072C22.5581 43.2164 22.5293 43.1228 22.5103 43.0257C22.4913 42.9293 22.4814 42.8315 22.4814 42.7329C22.4814 42.6344 22.4913 42.5366 22.5103 42.4402C22.5293 42.3431 22.5581 42.2495 22.5954 42.1587C22.6334 42.0672 22.6799 41.9807 22.7348 41.899C22.789 41.8167 22.8516 41.7414 22.9213 41.671C22.9909 41.6014 23.0669 41.5395 23.1486 41.4846C23.2309 41.4297 23.3174 41.3839 23.4082 41.3459C23.499 41.3079 23.5933 41.2798 23.6897 41.2608C23.7868 41.2411 23.8839 41.2319 23.9824 41.2319C24.081 41.2319 24.1788 41.2411 24.2759 41.2608C24.3723 41.2798 24.4659 41.3079 24.5574 41.3459C24.6481 41.3839 24.7347 41.4297 24.817 41.4846C24.8987 41.5395 24.9747 41.6014 25.0443 41.671C25.114 41.7414 25.1759 41.8167 25.2308 41.899C25.2857 41.9807 25.3321 42.0672 25.3694 42.1587C25.4074 42.2495 25.4356 42.3431 25.4553 42.4402C25.4743 42.5366 25.4841 42.6344 25.4841 42.7329Z" fill="black"/>
</g>
</g>
</g>
</svg>