<?xml version="1.0" ?><svg xmlns="http://www.w3.org/2000/svg" fill="none" viewBox="4 11 64.8 53.2">
<g id="my-actual-overtime-lines">
<g id="Group 1171275261">
<g id="Group 1171275252">
<ellipse id="Ellipse 2640" cx="24.8835" cy="21.9851" rx="6.64522" ry="8.1194" fill="black"/>
<g id="Group 1171275250">
<path id="Subtract" fill-rule="evenodd" clip-rule="evenodd" d="M35.5047 22.1602C35.5047 28.4618 30.8196 33.5849 25.035 33.5849C19.2504 33.5849 14.5892 28.4859 14.5653 22.2083C14.5653 16.0269 19.2982 11 25.035 11C30.8435 11 35.5047 15.9547 35.5047 22.1602ZM18.9396 22.1842C18.9396 26.2491 21.7363 29.3758 25.035 29.3758C28.3576 29.3758 31.1304 26.2009 31.1304 22.1602C31.1304 18.2156 28.3815 15.2091 25.035 15.2091C21.7124 15.2091 18.9396 18.2637 18.9396 22.1842ZM37.0083 56.2421H10.1432C6.00789 56.2421 4 54.9192 4 52.081C4 45.4667 12.2228 36.6636 25.035 36.6636C29.0178 36.6636 32.5548 37.5143 35.5383 38.8855C34.71 40.0075 34.055 41.2668 33.6131 42.6233C31.2459 41.5631 28.3727 40.8727 25.035 40.8727C14.5175 40.8727 8.61336 47.7276 8.61336 51.4076C8.61336 51.8405 8.82849 52.0329 9.37827 52.0329H34.0717C34.7703 53.6268 35.774 55.0548 37.0083 56.2421Z" fill="black"/>
</g>
</g>
<g id="Group 1171275260">
<g id="Group 1171275254">
<g id="Group 1171275093">
<g id="Vector">
<mask id="path-3-outside-1_6295_46167" maskUnits="userSpaceOnUse" x="35.7969" y="33" width="33" height="31" fill="black">
<rect fill="white" x="35.7969" y="33" width="33" height="31"/>
<path d="M67.66 56.5356C67.2959 56.1692 66.6586 56.0776 66.2034 56.3524C65.1109 56.9021 63.8363 56.9937 62.6527 56.5356C62.2886 56.444 62.0154 56.2608 61.6513 55.986C63.3811 53.6042 64.2915 50.7643 64.2915 47.8328C64.2915 43.9853 62.7438 40.5958 60.2857 38.0308C57.8275 35.5573 54.3679 34 50.5442 34C46.7204 34 43.2608 35.4657 40.8027 38.0308C38.3446 40.5042 36.7969 43.9853 36.7969 47.8328C36.7969 51.6804 38.2535 55.1615 40.7117 57.6349C43.1698 60.1083 46.6294 61.6657 50.4531 61.6657C51.9098 61.6657 53.3665 61.3909 54.7321 60.9328C55.8246 61.8489 57.0992 62.4902 58.4648 62.765C59.0111 62.8566 59.6484 62.9482 60.1946 62.9482C63.4721 62.9482 66.4765 61.0244 67.8421 57.9097C68.1152 57.4517 68.0242 56.9021 67.66 56.5356ZM59.7394 51.9552C59.9215 50.4895 60.7409 49.207 62.0154 48.4741C62.4707 48.1993 62.7438 47.6496 62.6527 47.1C62.5617 46.5503 62.1065 46.1839 61.5602 46.0007C60.5588 45.8175 59.4663 45.8175 58.3738 46.0923C55.0963 46.8252 52.5471 49.3902 51.8188 52.5965C51.3636 54.8867 51.7277 57.1769 53.0023 59.1007C53.1844 59.3755 53.4575 59.7419 53.6396 60.0167C52.7292 60.2916 51.9098 60.3832 50.9994 60.4748V58.6426C50.9994 58.2762 50.7263 58.0014 50.3621 58.0014C49.9979 58.0014 49.7248 58.2762 49.7248 58.6426V60.4748C46.9025 60.2916 44.1713 59.1007 42.0773 57.1769L43.3519 55.8944C43.625 55.6195 43.625 55.2531 43.3519 54.9783C43.0788 54.7035 42.7146 54.7035 42.4415 54.9783L41.1669 56.2608C39.255 54.1538 38.0715 51.4056 37.9804 48.4741H39.8013C40.1654 48.4741 40.4385 48.1993 40.4385 47.8328C40.4385 47.4664 40.1654 47.1916 39.8013 47.1916H37.9804C38.1625 44.1685 39.346 41.4203 41.1669 39.4049L42.4415 40.6874C42.5325 40.779 42.7146 40.8706 42.8967 40.8706C43.0788 40.8706 43.2608 40.779 43.3519 40.6874C43.625 40.4126 43.625 40.0461 43.3519 39.7713L42.0773 38.4888C44.1713 36.565 46.9025 35.3741 49.8158 35.2825V37.1147C49.8158 37.4811 50.089 37.7559 50.4531 37.7559C50.8173 37.7559 51.0904 37.4811 51.0904 37.1147V35.2825C54.0948 35.4657 56.8261 36.6566 58.829 38.4888L57.5544 39.7713C57.2813 40.0461 57.2813 40.4126 57.5544 40.6874C57.6454 40.779 57.8275 40.8706 58.0096 40.8706C58.1917 40.8706 58.3738 40.779 58.4648 40.6874L59.7394 39.4049C61.7423 41.6035 63.0169 44.6266 63.0169 47.8328C63.0169 50.4895 62.1975 52.9629 60.7409 55.0699C60.0125 54.2454 59.6484 53.1461 59.7394 51.9552ZM51.0904 40.8706V48.8405C51.0904 49.1154 50.9084 49.2986 50.6352 49.3902L43.0788 52.1384C42.9877 52.1384 42.8967 52.1384 42.8967 52.1384C42.6235 52.1384 42.4415 51.9552 42.3504 51.6804C42.2594 51.314 42.4415 50.9475 42.7146 50.8559L49.8158 48.2909V40.8706C49.8158 40.5042 50.089 40.2294 50.4531 40.2294C50.8173 40.2294 51.0904 40.5958 51.0904 40.8706Z"/>
</mask>
<path d="M67.66 56.5356C67.2959 56.1692 66.6586 56.0776 66.2034 56.3524C65.1109 56.9021 63.8363 56.9937 62.6527 56.5356C62.2886 56.444 62.0154 56.2608 61.6513 55.986C63.3811 53.6042 64.2915 50.7643 64.2915 47.8328C64.2915 43.9853 62.7438 40.5958 60.2857 38.0308C57.8275 35.5573 54.3679 34 50.5442 34C46.7204 34 43.2608 35.4657 40.8027 38.0308C38.3446 40.5042 36.7969 43.9853 36.7969 47.8328C36.7969 51.6804 38.2535 55.1615 40.7117 57.6349C43.1698 60.1083 46.6294 61.6657 50.4531 61.6657C51.9098 61.6657 53.3665 61.3909 54.7321 60.9328C55.8246 61.8489 57.0992 62.4902 58.4648 62.765C59.0111 62.8566 59.6484 62.9482 60.1946 62.9482C63.4721 62.9482 66.4765 61.0244 67.8421 57.9097C68.1152 57.4517 68.0242 56.9021 67.66 56.5356ZM59.7394 51.9552C59.9215 50.4895 60.7409 49.207 62.0154 48.4741C62.4707 48.1993 62.7438 47.6496 62.6527 47.1C62.5617 46.5503 62.1065 46.1839 61.5602 46.0007C60.5588 45.8175 59.4663 45.8175 58.3738 46.0923C55.0963 46.8252 52.5471 49.3902 51.8188 52.5965C51.3636 54.8867 51.7277 57.1769 53.0023 59.1007C53.1844 59.3755 53.4575 59.7419 53.6396 60.0167C52.7292 60.2916 51.9098 60.3832 50.9994 60.4748V58.6426C50.9994 58.2762 50.7263 58.0014 50.3621 58.0014C49.9979 58.0014 49.7248 58.2762 49.7248 58.6426V60.4748C46.9025 60.2916 44.1713 59.1007 42.0773 57.1769L43.3519 55.8944C43.625 55.6195 43.625 55.2531 43.3519 54.9783C43.0788 54.7035 42.7146 54.7035 42.4415 54.9783L41.1669 56.2608C39.255 54.1538 38.0715 51.4056 37.9804 48.4741H39.8013C40.1654 48.4741 40.4385 48.1993 40.4385 47.8328C40.4385 47.4664 40.1654 47.1916 39.8013 47.1916H37.9804C38.1625 44.1685 39.346 41.4203 41.1669 39.4049L42.4415 40.6874C42.5325 40.779 42.7146 40.8706 42.8967 40.8706C43.0788 40.8706 43.2608 40.779 43.3519 40.6874C43.625 40.4126 43.625 40.0461 43.3519 39.7713L42.0773 38.4888C44.1713 36.565 46.9025 35.3741 49.8158 35.2825V37.1147C49.8158 37.4811 50.089 37.7559 50.4531 37.7559C50.8173 37.7559 51.0904 37.4811 51.0904 37.1147V35.2825C54.0948 35.4657 56.8261 36.6566 58.829 38.4888L57.5544 39.7713C57.2813 40.0461 57.2813 40.4126 57.5544 40.6874C57.6454 40.779 57.8275 40.8706 58.0096 40.8706C58.1917 40.8706 58.3738 40.779 58.4648 40.6874L59.7394 39.4049C61.7423 41.6035 63.0169 44.6266 63.0169 47.8328C63.0169 50.4895 62.1975 52.9629 60.7409 55.0699C60.0125 54.2454 59.6484 53.1461 59.7394 51.9552ZM51.0904 40.8706V48.8405C51.0904 49.1154 50.9084 49.2986 50.6352 49.3902L43.0788 52.1384C42.9877 52.1384 42.8967 52.1384 42.8967 52.1384C42.6235 52.1384 42.4415 51.9552 42.3504 51.6804C42.2594 51.314 42.4415 50.9475 42.7146 50.8559L49.8158 48.2909V40.8706C49.8158 40.5042 50.089 40.2294 50.4531 40.2294C50.8173 40.2294 51.0904 40.5958 51.0904 40.8706Z" fill="black"/>
<path d="M67.66 56.5356C67.2959 56.1692 66.6586 56.0776 66.2034 56.3524C65.1109 56.9021 63.8363 56.9937 62.6527 56.5356C62.2886 56.444 62.0154 56.2608 61.6513 55.986C63.3811 53.6042 64.2915 50.7643 64.2915 47.8328C64.2915 43.9853 62.7438 40.5958 60.2857 38.0308C57.8275 35.5573 54.3679 34 50.5442 34C46.7204 34 43.2608 35.4657 40.8027 38.0308C38.3446 40.5042 36.7969 43.9853 36.7969 47.8328C36.7969 51.6804 38.2535 55.1615 40.7117 57.6349C43.1698 60.1083 46.6294 61.6657 50.4531 61.6657C51.9098 61.6657 53.3665 61.3909 54.7321 60.9328C55.8246 61.8489 57.0992 62.4902 58.4648 62.765C59.0111 62.8566 59.6484 62.9482 60.1946 62.9482C63.4721 62.9482 66.4765 61.0244 67.8421 57.9097C68.1152 57.4517 68.0242 56.9021 67.66 56.5356ZM59.7394 51.9552C59.9215 50.4895 60.7409 49.207 62.0154 48.4741C62.4707 48.1993 62.7438 47.6496 62.6527 47.1C62.5617 46.5503 62.1065 46.1839 61.5602 46.0007C60.5588 45.8175 59.4663 45.8175 58.3738 46.0923C55.0963 46.8252 52.5471 49.3902 51.8188 52.5965C51.3636 54.8867 51.7277 57.1769 53.0023 59.1007C53.1844 59.3755 53.4575 59.7419 53.6396 60.0167C52.7292 60.2916 51.9098 60.3832 50.9994 60.4748V58.6426C50.9994 58.2762 50.7263 58.0014 50.3621 58.0014C49.9979 58.0014 49.7248 58.2762 49.7248 58.6426V60.4748C46.9025 60.2916 44.1713 59.1007 42.0773 57.1769L43.3519 55.8944C43.625 55.6195 43.625 55.2531 43.3519 54.9783C43.0788 54.7035 42.7146 54.7035 42.4415 54.9783L41.1669 56.2608C39.255 54.1538 38.0715 51.4056 37.9804 48.4741H39.8013C40.1654 48.4741 40.4385 48.1993 40.4385 47.8328C40.4385 47.4664 40.1654 47.1916 39.8013 47.1916H37.9804C38.1625 44.1685 39.346 41.4203 41.1669 39.4049L42.4415 40.6874C42.5325 40.779 42.7146 40.8706 42.8967 40.8706C43.0788 40.8706 43.2608 40.779 43.3519 40.6874C43.625 40.4126 43.625 40.0461 43.3519 39.7713L42.0773 38.4888C44.1713 36.565 46.9025 35.3741 49.8158 35.2825V37.1147C49.8158 37.4811 50.089 37.7559 50.4531 37.7559C50.8173 37.7559 51.0904 37.4811 51.0904 37.1147V35.2825C54.0948 35.4657 56.8261 36.6566 58.829 38.4888L57.5544 39.7713C57.2813 40.0461 57.2813 40.4126 57.5544 40.6874C57.6454 40.779 57.8275 40.8706 58.0096 40.8706C58.1917 40.8706 58.3738 40.779 58.4648 40.6874L59.7394 39.4049C61.7423 41.6035 63.0169 44.6266 63.0169 47.8328C63.0169 50.4895 62.1975 52.9629 60.7409 55.0699C60.0125 54.2454 59.6484 53.1461 59.7394 51.9552ZM51.0904 40.8706V48.8405C51.0904 49.1154 50.9084 49.2986 50.6352 49.3902L43.0788 52.1384C42.9877 52.1384 42.8967 52.1384 42.8967 52.1384C42.6235 52.1384 42.4415 51.9552 42.3504 51.6804C42.2594 51.314 42.4415 50.9475 42.7146 50.8559L49.8158 48.2909V40.8706C49.8158 40.5042 50.089 40.2294 50.4531 40.2294C50.8173 40.2294 51.0904 40.5958 51.0904 40.8706Z" stroke-width="0.490597" mask="url(#path-3-outside-1_6295_46167)" fill="black"/>
</g>
<g id="Vector_2">
<mask id="path-4-outside-2_6295_46167" maskUnits="userSpaceOnUse" x="51.957" y="46.2837" width="16" height="16" fill="black">
<rect fill="white" x="51.957" y="46.2837" width="16" height="16"/>
<path d="M60.1949 61.7578C59.7396 61.7578 59.1934 61.6662 58.7382 61.5746C58.1919 61.483 57.6457 61.2998 57.0994 61.0249C56.2801 60.6585 55.6428 60.1088 55.0055 59.4676L54.6413 59.1012C54.4592 58.9179 54.2771 58.6431 54.0951 58.4599C53.5488 57.727 53.1846 56.8109 53.0936 55.8949C52.9115 54.9788 52.9115 53.9711 53.0936 52.9634C53.6398 50.3068 55.8248 48.1082 58.6471 47.4669C59.1934 47.3753 59.7396 47.2837 60.2859 47.2837C60.6501 47.2837 61.0142 47.2837 61.3784 47.3753C59.7396 48.383 58.6471 50.0319 58.4651 51.9557C58.374 52.6886 58.4651 53.4214 58.6471 54.1543C58.8292 54.6123 59.1024 55.3452 59.6486 55.9865C60.0128 56.4445 60.3769 56.8109 60.8321 57.0858C61.3784 57.4522 61.8336 57.6354 62.1067 57.727C62.3799 57.8186 63.1082 58.0935 64.1096 58.0935C64.3828 58.0935 64.5649 58.0935 64.838 58.0019C65.4753 57.9102 66.1126 57.727 66.6588 57.4522C65.6574 60.1088 63.0171 61.7578 60.1949 61.7578Z"/>
</mask>
<path d="M60.1949 61.7578C59.7396 61.7578 59.1934 61.6662 58.7382 61.5746C58.1919 61.483 57.6457 61.2998 57.0994 61.0249C56.2801 60.6585 55.6428 60.1088 55.0055 59.4676L54.6413 59.1012C54.4592 58.9179 54.2771 58.6431 54.0951 58.4599C53.5488 57.727 53.1846 56.8109 53.0936 55.8949C52.9115 54.9788 52.9115 53.9711 53.0936 52.9634C53.6398 50.3068 55.8248 48.1082 58.6471 47.4669C59.1934 47.3753 59.7396 47.2837 60.2859 47.2837C60.6501 47.2837 61.0142 47.2837 61.3784 47.3753C59.7396 48.383 58.6471 50.0319 58.4651 51.9557C58.374 52.6886 58.4651 53.4214 58.6471 54.1543C58.8292 54.6123 59.1024 55.3452 59.6486 55.9865C60.0128 56.4445 60.3769 56.8109 60.8321 57.0858C61.3784 57.4522 61.8336 57.6354 62.1067 57.727C62.3799 57.8186 63.1082 58.0935 64.1096 58.0935C64.3828 58.0935 64.5649 58.0935 64.838 58.0019C65.4753 57.9102 66.1126 57.727 66.6588 57.4522C65.6574 60.1088 63.0171 61.7578 60.1949 61.7578Z" fill="black"/>
<path d="M60.1949 61.7578C59.7396 61.7578 59.1934 61.6662 58.7382 61.5746C58.1919 61.483 57.6457 61.2998 57.0994 61.0249C56.2801 60.6585 55.6428 60.1088 55.0055 59.4676L54.6413 59.1012C54.4592 58.9179 54.2771 58.6431 54.0951 58.4599C53.5488 57.727 53.1846 56.8109 53.0936 55.8949C52.9115 54.9788 52.9115 53.9711 53.0936 52.9634C53.6398 50.3068 55.8248 48.1082 58.6471 47.4669C59.1934 47.3753 59.7396 47.2837 60.2859 47.2837C60.6501 47.2837 61.0142 47.2837 61.3784 47.3753C59.7396 48.383 58.6471 50.0319 58.4651 51.9557C58.374 52.6886 58.4651 53.4214 58.6471 54.1543C58.8292 54.6123 59.1024 55.3452 59.6486 55.9865C60.0128 56.4445 60.3769 56.8109 60.8321 57.0858C61.3784 57.4522 61.8336 57.6354 62.1067 57.727C62.3799 57.8186 63.1082 58.0935 64.1096 58.0935C64.3828 58.0935 64.5649 58.0935 64.838 58.0019C65.4753 57.9102 66.1126 57.727 66.6588 57.4522C65.6574 60.1088 63.0171 61.7578 60.1949 61.7578Z" stroke-width="0.490597" mask="url(#path-4-outside-2_6295_46167)" fill="black"/>
</g>
</g>
</g>
</g>
</g>
<g id="Group 1171275263">
<g id="Group 1171275262">
<circle id="Ellipse 2642" cx="51" cy="60" r="3.6" fill="black" stroke-width="1.2"/>
<circle id="Ellipse 2643" cx="51" cy="60" r="3.6" fill="black" stroke-width="1.2"/>
<path id="Vector_3" d="M52.037 59.0144C51.9052 59.0557 51.8108 59.215 51.8363 59.3547C51.8599 59.4786 51.9779 59.5848 52.094 59.5848C52.1215 59.5848 52.1432 59.5907 52.1432 59.6005C52.1432 59.6084 51.9878 59.7697 51.799 59.9585L51.4547 60.3027L50.9768 59.8248C50.4595 59.3094 50.43 59.2878 50.2805 59.3271C50.2195 59.3448 50.0936 59.4609 49.6117 59.9428C49.1042 60.4522 49.0177 60.5486 49.0059 60.6115C48.9705 60.8043 49.0983 60.9616 49.2911 60.9616C49.3363 60.9616 49.3914 60.9518 49.415 60.94C49.4386 60.9282 49.6589 60.7177 49.9068 60.4738L50.3532 60.0273L50.8214 60.4935C51.0771 60.7492 51.3072 60.9675 51.3308 60.9793C51.3859 61.0069 51.5236 61.0069 51.5787 60.9793C51.6023 60.9675 51.8344 60.7453 52.096 60.4856L52.57 60.0136L52.5818 60.0923C52.627 60.3657 53.0047 60.4227 53.1325 60.1749C53.164 60.1139 53.166 60.0549 53.162 59.6497C53.1561 59.1481 53.1542 59.1462 53.0204 59.0458C52.9693 59.0065 52.9378 59.0045 52.5307 59.0006C52.2907 58.9986 52.0684 59.0045 52.037 59.0144Z" fill="black"/>
</g>
</g>
</g>
</svg>