<?xml version="1.0" ?><svg xmlns="http://www.w3.org/2000/svg" fill="none" viewBox="8 0 56.01 68">
<g id="vendor-evaluation">
<g id="Group 1171275718">
<g id="Group 1171275596">
<rect id="Rectangle 34624449" x="19.8125" y="28.3232" width="32.9108" height="12.3583" fill="black"/>
<rect id="Rectangle 34624450" x="18.5547" y="35.0649" width="35.4424" height="4.49394" fill="black"/>
<rect id="Rectangle 34624451" x="19.8125" y="59.7817" width="32.9108" height="6.7409" fill="black"/>
<g id="Group 1171275009">
<g id="Group">
<path id="Vector" d="M50.8527 58.1483H43.1022V56.9128C43.1022 55.0563 42.1564 53.3773 40.7159 52.2312C41.2143 51.4788 41.561 50.593 41.561 49.6256C41.561 46.9715 39.125 44.7641 36.0937 44.7641C33.1121 44.7641 30.6251 46.9273 30.6251 49.6256C30.6251 50.593 30.9259 51.4788 31.4702 52.2312C30.0297 53.3773 29.0839 55.011 29.0839 56.8687V58.1042H21.3334V42.5987C21.5808 42.6428 21.7809 42.6428 22.0282 42.6428C23.2723 42.6428 24.4654 42.2898 25.5082 41.672C26.5 42.2898 27.6932 42.6428 28.9373 42.6428H29.1846C30.3778 42.6428 31.5709 42.3339 32.5627 41.7162C33.5595 42.2898 34.7526 42.6428 35.947 42.6428H36.2938C37.4869 42.6428 38.6764 42.3339 39.6731 41.7162C40.6649 42.2898 41.8084 42.6428 43.0525 42.6428H43.2998C44.5427 42.6428 45.7358 42.2898 46.7289 41.672C47.7257 42.2898 48.9138 42.6428 50.2077 42.6428C50.455 42.6428 50.6563 42.5987 50.9037 42.5987V58.1483H50.8527ZM33.6104 53.909C34.3549 54.2631 35.2013 54.4385 36.0937 54.4385C36.9898 54.4385 37.8349 54.2631 38.5807 53.909C39.5725 54.572 40.2672 55.6332 40.2672 56.8687V58.1042H31.9189V56.8687C31.9189 55.6773 32.6137 54.6161 33.6104 53.909ZM36.0937 51.9631C34.6532 51.9631 33.4588 50.9019 33.4588 49.6256C33.4588 48.3415 34.6532 47.2803 36.0937 47.2803C37.5329 47.2803 38.7273 48.3415 38.7273 49.6256C38.7273 50.9019 37.5329 51.9631 36.0937 51.9631ZM21.3334 65.5261V60.6238H50.8527V65.5261H21.3334ZM19.0975 36.1035L20.538 32.9695C21.0861 31.82 21.4838 30.6286 21.7311 29.3898C21.8318 28.9056 22.2755 28.5967 22.8236 28.5967H49.3625C49.9106 28.5967 50.3593 28.9497 50.455 29.3898C50.706 30.6286 51.1038 31.82 51.6481 32.9695L53.0936 36.1035C53.4403 36.8106 53.4863 37.607 53.1893 38.2248C52.7419 39.3753 51.5524 40.1233 50.1579 40.1233C49.2656 40.1233 48.3695 39.7703 47.7716 39.1514C47.5243 38.8878 47.1266 38.7124 46.7289 38.7124C46.3312 38.7124 45.9334 38.8878 45.6861 39.1514C45.0908 39.7703 44.1959 40.1233 43.2998 40.1233H43.0525C42.1564 40.1233 41.31 39.7703 40.7159 39.1966C40.4686 38.9319 40.0709 38.7984 39.6731 38.7984C39.2257 38.7984 38.9274 38.9319 38.6304 39.1966C38.0313 39.7703 37.1862 40.1233 36.2938 40.1233H35.947C35.0509 40.1233 34.2045 39.8144 33.6104 39.1966C33.3594 38.9319 32.9617 38.8425 32.5627 38.7984C32.165 38.7984 31.8182 38.9319 31.5212 39.1966C30.9259 39.7703 30.0807 40.1233 29.1846 40.1233H28.9373C27.9915 40.1233 27.1488 39.7703 26.551 39.1514C26.3036 38.8878 25.9059 38.7124 25.5082 38.7124C25.1105 38.7124 24.7128 38.8878 24.4654 39.1514C23.8664 39.7703 22.9752 40.1233 22.0791 40.1233C20.6884 40.1233 19.4952 39.3753 19.0466 38.2248C18.7495 37.5629 18.8005 36.8106 19.0975 36.1035ZM55.6763 35.1327L54.2818 32.0395C53.8381 31.0677 53.4863 30.0076 53.2402 28.9497C52.8922 27.2718 51.2504 26.0771 49.3625 26.0771H22.8236C20.9357 26.0771 19.2939 27.2718 18.9471 28.9497C18.7495 30.0076 18.4027 31.0236 17.9044 32.0395L16.5136 35.1327C15.9145 36.4123 15.8648 37.8265 16.3632 39.0212C16.8106 40.0824 17.5564 40.9649 18.5482 41.5827V66.7616C18.5482 67.4687 19.1932 68.0004 19.9427 68.0004H52.2472C53.0426 68.0004 53.638 67.4278 53.638 66.7616V41.5827C54.6298 40.9649 55.3755 40.0824 55.8229 39.0212C56.3213 37.8265 56.2716 36.4576 55.6763 35.1327Z" fill="black"/>
</g>
</g>
</g>
<g id="Group 1171275717">
<g id="Vector_2">
<mask id="path-5-outside-1_7005_46557" maskUnits="userSpaceOnUse" x="26.8438" y="0" width="18" height="19" fill="black">
<rect fill="white" x="26.8438" width="18" height="19"/>
<path d="M41.25 8.19369L37.7164 7.65034L36.1368 4.26211C36.0937 4.16934 36.0227 4.09425 35.935 4.0486C35.7151 3.93374 35.4479 4.02946 35.3379 4.26211L33.7583 7.65034L30.2248 8.19369C30.1274 8.20841 30.0383 8.25701 29.9701 8.33063C29.8877 8.42029 29.8422 8.54091 29.8438 8.66598C29.8454 8.79106 29.8938 8.91036 29.9784 8.99768L32.535 11.6349L31.931 15.3589C31.9169 15.4455 31.9259 15.5346 31.9572 15.6161C31.9884 15.6975 32.0406 15.7681 32.1079 15.8197C32.1751 15.8714 32.2547 15.9021 32.3375 15.9084C32.4204 15.9146 32.5033 15.8962 32.5768 15.8551L35.7374 14.0969L38.898 15.8551C38.9842 15.9037 39.0845 15.9199 39.1805 15.9022C39.4226 15.8581 39.5855 15.6151 39.5437 15.3589L38.9397 11.6349L41.4963 8.99768C41.5659 8.92552 41.6118 8.83128 41.6257 8.72821C41.6633 8.47052 41.4935 8.23197 41.25 8.19369Z"/>
</mask>
<path d="M41.25 8.19369L37.7164 7.65034L36.1368 4.26211C36.0937 4.16934 36.0227 4.09425 35.935 4.0486C35.7151 3.93374 35.4479 4.02946 35.3379 4.26211L33.7583 7.65034L30.2248 8.19369C30.1274 8.20841 30.0383 8.25701 29.9701 8.33063C29.8877 8.42029 29.8422 8.54091 29.8438 8.66598C29.8454 8.79106 29.8938 8.91036 29.9784 8.99768L32.535 11.6349L31.931 15.3589C31.9169 15.4455 31.9259 15.5346 31.9572 15.6161C31.9884 15.6975 32.0406 15.7681 32.1079 15.8197C32.1751 15.8714 32.2547 15.9021 32.3375 15.9084C32.4204 15.9146 32.5033 15.8962 32.5768 15.8551L35.7374 14.0969L38.898 15.8551C38.9842 15.9037 39.0845 15.9199 39.1805 15.9022C39.4226 15.8581 39.5855 15.6151 39.5437 15.3589L38.9397 11.6349L41.4963 8.99768C41.5659 8.92552 41.6118 8.83128 41.6257 8.72821C41.6633 8.47052 41.4935 8.23197 41.25 8.19369Z" fill="black"/>
<path d="M41.25 8.19369L37.7164 7.65034L36.1368 4.26211C36.0937 4.16934 36.0227 4.09425 35.935 4.0486C35.7151 3.93374 35.4479 4.02946 35.3379 4.26211L33.7583 7.65034L30.2248 8.19369C30.1274 8.20841 30.0383 8.25701 29.9701 8.33063C29.8877 8.42029 29.8422 8.54091 29.8438 8.66598C29.8454 8.79106 29.8938 8.91036 29.9784 8.99768L32.535 11.6349L31.931 15.3589C31.9169 15.4455 31.9259 15.5346 31.9572 15.6161C31.9884 15.6975 32.0406 15.7681 32.1079 15.8197C32.1751 15.8714 32.2547 15.9021 32.3375 15.9084C32.4204 15.9146 32.5033 15.8962 32.5768 15.8551L35.7374 14.0969L38.898 15.8551C38.9842 15.9037 39.0845 15.9199 39.1805 15.9022C39.4226 15.8581 39.5855 15.6151 39.5437 15.3589L38.9397 11.6349L41.4963 8.99768C41.5659 8.92552 41.6118 8.83128 41.6257 8.72821C41.6633 8.47052 41.4935 8.23197 41.25 8.19369Z" stroke-width="6" mask="url(#path-5-outside-1_7005_46557)" fill="black"/>
</g>
<g id="Vector_3">
<mask id="path-6-outside-2_7005_46557" maskUnits="userSpaceOnUse" x="8" y="6.104" width="20" height="18" fill="black">
<rect fill="white" x="8" y="6.104" width="20" height="18"/>
<path d="M24.0357 13.2977L19.9973 12.7543L18.1921 9.36611C18.1427 9.27335 18.0616 9.19825 17.9614 9.1526C17.7101 9.03775 17.4047 9.13346 17.2791 9.36611L15.4738 12.7543L11.4355 13.2977C11.3241 13.3124 11.2223 13.361 11.1444 13.4346C11.0502 13.5243 10.9983 13.6449 11 13.77C11.0018 13.8951 11.0572 14.0144 11.1539 14.1017L14.0757 16.7389L13.3855 20.4629C13.3693 20.5495 13.3796 20.6386 13.4153 20.7201C13.4511 20.8015 13.5107 20.8721 13.5876 20.9237C13.6644 20.9754 13.7553 21.0061 13.8501 21.0124C13.9448 21.0186 14.0395 21.0002 14.1235 20.9591L17.7356 19.201L21.3477 20.9591C21.4463 21.0077 21.5608 21.0239 21.6705 21.0062C21.9473 20.9621 22.1334 20.7191 22.0857 20.4629L21.3954 16.7389L24.3172 14.1017C24.3967 14.0295 24.4492 13.9353 24.4651 13.8322C24.5081 13.5745 24.314 13.336 24.0357 13.2977Z"/>
</mask>
<path d="M24.0357 13.2977L19.9973 12.7543L18.1921 9.36611C18.1427 9.27335 18.0616 9.19825 17.9614 9.1526C17.7101 9.03775 17.4047 9.13346 17.2791 9.36611L15.4738 12.7543L11.4355 13.2977C11.3241 13.3124 11.2223 13.361 11.1444 13.4346C11.0502 13.5243 10.9983 13.6449 11 13.77C11.0018 13.8951 11.0572 14.0144 11.1539 14.1017L14.0757 16.7389L13.3855 20.4629C13.3693 20.5495 13.3796 20.6386 13.4153 20.7201C13.4511 20.8015 13.5107 20.8721 13.5876 20.9237C13.6644 20.9754 13.7553 21.0061 13.8501 21.0124C13.9448 21.0186 14.0395 21.0002 14.1235 20.9591L17.7356 19.201L21.3477 20.9591C21.4463 21.0077 21.5608 21.0239 21.6705 21.0062C21.9473 20.9621 22.1334 20.7191 22.0857 20.4629L21.3954 16.7389L24.3172 14.1017C24.3967 14.0295 24.4492 13.9353 24.4651 13.8322C24.5081 13.5745 24.314 13.336 24.0357 13.2977Z" fill="black"/>
<path d="M24.0357 13.2977L19.9973 12.7543L18.1921 9.36611C18.1427 9.27335 18.0616 9.19825 17.9614 9.1526C17.7101 9.03775 17.4047 9.13346 17.2791 9.36611L15.4738 12.7543L11.4355 13.2977C11.3241 13.3124 11.2223 13.361 11.1444 13.4346C11.0502 13.5243 10.9983 13.6449 11 13.77C11.0018 13.8951 11.0572 14.0144 11.1539 14.1017L14.0757 16.7389L13.3855 20.4629C13.3693 20.5495 13.3796 20.6386 13.4153 20.7201C13.4511 20.8015 13.5107 20.8721 13.5876 20.9237C13.6644 20.9754 13.7553 21.0061 13.8501 21.0124C13.9448 21.0186 14.0395 21.0002 14.1235 20.9591L17.7356 19.201L21.3477 20.9591C21.4463 21.0077 21.5608 21.0239 21.6705 21.0062C21.9473 20.9621 22.1334 20.7191 22.0857 20.4629L21.3954 16.7389L24.3172 14.1017C24.3967 14.0295 24.4492 13.9353 24.4651 13.8322C24.5081 13.5745 24.314 13.336 24.0357 13.2977Z" stroke-width="6" mask="url(#path-6-outside-2_7005_46557)" fill="black"/>
</g>
<g id="Vector_4">
<mask id="path-7-outside-3_7005_46557" maskUnits="userSpaceOnUse" x="44.0078" y="6.104" width="20" height="18" fill="black">
<rect fill="white" x="44.0078" y="6.104" width="20" height="18"/>
<path d="M60.0435 13.2977L56.0051 12.7543L54.1999 9.36611C54.1506 9.27335 54.0694 9.19825 53.9692 9.1526C53.7179 9.03775 53.4125 9.13346 53.2869 9.36611L51.4816 12.7543L47.4433 13.2977C47.3319 13.3124 47.2301 13.361 47.1522 13.4346C47.058 13.5243 47.0061 13.6449 47.0079 13.77C47.0096 13.8951 47.065 14.0144 47.1618 14.1017L50.0836 16.7389L49.3933 20.4629C49.3771 20.5495 49.3874 20.6386 49.4232 20.7201C49.4589 20.8015 49.5185 20.8721 49.5954 20.9237C49.6722 20.9754 49.7631 21.0061 49.8579 21.0124C49.9526 21.0186 50.0473 21.0002 50.1313 20.9591L53.7434 19.201L57.3555 20.9591C57.4541 21.0077 57.5686 21.0239 57.6784 21.0062C57.9551 20.9621 58.1412 20.7191 58.0935 20.4629L57.4032 16.7389L60.325 14.1017C60.4045 14.0295 60.457 13.9353 60.4729 13.8322C60.5159 13.5745 60.3218 13.336 60.0435 13.2977Z"/>
</mask>
<path d="M60.0435 13.2977L56.0051 12.7543L54.1999 9.36611C54.1506 9.27335 54.0694 9.19825 53.9692 9.1526C53.7179 9.03775 53.4125 9.13346 53.2869 9.36611L51.4816 12.7543L47.4433 13.2977C47.3319 13.3124 47.2301 13.361 47.1522 13.4346C47.058 13.5243 47.0061 13.6449 47.0079 13.77C47.0096 13.8951 47.065 14.0144 47.1618 14.1017L50.0836 16.7389L49.3933 20.4629C49.3771 20.5495 49.3874 20.6386 49.4232 20.7201C49.4589 20.8015 49.5185 20.8721 49.5954 20.9237C49.6722 20.9754 49.7631 21.0061 49.8579 21.0124C49.9526 21.0186 50.0473 21.0002 50.1313 20.9591L53.7434 19.201L57.3555 20.9591C57.4541 21.0077 57.5686 21.0239 57.6784 21.0062C57.9551 20.9621 58.1412 20.7191 58.0935 20.4629L57.4032 16.7389L60.325 14.1017C60.4045 14.0295 60.457 13.9353 60.4729 13.8322C60.5159 13.5745 60.3218 13.336 60.0435 13.2977Z" fill="black"/>
<path d="M60.0435 13.2977L56.0051 12.7543L54.1999 9.36611C54.1506 9.27335 54.0694 9.19825 53.9692 9.1526C53.7179 9.03775 53.4125 9.13346 53.2869 9.36611L51.4816 12.7543L47.4433 13.2977C47.3319 13.3124 47.2301 13.361 47.1522 13.4346C47.058 13.5243 47.0061 13.6449 47.0079 13.77C47.0096 13.8951 47.065 14.0144 47.1618 14.1017L50.0836 16.7389L49.3933 20.4629C49.3771 20.5495 49.3874 20.6386 49.4232 20.7201C49.4589 20.8015 49.5185 20.8721 49.5954 20.9237C49.6722 20.9754 49.7631 21.0061 49.8579 21.0124C49.9526 21.0186 50.0473 21.0002 50.1313 20.9591L53.7434 19.201L57.3555 20.9591C57.4541 21.0077 57.5686 21.0239 57.6784 21.0062C57.9551 20.9621 58.1412 20.7191 58.0935 20.4629L57.4032 16.7389L60.325 14.1017C60.4045 14.0295 60.457 13.9353 60.4729 13.8322C60.5159 13.5745 60.3218 13.336 60.0435 13.2977Z" stroke-width="6" mask="url(#path-7-outside-3_7005_46557)" fill="black"/>
</g>
</g>
</g>
</g>
</svg>