<?xml version="1.0" ?><svg xmlns="http://www.w3.org/2000/svg" fill="none" viewBox="1 3 69 66">
<g id="payment">
<g id="Group">
<g id="Vector">
<mask id="path-1-outside-1_5978_45066" maskUnits="userSpaceOnUse" x="1" y="3" width="69" height="66" fill="black">
<rect fill="white" x="1" y="3" width="69" height="66"/>
<path d="M51.0429 4.16879C46.0782 5.08815 41.7046 8.50302 39.6032 13.0998L39.0908 14.2163H25.3923H11.6934L11.3913 14.5184C11.0893 14.8204 11.0761 14.873 10.9973 18.5638C10.9579 20.6126 10.8791 29.3073 10.8397 37.8837L10.7609 53.487H6.8207C2.5653 53.487 2.21066 53.5396 2.03994 54.1963C2.00052 54.3668 1.98739 56.0613 2.01368 57.9658C2.06619 61.3281 2.06619 61.4593 2.40768 62.313C2.89363 63.5869 3.51096 64.5721 4.41719 65.4914C5.37597 66.4766 6.43984 67.1333 7.83203 67.6323L8.88276 68H27.4672H46.052L46.9713 67.6979C49.5851 66.8312 51.5683 64.8872 52.5271 62.2604L52.8817 61.3016L52.9209 48.1546L52.9474 35.0074L54.6941 34.9287C55.968 34.8761 56.7694 34.7709 57.7413 34.5084C63.5596 32.9716 68.0253 28.099 69.0627 22.1625C69.3387 20.5336 69.2335 17.1847 68.8658 15.7923C67.7624 11.6683 65.3458 8.37167 61.8259 6.19143C60.5255 5.39025 59.1729 4.8255 57.5574 4.40519C55.9419 3.9849 52.6979 3.86672 51.0429 4.16879ZM56.3227 6.54604C60.355 7.37348 63.7434 9.97401 65.5558 13.6252C68.104 18.7607 67.1321 24.7498 63.0736 28.8083C57.899 33.983 49.6769 33.996 44.4758 28.8475C42.8341 27.2189 41.6651 25.1962 40.9692 22.8058C40.7063 21.9127 40.6671 21.4663 40.6671 19.5356C40.6671 17.605 40.7063 17.1452 40.9692 16.1864C42.3087 11.2611 46.3015 7.51795 51.2398 6.53292C52.4614 6.28336 55.1144 6.29649 56.3227 6.54604ZM38.4475 16.8036C38.2636 17.6573 38.211 20.2449 38.3554 21.335C38.5262 22.6484 38.9334 24.29 39.288 25.078L39.5375 25.6429H34.1656H28.8071L28.4655 26.0502C28.0322 26.5622 28.0322 26.9564 28.4655 27.4684L28.8071 27.8756H34.7567H40.7063L41.2974 28.7031C43.2019 31.3692 46.262 33.5101 49.4404 34.4032L50.7147 34.7579V47.1825C50.7147 55.2338 50.6621 59.8964 50.57 60.448C50.0841 63.4687 47.4311 65.7147 44.3445 65.7278C41.3238 65.7278 38.6575 63.5082 38.119 60.5267C38.0402 60.0933 37.9746 58.4909 37.9746 56.9544C37.9746 54.4063 37.9482 54.1437 37.7251 53.8678L37.4756 53.5527L25.2345 53.5132L13.0068 53.487L13.0725 48.588C13.1251 45.9086 13.1907 37.5686 13.2302 30.0691L13.3089 16.449H25.9177H38.5262L38.4475 16.8036ZM35.768 58.5699C35.8075 60.9996 35.8468 61.3937 36.1227 62.1553C36.4904 63.2192 37.2653 64.5326 37.9615 65.2814L38.4736 65.846L24.0132 65.8065C24.0038 65.8065 23.9944 65.8065 23.985 65.8064C9.60503 65.7673 9.53891 65.7671 8.72513 65.4914C7.64814 65.1237 6.76816 64.5457 5.95385 63.679C4.61421 62.2604 4.22018 60.9865 4.22018 57.9132V55.851H19.9678H35.7155L35.768 58.5699Z"/>
<path d="M56.3227 6.54604C60.355 7.37348 63.7434 9.97401 65.5558 13.6252C68.104 18.7607 67.1321 24.7498 63.0736 28.8083C57.899 33.983 49.6769 33.996 44.4758 28.8475C42.8341 27.2189 41.6651 25.1962 40.9692 22.8058C40.7063 21.9127 40.6671 21.4663 40.6671 19.5356C40.6671 17.605 40.7063 17.1452 40.9692 16.1864C42.3087 11.2611 46.3015 7.51795 51.2398 6.53292C52.4614 6.28336 55.1144 6.29649 56.3227 6.54604Z"/>
<path d="M35.768 58.5699C35.8075 60.9996 35.8468 61.3937 36.1227 62.1553C36.4904 63.2192 37.2653 64.5326 37.9615 65.2814L38.4736 65.846L24.0132 65.8065L23.985 65.8064C9.60503 65.7673 9.53891 65.7671 8.72513 65.4914C7.64814 65.1237 6.76816 64.5457 5.95385 63.679C4.61421 62.2604 4.22018 60.9865 4.22018 57.9132V55.851H19.9678H35.7155L35.768 58.5699Z"/>
</mask>
<path d="M51.0429 4.16879C46.0782 5.08815 41.7046 8.50302 39.6032 13.0998L39.0908 14.2163H25.3923H11.6934L11.3913 14.5184C11.0893 14.8204 11.0761 14.873 10.9973 18.5638C10.9579 20.6126 10.8791 29.3073 10.8397 37.8837L10.7609 53.487H6.8207C2.5653 53.487 2.21066 53.5396 2.03994 54.1963C2.00052 54.3668 1.98739 56.0613 2.01368 57.9658C2.06619 61.3281 2.06619 61.4593 2.40768 62.313C2.89363 63.5869 3.51096 64.5721 4.41719 65.4914C5.37597 66.4766 6.43984 67.1333 7.83203 67.6323L8.88276 68H27.4672H46.052L46.9713 67.6979C49.5851 66.8312 51.5683 64.8872 52.5271 62.2604L52.8817 61.3016L52.9209 48.1546L52.9474 35.0074L54.6941 34.9287C55.968 34.8761 56.7694 34.7709 57.7413 34.5084C63.5596 32.9716 68.0253 28.099 69.0627 22.1625C69.3387 20.5336 69.2335 17.1847 68.8658 15.7923C67.7624 11.6683 65.3458 8.37167 61.8259 6.19143C60.5255 5.39025 59.1729 4.8255 57.5574 4.40519C55.9419 3.9849 52.6979 3.86672 51.0429 4.16879ZM56.3227 6.54604C60.355 7.37348 63.7434 9.97401 65.5558 13.6252C68.104 18.7607 67.1321 24.7498 63.0736 28.8083C57.899 33.983 49.6769 33.996 44.4758 28.8475C42.8341 27.2189 41.6651 25.1962 40.9692 22.8058C40.7063 21.9127 40.6671 21.4663 40.6671 19.5356C40.6671 17.605 40.7063 17.1452 40.9692 16.1864C42.3087 11.2611 46.3015 7.51795 51.2398 6.53292C52.4614 6.28336 55.1144 6.29649 56.3227 6.54604ZM38.4475 16.8036C38.2636 17.6573 38.211 20.2449 38.3554 21.335C38.5262 22.6484 38.9334 24.29 39.288 25.078L39.5375 25.6429H34.1656H28.8071L28.4655 26.0502C28.0322 26.5622 28.0322 26.9564 28.4655 27.4684L28.8071 27.8756H34.7567H40.7063L41.2974 28.7031C43.2019 31.3692 46.262 33.5101 49.4404 34.4032L50.7147 34.7579V47.1825C50.7147 55.2338 50.6621 59.8964 50.57 60.448C50.0841 63.4687 47.4311 65.7147 44.3445 65.7278C41.3238 65.7278 38.6575 63.5082 38.119 60.5267C38.0402 60.0933 37.9746 58.4909 37.9746 56.9544C37.9746 54.4063 37.9482 54.1437 37.7251 53.8678L37.4756 53.5527L25.2345 53.5132L13.0068 53.487L13.0725 48.588C13.1251 45.9086 13.1907 37.5686 13.2302 30.0691L13.3089 16.449H25.9177H38.5262L38.4475 16.8036ZM35.768 58.5699C35.8075 60.9996 35.8468 61.3937 36.1227 62.1553C36.4904 63.2192 37.2653 64.5326 37.9615 65.2814L38.4736 65.846L24.0132 65.8065C24.0038 65.8065 23.9944 65.8065 23.985 65.8064C9.60503 65.7673 9.53891 65.7671 8.72513 65.4914C7.64814 65.1237 6.76816 64.5457 5.95385 63.679C4.61421 62.2604 4.22018 60.9865 4.22018 57.9132V55.851H19.9678H35.7155L35.768 58.5699Z" fill="black"/>
<path d="M56.3227 6.54604C60.355 7.37348 63.7434 9.97401 65.5558 13.6252C68.104 18.7607 67.1321 24.7498 63.0736 28.8083C57.899 33.983 49.6769 33.996 44.4758 28.8475C42.8341 27.2189 41.6651 25.1962 40.9692 22.8058C40.7063 21.9127 40.6671 21.4663 40.6671 19.5356C40.6671 17.605 40.7063 17.1452 40.9692 16.1864C42.3087 11.2611 46.3015 7.51795 51.2398 6.53292C52.4614 6.28336 55.1144 6.29649 56.3227 6.54604Z" fill="black"/>
<path d="M35.768 58.5699C35.8075 60.9996 35.8468 61.3937 36.1227 62.1553C36.4904 63.2192 37.2653 64.5326 37.9615 65.2814L38.4736 65.846L24.0132 65.8065L23.985 65.8064C9.60503 65.7673 9.53891 65.7671 8.72513 65.4914C7.64814 65.1237 6.76816 64.5457 5.95385 63.679C4.61421 62.2604 4.22018 60.9865 4.22018 57.9132V55.851H19.9678H35.7155L35.768 58.5699Z" fill="black"/>
<path d="M56.3227 6.54604L56.2721 6.79088L56.2724 6.79094L56.3227 6.54604ZM65.5558 13.6252L65.7798 13.5141L65.7798 13.5141L65.5558 13.6252ZM44.4758 28.8475L44.2997 29.025L44.2999 29.0252L44.4758 28.8475ZM40.9692 22.8058L41.2092 22.7359L41.209 22.7352L40.9692 22.8058ZM40.9692 16.1864L41.2103 16.2525L41.2104 16.252L40.9692 16.1864ZM51.2398 6.53292L51.2887 6.77809L51.2898 6.77786L51.2398 6.53292ZM35.768 58.5699L36.018 58.5659L36.018 58.5651L35.768 58.5699ZM36.1227 62.1553L36.359 62.0736L36.3577 62.0701L36.1227 62.1553ZM37.9615 65.2814L38.1467 65.1134L38.1446 65.1111L37.9615 65.2814ZM38.4736 65.846L38.4729 66.096L39.0392 66.0976L38.6588 65.6781L38.4736 65.846ZM8.72513 65.4914L8.64435 65.728L8.6449 65.7282L8.72513 65.4914ZM5.95385 63.679L6.13605 63.5078L6.13561 63.5073L5.95385 63.679ZM4.22018 55.851V55.601H3.97018V55.851H4.22018ZM35.7155 55.851L35.9654 55.8462L35.9607 55.601H35.7155V55.851ZM56.2724 6.79094C60.2301 7.60305 63.554 10.1548 65.3319 13.7364L65.7798 13.5141C63.9328 9.79326 60.4799 7.14391 56.3729 6.30115L56.2724 6.79094ZM65.3319 13.7364C67.8324 18.7759 66.8792 24.6491 62.8969 28.6315L63.2504 28.9851C67.385 24.8505 68.3755 18.7455 65.7798 13.5141L65.3319 13.7364ZM62.8969 28.6315C57.8197 33.7087 49.7552 33.7218 44.6516 28.6698L44.2999 29.0252C49.5986 34.2703 57.9783 34.2572 63.2504 28.9851L62.8969 28.6315ZM44.6518 28.67C43.0429 27.0739 41.8943 25.0893 41.2092 22.7359L40.7291 22.8757C41.4358 25.3031 42.6254 27.364 44.2997 29.025L44.6518 28.67ZM41.209 22.7352C40.9569 21.8787 40.9171 21.4628 40.9171 19.5356H40.4171C40.4171 21.4697 40.4557 21.9467 40.7293 22.8764L41.209 22.7352ZM40.9171 19.5356C40.9171 17.6099 40.9566 17.1777 41.2103 16.2525L40.7281 16.1203C40.456 17.1127 40.4171 17.6001 40.4171 19.5356H40.9171ZM41.2104 16.252C42.5254 11.4171 46.4446 7.74435 51.2887 6.77809L51.1909 6.28775C46.1585 7.29156 42.092 11.1052 40.7279 16.1208L41.2104 16.252ZM51.2898 6.77786C51.8753 6.65826 52.8236 6.59905 53.7854 6.60231C54.7471 6.60558 55.6926 6.67119 56.2721 6.79088L56.3733 6.30121C55.7445 6.17134 54.7594 6.10561 53.7871 6.10231C52.815 6.09901 51.826 6.15801 51.1898 6.28797L51.2898 6.77786ZM35.5181 58.574C35.5575 60.9962 35.5951 61.433 35.8876 62.2404L36.3577 62.0701C36.0984 61.3544 36.0576 61.0029 36.018 58.5659L35.5181 58.574ZM35.8864 62.2369C36.2645 63.3309 37.0565 64.6752 37.7784 65.4516L38.1446 65.1111C37.4741 64.39 36.7163 63.1075 36.359 62.0736L35.8864 62.2369ZM37.7763 65.4493L38.2884 66.014L38.6588 65.6781L38.1467 65.1134L37.7763 65.4493ZM38.4743 65.596L24.0139 65.5565L24.0125 66.0565L38.4729 66.096L38.4743 65.596ZM8.80591 65.2548C7.76976 64.901 6.92404 64.3465 6.13605 63.5078L5.77166 63.8501C6.61228 64.7449 7.52652 65.3463 8.64435 65.728L8.80591 65.2548ZM6.13561 63.5073C5.48608 62.8195 5.0763 62.1792 4.82396 61.3443C4.56888 60.5003 4.47018 59.4434 4.47018 57.9132H3.97018C3.97018 59.4563 4.06849 60.5729 4.34534 61.4889C4.62492 62.4139 5.08198 63.1198 5.77209 63.8506L6.13561 63.5073ZM4.47018 57.9132V55.851H3.97018V57.9132H4.47018ZM4.22018 56.101H19.9678V55.601H4.22018V56.101ZM19.9678 56.101H35.7155V55.601H19.9678V56.101ZM35.4655 55.8558L35.5181 58.5748L36.018 58.5651L35.9654 55.8462L35.4655 55.8558ZM23.9857 65.5564C16.794 65.5369 13.1857 65.527 11.2729 65.4877C10.315 65.468 9.7915 65.441 9.45896 65.403C9.13752 65.3664 8.99918 65.3203 8.80536 65.2546L8.6449 65.7282C8.85798 65.8004 9.03306 65.8577 9.40227 65.8998C9.76038 65.9407 10.3048 65.9679 11.2626 65.9876C13.1812 66.0271 16.796 66.0369 23.9843 66.0564L23.9857 65.5564ZM51.0429 4.16879L50.9531 3.67691L50.9518 3.67715L51.0429 4.16879ZM39.6032 13.0998L40.0576 13.3084L40.0579 13.3077L39.6032 13.0998ZM39.0908 14.2163V14.7163H39.4115L39.5452 14.4248L39.0908 14.2163ZM11.6934 14.2163V13.7163H11.4863L11.3399 13.8627L11.6934 14.2163ZM11.3913 14.5184L11.0378 14.1648L11.0378 14.1648L11.3913 14.5184ZM10.9973 18.5638L10.4974 18.5531L10.4974 18.5542L10.9973 18.5638ZM10.8397 37.8837L11.3397 37.8862L11.3397 37.886L10.8397 37.8837ZM10.7609 53.487V53.987H11.2584L11.2609 53.4896L10.7609 53.487ZM2.03994 54.1963L1.55584 54.0705L1.55278 54.0837L2.03994 54.1963ZM2.01368 57.9658L1.51373 57.9727L1.51374 57.9736L2.01368 57.9658ZM2.40768 62.313L2.8749 62.1347L2.87191 62.1273L2.40768 62.313ZM4.41719 65.4914L4.77553 65.1427L4.77326 65.1404L4.41719 65.4914ZM7.83203 67.6323L7.66332 68.103L7.66687 68.1042L7.83203 67.6323ZM8.88276 68L8.71761 68.4719L8.7978 68.5H8.88276V68ZM46.052 68V68.5H46.1321L46.2081 68.475L46.052 68ZM46.9713 67.6979L47.1274 68.1729L47.1287 68.1725L46.9713 67.6979ZM52.5271 62.2604L52.0581 62.0869L52.0574 62.089L52.5271 62.2604ZM52.8817 61.3016L53.3507 61.4751L53.3814 61.3918L53.3817 61.3031L52.8817 61.3016ZM52.9209 48.1546L53.4209 48.1561L53.4209 48.1556L52.9209 48.1546ZM52.9474 35.0074L52.9248 34.5079L52.4483 34.5294L52.4474 35.0064L52.9474 35.0074ZM54.6941 34.9287L54.6735 34.4291L54.6716 34.4292L54.6941 34.9287ZM57.7413 34.5084L57.6136 34.025L57.6108 34.0257L57.7413 34.5084ZM69.0627 22.1625L69.5553 22.2485L69.5557 22.246L69.0627 22.1625ZM68.8658 15.7923L69.3492 15.6646L69.3488 15.6631L68.8658 15.7923ZM61.8259 6.19143L62.0891 5.76636L62.0881 5.76574L61.8259 6.19143ZM57.5574 4.40519L57.6833 3.9213L57.6833 3.92129L57.5574 4.40519ZM38.4475 16.8036L37.9593 16.6953L37.9587 16.6984L38.4475 16.8036ZM38.3554 21.335L38.8512 21.2705L38.8511 21.2693L38.3554 21.335ZM39.288 25.078L39.7454 24.876L39.744 24.8728L39.288 25.078ZM39.5375 25.6429V26.1429H40.3049L39.9949 25.4409L39.5375 25.6429ZM28.8071 25.6429V25.1429H28.5739L28.424 25.3216L28.8071 25.6429ZM28.4655 26.0502L28.8472 26.3732L28.8486 26.3715L28.4655 26.0502ZM28.4655 27.4684L28.8486 27.1471L28.8472 27.1454L28.4655 27.4684ZM28.8071 27.8756L28.424 28.197L28.5739 28.3756H28.8071V27.8756ZM40.7063 27.8756L41.1132 27.585L40.9636 27.3756H40.7063V27.8756ZM41.2974 28.7031L40.8905 28.9938L40.8905 28.9938L41.2974 28.7031ZM49.4404 34.4032L49.3052 34.8846L49.3064 34.8849L49.4404 34.4032ZM50.7147 34.7579H51.2147V34.378L50.8487 34.2762L50.7147 34.7579ZM50.57 60.448L50.0768 60.3657L50.0764 60.3686L50.57 60.448ZM44.3445 65.7278V66.2278L44.3466 66.2278L44.3445 65.7278ZM38.119 60.5267L38.611 60.4378L38.6109 60.4373L38.119 60.5267ZM37.7251 53.8678L37.3331 54.1782L37.3363 54.1822L37.7251 53.8678ZM37.4756 53.5527L37.8676 53.2423L37.7181 53.0535L37.4772 53.0527L37.4756 53.5527ZM25.2345 53.5132L25.2362 53.0132L25.2356 53.0132L25.2345 53.5132ZM13.0068 53.487L12.5069 53.4803L12.5001 53.986L13.0058 53.987L13.0068 53.487ZM13.0725 48.588L12.5726 48.5782L12.5725 48.5813L13.0725 48.588ZM13.2302 30.0691L12.7302 30.0662L12.7302 30.0665L13.2302 30.0691ZM13.3089 16.449V15.949H12.8118L12.8089 16.4461L13.3089 16.449ZM38.5262 16.449L39.0143 16.5573L39.1493 15.949H38.5262V16.449ZM24.0132 65.8065L24.0118 66.3065L24.0146 65.3065L24.0132 65.8065ZM23.985 65.8064L23.9864 65.3064L23.9836 66.3064L23.985 65.8064ZM50.9518 3.67715C45.8267 4.62623 41.3175 8.14715 39.1484 12.8919L40.0579 13.3077C42.0917 8.85888 46.3297 5.55008 51.1339 4.66043L50.9518 3.67715ZM39.1487 12.8913L38.6364 14.0078L39.5452 14.4248L40.0576 13.3084L39.1487 12.8913ZM39.0908 13.7163H25.3923V14.7163H39.0908V13.7163ZM25.3923 13.7163H11.6934V14.7163H25.3923V13.7163ZM11.3399 13.8627L11.0378 14.1648L11.7449 14.8719L12.047 14.5699L11.3399 13.8627ZM11.0378 14.1648C10.9567 14.2459 10.8389 14.3629 10.7537 14.5623C10.6776 14.7401 10.6397 14.953 10.6131 15.2209C10.5597 15.7579 10.5366 16.7202 10.4974 18.5531L11.4972 18.5745C11.5369 16.7166 11.5597 15.8072 11.6082 15.3197C11.6324 15.0753 11.6593 14.9878 11.6731 14.9555C11.6778 14.9447 11.6749 14.9419 11.7449 14.8719L11.0378 14.1648ZM10.4974 18.5542C10.4579 20.6072 10.3791 29.3054 10.3397 37.8814L11.3397 37.886C11.3791 29.3091 11.4579 20.618 11.4972 18.5734L10.4974 18.5542ZM10.3397 37.8812L10.2609 53.4845L11.2609 53.4896L11.3397 37.8862L10.3397 37.8812ZM10.7609 52.987H6.8207V53.987H10.7609V52.987ZM6.8207 52.987C4.71284 52.987 3.51319 52.9988 2.82519 53.1008C2.48148 53.1518 2.18069 53.2352 1.95153 53.4154C1.69926 53.6137 1.60846 53.8688 1.55602 54.0705L2.52385 54.3221C2.5409 54.2565 2.55329 54.2271 2.56084 54.2129C2.56536 54.2045 2.56657 54.2039 2.56955 54.2015C2.58789 54.1871 2.67373 54.1342 2.97194 54.09C3.56779 54.0016 4.67317 53.987 6.8207 53.987V52.987ZM1.55278 54.0837C1.53681 54.1528 1.5309 54.2409 1.52736 54.2985C1.52282 54.3723 1.51899 54.4658 1.51573 54.5745C1.50921 54.7924 1.50466 55.084 1.50218 55.4272C1.49723 56.1143 1.50055 57.0177 1.51373 57.9727L2.51363 57.9589C2.50053 57.0094 2.49726 56.1133 2.50216 55.4344C2.50461 55.0946 2.50908 54.8116 2.51529 54.6044C2.5184 54.5004 2.52185 54.4187 2.52547 54.3598C2.53009 54.2846 2.53321 54.2825 2.52709 54.3089L1.55278 54.0837ZM1.51374 57.9736C1.53981 59.643 1.55296 60.5411 1.60424 61.1239C1.65908 61.7473 1.76108 62.0428 1.94344 62.4987L2.87191 62.1273C2.71279 61.7295 2.64405 61.5325 2.60039 61.0363C2.55317 60.4995 2.54006 59.6509 2.51362 57.958L1.51374 57.9736ZM1.94051 62.4912C2.44903 63.8242 3.10231 64.8698 4.06112 65.8424L4.77326 65.1404C3.91961 64.2744 3.33823 63.3495 2.87484 62.1348L1.94051 62.4912ZM4.05886 65.8401C5.07687 66.8862 6.20823 67.5814 7.66332 68.103L8.00073 67.1616C6.67144 66.6852 5.67507 66.067 4.77552 65.1427L4.05886 65.8401ZM7.66687 68.1042L8.71761 68.4719L9.04792 67.5281L7.99718 67.1604L7.66687 68.1042ZM8.88276 68.5H27.4672V67.5H8.88276V68.5ZM27.4672 68.5H46.052V67.5H27.4672V68.5ZM46.2081 68.475L47.1274 68.1729L46.8152 67.2229L45.896 67.525L46.2081 68.475ZM47.1287 68.1725C49.8904 67.2567 51.9867 65.1991 52.9968 62.4318L52.0574 62.089C51.1498 64.5754 49.2798 66.4057 46.814 67.2233L47.1287 68.1725ZM52.996 62.4339L53.3507 61.4751L52.4128 61.1282L52.0581 62.0869L52.996 62.4339ZM53.3817 61.3031L53.4209 48.1561L52.4209 48.1531L52.3817 61.3001L53.3817 61.3031ZM53.4209 48.1556L53.4474 35.0084L52.4474 35.0064L52.4209 48.1536L53.4209 48.1556ZM52.9699 35.5069L54.7166 35.4282L54.6716 34.4292L52.9248 34.5079L52.9699 35.5069ZM54.7147 35.4282C56.0136 35.3746 56.8539 35.2661 57.8717 34.9911L57.6108 34.0257C56.685 34.2758 55.9225 34.3775 54.6735 34.4291L54.7147 35.4282ZM57.8689 34.9918C63.8766 33.405 68.4843 28.3768 69.5553 22.2485L68.5702 22.0764C67.5662 27.8212 63.2426 32.5382 57.6136 34.025L57.8689 34.9918ZM69.5557 22.246C69.7019 21.3833 69.7435 20.1004 69.7054 18.8732C69.6674 17.6502 69.5482 16.418 69.3492 15.6646L68.3824 15.92C68.5511 16.559 68.6684 17.6975 68.7059 18.9043C68.7433 20.1068 68.6996 21.3128 68.5698 22.079L69.5557 22.246ZM69.3488 15.6631C68.2136 11.4204 65.7211 8.01596 62.0891 5.76637L61.5626 6.6165C64.9706 8.72739 67.3111 11.9162 68.3828 15.9215L69.3488 15.6631ZM62.0881 5.76574C60.7414 4.936 59.342 4.35287 57.6833 3.9213L57.4315 4.88908C59.0037 5.29813 60.3096 5.84451 61.5636 6.61712L62.0881 5.76574ZM57.6833 3.92129C56.8242 3.69781 55.5677 3.5613 54.3331 3.51644C53.0983 3.47157 51.8323 3.51645 50.9531 3.67691L51.1326 4.66066C51.9085 4.51906 53.092 4.472 54.2968 4.51578C55.5018 4.55956 56.6751 4.69228 57.4315 4.88908L57.6833 3.92129ZM37.9587 16.6984C37.8554 17.1777 37.7965 18.0821 37.7784 18.9705C37.7602 19.8661 37.7824 20.8165 37.8597 21.4006L38.8511 21.2693C38.784 20.7633 38.7603 19.8749 38.7782 18.9908C38.7963 18.0994 38.8556 17.2833 38.9362 16.9089L37.9587 16.6984ZM37.8596 21.3994C38.0336 22.7376 38.4494 24.4329 38.8321 25.2832L39.744 24.8728C39.4174 24.1472 39.0188 22.5592 38.8512 21.2705L37.8596 21.3994ZM38.8306 25.28L39.0801 25.8449L39.9949 25.4409L39.7454 24.876L38.8306 25.28ZM39.5375 25.1429H34.1656V26.1429H39.5375V25.1429ZM34.1656 25.1429H28.8071V26.1429H34.1656V25.1429ZM28.424 25.3216L28.0824 25.7288L28.8486 26.3715L29.1902 25.9643L28.424 25.3216ZM28.0839 25.7272C27.8329 26.0237 27.6405 26.3625 27.6405 26.7593C27.6405 27.1561 27.8329 27.4948 28.0839 27.7914L28.8472 27.1454C28.6648 26.9299 28.6405 26.8156 28.6405 26.7593C28.6405 26.703 28.6648 26.5886 28.8472 26.3732L28.0839 25.7272ZM28.0824 27.7898L28.424 28.197L29.1902 27.5543L28.8486 27.1471L28.0824 27.7898ZM28.8071 28.3756H34.7567V27.3756H28.8071V28.3756ZM34.7567 28.3756H40.7063V27.3756H34.7567V28.3756ZM40.2994 28.1663L40.8905 28.9938L41.7042 28.4125L41.1132 27.585L40.2994 28.1663ZM40.8905 28.9938C42.8618 31.7534 46.0182 33.961 49.3052 34.8846L49.5757 33.9219C46.5058 33.0592 43.5419 30.985 41.7042 28.4125L40.8905 28.9938ZM49.3064 34.8849L50.5806 35.2396L50.8487 34.2762L49.5745 33.9215L49.3064 34.8849ZM50.2147 34.7579V47.1825H51.2147V34.7579H50.2147ZM50.2147 47.1825C50.2147 51.2074 50.2015 54.3838 50.1769 56.6221C50.1646 57.7416 50.1494 58.6245 50.1317 59.2608C50.1133 59.9176 50.0928 60.2702 50.0768 60.3657L51.0632 60.5303C51.0933 60.35 51.1138 59.9129 51.1313 59.2887C51.1493 58.6441 51.1645 57.7547 51.1768 56.6331C51.2015 54.3895 51.2147 51.2089 51.2147 47.1825H50.2147ZM50.0764 60.3686C49.6299 63.1437 47.1884 65.2158 44.3424 65.2278L44.3466 66.2278C47.6738 66.2137 50.5382 63.7937 51.0637 60.5274L50.0764 60.3686ZM44.3445 65.2278C41.5651 65.2278 39.1064 63.1808 38.611 60.4378L37.6269 60.6156C38.2085 63.8356 41.0825 66.2278 44.3445 66.2278V65.2278ZM38.6109 60.4373C38.5789 60.2614 38.5434 59.7889 38.5169 59.134C38.4909 58.4942 38.4746 57.7163 38.4746 56.9544H37.4746C37.4746 57.7291 37.4911 58.5206 37.5177 59.1745C37.5436 59.8133 37.5803 60.3587 37.627 60.6161L38.6109 60.4373ZM38.4746 56.9544C38.4746 55.6892 38.4684 54.9621 38.4318 54.518C38.4134 54.2941 38.3852 54.1106 38.3333 53.9524C38.2763 53.7785 38.1982 53.6577 38.1139 53.5535L37.3363 54.1822C37.3636 54.2159 37.3724 54.2314 37.3831 54.264C37.3989 54.3123 37.4191 54.4053 37.4352 54.6001C37.4676 54.9934 37.4746 55.6716 37.4746 56.9544H38.4746ZM38.1171 53.5575L37.8676 53.2423L37.0836 53.863L37.3331 54.1782L38.1171 53.5575ZM37.4772 53.0527L25.2362 53.0132L25.2329 54.0132L37.474 54.0527L37.4772 53.0527ZM25.2356 53.0132L13.0079 52.987L13.0058 53.987L25.2335 54.0132L25.2356 53.0132ZM13.5068 53.4937L13.5724 48.5947L12.5725 48.5813L12.5069 53.4803L13.5068 53.4937ZM13.5724 48.5978C13.625 45.914 13.6907 37.5701 13.7302 30.0718L12.7302 30.0665C12.6907 37.5671 12.6251 45.9031 12.5726 48.5782L13.5724 48.5978ZM13.7302 30.072L13.8089 16.4519L12.8089 16.4461L12.7302 30.0662L13.7302 30.072ZM13.3089 16.949H25.9177V15.949H13.3089V16.949ZM25.9177 16.949H38.5262V15.949H25.9177V16.949ZM38.038 16.3407L37.9593 16.6953L38.9356 16.912L39.0143 16.5573L38.038 16.3407ZM24.0146 65.3065L23.9864 65.3064L23.9836 66.3064L24.0118 66.3065L24.0146 65.3065ZM24.0146 65.3065C24.0099 65.3065 24.0053 65.3065 24.0006 65.3065C23.9959 65.3065 23.9911 65.3065 23.9864 65.3064L23.9837 66.3064C23.9883 66.3064 23.9929 66.3065 23.9977 66.3065C24.0023 66.3065 24.0071 66.3065 24.0118 66.3065L24.0146 65.3065Z" fill="black" mask="url(#path-1-outside-1_5978_45066)"/>
</g>
<path id="Vector_2" d="M53.0804 9.38304C52.6471 9.61944 52.4237 10.0923 52.4237 10.8015V11.3925L51.5701 11.8259C50.0989 12.5878 49.2058 13.9143 49.0484 15.5559C48.7986 18.2353 50.9921 20.6521 53.6845 20.6521C54.9059 20.6521 56.0485 21.7814 56.088 23.0292C56.1011 23.213 55.9567 23.6467 55.7729 24.0144C54.6433 26.2471 51.6618 25.5904 51.3336 23.0292C51.2416 22.3333 50.9264 21.9786 50.2828 21.8735C49.8756 21.8078 49.7574 21.8604 49.3896 22.2151C48.9824 22.622 48.9824 22.6615 49.0614 23.4364C49.2322 25.1045 50.3749 26.7069 51.8196 27.2979L52.4237 27.5474V28.2959C52.4237 29.2942 52.8045 29.7801 53.5925 29.7801C54.3674 29.7801 54.6695 29.4255 54.7746 28.388C54.8533 27.5736 54.8533 27.5736 55.3787 27.3897C56.6004 26.9825 57.8612 25.5904 58.2159 24.2639C58.2946 23.9749 58.3341 23.2656 58.3077 22.6879C58.2682 21.8078 58.1764 21.5058 57.8087 20.8096C57.0337 19.3518 55.9437 18.6425 54.0128 18.3535C52.7127 18.1566 52.5155 18.0779 52.0034 17.5394C51.2941 16.7906 51.1629 15.7136 51.7013 14.8074C52.0691 14.1637 52.4237 13.9012 53.1856 13.6909C54.6038 13.3101 56.1011 14.571 56.1011 16.1603C56.1011 17.0009 57.3753 17.4212 58.0056 16.7775C58.4389 16.3572 58.4523 15.3328 58.0451 14.2558C57.664 13.2314 56.4427 11.9836 55.4839 11.6421L54.8141 11.4057L54.7615 10.6439C54.6959 9.77704 54.433 9.4093 53.8028 9.29109C53.5794 9.2517 53.2643 9.29109 53.0804 9.38304Z" fill="black"/>
<path id="Vector_3" d="M20.8356 23.7122C18.6947 24.7366 18.1301 27.3373 19.6796 29.0577C20.4679 29.9377 21.3346 30.2924 22.5429 30.2137C23.5937 30.148 24.303 29.8326 24.9202 29.1628C25.6295 28.4143 25.8264 27.915 25.8264 26.825C25.8264 25.7349 25.6295 25.2359 24.9202 24.4871C24.2766 23.7909 23.5937 23.5022 22.4772 23.4496C21.6367 23.4101 21.3872 23.4496 20.8356 23.7122ZM23.0945 25.9844C23.7645 26.4047 23.6199 27.403 22.858 27.7837C22.346 28.0332 21.8731 27.9414 21.4003 27.5212C21.0851 27.2452 21.0851 26.4047 21.4003 26.129C21.9388 25.6428 22.4772 25.5905 23.0945 25.9844Z" fill="black"/>
<path id="Vector_4" d="M21.2937 32.9848C18.8507 33.7333 17.9709 36.833 19.7046 38.6193C20.3744 39.3021 21.0703 39.6042 22.1212 39.6701C23.2113 39.7357 23.9862 39.4729 24.735 38.8031C25.5491 38.0677 25.812 37.4371 25.825 36.2814C25.825 35.4408 25.7725 35.2044 25.4704 34.679C25.0106 33.9171 24.3147 33.3264 23.5398 33.0635C22.9223 32.8535 21.8453 32.814 21.2937 32.9848ZM23.1982 35.5591C23.7498 36.0976 23.5923 36.8986 22.8566 37.2797C21.7009 37.8708 20.5188 36.3601 21.4906 35.5196C21.9768 35.1123 22.7779 35.1257 23.1982 35.5591Z" fill="black"/>
<path id="Vector_5" d="M28.7814 35.2704C28.0591 35.6381 27.9673 36.689 28.6109 37.201C28.9522 37.4639 29.0838 37.4639 36.7014 37.4375L44.4373 37.3979L44.6868 37.0828C44.9363 36.7807 45.0153 36.111 44.8576 35.6907C44.6342 35.1127 44.4504 35.0996 36.5701 35.0996C30.8172 35.0996 29.0312 35.1391 28.7814 35.2704Z" fill="black"/>
<path id="Vector_6" d="M20.9797 42.586C20.1525 42.9142 19.4168 43.6234 19.0491 44.4771C18.826 45.0025 18.7865 45.3046 18.826 46.0008C18.9047 46.9726 19.1411 47.5111 19.7848 48.1678C20.4412 48.8245 20.9797 49.0479 21.978 49.1266C23.147 49.2053 23.9086 48.9823 24.6574 48.3256C25.3797 47.695 25.7605 46.9726 25.8526 46.0664C26.1151 43.5317 23.4357 41.6272 20.9797 42.586ZM23.1862 45.0156C23.6199 45.4228 23.633 45.9877 23.2127 46.4867C22.4377 47.3929 20.8092 46.5523 21.19 45.4359C21.4659 44.6479 22.5429 44.4245 23.1862 45.0156Z" fill="black"/>
<path id="Vector_7" d="M28.6104 44.9496C28.4265 45.0942 28.2427 45.3832 28.1901 45.5932C28.0983 46.0266 28.387 46.7097 28.7155 46.841C28.8337 46.8805 32.4063 46.9197 36.6483 46.9197H44.3711L44.6471 46.6176C45.0804 46.1579 45.0412 45.3173 44.5945 44.9629C44.2529 44.687 44.1347 44.687 36.5961 44.687C29.1358 44.687 28.9389 44.687 28.6104 44.9496Z" fill="black"/>
</g>
</g>
</svg>