<?xml version="1.0" ?><svg xmlns="http://www.w3.org/2000/svg" fill="none" viewBox="11 4 60 66">
<g id="attendance-report">
<circle id="Ellipse 2689" cx="57.5" cy="56.5" r="11.5" fill="black"/>
<path id="Vector 812" d="M44 6.5H28.5L23 13.5H50L44 6.5Z" fill="black"/>
<path id="Subtract" fill-rule="evenodd" clip-rule="evenodd" d="M29.887 4.07675C27.9495 4.40174 25.9246 5.37671 24.5871 6.62668L23.6622 7.48915H19.9123C15.8249 7.48915 15.2624 7.55165 14.0874 8.13914C12.675 8.85162 11.4875 10.3891 11.15 11.964C10.95 12.9015 10.95 62.5751 11.15 63.5126C11.35 64.4376 11.925 65.5376 12.5875 66.2375C13.2374 66.925 14.5249 67.65 15.4874 67.85C16.0981 67.9803 33.2565 68.0257 45.4011 67.9862C44.1803 66.9059 43.1257 65.6419 42.2807 64.2376H36.3868H16.2374L15.7624 63.9751C15.4999 63.8251 15.1749 63.5001 15.0249 63.2376L14.7624 62.7626V37.7383V12.714L15.0374 12.2265C15.5374 11.3391 15.9249 11.2391 18.9623 11.2391H21.5997L21.4247 12.0765C21.3247 12.5515 21.2622 13.3765 21.2872 13.9515C21.3247 15.0514 21.5247 15.4139 22.2872 15.8139C22.7872 16.0764 49.9864 16.0764 50.4864 15.8139C51.2489 15.4139 51.4489 15.0514 51.4864 13.9515C51.5114 13.3765 51.4489 12.5515 51.3489 12.0765L51.1739 11.2391H53.8113C56.8362 11.2391 57.2362 11.3391 57.7362 12.2265L58.0112 12.714V37.7383V40.1252C59.3208 40.2894 60.5811 40.6119 61.7724 41.0729C61.782 27.4087 61.7324 12.4741 61.6236 11.964C61.1736 9.85159 59.3862 8.06414 57.2862 7.62665C56.8862 7.53915 55.1363 7.48915 52.8614 7.48915H49.099L48.2615 6.68917C47.3115 5.8017 46.3615 5.18922 45.0866 4.68923C43.4491 4.02675 42.8991 3.98925 36.2868 4.00175C32.9369 4.01425 30.062 4.05175 29.887 4.07675ZM42.8741 7.92664C43.3116 8.03914 44.0241 8.30163 44.4366 8.51413C45.6865 9.17661 47.0865 10.7641 47.449 11.9515L47.524 12.239H36.3868H25.2496L25.3246 11.9515C25.5371 11.2891 26.1246 10.3766 26.8371 9.6516C27.662 8.81412 28.962 8.07664 30.0245 7.87664C30.3245 7.81414 33.1619 7.76415 36.3243 7.75165C41.0492 7.73915 42.2116 7.77665 42.8741 7.92664Z" fill="black"/>
<path id="Vector" d="M23.8362 42.2875C22.6988 43.05 22.7238 44.5499 23.8987 45.4249C24.2362 45.6874 24.3612 45.6874 32.411 45.6874C40.4608 45.6874 40.5858 45.6874 40.9233 45.4249C42.0982 44.5499 42.1232 43.05 40.9858 42.2875L40.5608 42H32.411H24.2612L23.8362 42.2875Z" fill="black"/>
<path id="Vector_2" d="M23.8953 52.2027C23.34 52.5 23 53.1757 23 54C23 54.7568 23.204 55.2162 23.782 55.7162C24.088 56 24.2013 56 31.5 56C38.7987 56 38.912 56 39.218 55.7162C39.796 55.2162 40 54.7568 40 54C40 53.1622 39.66 52.4865 39.082 52.2027C38.538 51.9324 24.4167 51.9324 23.8953 52.2027Z" fill="black"/>
<g id="Group 1171275091">
<g id="Group 1171275090">
<g id="Ellipse 2542">
<mask id="path-6-outside-1_6230_46346" maskUnits="userSpaceOnUse" x="44" y="43" width="27" height="27" fill="black">
<rect fill="white" x="44" y="43" width="27" height="27"/>
<path d="M57.5 67C63.299 67 68 62.299 68 56.5C68 50.701 63.299 46 57.5 46C51.701 46 47 50.701 47 56.5C47 62.299 51.701 67 57.5 67Z"/>
</mask>
<path d="M57.5 67C63.299 67 68 62.299 68 56.5C68 50.701 63.299 46 57.5 46C51.701 46 47 50.701 47 56.5C47 62.299 51.701 67 57.5 67Z" stroke-width="5.72727" mask="url(#path-6-outside-1_6230_46346)" fill="black"/>
</g>
</g>
</g>
<path id="Vector_3" d="M56.0992 60.8232L52.1767 56.9008C51.9411 56.6652 51.9411 56.2831 52.1767 56.0474L53.0301 55.194C53.2658 54.9583 53.6479 54.9583 53.8835 55.194L56.5259 57.8363L62.1855 52.1767C62.4211 51.9411 62.8032 51.9411 63.0389 52.1767L63.8923 53.0301C64.1279 53.2658 64.1279 53.6479 63.8923 53.8836L56.9526 60.8233C56.7169 61.0589 56.3348 61.0589 56.0992 60.8232Z" fill="black"/>
<path id="person.3" d="M35.5 27.5818C37.1963 27.5818 38.5701 26.0888 38.5701 24.2523C38.5701 22.4439 37.2033 21 35.5 21C33.8178 21 32.4299 22.465 32.4299 24.2664C32.4369 26.0958 33.8037 27.5818 35.5 27.5818ZM27.3692 27.743C28.8481 27.743 30.0397 26.4322 30.0397 24.8131C30.0397 23.236 28.8481 21.9603 27.3692 21.9603C25.9042 21.9603 24.6916 23.257 24.6986 24.8201C24.6986 26.4393 25.8972 27.743 27.3692 27.743ZM43.6308 27.743C45.0958 27.743 46.2944 26.4393 46.3014 24.8201C46.3084 23.257 45.0958 21.9603 43.6308 21.9603C42.1519 21.9603 40.9533 23.236 40.9533 24.8131C40.9533 26.4322 42.1519 27.743 43.6308 27.743ZM35.5 26.3551C34.5327 26.3551 33.7126 25.4439 33.7126 24.2593C33.7126 23.1168 34.5257 22.2266 35.5 22.2266C36.4813 22.2266 37.2874 23.1028 37.2874 24.2523C37.2874 25.4299 36.4743 26.3551 35.5 26.3551ZM27.3692 26.5304C26.5771 26.5304 25.9042 25.7734 25.9042 24.8201C25.9042 23.9089 26.5701 23.1659 27.3692 23.1659C28.1822 23.1659 28.8411 23.8949 28.8411 24.8131C28.8411 25.7734 28.1682 26.5304 27.3692 26.5304ZM43.6308 26.5304C42.8248 26.5304 42.1589 25.7734 42.1589 24.8131C42.1589 23.8949 42.8178 23.1659 43.6308 23.1659C44.4229 23.1659 45.0958 23.9089 45.0958 24.8201C45.0958 25.7734 44.4229 26.5304 43.6308 26.5304ZM23.514 34.1846H28.3603C27.9748 33.9603 27.7154 33.4486 27.7645 32.986H23.4509C23.3178 32.986 23.2617 32.9229 23.2617 32.8037C23.2617 31.1986 25.1402 29.6706 27.3621 29.6706C28.1472 29.6706 28.279 29.557 28.8818 29.8934C29.1201 29.55 29.4145 29.2556 29.8 29.0032C28.9098 28.4565 28.4556 28.472 27.3621 28.472C24.3972 28.472 22 30.5888 22 32.9159C22 33.757 22.5047 34.1846 23.514 34.1846ZM47.486 34.1846C48.4953 34.1846 49 33.757 49 32.9159C49 30.5888 46.5958 28.472 43.6308 28.472C42.5444 28.472 42.372 28.4663 41.4888 29.0131C41.8743 29.2654 42.1687 29.5598 42.4 29.9032C43.0028 29.5668 42.8528 29.6706 43.6308 29.6706C45.8528 29.6706 47.7383 31.1986 47.7383 32.8037C47.7383 32.9229 47.6822 32.986 47.5491 32.986H43.8285C43.8776 33.4486 43.6252 33.9603 43.2397 34.1846H47.486ZM31.1332 34.1846H39.8668C41.0794 34.1846 41.6612 33.7991 41.6612 32.972C41.6612 31.0444 39.257 28.479 35.5 28.479C31.743 28.479 29.3318 31.0444 29.3318 32.972C29.3318 33.7991 29.9206 34.1846 31.1332 34.1846ZM30.9089 32.9579C30.7477 32.9579 30.6846 32.9019 30.6846 32.7757C30.6846 31.7033 32.4159 29.7056 35.5 29.7056C38.5841 29.7056 40.3154 31.7033 40.3154 32.7757C40.3154 32.9019 40.2523 32.9579 40.0841 32.9579H30.9089Z" fill="black" stroke-width="0.433929"/>
</g>
</svg>