<?xml version="1.0" ?><svg xmlns="http://www.w3.org/2000/svg" fill="none" viewBox="38.34 20 283.33 320">
<path d="M76.5638 339.999C74.1104 338.469 73.1838 336.296 73.3838 333.386C73.6071 330.149 73.4971 326.889 73.5304 323.643L119.53 323.669C119.567 326.669 119.49 329.689 119.674 332.669C119.857 335.649 119.137 338.153 116.674 339.983L76.5638 339.999Z" fill="black"/>
<path d="M204.153 323.667C204.189 327.191 204.153 330.717 204.279 334.237C204.359 336.757 203.026 338.454 201.313 339.997H161.193C158.719 338.481 157.803 336.301 157.999 333.387C158.219 330.147 158.113 326.891 158.149 323.641L204.153 323.667Z" fill="black"/>
<path d="M245.823 340.001C243.426 338.507 242.409 336.431 242.616 333.531C242.849 330.247 242.736 326.941 242.773 323.641L288.749 323.677C288.786 327.301 288.793 330.927 288.876 334.547C288.933 336.957 287.543 338.514 285.943 340.001H245.823Z" fill="black"/>
<path d="M288.75 323.666L242.774 323.629C242.737 319.543 242.667 315.453 242.667 311.366C242.667 280.213 242.617 249.063 242.734 217.909C242.734 214.949 241.89 214.013 239.067 214.343C237.42 214.536 235.734 214.393 234.067 214.369C231.71 214.336 229.767 213.593 228.81 211.193C227.894 208.886 228.91 207.119 230.407 205.526C238.558 196.813 246.716 188.106 254.88 179.406C257.17 176.963 259.414 174.476 261.747 172.073C264.44 169.306 266.934 169.216 269.57 172.006C280.208 183.261 290.805 194.557 301.36 205.893C302.837 207.469 303.39 209.329 302.547 211.393C301.704 213.456 299.88 214.273 297.777 214.339C295.484 214.413 293.184 214.429 290.887 214.369C289.424 214.329 288.764 214.883 288.887 216.369C288.947 217.203 288.887 218.036 288.887 218.886C288.887 252.441 288.887 286.006 288.887 319.579C288.884 320.956 288.797 322.333 288.75 323.666Z" fill="black"/>
<path d="M204.154 323.666L158.154 323.639C158.116 300.343 158.08 277.049 158.047 253.756C158.047 251.446 157.97 249.136 158.07 246.829C158.14 245.302 157.574 244.809 156.09 244.872C153.904 244.969 151.704 244.846 149.514 244.909C147.224 244.979 145.384 244.272 144.364 242.106C143.254 239.772 144.17 237.856 145.79 236.129C150.73 230.86 155.665 225.584 160.594 220.299C165.96 214.57 171.336 208.847 176.72 203.129C179.907 199.766 182.36 199.709 185.467 203.012C195.722 213.919 205.958 224.846 216.174 235.792C217.84 237.582 219.01 239.532 217.92 242.009C216.83 244.486 214.667 244.909 212.19 244.942C209.62 244.976 206.21 243.732 204.72 245.526C203.467 247.036 204.294 250.332 204.29 252.842C204.277 275.194 204.277 297.545 204.29 319.896C204.274 321.156 204.197 322.412 204.154 323.666Z" fill="black"/>
<path d="M119.544 323.666L73.544 323.639C73.5106 309.486 73.3973 295.332 73.5073 281.182C73.5273 278.486 72.7173 277.639 70.174 277.966C68.8406 278.136 67.464 277.966 66.1073 277.999C63.514 278.049 60.9906 277.892 59.7273 275.099C58.4639 272.306 60.0606 270.329 61.8539 268.432C70.0939 259.666 78.324 250.888 86.544 242.099C88.544 239.962 90.504 237.766 92.544 235.682C95.2106 232.922 97.734 232.826 100.364 235.609C110.993 246.865 121.586 258.156 132.144 269.482C133.644 271.079 134.144 272.932 133.357 274.976C132.594 276.949 130.921 277.796 128.911 277.902C126.901 278.009 124.931 278.136 122.967 277.946C120.411 277.699 119.584 278.512 119.614 281.202C119.754 294.096 119.681 306.996 119.671 319.892C119.667 321.156 119.587 322.412 119.544 323.666Z" fill="black"/>
<path d="M57.0001 106.396C52.6234 106.396 48.2467 106.42 43.8701 106.396C40.5367 106.376 38.4201 104.586 38.3401 101.783C38.2601 98.9798 40.3834 96.9364 43.6734 96.9198C52.6356 96.8731 61.5979 96.8731 70.5601 96.9198C73.8501 96.9198 75.9901 98.9398 75.9367 101.74C75.8834 104.54 73.7734 106.376 70.4501 106.406C65.9601 106.42 61.4767 106.396 57.0001 106.396Z" fill="black"/>
<path d="M302.627 106.397C298.147 106.397 293.664 106.434 289.184 106.397C286.16 106.364 284.08 104.397 284.07 101.68C284.06 98.9637 286.12 96.9503 289.197 96.9303C298.264 96.8748 307.33 96.8748 316.397 96.9303C319.534 96.947 321.59 98.8437 321.664 101.544C321.744 104.35 319.597 106.374 316.384 106.404C311.797 106.427 307.214 106.397 302.627 106.397Z" fill="black"/>
<path d="M295.713 147.999C295.753 150.829 292.593 153.456 289.713 152.503C285.952 151.262 282.262 149.815 278.66 148.169C276.273 147.083 275.536 144.403 276.536 142.026C277.536 139.649 279.93 138.496 282.476 139.403C285.81 140.593 289.083 141.979 292.37 143.309C294.39 144.113 295.466 145.666 295.713 147.999Z" fill="black"/>
<path d="M69.5638 152.85C66.9238 152.4 65.0672 151.447 64.5072 148.903C63.9838 146.523 64.9072 144.627 66.9638 143.677C70.5546 142 74.2384 140.531 77.9972 139.277C80.1672 138.56 82.1672 139.487 83.3005 141.587C84.4338 143.687 84.3538 145.887 82.4205 147.277C78.4838 150.103 73.6972 151.09 69.5638 152.85Z" fill="black"/>
<path d="M70.3638 50.8894C73.9304 52.1594 78.3338 53.4594 82.2138 55.8894C83.9904 56.9994 84.3638 59.096 83.5138 61.2227C82.6638 63.3494 80.9771 64.556 78.8838 64.1127C74.4167 63.1877 70.1413 61.5033 66.2438 59.1327C64.3038 57.9627 63.8071 55.7994 64.7538 53.596C65.6671 51.4994 67.3938 50.7594 70.3638 50.8894Z" fill="black"/>
<path d="M295.707 55.174C295.537 57.654 294.317 59.3073 292.273 60.174C289.123 61.5073 285.923 62.754 282.683 63.8407C279.86 64.8007 277.5 63.694 276.503 61.2273C275.43 58.5606 276.397 56.184 279.32 54.894C282.453 53.5173 285.637 52.2273 288.877 51.1206C292.333 49.9573 295.667 52.1173 295.707 55.174Z" fill="black"/>
<path d="M181.26 183.78C226.286 183.78 262.787 147.117 262.787 101.89C262.787 56.6634 226.286 20 181.26 20C136.234 20 99.7334 56.6634 99.7334 101.89C99.7334 147.117 136.234 183.78 181.26 183.78Z" fill="black"/>
<path d="M181.259 168.667C138.769 168.667 103.879 136.001 100.079 94.334C99.8528 96.824 99.7461 99.334 99.7461 101.894C99.7461 147.121 136.246 183.784 181.273 183.784C226.299 183.784 262.799 147.117 262.799 101.894C262.799 99.344 262.676 96.824 262.449 94.334C258.636 136.001 223.746 168.667 181.259 168.667Z" fill="black"/>
<path d="M181.26 161.734C214.164 161.734 240.837 134.941 240.837 101.89C240.837 68.8397 214.164 42.0469 181.26 42.0469C148.357 42.0469 121.684 68.8397 121.684 101.89C121.684 134.941 148.357 161.734 181.26 161.734Z" fill="black"/>
<path d="M181.209 134.731C178.793 134.685 177.256 133.045 177.299 130.555L177.343 127.725C173.229 127.035 169.536 125.391 166.846 123.081C164.156 120.771 162.669 118.018 162.693 115.511C162.729 113.078 164.336 111.381 166.603 111.381H166.749C168.416 111.408 169.209 112.121 170.779 114.251C173.759 118.365 176.969 120.071 181.866 120.148H182.169C187.973 120.148 191.343 117.628 191.409 113.231C191.439 110.421 190.276 108.231 184.509 106.635L176.336 104.411C168.449 102.301 163.979 97.0781 164.083 90.0581C164.206 82.2314 169.806 76.6614 178.456 75.6181L178.496 73.2847C178.533 70.8247 180.086 69.2314 182.453 69.2314H182.553C183.085 69.2199 183.614 69.3158 184.108 69.5134C184.602 69.711 185.052 70.0062 185.429 70.3814C185.923 70.9014 186.499 71.8481 186.456 73.4181L186.419 75.9381C190.313 76.7114 193.753 78.4481 196.219 80.8881C198.553 83.1881 199.929 85.9347 199.886 88.2214C199.843 90.5081 198.306 92.1281 196.053 92.1281H195.979C194.079 92.1014 192.979 91.0647 191.646 89.1581C188.776 85.0614 185.979 83.4414 181.729 83.3781H181.479C176.289 83.3781 172.899 85.9247 172.839 89.8681C172.779 93.7347 176.063 95.4581 178.839 96.2247L186.869 98.4114C196.096 100.908 200.343 105.521 200.229 112.931C200.106 121.105 194.426 126.771 185.313 127.931L185.273 130.681C185.236 133.145 183.683 134.738 181.319 134.738L181.209 134.731Z" fill="black"/>
<path d="M181.26 147.243C150.797 147.243 125.677 124.28 122.117 94.6465C121.829 97.0502 121.684 99.4689 121.684 101.89C121.684 134.94 148.35 161.733 181.26 161.733C214.17 161.733 240.837 134.94 240.837 101.89C240.837 99.4688 240.691 97.05 240.4 94.6465C236.84 124.28 211.72 147.243 181.26 147.243Z" fill="black"/>
</svg>