<?xml version="1.0" ?><svg xmlns="http://www.w3.org/2000/svg" fill="none" viewBox="13.33 53.33 333.32 253.33">
<path d="M318.717 129.223C326.717 129.173 334.717 129.15 342.717 129.053C344.567 129.03 345.667 130.006 346.653 131.3V146.193C344.887 147.786 342.83 148.353 340.43 148.193C338.51 148.06 336.567 148.243 334.633 148.286L227.7 148.246L220.157 148.163C217.513 143.6 219.19 138.62 218.703 133.83C218.607 133.003 218.68 132.166 218.919 131.368C219.157 130.571 219.556 129.831 220.09 129.193L228.327 129.143L241.027 129.22C258.822 128.94 276.618 128.94 294.413 129.22L295.55 129.056L303.72 129.18L318.717 129.223Z" fill="black"/>
<path d="M345.291 198.234C344.593 200.309 343.632 202.287 342.431 204.117C339.764 208.217 336.004 211.404 331.447 213.917L330.024 214.351C329.477 213.397 328.314 213.264 327.571 212.621C325.764 211.061 322.927 210.511 322.407 207.667C324.544 205.957 325.144 203.724 325.107 201.084C325.031 195.194 325.107 195.194 331.281 195.141C331.971 195.141 332.664 195.141 333.351 195.091C336.351 194.847 338.017 193.071 338.164 190.301C338.301 187.657 336.767 185.787 334.041 185.254C332.594 184.967 331.074 185.034 329.584 185.004C324.384 184.904 325.081 185.644 325.101 180.467C325.101 177.101 325.151 173.837 321.301 172.231C324.397 170.104 327.004 167.191 330.967 166.447C333.511 167.524 335.864 169.006 337.934 170.834C341.694 174.19 344.393 178.569 345.7 183.436C347.007 188.303 346.866 193.446 345.294 198.234H345.291Z" fill="black"/>
<path d="M222.894 53.334L301.634 53.444C308.374 53.444 308.677 53.734 308.667 60.2773C308.643 77.4062 308.613 94.5362 308.577 111.667C303.497 103.581 298.577 95.4073 294.094 87.0007C294.12 82.714 294.16 78.424 294.167 74.1373C294.167 67.9307 293.88 67.644 287.537 67.644H64.537C62.4637 67.644 60.3904 67.694 58.317 67.7207L42.3604 67.4507C42.3604 65.784 42.4004 64.0907 42.4137 62.414C42.437 59.314 41.8804 56.0806 44.4337 53.5406C61.7448 53.514 79.0559 53.484 96.367 53.4507C97.9704 53.4507 99.5737 53.384 101.177 53.3473C131.524 53.3851 161.869 53.4184 192.214 53.4473C202.434 53.444 212.667 53.3707 222.894 53.334Z" fill="black"/>
<path d="M44.4263 53.5302C41.873 56.0769 42.4263 59.3035 42.4063 62.4035C42.4063 64.0702 42.3697 65.7602 42.353 67.4402C39.593 67.4869 36.833 67.5535 34.0697 67.5735C28.7363 67.6102 27.903 68.4069 27.903 73.6702V194.734C27.903 203.64 27.8797 212.544 27.903 221.45C27.903 224.904 29.1663 226.087 32.6763 226.164C35.8963 226.234 39.1163 226.264 42.343 226.31C42.343 232.274 42.5563 238.24 42.343 244.194C42.1763 248.774 43.3963 252.354 47.8463 254.41C38.7563 254.444 29.6663 254.537 20.5763 254.487C16.763 254.467 13.853 251.52 13.453 247.564C13.353 246.564 13.4197 245.537 13.4197 244.52C13.4197 207.231 13.4197 169.939 13.4197 132.644C13.4197 131.29 13.363 129.94 13.333 128.59C13.3663 105.701 13.3997 82.8124 13.433 59.9235C13.433 54.1969 14.193 53.4302 19.8997 53.4435C28.0775 53.4613 36.253 53.4902 44.4263 53.5302Z" fill="black"/>
<path d="M294.094 87.0003C298.577 95.4203 303.497 103.594 308.577 111.667C311.952 117.518 315.332 123.37 318.717 129.224L303.734 129.19C303.79 128.3 303.877 127.424 303.374 126.58C301.407 123.3 299.484 119.997 297.537 116.707C292.44 108.09 287.274 99.517 282.3 90.837C281.07 88.6936 280.864 86.3369 283.724 84.8369C285.937 83.6769 288.057 82.3703 290.234 81.127L294.094 87.0003Z" fill="black"/>
<path d="M47.8505 254.411C43.4005 252.354 42.1838 248.774 42.3471 244.194C42.5671 238.241 42.3705 232.274 42.3471 226.311L58.3038 226.034C58.9938 226.061 59.6838 226.114 60.3738 226.114H288.56C289.02 226.114 289.484 226.094 289.944 226.114C292.817 226.234 294.227 224.934 294.18 222.078C294.127 218.921 294.157 215.744 294.154 212.601L305.187 212.404L309.247 214.451C308.29 215.521 308.68 216.821 308.677 218.021C308.644 227.494 308.677 236.964 308.65 246.438C308.65 251.788 305.83 254.508 300.317 254.511C264.15 254.524 227.984 254.524 191.817 254.511H132.2C105.465 254.511 78.7305 254.503 51.9971 254.488C50.6138 254.511 49.2338 254.448 47.8505 254.411ZM268.217 235.574C265.52 235.554 263.134 237.784 263.017 240.428C262.894 243.194 265.304 245.674 268.14 245.698C270.977 245.721 273.424 243.268 273.344 240.504C273.27 237.861 270.917 235.598 268.217 235.574V235.574ZM292.02 240.668C292.02 238.034 289.747 235.701 287.04 235.594C284.214 235.484 281.687 237.854 281.68 240.628C281.68 243.264 283.957 245.598 286.657 245.704C289.474 245.804 292 243.424 292.02 240.668Z" fill="black"/>
<path d="M249.924 306.456C248.89 306.503 247.857 306.596 246.827 306.596C201.849 306.596 156.874 306.596 111.9 306.596C110.867 306.596 109.834 306.513 108.8 306.469C108.8 304.103 108.97 301.716 108.754 299.369C108.01 291.333 111.624 286.036 119.087 283.036L132.187 282.939H191.804C206.166 282.939 220.529 282.939 234.894 282.939C244.204 282.939 249.817 288.503 249.847 297.673C249.867 300.606 249.9 303.529 249.924 306.456Z" fill="black"/>
<path d="M191.813 282.94H132.196V254.533H191.813V282.94Z" fill="black"/>
<path d="M119.097 283.027C111.624 286.027 108.01 291.333 108.764 299.36C108.98 301.693 108.807 304.093 108.81 306.46L86.667 306.667L74.127 306.37C74.157 302.773 74.127 299.173 74.2303 295.576C74.417 288.95 80.3036 283.047 87.0636 282.983C97.7336 282.883 108.417 283 119.097 283.027Z" fill="black"/>
<path d="M294.154 212.599C294.154 215.759 294.127 218.932 294.18 222.076C294.227 224.932 292.817 226.232 289.944 226.112C289.484 226.092 289.02 226.112 288.56 226.112H60.3803C59.6903 226.112 59.0003 226.059 58.3103 226.032C56.8703 223.772 56.8203 221.276 56.9003 218.719C56.987 216.052 56.9336 213.402 56.9403 210.742C63.9403 210.692 70.917 210.596 77.907 210.612C80.657 210.612 82.547 209.642 83.317 206.946C84.287 203.556 81.687 200.516 77.547 200.452C70.6703 200.346 63.7936 200.382 56.917 200.362C56.917 197.44 56.917 194.517 56.917 191.592C63.457 191.549 70.0003 191.556 76.5403 191.449C81.5603 191.366 84.4136 188.569 84.4836 183.656C84.5636 178.036 84.5636 172.417 84.4836 166.799C84.4103 161.846 81.5536 159.112 76.5436 159.062C70.0036 158.999 63.4603 158.982 56.9203 158.942C56.9203 153.582 56.9203 148.222 56.9203 142.862C63.707 142.836 70.4903 142.826 77.2736 142.772C81.1803 142.742 83.2403 141.032 83.317 137.842C83.4003 134.359 81.4703 132.666 77.277 132.632C70.4936 132.579 63.7103 132.562 56.9236 132.532C56.9236 129.575 56.9314 126.62 56.947 123.669C63.6136 123.642 70.3003 123.759 76.967 123.539C81.8336 123.382 84.477 120.476 84.5303 115.666C84.597 110.028 84.597 104.392 84.5303 98.7591C84.4703 93.8191 81.6736 90.9925 76.6036 90.8825C70.047 90.7425 63.4836 90.7791 56.937 90.7391C56.937 85.9525 56.9103 81.1658 56.937 76.3791C56.937 73.4191 56.4903 70.3791 58.3203 67.6958C60.3936 67.6691 62.467 67.6191 64.5403 67.6191H287.54C293.874 67.6191 294.184 67.9058 294.17 74.1125C294.17 78.3991 294.124 82.6891 294.097 86.9758L290.234 81.1225C288.974 78.0291 286.75 77.8825 284.127 79.2958C281.414 80.7591 278.757 82.3258 276.074 83.8425C271.327 86.5091 271.074 87.4658 273.74 92.0358C280.851 104.229 287.955 116.424 295.05 128.619L294.44 129.229C276.643 128.949 258.847 128.949 241.054 129.229C240.617 127.679 241.83 126.696 242.48 125.582C249.165 114.149 255.894 102.732 262.667 91.3325C263.907 89.2391 264.744 87.0891 262.294 85.3491C260.557 84.1125 258.784 82.8058 256.567 82.4058C250.434 76.8291 247.997 77.1025 244.047 83.8091C243.647 84.4758 243.234 85.1658 242.834 85.8491C234.509 100.071 226.185 114.299 217.86 128.532C210.067 128.596 202.27 128.642 194.477 128.736C190.637 128.786 189.28 130.069 189.21 133.792C189.147 137.159 189.12 140.529 189.23 143.896C189.32 146.679 190.807 148.229 193.8 148.199C196.32 148.172 198.844 148.222 201.367 148.239C205.41 167.812 209.404 187.399 213.544 206.952C214.294 210.496 217.114 212.476 220.83 212.496C228.427 212.539 236.024 212.462 243.624 212.432C244.424 212.452 245.224 212.492 246.024 212.492C262.064 212.535 278.107 212.57 294.154 212.599ZM117.04 123.632C119.56 123.632 122.087 123.762 124.59 123.572C129.72 123.189 132.23 120.512 132.277 115.492C132.33 109.99 132.33 104.488 132.277 98.9858C132.227 93.8558 129.494 91.0958 124.26 90.8758C121.86 90.7725 119.454 90.8591 117.047 90.8758C113.604 90.8425 110.157 90.6958 106.714 90.8025C101.897 90.9525 99.097 93.7525 99.0236 98.4691C98.9336 104.199 98.9436 109.936 99.0236 115.669C99.0836 120.779 101.85 123.566 107.067 123.719C110.384 123.816 113.714 123.666 117.04 123.632ZM164.79 123.632C167.307 123.632 169.83 123.706 172.34 123.566C177.24 123.296 179.934 120.589 180.007 115.839C180.08 110.117 180.08 104.391 180.007 98.6625C179.95 93.9258 177.21 91.1625 172.364 90.9225C169.85 90.7958 167.327 90.8858 164.807 90.8758C161.36 90.8358 157.907 90.6858 154.474 90.7825C149.664 90.9225 146.84 93.7491 146.774 98.4491C146.691 104.307 146.691 110.164 146.774 116.019C146.84 120.712 149.644 123.542 154.474 123.719C157.887 123.846 161.334 123.666 164.79 123.622V123.632ZM99.0003 175.146C99.0003 178.416 98.877 181.692 99.0336 184.952C99.2136 188.762 102.034 191.496 105.934 191.556C112.267 191.652 118.6 191.639 124.934 191.482C129.217 191.376 132.124 188.576 132.224 184.419C132.37 178.219 132.37 172.017 132.224 165.812C132.137 162.119 129.377 159.192 125.767 159.079C119.1 158.872 112.407 158.822 105.734 158.979C101.644 159.072 99.187 161.666 99.0003 165.666C98.8803 168.826 99.0003 171.999 99.0003 175.146ZM146.744 175.106H146.794C146.794 178.372 146.684 181.642 146.82 184.902C146.98 188.689 149.804 191.459 153.68 191.522C160.014 191.622 166.347 191.626 172.68 191.482C176.964 191.386 179.88 188.589 179.98 184.449C180.127 178.256 180.127 172.059 179.98 165.859C179.887 162.016 177.06 159.156 173.244 159.052C166.804 158.879 160.354 158.829 153.91 158.969C149.297 159.069 146.884 161.702 146.767 166.302C146.667 169.242 146.73 172.176 146.73 175.106H146.744ZM163.41 132.646C160.077 132.646 156.744 132.592 153.41 132.646C149.967 132.716 147.677 134.766 147.657 137.646C147.637 140.526 149.914 142.699 153.347 142.739C160.014 142.812 166.68 142.812 173.347 142.739C176.68 142.709 179.127 140.486 179.154 137.706C179.18 134.926 176.73 132.706 173.41 132.626C170.09 132.546 166.734 132.646 163.4 132.646H163.41ZM115.607 132.646C112.164 132.646 108.714 132.566 105.274 132.672C102.14 132.766 99.8103 135.056 99.9136 137.699C100.024 140.576 102.117 142.699 105.3 142.752C112.189 142.857 119.078 142.857 125.967 142.752C129.03 142.712 131.274 140.419 131.34 137.656C131.407 134.989 129.074 132.746 125.94 132.656C122.49 132.579 119.044 132.666 115.597 132.666L115.607 132.646ZM115.607 210.586C119.054 210.586 122.497 210.532 125.94 210.586C129.2 210.649 130.797 208.849 131.33 206.006C131.764 203.672 129.494 200.692 126.717 200.602C119.384 200.362 112.027 200.366 104.694 200.602C101.89 200.689 99.777 203.492 99.9136 205.936C100.064 208.602 102.4 210.536 105.617 210.582C108.934 210.629 112.264 210.589 115.594 210.589L115.607 210.586ZM163.327 210.586C166.77 210.586 170.217 210.532 173.66 210.586C176.914 210.649 178.52 208.862 179.054 206.012C179.49 203.679 177.224 200.699 174.45 200.606C167.117 200.366 159.775 200.366 152.424 200.606C149.627 200.692 147.504 203.496 147.637 205.939C147.78 208.586 150.127 210.546 153.337 210.606C156.667 210.629 160 210.589 163.314 210.589L163.327 210.586Z" fill="black"/>
<path d="M294.153 212.6C278.106 212.571 262.06 212.539 246.013 212.504C245.213 212.504 244.413 212.464 243.613 212.444C242.17 210.374 240.056 208.737 239.64 206.014C239.236 203.367 238.676 200.737 238.096 198.117C236.51 190.954 235.43 183.677 233.213 176.65C232.096 175.51 232.366 174.03 232.713 172.85C233.56 169.977 233.12 167.09 233.233 164.214C233.336 161.597 232.516 159.45 229.803 158.4L227.713 148.24L334.646 148.28L330.816 166.034C325.426 163.917 319.893 163.144 314.15 164.34C314.04 159.674 312.753 158.34 308.433 158.39C304.31 158.444 303.1 159.774 303.1 164.274C303.1 165.94 303.123 167.607 303.136 169.274C298.675 173.083 295.352 178.05 293.533 183.627C293.495 176.658 293.458 169.689 293.423 162.72C293.423 159.82 291.906 158.387 288.953 158.387C286.163 158.387 283.213 158.677 283.123 162.097C282.896 170.634 283.043 179.184 283.05 187.727C283.05 189.414 283.87 190.694 285.59 190.78C287.956 190.9 290.41 191.397 292.69 190.21C293.356 199.497 297.45 206.927 305.183 212.4L294.153 212.6ZM253.31 175.204C253.31 171.257 253.366 167.31 253.29 163.367C253.223 159.797 251.623 158.41 247.856 158.39C244.09 158.37 242.31 159.744 242.276 163.214C242.196 170.991 242.196 178.769 242.276 186.547C242.313 190.354 243.176 190.907 248.226 190.88C252.42 190.88 253.243 190.177 253.303 186.354C253.353 182.644 253.31 178.924 253.31 175.204ZM273.366 175.144C273.366 171.207 273.236 167.264 273.406 163.334C273.543 160.194 271.973 158.76 269.05 158.414C265.023 157.937 262.626 159.14 262.503 162.494C262.203 170.69 262.22 178.91 262.443 187.11C262.53 190.3 264.826 191.154 269.893 190.914C273.166 190.757 273.426 188.747 273.383 186.277C273.333 182.567 273.366 178.854 273.366 175.144V175.144Z" fill="black"/>
<path d="M227.713 148.241L229.803 158.401C222.366 158.454 222.187 158.634 222.187 166.067C222.187 172.687 222.167 179.307 222.187 185.927C222.207 190.164 222.963 190.901 227.107 190.927C231.8 190.954 233.107 189.861 233.197 185.744C233.253 182.717 233.197 179.687 233.197 176.657C235.413 183.684 236.493 190.961 238.08 198.124C238.66 200.744 239.22 203.374 239.623 206.021C240.04 208.744 242.153 210.381 243.596 212.451C235.996 212.481 228.4 212.557 220.803 212.514C217.086 212.494 214.267 210.514 213.517 206.971C209.377 187.417 205.383 167.831 201.34 148.257L220.153 148.164L227.713 148.241Z" fill="black"/>
<path d="M220.17 148.156L201.356 148.25C198.833 148.233 196.31 148.183 193.79 148.21C190.79 148.24 189.31 146.69 189.22 143.906C189.11 140.54 189.136 137.17 189.2 133.803C189.27 130.093 190.626 128.803 194.466 128.746C202.26 128.653 210.056 128.606 217.85 128.543C218.64 128.633 219.516 128.433 220.103 129.21C219.569 129.848 219.17 130.588 218.931 131.385C218.693 132.182 218.62 133.02 218.716 133.846C219.203 138.613 217.526 143.593 220.17 148.156Z" fill="black"/>
<path d="M256.556 82.416C258.773 82.816 260.556 84.1227 262.283 85.3593C264.733 87.0993 263.896 89.2493 262.656 91.3427C255.912 102.747 249.182 114.16 242.466 125.583C241.816 126.696 240.603 127.679 241.04 129.229L228.333 129.153C228.545 128.514 228.802 127.891 229.103 127.289C236.016 115.519 242.836 103.693 249.95 92.0327C251.97 88.7394 253.03 84.7393 256.556 82.416Z" fill="black"/>
<path d="M256.556 82.4172C253.03 84.7506 251.97 88.7506 249.96 92.0339C242.846 103.701 236.026 115.521 229.113 127.291C228.812 127.892 228.555 128.515 228.343 129.154L220.103 129.204C219.52 128.434 218.64 128.634 217.85 128.537C226.174 114.315 234.498 100.093 242.823 85.8706C243.223 85.2039 243.636 84.5106 244.036 83.8306C248 77.1139 250.423 76.8406 256.556 82.4172Z" fill="black"/>
<path d="M295.036 128.62C287.925 116.427 280.822 104.233 273.726 92.0371C271.06 87.4671 271.326 86.5271 276.06 83.8438C278.726 82.3271 281.393 80.7604 284.113 79.2971C286.736 77.8838 288.96 78.0304 290.22 81.1238C288.053 82.3671 285.923 83.6738 283.71 84.8338C280.85 86.3371 281.043 88.6938 282.286 90.8338C287.26 99.5004 292.426 108.087 297.523 116.704C299.47 119.994 301.393 123.297 303.36 126.577C303.863 127.42 303.776 128.297 303.72 129.187L295.55 129.067L295.036 128.62Z" fill="black"/>
<path d="M295.037 128.619L295.563 129.069L294.427 129.229L295.037 128.619Z" fill="black"/>
<path d="M314.154 164.334C319.894 163.137 325.427 163.91 330.82 166.027C330.9 166.152 330.951 166.293 330.967 166.44C327.007 167.184 324.4 170.107 321.3 172.224C316.53 172.094 314.794 173.68 314.714 178.267C314.641 179.622 314.648 180.98 314.734 182.334C314.934 184.334 314.24 185.18 312.067 185.06C309.895 184.905 307.712 184.988 305.557 185.307C302.81 185.767 301.434 187.66 301.557 190.387C301.68 193.114 303.24 194.72 306.03 195.054C306.83 195.132 307.634 195.162 308.437 195.144C314.657 195.197 314.657 195.194 314.704 201.38C314.75 207 316.704 208.58 322.404 207.667C322.924 210.51 325.76 211.06 327.567 212.62C328.31 213.264 329.474 213.397 330.02 214.35C323.11 217.42 316.184 216.88 309.244 214.45L305.184 212.404C297.45 206.93 293.35 199.5 292.69 190.214C292.97 188.02 293.252 185.829 293.534 183.64C295.353 178.063 298.676 173.096 303.137 169.287C306.564 167.107 310.154 165.287 314.154 164.334Z" fill="black"/>
<path d="M322.407 207.668C316.69 208.581 314.74 207.001 314.707 201.381C314.66 195.194 314.66 195.198 308.44 195.144C307.637 195.163 306.833 195.133 306.034 195.054C303.244 194.701 301.7 193.101 301.56 190.388C301.42 187.674 302.807 185.768 305.56 185.308C307.715 184.989 309.898 184.906 312.07 185.061C314.247 185.181 314.94 184.348 314.737 182.334C314.652 180.988 314.645 179.638 314.717 178.291C314.797 173.704 316.534 172.118 321.304 172.248C325.154 173.854 325.114 177.118 325.104 180.484C325.084 185.661 324.387 184.921 329.587 185.021C331.077 185.051 332.587 184.984 334.044 185.271C336.77 185.804 338.304 187.674 338.167 190.318C338.027 193.088 336.354 194.864 333.354 195.108C332.667 195.161 331.974 195.151 331.287 195.158C325.117 195.211 325.034 195.211 325.11 201.101C325.144 203.724 324.544 205.958 322.407 207.668Z" fill="black"/>
<path d="M56.9404 210.744C56.9404 213.411 56.9871 216.077 56.9004 218.721C56.8204 221.277 56.8704 223.774 58.3104 226.034L42.3538 226.311C39.1304 226.264 35.9104 226.234 32.6871 226.164C29.1771 226.088 27.9304 224.904 27.9138 221.451C27.8771 212.544 27.9138 203.641 27.9138 194.734V73.6675C27.9138 68.4042 28.7371 67.6075 34.0804 67.5708C36.8438 67.5508 39.6038 67.4842 42.3638 67.4375L58.3204 67.7075C56.4904 70.3908 56.9504 73.4308 56.9371 76.3908C56.9171 81.1775 56.9371 85.9642 56.9371 90.7508C52.8271 92.3508 50.9571 95.2075 51.1538 99.6375C51.3771 104.694 51.3638 109.774 51.1538 114.834C50.9704 119.248 52.7671 122.151 56.9571 123.681C56.9571 126.634 56.9493 129.589 56.9338 132.544C54.2671 133.211 52.2338 134.678 52.2338 137.521C52.2338 140.364 53.9838 142.248 56.9304 142.874C56.9304 148.234 56.9304 153.594 56.9304 158.954C52.9904 160.141 51.1971 162.724 51.2838 166.777C51.3971 172.071 51.5038 177.378 51.2504 182.664C51.0371 187.088 52.7038 190.041 56.9171 191.604C56.9171 194.526 56.9171 197.45 56.9171 200.374C54.2704 201.298 52.1271 202.861 52.2504 205.811C52.3338 208.534 54.1371 210.227 56.9404 210.744Z" fill="black"/>
<path d="M268.216 235.572C270.916 235.596 273.27 237.859 273.343 240.502C273.423 243.266 270.963 245.719 268.14 245.696C265.316 245.672 262.893 243.192 263.016 240.426C263.133 237.782 265.52 235.552 268.216 235.572Z" fill="black"/>
<path d="M292.02 240.667C292.02 243.437 289.473 245.817 286.657 245.704C283.957 245.597 281.657 243.264 281.68 240.627C281.68 237.854 284.213 235.484 287.04 235.594C289.747 235.687 292.033 238.02 292.02 240.667Z" fill="black"/>
<path d="M56.9564 123.684C52.7664 122.154 50.9564 119.251 51.1531 114.837C51.3598 109.777 51.3731 104.697 51.1531 99.6406C50.9564 95.2106 52.8197 92.3539 56.9364 90.7539C63.4964 90.7939 70.0597 90.7539 76.6031 90.8972C81.6731 91.0072 84.4697 93.8339 84.5297 98.7739C84.5986 104.407 84.5986 110.043 84.5297 115.681C84.4764 120.491 81.8331 123.397 76.9664 123.554C70.3097 123.774 63.6297 123.667 56.9564 123.684Z" fill="black"/>
<path d="M99.0004 175.147C99.0004 171.991 98.8937 168.814 99.027 165.677C99.2004 161.677 101.657 159.074 105.747 158.981C112.414 158.824 119.107 158.874 125.78 159.081C129.39 159.194 132.15 162.121 132.237 165.814C132.388 172.014 132.388 178.216 132.237 184.421C132.137 188.577 129.237 191.377 124.947 191.484C118.614 191.641 112.28 191.654 105.947 191.557C102.044 191.497 99.227 188.764 99.047 184.954C98.8904 181.694 99.0137 178.417 99.0137 175.147H99.0004Z" fill="black"/>
<path d="M146.73 175.107C146.73 172.177 146.67 169.243 146.73 166.317C146.846 161.703 149.26 159.07 153.873 158.983C160.313 158.843 166.763 158.893 173.206 159.067C177.023 159.17 179.85 162.03 179.943 165.873C180.085 172.067 180.085 178.263 179.943 184.463C179.843 188.603 176.943 191.4 172.643 191.497C166.31 191.64 159.976 191.637 153.643 191.537C149.766 191.473 146.943 188.703 146.783 184.917C146.646 181.657 146.756 178.387 146.756 175.12L146.73 175.107Z" fill="black"/>
<path d="M56.9197 191.607C52.6964 190.044 51.0297 187.09 51.2531 182.667C51.5064 177.38 51.3997 172.074 51.2864 166.78C51.1997 162.727 52.9931 160.144 56.9331 158.957C63.4731 158.997 70.0164 159.014 76.5564 159.077C81.5564 159.127 84.4231 161.86 84.4964 166.814C84.5808 172.429 84.5808 178.048 84.4964 183.67C84.4264 188.584 81.5731 191.38 76.5531 191.464C69.9997 191.57 63.4597 191.564 56.9197 191.607Z" fill="black"/>
<path d="M164.794 90.8667C167.314 90.8667 169.837 90.7867 172.35 90.9134C177.197 91.1534 179.937 93.9134 179.993 98.6534C180.065 104.38 180.065 110.106 179.993 115.83C179.933 120.58 177.24 123.287 172.327 123.557C169.817 123.697 167.294 123.61 164.777 123.623C161.227 120.603 160.174 116.77 160.584 112.273C160.819 109.261 160.819 106.235 160.584 103.223C160.307 98.5101 160.78 94.1401 164.794 90.8667Z" fill="black"/>
<path d="M117.047 90.8642C119.454 90.8642 121.86 90.7742 124.26 90.8642C129.494 91.0842 132.227 93.8442 132.277 98.9742C132.33 104.474 132.33 109.976 132.277 115.481C132.23 120.501 129.72 123.178 124.59 123.561C122.087 123.751 119.56 123.611 117.04 123.621C113.667 120.668 112.444 117.001 112.877 112.588C113.17 109.588 113.04 106.541 112.91 103.521C112.7 98.7776 112.697 94.1542 117.047 90.8642Z" fill="black"/>
<path d="M164.793 90.866C160.793 94.1394 160.306 98.5094 160.613 103.223C160.848 106.235 160.848 109.261 160.613 112.273C160.203 116.769 161.256 120.606 164.806 123.623C161.356 123.666 157.903 123.846 154.473 123.723C149.643 123.546 146.84 120.723 146.773 116.023C146.693 110.167 146.693 104.31 146.773 98.4527C146.84 93.7394 149.663 90.9127 154.473 90.786C157.893 90.666 161.333 90.826 164.793 90.866Z" fill="black"/>
<path d="M117.047 90.8635C112.697 94.1535 112.713 98.7769 112.91 103.53C113.04 106.55 113.17 109.6 112.877 112.597C112.443 117 113.667 120.667 117.04 123.634C113.707 123.67 110.373 123.817 107.057 123.717C101.84 123.564 99.0732 120.777 99.0132 115.667C98.9499 109.934 98.9399 104.197 99.0132 98.4669C99.0866 93.7402 101.887 90.9402 106.703 90.8002C110.157 90.6835 113.603 90.8302 117.047 90.8635Z" fill="black"/>
<path d="M163.4 132.647C166.733 132.647 170.067 132.593 173.4 132.647C176.733 132.7 179.167 134.943 179.143 137.727C179.12 140.51 176.667 142.727 173.337 142.76C166.67 142.825 160.003 142.825 153.337 142.76C149.903 142.72 147.623 140.57 147.647 137.667C147.67 134.763 149.957 132.72 153.4 132.667C156.73 132.593 160.067 132.647 163.4 132.647Z" fill="black"/>
<path d="M115.597 132.667C119.044 132.667 122.49 132.597 125.93 132.687C129.064 132.77 131.397 135.02 131.33 137.687C131.264 140.46 129.02 142.743 125.957 142.783C119.068 142.874 112.179 142.874 105.29 142.783C102.107 142.737 100.014 140.607 99.9037 137.73C99.8004 135.087 102.13 132.797 105.264 132.703C108.704 132.57 112.154 132.667 115.597 132.667Z" fill="black"/>
<path d="M115.593 210.591C112.26 210.591 108.927 210.631 105.593 210.591C102.377 210.544 100.04 208.591 99.8901 205.944C99.7534 203.511 101.867 200.707 104.67 200.611C112.003 200.384 119.36 200.381 126.693 200.611C129.47 200.701 131.74 203.691 131.307 206.014C130.773 208.857 129.177 210.657 125.917 210.594C122.483 210.537 119.04 210.591 115.593 210.591Z" fill="black"/>
<path d="M163.313 210.59C159.98 210.59 156.647 210.63 153.313 210.59C150.103 210.544 147.757 208.59 147.613 205.924C147.48 203.494 149.613 200.69 152.4 200.59C159.733 200.368 167.076 200.368 174.427 200.59C177.2 200.684 179.467 203.677 179.03 205.997C178.497 208.847 176.89 210.634 173.637 210.57C170.203 210.537 166.757 210.59 163.313 210.59Z" fill="black"/>
<path d="M56.9397 210.744C54.1363 210.227 52.3396 208.534 52.2396 205.814C52.1263 202.864 54.2696 201.3 56.9063 200.377C63.783 200.397 70.6597 200.377 77.5363 200.467C81.6763 200.53 84.2763 203.57 83.3063 206.96C82.5363 209.627 80.6397 210.627 77.8963 210.627C70.9163 210.597 63.9263 210.694 56.9397 210.744Z" fill="black"/>
<path d="M56.9301 142.877C53.9834 142.25 52.2301 140.414 52.2334 137.524C52.2367 134.634 54.2534 133.19 56.9334 132.547C63.7201 132.577 70.5034 132.594 77.2867 132.647C81.4801 132.68 83.4101 134.374 83.3267 137.857C83.2501 141.047 81.1901 142.757 77.2834 142.787C70.5001 142.84 63.7167 142.85 56.9301 142.877Z" fill="black"/>
<path d="M253.31 175.203C253.31 178.923 253.353 182.643 253.31 186.36C253.25 190.183 252.426 190.873 248.233 190.887C243.183 190.907 242.32 190.353 242.283 186.553C242.214 178.776 242.214 170.998 242.283 163.22C242.316 159.75 244.036 158.377 247.863 158.397C251.69 158.417 253.23 159.803 253.296 163.373C253.366 167.31 253.31 171.257 253.31 175.203Z" fill="black"/>
<path d="M273.366 175.143C273.366 178.853 273.316 182.566 273.366 186.276C273.41 188.746 273.15 190.756 269.876 190.913C264.81 191.153 262.513 190.299 262.426 187.109C262.203 178.909 262.186 170.689 262.486 162.493C262.61 159.139 265.006 157.936 269.033 158.413C271.956 158.746 273.526 160.193 273.39 163.333C273.236 167.263 273.366 171.206 273.366 175.143Z" fill="black"/>
<path d="M233.213 176.667C233.213 179.697 233.26 182.727 233.213 185.753C233.133 189.87 231.817 190.963 227.123 190.937C222.98 190.91 222.223 190.173 222.203 185.937C222.177 179.317 222.203 172.697 222.203 166.077C222.203 158.65 222.383 158.47 229.82 158.41C232.533 159.46 233.353 161.607 233.25 164.223C233.137 167.1 233.583 169.987 232.73 172.86C232.367 174.03 232.097 175.51 233.213 176.667Z" fill="black"/>
<path d="M293.537 183.639C293.257 185.83 292.976 188.021 292.694 190.212C290.414 191.399 287.96 190.902 285.594 190.782C283.874 190.696 283.054 189.416 283.054 187.729C283.054 179.186 282.9 170.636 283.127 162.099C283.217 158.679 286.167 158.376 288.957 158.389C291.91 158.389 293.414 159.832 293.427 162.722C293.467 169.7 293.504 176.672 293.537 183.639Z" fill="black"/>
<path d="M314.154 164.333C310.154 165.28 306.564 167.1 303.154 169.28C303.154 167.613 303.117 165.947 303.117 164.28C303.117 159.78 304.327 158.45 308.451 158.397C312.757 158.333 314.044 159.667 314.154 164.333Z" fill="black"/>
</svg>