<?xml version="1.0" ?><svg xmlns="http://www.w3.org/2000/svg" fill="none" viewBox="31 20 298.34 320">
<path d="M214.091 53.9053H64.9057C46.2101 53.9053 31 69.1153 31 87.8109V264.12C31 282.816 46.2101 298.026 64.9057 298.026H214.091C232.786 298.026 247.996 282.816 247.996 264.12V87.8109C247.996 69.1153 232.786 53.9053 214.091 53.9053Z" fill="black"/>
<path d="M173.404 20H105.592C94.3764 20 85.249 29.1274 85.249 40.3434V60.68C85.249 64.43 88.287 67.4611 92.0302 67.4611H186.966C190.709 67.4611 193.747 64.43 193.747 60.68V40.3434C193.747 29.1274 184.62 20 173.404 20Z" fill="black"/>
<path d="M58.1245 53.9053V250.558C58.1245 254.308 61.1625 257.339 64.9056 257.339H214.09C217.834 257.339 220.872 254.308 220.872 250.558V53.9053H58.1245Z" fill="black"/>
<path d="M173.403 142.06H105.592C101.849 142.06 98.811 139.029 98.811 135.279C98.811 131.529 101.849 128.498 105.592 128.498H173.403C177.147 128.498 180.185 131.529 180.185 135.279C180.185 139.029 177.147 142.06 173.403 142.06Z" fill="black"/>
<path d="M173.403 182.748H105.592C101.849 182.748 98.811 179.717 98.811 175.967C98.811 172.217 101.849 169.186 105.592 169.186H173.403C177.147 169.186 180.185 172.217 180.185 175.967C180.185 179.717 177.147 182.748 173.403 182.748Z" fill="black"/>
<path d="M173.403 223.434H105.592C101.849 223.434 98.811 220.403 98.811 216.653C98.811 212.903 101.849 209.872 105.592 209.872H173.403C177.147 209.872 180.185 212.903 180.185 216.653C180.185 220.403 177.147 223.434 173.403 223.434Z" fill="black"/>
<path d="M166.622 81.0298H112.373V53.9053H98.811V87.8109C98.811 91.5609 101.849 94.5921 105.592 94.5921H173.403C177.147 94.5921 180.185 91.5609 180.185 87.8109V53.9053H166.622V81.0298Z" fill="black"/>
<path d="M312.271 176.163H182.566C173.156 176.163 165.5 183.819 165.5 193.229V322.934C165.5 332.344 173.156 340 182.566 340H312.271C321.681 340 329.337 332.344 329.337 322.934V193.229C329.337 183.819 321.681 176.163 312.271 176.163Z" fill="black"/>
<path d="M329.337 193.229C329.337 183.819 321.681 176.163 312.271 176.163H182.566C173.156 176.163 165.5 183.819 165.5 193.229V223.949H329.337V193.229Z" fill="black"/>
<path d="M226.939 176.163V247.842C226.939 248.975 227.502 250.033 228.437 250.668C229.376 251.303 230.564 251.429 231.619 251.013L247.419 244.691L263.215 251.013C263.625 251.177 264.055 251.255 264.485 251.255C265.157 251.255 265.826 251.054 266.396 250.668C267.335 250.033 267.898 248.975 267.898 247.842V176.163H226.939Z" fill="black"/>
<path d="M312.271 176.163H291.791C301.215 176.163 308.857 183.802 308.857 193.229V223.949H329.337V193.229C329.337 183.819 321.681 176.163 312.271 176.163Z" fill="black"/>
</svg>