<?xml version="1.0" ?><svg xmlns="http://www.w3.org/2000/svg" fill="none" viewBox="20 44.99 320 270.01">
<path d="M252.58 44.9997C256.486 47.333 257.116 49.2497 255.273 53.4163C250.71 63.7263 246.126 74.0263 241.353 84.7697C238.943 81.563 236.623 78.7063 234.573 75.6663C233.31 73.7963 232.49 73.4397 230.476 74.9763C220.036 82.9463 209.45 90.7197 198.913 98.563C193.85 102.33 190.81 102.163 186.08 97.9497C181.83 94.1597 177.476 90.4797 173.283 86.6163C171.986 85.4197 171.176 85.5997 169.88 86.5697C150.673 100.921 131.451 115.241 112.213 129.53C109.61 131.466 107.03 133.433 104.403 135.336C101.17 137.67 97.7363 137.71 94.4996 135.336C89.8329 131.93 85.1662 128.503 80.6229 124.956C79.2896 123.913 78.4563 124.026 77.1529 125C61.8885 136.453 46.5963 147.857 31.2763 159.213C28.1029 161.566 28.8863 161.256 26.8363 158.633C24.7863 156.01 22.8362 153.143 20.6829 150.51C19.6062 149.176 19.8329 148.553 21.1496 147.576C37.3718 135.576 53.5629 123.534 69.7229 111.45C71.0563 110.45 72.3896 109.45 73.7229 108.486C77.4763 105.796 80.3896 105.79 84.1763 108.556C88.6463 111.826 93.1263 115.086 97.4829 118.503C98.9363 119.646 99.8796 119.646 101.35 118.55C122.894 102.436 144.466 86.3563 166.066 70.3097C170.826 66.763 173.883 66.8463 178.326 70.7297C182.77 74.613 187.3 78.4997 191.703 82.473C192.813 83.473 193.513 83.4897 194.703 82.593C203.747 75.7908 212.828 69.0397 221.946 62.3397C223.343 61.3163 223.28 60.5897 222.28 59.3397C220.246 56.8197 218.356 54.183 216.43 51.5797C215.046 49.7097 215.136 49.5797 217.4 49.283C227.217 48.0274 237.031 46.7585 246.84 45.4763C247.23 45.4263 247.636 45.423 247.84 44.9863L252.58 44.9997Z" fill="black"/>
<path d="M335.157 233.209C324.824 209.036 298.32 194.612 272.247 198.842C264.72 200.066 257.787 202.796 251.114 206.329C247.087 209.226 242.954 211.996 239.5 215.602C229.914 225.632 224.334 237.429 223 251.296C221.74 264.409 224.957 276.362 231.59 287.569C231.78 287.819 231.984 288.062 232.157 288.326C247.057 310.812 274.427 320.356 300.097 312.016C332.584 301.456 348.784 265.056 335.157 233.209ZM281.767 220.332H280.744C281.084 220.306 281.427 220.306 281.767 220.332V220.332Z" fill="black"/>
<path d="M302.237 220.333C301.897 220.306 301.554 220.306 301.214 220.333H302.237Z" fill="black"/>
<path d="M251.114 206.334C247.087 209.23 242.954 212 239.501 215.607C229.914 225.634 224.334 237.43 223.001 251.297C221.741 264.41 224.957 276.364 231.591 287.57C222.951 287.57 214.311 287.61 205.671 287.604C199.817 287.604 195.297 283.27 195.037 277.42C195.004 276.714 195.037 276 195.037 275.29V129.934C195.037 121.734 199.227 117.51 207.434 117.557C218.367 117.617 229.301 117.744 240.234 117.854C246.901 117.92 251.104 122.16 251.114 128.917C251.134 143.75 251.134 158.586 251.114 173.424C251.11 184.39 251.11 195.36 251.114 206.334Z" fill="black"/>
<path d="M175.137 220.614C175.137 239.011 174.941 257.407 175.231 275.801C175.358 283.827 169.491 287.841 163.331 287.677C152.234 287.384 141.128 287.631 130.024 287.631C123.691 287.631 119.288 283.237 119.284 276.921C119.284 239.338 119.284 201.756 119.284 164.174C119.284 157.904 123.474 153.477 129.731 153.437C141.549 153.364 153.365 153.389 165.181 153.514C170.994 153.567 175.114 158.064 175.124 164.241C175.158 183.032 175.162 201.823 175.137 220.614Z" fill="black"/>
<path d="M43.504 238.303C43.504 225.752 43.504 213.202 43.504 200.653C43.504 193.087 47.644 188.987 55.2607 189.01C66.2807 189.028 77.3007 189.057 88.3207 189.097C94.9873 189.12 99.3407 193.43 99.344 200.063C99.3573 225.639 99.3573 251.213 99.344 276.787C99.344 283.297 95.0107 287.567 88.4307 287.587C77.0151 287.615 65.5985 287.632 54.1807 287.637C47.8907 287.637 43.5573 283.457 43.514 277.137C43.4607 264.193 43.5073 251.247 43.504 238.303Z" fill="black"/>
<path d="M157.666 287.574C159.549 287.597 161.433 287.627 163.333 287.677C164.113 287.698 164.894 287.651 165.666 287.537C162.999 287.542 160.333 287.554 157.666 287.574Z" fill="black"/>
<path d="M274.691 275.384C274.691 272.067 274.594 268.747 274.724 265.437C274.794 263.684 274.281 263.137 272.477 263.164C265.662 263.266 258.843 263.266 252.021 263.164C246.537 263.081 243.371 258.101 245.767 253.497C247.101 250.924 249.357 249.831 252.207 249.831C258.874 249.831 265.541 249.751 272.187 249.877C274.211 249.914 274.707 249.281 274.671 247.347C274.557 240.717 274.571 234.084 274.651 227.454C274.717 221.814 280.031 218.561 284.711 221.227C287.264 222.681 288.074 225.054 288.067 227.837C288.051 234.231 288.204 240.631 287.994 247.017C287.907 249.547 288.764 249.991 291.057 249.941C297.634 249.797 304.217 249.844 310.797 249.914C314.287 249.951 316.464 251.617 317.401 254.651C318.244 257.411 317.271 260.207 314.864 261.961C313.444 262.994 311.817 263.194 310.124 263.191C303.541 263.191 296.961 263.261 290.381 263.144C288.464 263.111 287.994 263.717 288.021 265.547C288.125 272.256 288.131 278.966 288.037 285.677C287.951 291.241 282.854 294.344 278.117 291.857C275.687 290.574 274.737 288.397 274.704 285.784C274.667 282.334 274.691 278.857 274.691 275.384Z" fill="black"/>
</svg>