<?xml version="1.0" ?><svg xmlns="http://www.w3.org/2000/svg" fill="none" viewBox="13.33 13.34 333.34 333.34">
<path d="M127.333 97.3339C127.333 169.298 127.333 241.262 127.333 313.224C127.333 314.631 127.313 316.041 127.299 317.451C125.756 318.117 124.673 318.677 125.566 320.594C126.676 322.977 127.213 325.571 127.829 328.104C129.346 334.314 132.639 340.187 132.673 346.677H59.3725C59.0002 345.321 59.0526 343.883 59.5225 342.557C61.7592 335.557 64.1492 328.587 66.0025 321.514C66.7959 318.491 68.3925 317.754 71.7259 317.847C77.5192 318.007 76.8759 318.481 76.8792 313.637C76.8792 242.893 76.9003 172.149 76.9425 101.407C76.9425 98.5339 76.7725 96.7205 72.4359 96.9872C69.5759 97.1639 68.1959 95.3805 68.7525 92.7939C69.3492 90.0305 70.2392 87.3005 70.1525 84.4605C72.3792 77.1872 73.6625 69.7739 74.7092 62.3272C75.4392 59.2705 76.2725 56.2305 76.8725 53.1572C77.3292 50.8239 78.7992 49.7905 81.5392 49.8239C85.6025 49.8672 89.6659 49.8405 93.7325 49.8239C94.8525 49.8239 96.1892 49.9705 96.1925 48.4905C96.2159 42.0705 96.1925 35.6539 96.1925 28.4272C89.2159 33.0939 83.0359 37.2005 76.8992 41.3505C66.6592 48.2705 56.437 55.205 46.2325 62.1539L27.7559 62.1139C39.3825 54.2339 51.0103 46.3528 62.6392 38.4705C74.3725 30.5239 86.1559 22.6239 97.8759 14.6672C100.119 13.1439 102.383 13.0372 104.976 13.8139C157.276 29.4605 209.58 45.1005 261.889 60.7339C263.189 61.1239 264.429 61.6539 265.699 62.1172L231.113 62.1439C229.963 61.7172 228.839 61.2339 227.659 60.8805C209.946 55.5717 192.228 50.2783 174.506 45.0005C153.315 38.6672 132.13 32.3183 110.953 25.9539C108.146 25.1039 107.559 25.6205 107.619 28.0505C107.789 34.3372 107.646 40.6272 107.706 46.9139C107.706 47.9772 106.979 49.4105 109.009 49.8872C109.126 51.4139 110.293 52.6272 110.586 54.1672C112.179 62.5239 114.326 70.8139 115.609 79.2039C116.466 84.7972 119.139 90.2572 117.789 96.0639C117.456 97.5372 118.819 97.2739 119.723 97.2939C122.256 97.3339 124.789 97.3139 127.333 97.3339ZM88.3525 129.381C88.3525 135.414 88.3636 141.449 88.3859 147.487C88.3859 153.752 88.3859 160.015 88.3859 166.277L88.3459 184.354C88.3459 190.549 88.3459 196.747 88.3459 202.947C88.3592 208.987 88.3714 215.028 88.3825 221.071C88.3825 227.333 88.3825 233.597 88.3825 239.864L88.3492 257.957V276.514L88.3892 294.651C88.3692 299.514 88.2659 304.381 88.3659 309.244C88.4259 312.017 86.9292 315.601 89.0525 317.344C91.1759 319.087 95.3425 317.934 98.5925 317.851C103.343 317.731 108.146 318.544 112.843 317.361C115.149 318.471 115.936 317.774 115.883 315.657C115.793 312.154 115.883 308.657 115.883 305.141L115.763 286.424C115.787 280.424 115.811 274.431 115.836 268.444V249.714L115.866 231.537C115.828 225.315 115.79 219.087 115.753 212.854L115.823 194.871C115.823 188.624 115.828 182.377 115.839 176.131C115.839 170.075 115.848 164.017 115.866 157.957C115.828 151.735 115.79 145.513 115.753 139.291C115.777 133.291 115.798 127.291 115.816 121.291C115.829 114.028 115.841 106.765 115.853 99.5005C115.853 98.3205 116.109 96.9205 113.976 96.9539C106.003 97.0772 98.0125 96.4439 90.0525 97.2872C87.9925 97.4872 88.3859 98.8405 88.3859 99.9539C88.3559 103.567 88.3625 107.181 88.3559 110.791L88.3525 129.381Z" fill="black"/>
<path d="M328.08 336.823C331.483 336.85 334.89 336.943 338.293 336.88C341.433 336.823 344.55 336.88 346.09 339.697C347.696 342.653 345.683 344.753 343.323 346.667H173.103C170.826 344.917 168.593 343.153 169.97 340.127C171.303 337.163 174.18 336.823 177.393 336.88C181.06 336.943 184.696 336.837 188.346 336.807L239.363 336.83L276.92 336.86L311.253 336.807L328.08 336.823Z" fill="black"/>
<path d="M132.666 346.666C132.633 340.176 129.333 334.303 127.823 328.093C127.206 325.559 126.669 322.966 125.559 320.583C124.666 318.666 125.749 318.093 127.293 317.439C131.706 317.536 136.116 317.679 140.529 317.706C142.646 317.706 143.626 318.476 144.149 320.253C146.414 327.953 148.786 335.628 151.266 343.279C151.454 343.833 151.526 344.419 151.477 345.002C151.429 345.584 151.262 346.151 150.986 346.666H132.666Z" fill="black"/>
<path d="M239.364 336.829L188.334 336.806C188.347 298.428 188.354 260.05 188.354 221.672C188.299 219.936 188.544 218.203 189.077 216.549C192.787 215.359 196.674 216.092 200.464 215.789L252.404 215.812L263.821 215.789C265.487 215.789 267.121 215.789 268.771 215.819C272.997 215.912 273.831 216.646 273.857 220.269C273.857 222.326 273.857 224.382 273.857 226.439C273.887 230.239 274.497 230.772 278.917 230.772C289.197 230.799 299.478 230.816 309.761 230.822C310.957 232.042 311.287 233.426 311.287 235.022C311.232 268.945 311.211 302.867 311.224 336.789L276.891 336.842C276.864 325.999 276.761 315.156 276.861 304.312C276.884 301.782 275.981 300.889 272.944 300.929C263.028 301.058 253.111 301.058 243.191 300.929C240.111 300.879 239.311 301.752 239.337 304.286C239.491 315.139 239.387 325.999 239.364 336.829ZM273.937 264.332C273.937 267.476 273.997 270.616 273.917 273.756C273.867 275.702 274.837 276.456 277.107 276.422C284.343 276.36 291.582 276.36 298.824 276.422C301.081 276.439 302.057 275.712 302.037 273.756C301.977 267.689 301.977 261.622 302.037 255.556C302.037 253.619 301.117 252.849 298.844 252.869C291.608 252.929 284.37 252.929 277.127 252.869C274.871 252.849 273.864 253.582 273.917 255.536C274.001 258.479 273.937 261.406 273.937 264.332ZM227.691 276.409C231.357 276.409 235.054 276.336 238.731 276.436C240.941 276.496 241.954 275.946 241.917 273.886C241.804 267.716 241.831 261.552 241.917 255.376C241.941 253.589 241.217 252.862 239.051 252.886C231.817 252.957 224.584 252.957 217.351 252.886C214.974 252.866 214.284 253.789 214.304 255.659C214.371 261.719 214.401 267.782 214.304 273.842C214.267 275.866 215.184 276.509 217.444 276.436C220.834 276.332 224.264 276.409 227.691 276.409Z" fill="black"/>
<path d="M231.114 62.1438L265.701 62.1172C281.667 62.1639 297.634 62.1539 313.601 62.2772C323.267 62.3505 329.547 69.6772 326.487 77.0772C324.721 81.3572 320.394 84.1539 315.051 84.3672C311.761 84.4972 308.467 84.4972 305.174 84.5539C301.349 84.2872 297.509 84.2872 293.684 84.5539C292.924 84.5105 292.164 84.4272 291.404 84.4272C239.031 84.4272 186.657 84.4327 134.284 84.4439C132.753 77.0483 131.224 69.6505 129.697 62.2505C141.517 62.2505 153.337 62.2505 165.157 62.2505C187.144 62.2239 209.13 62.1883 231.114 62.1438Z" fill="black"/>
<path d="M263.834 215.79L252.421 215.814C252.421 210.417 252.344 205.02 252.441 199.624C252.474 197.797 252.084 196.914 249.574 196.93C233.501 197.037 217.427 197.02 201.357 197.044C200.884 196.994 200.624 197.157 200.607 197.574L200.477 215.79C196.687 216.094 192.811 215.36 189.091 216.55C189.077 192.595 189.067 168.638 189.061 144.68C189.061 141.11 191.257 138.974 194.687 138.99C198.117 139.007 200.641 141.13 200.411 144.627C200.207 147.697 201.457 148.39 204.877 148.354C219.364 148.2 233.853 148.2 248.344 148.354C251.367 148.377 252.677 147.864 252.487 145.02C252.254 141.157 254.521 138.994 258.051 139.02C261.751 139.04 263.847 141.264 263.854 145.317C263.877 158.217 263.941 171.117 263.797 184.017C263.771 186.527 264.491 187.324 267.564 187.294C282.433 187.154 297.304 187.154 312.177 187.294C314.977 187.314 316.104 186.747 315.814 184.24C315.567 182.094 315.691 179.907 315.814 177.744C315.957 174.924 318.254 172.94 321.254 172.884C324.324 172.827 326.724 174.647 327.177 177.417C327.24 177.956 327.259 178.499 327.234 179.04C327.221 196.494 327.205 213.946 327.187 231.397C323.451 230.444 319.604 230.967 315.811 230.817C315.811 220.42 315.744 210.024 315.811 199.63C315.811 197.75 315.347 196.964 312.887 196.964C297.523 197.05 282.159 197.05 266.797 196.964C264.404 196.964 263.797 197.65 263.827 199.58C263.934 204.96 263.844 210.374 263.834 215.79ZM226.541 187.204C234.161 187.204 241.781 187.14 249.397 187.24C251.674 187.27 252.491 186.73 252.461 184.694C252.338 176.68 252.338 168.666 252.461 160.65C252.487 158.65 251.661 158.02 249.377 158.03C234.013 158.088 218.648 158.088 203.284 158.03C201.094 158.03 200.454 158.674 200.474 160.484C200.563 168.608 200.563 176.731 200.474 184.854C200.454 186.714 201.184 187.264 203.317 187.24C211.047 187.15 218.794 187.2 226.541 187.204Z" fill="black"/>
<path d="M315.247 230.678C319.185 230.828 323.179 230.305 327.059 231.257C328 233.776 327.934 236.368 327.934 238.963C327.934 271.53 327.956 304.097 328 336.666L310.519 336.649C310.519 302.746 310.541 268.842 310.585 234.939C310.585 233.343 310.239 231.96 309 230.738L315.247 230.678Z" fill="black"/>
<path d="M74.7094 62.3102C73.6628 69.7568 72.3761 77.1702 70.1528 84.4435L38.4861 84.5435C34.6017 84.2779 30.7038 84.2779 26.8194 84.5435C23.6461 84.5035 20.4861 84.3702 17.2961 84.4468C14.6294 84.5068 13.2961 83.7202 13.3328 81.2735C13.4328 75.9635 13.4128 70.6502 13.3328 65.3402C13.3028 63.0802 14.5961 62.2468 17.0694 62.2435C20.6261 62.2435 24.1828 62.1535 27.7361 62.1035L46.2128 62.1469L74.7094 62.3102Z" fill="black"/>
<path d="M293.683 84.5574C297.509 84.2908 301.348 84.2908 305.173 84.5574C305.173 98.113 305.167 111.66 305.153 125.197C305.153 129.821 303.873 131.067 298.507 131.841C294.297 132.444 291.737 135.104 291.953 138.647C292.157 141.941 295.203 144.537 299.087 144.721C302.813 144.894 306.143 142.584 306.787 139.197C307.16 137.224 307.52 135.317 309.7 134.151C310.574 133.648 311.558 133.37 312.566 133.341C313.573 133.312 314.572 133.533 315.473 133.984C317.547 134.984 318.417 136.571 318.43 138.577C318.493 146.677 310.6 153.791 300.74 154.491C291.503 155.157 282.407 149.234 280.74 141.491C279.123 133.994 283.033 127.054 291.117 123.687C293.197 122.821 293.747 121.847 293.733 120.021C293.667 108.181 293.69 96.3674 293.683 84.5574Z" fill="black"/>
<path d="M38.4337 111.554C41.6037 111.584 44.7671 111.634 47.9471 111.637C50.6137 111.637 51.9304 112.747 51.9304 115.014C51.9304 120.317 51.9304 125.621 51.9304 130.924C51.9304 133.381 50.5004 134.427 47.6804 134.417C37.6559 134.389 27.6315 134.389 17.6071 134.417C14.5004 134.417 13.3104 133.124 13.3404 130.601C13.4004 125.514 13.4004 120.427 13.3404 115.341C13.3104 112.757 14.6737 111.571 17.7171 111.621C20.7604 111.671 23.8037 111.581 26.8471 111.551L38.4337 111.554Z" fill="black"/>
<path d="M129.697 62.2524C131.228 69.6524 132.757 77.0502 134.284 84.4458C134.747 87.0024 135.284 89.5491 135.657 92.1124C136.254 96.1858 135.234 97.1124 130.364 97.2091C129.364 97.2258 128.337 97.2858 127.324 97.3224C124.79 97.3224 122.257 97.3224 119.727 97.2758C118.824 97.2558 117.45 97.5191 117.794 96.0458C119.144 90.2391 116.46 84.7791 115.614 79.1858C114.33 70.7958 112.184 62.5191 110.59 54.1491C110.297 52.6091 109.13 51.3958 109.014 49.8691C113.57 49.8424 118.134 49.9558 122.68 49.7458C126.15 49.5858 127.444 51.1224 127.947 53.6658C128.51 56.5291 129.11 59.3924 129.697 62.2524Z" fill="black"/>
<path d="M38.4336 111.553H26.857C26.8436 102.548 26.8314 93.5483 26.8203 84.5527C30.7047 84.2871 34.6026 84.2871 38.487 84.5527L38.4336 111.553Z" fill="black"/>
<path d="M115.874 231.537L115.844 249.714H95.5335C102.754 256.267 108.807 262.73 115.834 268.444C115.809 274.444 115.785 280.436 115.76 286.42H95.3335C102.827 292.957 108.667 299.594 115.884 305.14C115.884 308.647 115.8 312.14 115.884 315.657C115.937 317.774 115.15 318.47 112.844 317.36L88.3935 294.667L88.3535 276.53C94.0402 276.557 99.7235 276.6 105.41 276.594C106.564 276.594 108.64 276.684 106.84 275.01C100.704 269.314 95.0468 263.234 88.3535 257.974C88.3535 251.943 88.3646 245.912 88.3869 239.88H108.864L88.3902 221.087C88.3769 215.045 88.3646 209.004 88.3535 202.964H108.667C101.28 196.43 95.4002 189.947 88.3535 184.37L88.3935 166.294H108.867L88.3902 147.504C88.3902 141.468 88.3791 135.433 88.3569 129.397H108.724C101.264 122.884 95.4335 116.35 88.3535 110.79C88.3535 107.18 88.3535 103.567 88.3835 99.9538C88.3835 98.8371 88.0035 97.4838 90.0502 97.2871C98.5835 105.337 106.827 113.62 115.814 121.287C115.794 127.287 115.772 133.287 115.75 139.287H95.3969C102.914 145.917 108.73 152.454 115.874 157.954C115.874 164.014 115.865 170.072 115.847 176.127H95.4302C96.6535 177.247 97.4935 178.027 98.3535 178.794C104.264 184.084 109.58 189.844 115.83 194.864L115.76 212.847H95.3335C102.947 219.457 108.667 226.067 115.874 231.537Z" fill="black"/>
<path d="M239.364 336.83C239.387 325.983 239.491 315.14 239.364 304.296C239.337 301.763 240.137 300.89 243.217 300.94C253.135 301.088 263.053 301.088 272.971 300.94C276.007 300.9 276.911 301.793 276.887 304.323C276.787 315.166 276.887 326.01 276.917 336.853L239.364 336.83Z" fill="black"/>
<path d="M273.936 264.333C273.936 261.41 273.993 258.483 273.916 255.56C273.863 253.603 274.869 252.87 277.126 252.893C284.364 252.953 291.603 252.953 298.843 252.893C301.116 252.873 302.053 253.643 302.036 255.58C301.976 261.646 301.976 267.713 302.036 273.78C302.056 275.733 301.079 276.446 298.823 276.446C291.585 276.384 284.346 276.384 277.106 276.446C274.836 276.463 273.866 275.71 273.916 273.78C273.999 270.613 273.936 267.473 273.936 264.333Z" fill="black"/>
<path d="M227.689 276.411C224.263 276.411 220.833 276.334 217.413 276.437C215.153 276.507 214.236 275.867 214.273 273.844C214.386 267.784 214.356 261.721 214.273 255.661C214.253 253.791 214.939 252.867 217.319 252.887C224.553 252.958 231.786 252.958 239.019 252.887C241.186 252.864 241.909 253.591 241.886 255.377C241.813 261.547 241.786 267.711 241.886 273.887C241.923 275.947 240.909 276.497 238.699 276.437C235.053 276.334 231.369 276.411 227.689 276.411Z" fill="black"/>
</svg>