<?xml version="1.0" ?><svg xmlns="http://www.w3.org/2000/svg" fill="none" viewBox="17.02 19.91 320.01 320">
<path d="M337.023 143.646C335.439 147.499 335.533 151.682 334.673 155.686C324.666 202.212 288.283 237.102 241.463 244.292C208.813 249.292 179.423 241.172 153.396 220.839C152.609 220.226 152.036 219.192 150.809 219.279C149.143 216.746 146.753 214.946 144.529 212.976C150.307 206.436 156.329 200.126 162.596 194.046C163.129 193.526 163.666 193.046 164.463 193.046C164.939 193.442 165.436 193.819 165.893 194.236C186.533 213.172 210.729 220.729 238.373 216.199C288.889 207.922 320.459 155.866 304.789 107.162C300.629 94.2323 293.606 83.099 284.403 73.239C284.876 72.4356 285.216 71.5023 285.849 70.849C291.693 64.7923 297.703 58.9056 304.183 53.5156C319.869 69.039 329.693 87.7423 334.539 109.182C335.539 113.566 335.539 118.122 337.036 122.406L337.023 143.646Z" fill="black"/>
<path d="M164.462 193.046C163.665 193.046 163.129 193.526 162.595 194.046C156.338 200.133 150.315 206.444 144.529 212.98C144.335 212.996 144.14 212.996 143.945 212.98C142.639 209.98 139.985 208.206 137.672 206.126C137.212 204.09 135.552 202.85 134.372 201.323C102.099 159.63 103.742 99.3862 138.332 59.5496C157.075 37.9429 180.592 24.9996 208.955 20.9329C210.192 20.7529 211.682 21.1329 212.669 19.9062H234.539C234.832 20.6929 235.539 20.4796 236.119 20.5462C240.965 21.0761 245.772 21.9123 250.512 23.0496C271.225 28.2162 289.252 38.1229 304.179 53.5029C297.712 58.9062 291.702 64.7929 285.845 70.8362C285.212 71.5029 284.872 72.4229 284.399 73.2262L283.255 72.4696C282.939 72.062 282.598 71.6735 282.235 71.3062C261.375 52.2596 236.902 44.6596 209.122 49.5229C160.619 58.0363 129.825 106.333 142.135 154C145.975 168.883 153.172 181.95 164.469 192.573C164.469 192.736 164.462 192.89 164.462 193.046Z" fill="black"/>
<path d="M26.3994 331.739C14.4894 320.999 13.7494 302.222 25.1794 290.379C37.1794 277.949 49.5294 265.859 61.7627 253.655C70.5994 244.839 79.4961 236.079 88.3627 227.299C89.2761 228.129 90.2161 228.932 91.0961 229.795C97.0539 235.655 103.003 241.521 108.943 247.392C108.943 247.592 108.943 247.792 108.943 247.992C108.186 248.842 107.469 249.732 106.663 250.535C80.7627 276.467 54.8561 302.399 28.9427 328.332C27.9427 329.332 26.5661 330.095 26.3994 331.739Z" fill="black"/>
<path d="M26.3984 331.739C26.5651 330.096 27.9418 329.319 28.9418 328.319C54.8418 302.381 80.7495 276.453 106.665 250.536C107.472 249.732 108.188 248.842 108.945 247.992C116.188 254.519 122.945 261.546 129.678 268.576C129.282 269.052 128.922 269.576 128.485 269.996C108.263 290.229 88.0407 310.451 67.8184 330.662C56.5284 341.896 40.3518 342.962 28.1918 333.456C27.5634 332.916 26.9647 332.343 26.3984 331.739Z" fill="black"/>
<path d="M108.943 247.394C102.997 241.527 97.0477 235.662 91.0966 229.797C90.2166 228.934 89.2766 228.131 88.3633 227.301C92.3633 223.221 96.38 219.174 100.317 215.047C101.513 213.794 102.317 214.114 103.36 215.187C106.77 218.681 110.237 222.121 113.71 225.554C114.437 226.271 115.283 226.887 116.077 227.521C117.647 230.144 120.373 231.717 122.11 234.187C121.413 236.784 119.13 238.107 117.38 239.777C114.647 242.394 112.533 245.727 108.943 247.394Z" fill="black"/>
<path d="M108.943 247.393C112.533 245.726 114.647 242.393 117.38 239.779C119.13 238.113 121.413 236.779 122.11 234.189C122.3 234.223 122.493 234.256 122.687 234.283C124.723 236.696 126.84 239.026 129.433 240.869C132.967 245.373 137.307 249.106 141.347 253.113C143.043 254.779 142.953 255.746 141.28 257.296C137.327 260.963 133.54 264.806 129.69 268.576C122.947 261.546 116.2 254.519 108.957 247.993C108.947 247.793 108.943 247.593 108.943 247.393Z" fill="black"/>
<path d="M129.432 240.87C126.839 239.027 124.722 236.697 122.686 234.283C129.517 226.926 136.603 219.831 143.946 213C144.14 213.017 144.335 213.017 144.529 213C146.752 214.97 149.152 216.767 150.809 219.3L129.432 240.87Z" fill="black"/>
<path d="M143.946 213C136.613 219.856 129.526 226.953 122.686 234.293C122.493 234.267 122.299 234.233 122.109 234.2C120.373 231.727 117.646 230.153 116.076 227.533L137.666 206.137C140 208.217 142.64 210 143.946 213Z" fill="black"/>
<path d="M283.26 72.4824L284.403 73.2391C293.606 83.0991 300.63 94.2391 304.79 107.162C320.456 155.859 288.89 207.922 238.373 216.199C210.73 220.729 186.533 213.172 165.893 194.236C165.436 193.819 164.94 193.442 164.463 193.046C164.463 192.889 164.463 192.736 164.463 192.582C164.876 191.446 165.826 190.749 166.666 189.992C179.393 178.459 191.17 165.969 203.24 153.776H203.466H203.69C207.55 157.696 211.463 161.566 215.24 165.566C216.463 166.859 217.113 166.466 218.153 165.422C231.862 151.645 245.603 137.909 259.376 124.216C260.613 122.986 260.686 122.316 259.406 121.066C255.623 117.372 251.986 113.529 248.293 109.732C248.383 108.299 249.593 107.662 250.443 106.809C259.823 97.3858 269.25 88.0091 278.62 78.5758C280.433 76.7658 282.216 74.8924 283.26 72.4824Z" fill="black"/>
<path d="M283.26 72.4821C282.216 74.8921 280.433 76.7654 278.633 78.5787C269.263 88.0121 259.836 97.3887 250.456 106.812C249.606 107.665 248.396 108.302 248.306 109.735C246.973 109.402 246.476 110.519 245.78 111.205C241.853 115.082 237.983 119.015 234.06 122.892C228.218 128.67 222.359 134.426 216.483 140.162C213.02 136.702 209.506 133.289 206.12 129.755C204.896 128.482 204.12 128.422 202.87 129.755C199.563 133.219 196.183 136.622 192.703 139.909C191.343 141.195 191.593 141.909 192.793 143.089C196.346 146.585 199.793 150.215 203.253 153.792C191.183 165.969 179.406 178.459 166.666 189.999C165.826 190.755 164.876 191.452 164.463 192.589C153.16 181.965 145.963 168.899 142.13 154.015C129.82 106.325 160.613 58.0421 209.13 49.5421C236.896 44.6654 261.38 52.2721 282.24 71.3321C282.602 71.695 282.943 72.079 283.26 72.4821V72.4821Z" fill="black"/>
<path d="M216.483 140.162C222.343 134.407 228.202 128.65 234.06 122.892C237.983 119.015 241.853 115.082 245.78 111.205C246.476 110.519 246.986 109.399 248.306 109.735C252 113.522 255.64 117.365 259.42 121.069C260.7 122.319 260.626 122.989 259.39 124.219C245.612 137.912 231.871 151.648 218.166 165.425C217.126 166.469 216.476 166.862 215.253 165.569C211.476 161.569 207.563 157.699 203.703 153.782C204.883 152.505 206.07 151.235 207.236 149.952C210.256 146.619 213.916 143.909 216.483 140.162Z" fill="black"/>
<path d="M216.482 140.164C213.916 143.911 210.256 146.621 207.236 149.944C206.069 151.227 204.882 152.497 203.702 153.774H203.252C199.776 150.197 196.346 146.567 192.792 143.071C191.592 141.891 191.342 141.177 192.702 139.891C196.182 136.604 199.562 133.201 202.869 129.737C204.112 128.434 204.896 128.481 206.119 129.737C209.506 133.291 213.019 136.704 216.482 140.164Z" fill="black"/>
</svg>