<?xml version="1.0" ?><svg xmlns="http://www.w3.org/2000/svg" width="360" height="360" viewBox="0 0 360 360" fill="none">
<path d="M102.633 142.864C102.9 131.657 107.436 122.531 116.786 116.304C129.426 107.911 142.383 99.9707 155.21 91.8741C164.243 86.1607 173.803 85.3041 183.936 88.5407C205.09 95.3185 226.269 102.027 247.473 108.667C258.646 112.194 269.829 115.695 281.02 119.171C281.02 146.835 281.02 174.502 281.02 202.171C279.283 202.171 277.506 202.417 275.826 202.121C270.463 201.174 266.59 203.521 263.28 207.334C251.36 213.214 239.48 213.667 227.643 207.097C226.57 206.267 225.27 205.617 224.463 204.581C222.226 201.704 220.696 202.914 218.686 204.967C212.126 211.697 205.513 218.391 198.686 224.854C193.928 229.404 187.571 231.899 180.988 231.802C174.405 231.705 168.125 229.022 163.503 224.334C153.94 214.761 153.723 199.567 163.01 189.537C164.856 187.537 166.853 185.667 168.56 183.561C180.036 169.381 172.51 147.774 154.69 143.617C149.3 142.361 143.836 143.011 138.4 142.981L102.543 143.011L102.633 142.864Z" fill="black"/>
<path d="M13.4902 225.863V190.297C39.5569 190.363 61.0302 168.98 60.9636 143.02L102.63 142.863L102.54 143.017C102.54 186.401 102.548 229.782 102.564 273.16L60.9602 273.14C61.0302 247.13 39.6102 225.797 13.4902 225.863Z" fill="black"/>
<path d="M281.023 202.159C281.023 174.495 281.023 146.828 281.023 119.159C281.067 116.079 281.193 112.996 281.117 109.919C281.07 108.106 281.487 107.293 283.553 107.299C303.737 107.366 323.92 107.396 344.103 107.279C347.3 107.263 346.593 109.219 346.593 110.929C346.609 135.963 346.609 160.995 346.593 186.026C346.593 196.263 346.5 206.499 346.657 216.729C346.697 219.379 345.87 219.993 343.323 219.979C323.632 219.879 303.943 219.879 284.257 219.979C281.923 219.979 280.997 219.473 281.083 216.949C281.25 212.023 281.063 207.089 281.023 202.159Z" fill="black"/>
<path d="M138.4 142.999C143.836 143.029 149.3 142.379 154.69 143.636C172.51 147.792 180.023 169.399 168.56 183.579C166.853 185.686 164.856 187.559 163.01 189.556C153.723 199.586 153.94 214.779 163.503 224.352C168.127 229.041 174.41 231.721 180.995 231.815C187.579 231.91 193.936 229.41 198.693 224.856C205.516 218.392 212.13 211.699 218.693 204.969C220.693 202.906 222.233 201.706 224.47 204.582C225.276 205.619 226.576 206.269 227.65 207.099C227.623 210.669 227.58 214.239 227.573 217.812C227.573 225.532 227.573 225.532 220.22 226.576C197.22 229.829 179.936 249.849 179.996 273.152L138.39 273.172C138.394 229.772 138.397 186.381 138.4 142.999Z" fill="black"/>
<path d="M138.4 143C138.4 186.393 138.4 229.784 138.4 273.173H102.566C102.566 229.793 102.559 186.412 102.543 143.03L138.4 143Z" fill="black"/>
<path d="M180 273.139C179.94 249.836 197.23 229.806 220.223 226.563C227.573 225.519 227.557 225.519 227.577 217.799C227.577 214.226 227.627 210.656 227.653 207.086C239.5 212.666 243.167 211.666 255.333 210.666C255.333 231.646 255.344 249.285 255.367 270.269C255.367 271.859 255.74 273.346 253.097 273.333C226.07 273.199 207 273.186 180 273.139Z" fill="black"/>
<path d="M13.4898 225.863C39.6098 225.797 61.0298 247.13 60.9632 273.14C45.8565 273.18 30.7465 273.197 15.6298 273.297C13.8532 273.297 13.2965 272.77 13.3232 271C13.4332 255.953 13.4498 240.91 13.4898 225.863Z" fill="black"/>
<path d="M60.963 143.021C61.0297 168.981 39.5563 190.354 13.4897 190.297C13.4497 175.251 13.433 160.207 13.333 145.164C13.333 143.391 13.863 142.854 15.6397 142.867C30.7463 142.967 45.8563 142.981 60.963 143.021Z" fill="black"/>
</svg>