<?xml version="1.0" ?><svg xmlns="http://www.w3.org/2000/svg" fill="none" viewBox="13.33 13.32 333.33 333.34">
<path d="M46.2707 264.827C39.2207 258.493 32.9373 251.373 26.1407 244.797C21.854 240.667 18.124 235.94 13.334 232.333V231.667L91.964 152L115.067 168.363C115.067 167.397 115.154 166.847 115.067 166.33C113.537 158.49 112.134 150.617 110.347 142.833C109.737 140.187 110.461 139.86 112.724 139.877C124.127 139.95 135.531 139.93 146.934 139.893C149.524 139.893 152.117 139.893 154.687 139.263C162.084 137.447 166.961 132.613 170.421 126.023C170.944 127.417 172.144 128.243 173.087 129.263C179.064 135.58 185.534 141.407 191.201 148.03C190.477 148.267 189.761 148.523 189.034 148.74C161.561 156.95 142.604 174.623 132.051 201.57C127.854 212.273 126.547 223.493 126.634 234.93C125.537 233.86 124.301 232.907 123.381 231.7C121.617 229.367 120.301 229.867 118.537 231.813C116.051 234.563 113.254 237.027 110.591 239.61C104.997 240.99 100.157 244.18 94.8706 246.293C89.8873 248.293 85.204 251.027 79.8973 252.197C80.684 251.29 81.4207 250.34 82.2573 249.487C91.3173 240.28 100.364 231.053 109.494 221.92C111.041 220.373 111.474 219.3 109.604 217.733C108.019 216.384 106.554 214.901 105.224 213.3C103.891 211.71 102.937 211.943 101.557 213.347C90.5351 224.616 79.4651 235.838 68.3473 247.013C66.974 248.39 66.7173 249.323 68.2673 250.73C69.8773 252.19 71.2673 253.91 72.7307 255.513C71.534 256.003 70.354 256.537 69.1407 256.98C61.574 259.737 54.2007 263.12 46.2707 264.827ZM56.2007 239.563C58.0673 238.64 58.5907 237.717 59.2573 237.037C68.8773 227.315 78.4862 217.579 88.084 207.83C93.974 201.86 93.8773 201.953 88.1773 195.947C86.2073 193.87 85.154 194.18 83.3273 196.067C73.6607 206.067 63.8507 215.9 54.0907 225.793C48.9207 231.037 48.9473 231.007 54.0207 236.253C54.9207 237.187 55.4807 238.45 56.2007 239.563Z" fill="black"/>
<path d="M13.334 121.801V32.4409C13.5971 31.9809 13.8202 31.4991 14.0007 31.0009C16.904 20.2809 25.4607 13.3942 36.4207 13.3742C73.8918 13.3076 111.364 13.3076 148.837 13.3742C152.861 13.3742 156.807 14.1309 160.251 16.5309C157.494 21.1976 154.811 25.8909 151.701 30.3509C149.564 33.4176 146.651 36.0742 145.797 39.9709C144.437 39.3042 143.891 40.1709 143.327 41.2109C142.501 42.7276 141.577 44.2109 140.694 45.6809C140.147 45.9342 140.004 46.4142 139.987 46.9676L139.454 47.7842L139.517 47.7642C138.671 47.6109 138.097 47.9709 137.567 48.6409C130.877 57.0609 123.097 64.3976 115.294 71.7109C114.294 72.6342 113.231 73.3176 111.877 73.4842L98.4206 57.3842C93.9773 52.0676 90.5173 52.2909 86.644 58.1642C81.4573 66.0309 76.2473 73.8809 71.1506 81.8076C70.0373 83.5409 69.434 83.5776 68.254 81.9176C65.1406 77.5476 61.9206 73.2509 58.6973 68.9642C54.9306 63.9642 51.0706 63.9642 47.364 68.9009C45.4606 71.4376 43.514 73.9376 41.5873 76.4542C41.5362 65.7609 41.4895 55.0664 41.4473 44.3709C41.424 36.2409 41.4473 36.3476 33.354 36.3242C30.8406 36.3242 30.274 37.1776 30.2806 39.5709C30.334 64.9609 30.3007 90.3342 30.334 115.684C30.334 120.114 32.5273 122.351 36.844 122.484C36.464 124.388 34.7007 124.431 33.4073 125.061C28.6407 127.368 23.8673 129.624 19.104 131.901C15.9307 129.268 15.334 125.131 13.334 121.801Z" fill="black"/>
<path d="M126.637 234.917C126.55 223.481 127.857 212.251 132.053 201.557C142.607 174.611 161.563 156.937 189.053 148.727C189.78 148.511 190.497 148.254 191.22 148.017C203.663 145.111 216.147 144.734 228.697 147.311C244.08 150.467 257.397 157.724 269.16 168.104C274.853 173.772 279.934 180.023 284.32 186.754C289.72 196.627 293.863 206.931 295.543 218.194C298.687 239.277 294.76 258.861 283.903 277.081C283.26 278.161 282.103 279.081 282.43 280.601C282.04 280.764 281.467 280.807 281.283 281.101C277.127 287.721 271.08 292.624 266.023 298.434C263.213 299.694 261.12 302.017 258.54 303.631C229.651 321.682 200.166 322.767 170.083 306.887C169.22 306.434 168.347 305.997 167.477 305.554C160.362 300.829 153.819 295.297 147.977 289.067L141.413 280.584C139.067 276.382 136.719 272.181 134.37 267.981C132.803 263.759 131.235 259.536 129.663 255.314C128.741 250.305 127.816 245.295 126.887 240.284L126.637 234.917ZM211.573 294.584C245.24 295.721 273.843 266.251 273.93 232.054C274.017 197.077 245.407 168.567 211.93 168.634C177.663 168.704 149.327 196.097 149.263 231.704C149.217 267.261 177.947 295.461 211.573 294.594V294.584Z" fill="black"/>
<path d="M147.96 289.053C153.802 295.283 160.345 300.815 167.46 305.54C154.666 318.453 141.843 331.313 129.163 344.333C127.163 346.396 126.183 346.446 124.133 344.353C98.9995 318.706 73.8051 293.12 48.5495 267.593C47.7162 266.746 47.0262 265.75 46.2695 264.826C54.1995 263.12 61.5729 259.736 69.1495 256.97C70.3629 256.526 71.5429 255.993 72.7395 255.503C74.1895 256.953 75.3895 256.733 76.7162 255.17C77.4395 254.33 77.7962 252.946 79.2229 252.836L79.9195 252.153H79.8995C85.1995 250.983 89.8995 248.24 94.8729 246.25C100.16 244.136 105 240.946 110.593 239.566C104.036 247.05 96.7495 253.806 89.8462 260.943C84.1795 266.806 84.2029 266.686 89.8462 272.59C91.5329 274.353 92.4029 274.396 94.1329 272.61C103.933 262.483 113.87 252.496 123.78 242.48C124.676 241.573 125.383 240.343 126.86 240.223C127.786 245.232 128.712 250.242 129.636 255.253C129.573 256.753 128.443 257.546 127.533 258.47C120.926 265.185 114.312 271.894 107.69 278.596C101.69 284.693 101.743 284.626 107.746 290.736C109.33 292.35 110.18 292.173 111.566 290.64C113.9 288.036 116.416 285.573 118.926 283.133C124.1 278.103 128.78 272.556 134.343 267.936C136.692 272.136 139.04 276.338 141.386 280.54C135.686 285.466 130.696 291.133 125.363 296.443C118.756 303.023 118.816 303.046 126.013 309.213C126.923 309.993 127.473 310.253 128.396 309.273C134.846 302.476 141.826 296.186 147.96 289.053Z" fill="black"/>
<path d="M284.304 186.753C279.918 180.022 274.837 173.771 269.144 168.103C277.397 159.649 285.567 151.103 293.954 142.789C296.251 140.516 296.097 139.236 293.891 137.039C285.137 128.319 276.558 119.399 267.938 110.553C272.321 102.886 276.797 95.2994 281.061 87.5761C284.394 81.5594 287.464 75.4061 289.544 68.8027L290.674 68.8694C293.641 89.8227 296.736 110.914 299.961 132.143C301.688 143.523 303.439 154.856 305.214 166.143L284.304 186.753Z" fill="black"/>
<path d="M345.703 183.259C344.621 172.693 342.386 162.276 339.037 152.196C335.25 154.049 333.267 157.959 329.577 160.613C328.373 155.249 327.21 150.049 326.043 144.846C326.932 149.068 327.821 153.291 328.71 157.513C330.913 168.349 333.02 179.213 335.377 190.016C336.197 193.766 333.783 198.796 328.77 199.559C324.983 200.133 320.813 197.129 320.183 192.869C318.183 179.336 316.26 165.789 314.31 152.246L314.363 152.196C313.677 147.621 313 143.032 312.333 138.429C309.131 116.469 305.934 94.5084 302.743 72.5462C302.57 71.3528 302.557 70.1395 302.47 68.9328C302.057 66.5662 301.63 64.2028 301.23 61.8328C300.647 58.3528 298 56.0362 294.993 56.3962C291.76 56.7828 289.84 59.2762 290.053 62.9762C290.167 64.9462 290.47 66.9062 290.687 68.8695C293.784 89.9628 296.875 111.054 299.96 132.143C300.96 138.876 302.703 148.906 304.257 161.499C304.457 163.133 304.59 164.376 304.99 167.499C306.703 181.289 307.923 188.193 308.417 191.833C309.32 198.519 310.437 204.956 315.86 209.853C322.967 216.263 337.157 214.796 343.397 207.423C347.587 202.483 347.017 195.999 345.703 183.259Z" fill="black"/>
<path d="M292.804 291.146C304.187 302.653 315.62 314.106 326.93 325.69C331.957 330.836 331.844 338.286 326.954 343.126C322.064 347.966 314.91 347.86 309.77 342.673C298.757 331.562 287.782 320.418 276.844 309.24C281.264 307.05 284.127 303.066 287.227 299.486C289.38 297 292.06 294.666 292.804 291.146Z" fill="black"/>
<path d="M292.803 291.147C292.06 294.68 289.38 297 287.227 299.48C284.127 303.06 281.263 307.043 276.843 309.233L266 298.423C271.057 292.623 277.103 287.72 281.26 281.09C281.443 280.797 282.017 280.757 282.407 280.59L292.803 291.147Z" fill="black"/>
<path d="M267.937 110.554C276.57 119.401 285.137 128.321 293.893 137.041C296.097 139.237 296.25 140.517 293.953 142.791C285.567 151.107 277.397 159.651 269.143 168.104C257.38 157.724 244.063 150.467 228.667 147.311C216.117 144.734 203.633 145.11 191.19 148.017C185.523 141.394 179.053 135.567 173.077 129.251C172.117 128.231 170.917 127.404 170.41 126.011C170.72 124.851 171.047 123.697 171.333 122.531C172.733 116.801 171.53 110.951 172.093 105.197C172.977 104.387 173.89 103.614 174.73 102.764C188.247 89.0738 201.79 75.4138 215.217 61.6338C216.96 59.8438 217.807 59.9372 219.5 61.6672C234.7 77.2227 249.962 92.7205 265.287 108.161C266.12 109.001 267.05 109.754 267.937 110.554Z" fill="black"/>
<path d="M172.09 105.18C171.527 110.95 172.73 116.8 171.33 122.514C171.044 123.68 170.717 124.847 170.407 125.994C166.947 132.584 162.074 137.417 154.674 139.234C152.104 139.867 149.51 139.854 146.92 139.864C135.517 139.9 124.114 139.92 112.71 139.847C110.447 139.847 109.71 140.157 110.334 142.804C112.12 150.587 113.524 158.47 115.054 166.3C115.154 166.817 115.054 167.367 115.054 168.334L91.9635 152C86.8802 148.25 81.7835 144.514 76.7168 140.74C75.3835 139.74 73.8602 139.85 72.3435 139.847C59.7535 139.814 47.1602 139.877 34.5702 139.714C28.2735 139.634 23.0868 136.907 19.1035 131.914C23.8668 129.637 28.6402 127.38 33.3902 125.074C34.6835 124.444 36.4468 124.407 36.8268 122.497L148 122.464C155 122.464 154.824 122.464 155.067 115.36C155.184 112.05 154.33 111.107 150.957 111.124C121.177 111.257 91.3968 111.184 61.6235 111.174C61.6568 109.64 62.9168 109.304 63.9335 108.707C71.8035 104.104 79.5768 99.3538 86.9335 93.9138C92.4268 89.8538 98.0435 85.9638 103.6 82.0004C107.81 87.0338 111.987 92.1004 116.237 97.0971C119.3 100.697 123.717 100.524 125.994 96.4304C135.167 79.9404 144.157 63.3438 153.277 46.8238C154.184 45.1771 153.61 44.4904 152.244 43.7571C150.054 42.5571 147.927 41.2438 145.774 39.9771C146.627 36.0804 149.54 33.4238 151.677 30.3571C154.787 25.8971 157.47 21.2004 160.227 16.5371C167.774 20.4538 171.64 26.9404 171.894 35.3071C172.227 47.0738 172.04 58.8604 172.07 70.6404L172.09 105.18Z" fill="black"/>
<path d="M56.1992 239.563C55.4792 238.45 54.9192 237.186 54.0192 236.253C48.9458 231.006 48.9192 231.036 54.0892 225.793C63.8492 215.9 73.6658 206.053 83.3325 196.066C85.1592 194.18 86.2125 193.87 88.1825 195.946C93.8825 201.946 93.9792 201.86 88.0892 207.83C78.4736 217.57 68.8625 227.305 59.2558 237.036C58.5892 237.716 58.0658 238.64 56.1992 239.563Z" fill="black"/>
<path d="M79.2233 252.857C77.7967 252.961 77.44 254.344 76.7167 255.191C75.3833 256.741 74.19 256.961 72.74 255.524C71.2633 253.921 69.8867 252.191 68.2767 250.741C66.7267 249.334 66.9833 248.407 68.3567 247.024C79.4678 235.848 90.5378 224.626 101.567 213.357C102.94 211.954 103.88 211.721 105.233 213.311C106.563 214.912 108.029 216.395 109.613 217.744C111.483 219.311 111.05 220.384 109.503 221.931C100.373 231.064 91.3267 240.291 82.2667 249.497C81.43 250.351 80.6933 251.301 79.9067 252.207H79.9267L79.2233 252.857Z" fill="black"/>
<path d="M126.871 240.254C125.394 240.374 124.687 241.587 123.791 242.511C113.881 252.527 103.944 262.511 94.1441 272.641C92.4141 274.427 91.5441 274.384 89.8574 272.621C84.1908 266.717 84.1908 266.837 89.8574 260.974C96.7608 253.837 104.047 247.081 110.604 239.597C113.271 237.014 116.064 234.551 118.551 231.801C120.314 229.854 121.631 229.364 123.394 231.687C124.307 232.894 125.551 233.847 126.647 234.917C126.719 236.697 126.793 238.476 126.871 240.254Z" fill="black"/>
<path d="M145.78 39.98C147.934 41.2467 150.06 42.56 152.25 43.76C153.607 44.5 154.19 45.18 153.284 46.8267C144.164 63.3334 135.174 79.9434 126 96.4334C123.724 100.523 119.307 100.697 116.244 97.1C112 92.1 107.817 87.0334 103.607 82C100.667 78.3334 97.667 74.72 94.827 70.9634C93.397 69.0634 92.7204 69.5634 91.627 71.2567C86.4604 79.2567 81.1937 87.2134 75.9604 95.17C72.1104 101.013 68.3904 101.17 64.257 95.6467C60.5337 90.6767 56.837 85.6867 52.9237 80.4434L41.3737 96.51C40.337 97.3834 39.6004 96.5867 38.847 96.0234C36.9304 94.5934 35.0804 93.0667 33.1037 91.7267C31.6737 90.7567 31.7037 89.9867 32.7237 88.64C35.7537 84.64 38.6304 80.5434 41.567 76.48C43.4937 73.9634 45.4404 71.4634 47.3437 68.9267C51.047 63.9867 54.907 63.98 58.677 68.99C61.9004 73.2767 65.1204 77.5734 68.2337 81.9434C69.4137 83.61 70.017 83.5667 71.1304 81.8334C76.227 73.9067 81.437 66.0567 86.6237 58.19C90.497 52.3167 93.957 52.0934 98.4004 57.41L111.857 73.51L120 83.7534C121.384 81.2534 122.567 79.1667 123.707 77.0567C128.978 67.3034 134.243 57.5478 139.5 47.79L139.434 47.81C139.614 47.5367 139.79 47.2634 139.97 46.9934L140.677 45.7067C141.56 44.22 142.484 42.7534 143.31 41.2367C143.874 40.18 144.42 39.3034 145.78 39.98Z" fill="black"/>
<path d="M41.5673 76.4796C38.6307 80.543 35.754 84.653 32.724 88.6397C31.704 89.973 31.674 90.7563 33.104 91.7263C35.0807 93.0596 36.9307 94.593 38.8473 96.023C39.6007 96.5863 40.3373 97.383 41.374 96.5097C41.374 100.35 41.5307 104.193 41.374 108.026C41.2773 110.406 41.9107 111.343 44.4307 111.26C50.1573 111.076 55.8973 111.183 61.6307 111.173C91.4073 111.173 121.187 111.256 150.964 111.123C154.337 111.106 155.191 112.05 155.074 115.36C154.831 122.456 155.007 122.46 148.007 122.463L36.824 122.483C32.5107 122.333 30.334 120.113 30.334 115.683C30.334 90.3196 30.354 64.9596 30.2773 39.5963C30.2773 37.203 30.8373 36.343 33.3507 36.3496C41.4373 36.373 41.4207 36.2663 41.444 44.3963C41.464 55.0941 41.5051 65.7885 41.5673 76.4796Z" fill="black"/>
<path d="M139.494 47.7907C134.229 57.5463 128.965 67.3018 123.7 77.0574C122.56 79.1674 121.367 81.2541 119.994 83.7541L111.854 73.5107C113.207 73.3441 114.284 72.6607 115.27 71.7374C123.074 64.4241 130.854 57.0707 137.544 48.6674C138.074 48.0007 138.647 47.6374 139.494 47.7907Z" fill="black"/>
<path d="M172.09 105.18L172.07 70.6401C180.63 62.0334 189.186 53.4268 197.737 44.8201C207.208 35.2534 216.653 25.6623 226.07 16.0468C227.714 14.3601 229.26 13.5101 231.737 13.8001C248.55 15.7734 265.384 17.5734 282.207 19.4668C289.434 20.2768 296.65 21.1601 303.874 22.0068C303.75 23.0834 303.68 24.1701 303.497 25.2334C302.164 32.8468 299.657 40.1534 297.98 47.6768C290.07 47.8001 285.42 52.8101 285.504 60.7968C285.537 64.2668 287.777 66.3634 289.55 68.7968C287.467 75.4001 284.384 81.5534 281.064 87.5701C276.8 95.2934 272.324 102.903 267.94 110.547C267.054 109.747 266.124 108.987 265.274 108.137C249.998 92.6657 234.739 77.1757 219.497 61.6668C217.804 59.9368 216.957 59.8434 215.214 61.6334C201.787 75.4134 188.244 89.0735 174.727 102.763C173.887 103.597 172.974 104.37 172.09 105.18Z" fill="black"/>
<path d="M297.977 47.6661C299.643 40.1428 302.17 32.8361 303.493 25.2228C303.677 24.1594 303.747 23.0728 303.87 21.9961C312.273 22.8594 320.677 23.7561 329.083 24.5628C331.057 24.7528 330.867 26.3128 331.003 27.4694C331.81 34.2328 332.473 41.0128 333.217 47.7828C334.639 60.7783 336.072 73.7717 337.517 86.7628C338.7 97.5761 339.277 108.499 341.247 119.163C342.58 126.446 340.383 131.349 335.173 135.633C330.81 139.219 329.257 141.713 326.027 144.843C322.011 148.754 318.327 152.991 315.01 157.509C313.957 149.399 312.987 142.803 312.32 138.419C308.15 111.036 306.287 97.0528 302.73 72.5361C302.557 71.3428 302.543 70.1294 302.457 68.9228C306.59 66.9794 308.79 61.4328 307.513 56.3994C306.233 51.3328 302.377 49.2094 297.977 47.6661Z" fill="black"/>
<path d="M326.027 144.847C328.866 141.575 331.922 138.498 335.174 135.637C337.234 140.97 337.507 146.733 339.021 152.197L329.377 162.157L326.027 144.847Z" fill="black"/>
<path d="M297.976 47.666C302.376 49.206 306.232 51.3127 307.512 56.406C308.776 61.4393 306.586 66.986 302.456 68.9293C302.042 66.5627 301.616 64.1994 301.216 61.8294C300.632 58.3494 297.986 56.0327 294.979 56.3927C291.746 56.7793 289.826 59.2727 290.039 62.9727C290.152 64.9427 290.456 66.9027 290.672 68.866L289.542 68.7993C287.772 66.3527 285.542 64.256 285.499 60.7993C285.416 52.8027 290.066 47.7927 297.976 47.666Z" fill="black"/>
<path d="M211.573 294.593C177.946 295.459 149.216 267.259 149.27 231.713C149.32 196.106 177.656 168.713 211.936 168.643C245.42 168.576 274.03 197.086 273.936 232.063C273.843 266.243 245.23 295.729 211.573 294.593ZM160.873 231.123C159.93 259.789 183.3 282.173 208.9 283.349C240.083 284.779 262.666 259.666 262.666 231.856C262.666 202.916 240.043 180.973 213.333 180.056C183.333 179.023 160.183 204.383 160.873 231.123Z" fill="black"/>
<path d="M134.353 267.967C128.79 272.587 124.11 278.133 118.937 283.163C116.427 285.603 113.937 288.067 111.577 290.67C110.19 292.203 109.34 292.38 107.757 290.767C101.757 284.657 101.69 284.723 107.7 278.627C114.316 271.92 120.93 265.211 127.543 258.5C128.453 257.577 129.583 256.783 129.647 255.283C131.216 259.51 132.785 263.738 134.353 267.967Z" fill="black"/>
<path d="M147.961 289.054C141.828 296.187 134.848 302.477 128.408 309.304C127.484 310.284 126.934 310.024 126.024 309.244C118.828 303.077 118.768 303.054 125.374 296.474C130.708 291.164 135.708 285.497 141.398 280.57L147.961 289.054Z" fill="black"/>
<path d="M61.6292 111.173C55.8959 111.173 50.1559 111.076 44.4292 111.26C41.9092 111.343 41.2759 110.406 41.3726 108.026C41.5292 104.193 41.3726 100.36 41.3726 96.5098L52.9226 80.4431C56.8259 85.6865 60.5226 90.6765 64.2559 95.6465C68.3892 101.166 72.1092 101.013 75.9592 95.1698C81.2026 87.2132 86.4692 79.2665 91.6259 71.2565C92.7192 69.5632 93.3959 69.0631 94.8259 70.9631C97.6659 74.7198 100.666 78.3331 103.606 81.9998C98.0459 85.9631 92.4292 89.8531 86.9392 93.9131C79.5859 99.3531 71.8126 104.103 63.9392 108.706C62.9226 109.303 61.6659 109.64 61.6292 111.173Z" fill="black"/>
<path d="M160.873 231.123C160.183 204.383 183.33 179.023 213.353 180.056C240.047 180.973 262.687 202.916 262.687 231.856C262.667 259.666 240.083 284.779 208.9 283.349C183.3 282.173 159.93 259.783 160.873 231.123ZM211.153 237.569C223.037 236.903 223.153 239.539 222.917 248.446C222.817 252.369 220.73 254.596 216.86 254.733C213.383 254.853 209.9 254.786 206.42 254.733C204.23 254.709 201.863 254.036 201.313 251.903C200.443 248.536 198.233 248.856 195.86 248.903C194.339 248.995 192.813 248.987 191.293 248.879C188.993 248.629 188.77 249.793 189.137 251.636C190.257 257.263 193.243 261.389 198.187 264.303C200.64 265.746 204.54 264.746 205.637 267.136C206.76 269.593 205.97 272.973 205.927 275.949C205.927 277.173 206.33 277.616 207.593 277.786C216.64 278.949 217.143 278.543 217.223 269.409C217.223 269.299 217.223 269.189 217.223 269.076C217.05 267.203 217.413 266.256 219.723 265.926C227.83 264.769 233.323 258.626 234.157 250.383C234.441 247.419 234.429 244.434 234.123 241.473C233.367 233.663 227.677 227.516 220.07 226.266C215.633 225.536 211.17 226.029 206.72 225.886C202.52 225.749 200.54 223.913 200.26 219.683C200.147 218.032 200.159 216.375 200.297 214.726C200.63 210.919 202.63 208.883 206.363 208.726C209.837 208.583 213.323 208.639 216.8 208.726C218.957 208.773 221.39 209.376 221.947 211.523C222.81 214.856 224.977 214.563 227.34 214.489C228.643 214.449 229.973 214.319 231.25 214.513C234.307 214.976 234.363 213.286 233.953 211.023C233.305 207.611 231.616 204.483 229.117 202.072C226.618 199.66 223.433 198.082 220 197.556C217.49 197.156 217.047 196.169 217.207 193.986C217.36 191.903 217.207 189.796 217.243 187.703C217.263 186.519 216.88 186.006 215.597 185.829C206.68 184.589 206.003 185.139 205.957 194.113C205.948 194.224 205.948 194.335 205.957 194.446C206.223 196.396 205.643 197.166 203.467 197.523C195.8 198.783 190.357 204.289 189.213 211.833C188.79 214.639 188.937 217.553 188.99 220.413C189.15 228.846 194.743 235.463 202.93 237.173C205.733 237.756 208.553 237.416 211.153 237.569Z" fill="black"/>
<path d="M211.153 237.569C208.553 237.416 205.733 237.756 202.916 237.169C194.73 235.459 189.136 228.836 188.976 220.409C188.923 217.549 188.776 214.636 189.2 211.829C190.343 204.286 195.776 198.779 203.453 197.519C205.63 197.162 206.21 196.392 205.943 194.442C205.935 194.332 205.935 194.22 205.943 194.109C205.99 185.136 206.666 184.586 215.583 185.826C216.866 186.002 217.25 186.516 217.23 187.699C217.196 189.792 217.347 191.899 217.193 193.982C217.033 196.166 217.477 197.152 219.987 197.552C223.424 198.076 226.614 199.654 229.116 202.068C231.618 204.482 233.31 207.613 233.956 211.029C234.366 213.292 234.31 214.982 231.253 214.519C229.976 214.326 228.647 214.456 227.343 214.496C224.98 214.569 222.813 214.872 221.95 211.529C221.393 209.382 218.95 208.779 216.803 208.732C213.326 208.659 209.84 208.602 206.366 208.732C202.626 208.886 200.63 210.922 200.3 214.732C200.163 216.381 200.15 218.038 200.263 219.689C200.543 223.919 202.523 225.756 206.723 225.892C211.173 226.036 215.636 225.542 220.073 226.272C227.68 227.522 233.37 233.669 234.126 241.479C234.433 244.441 234.444 247.425 234.16 250.389C233.326 258.632 227.826 264.776 219.726 265.932C217.416 266.266 217.06 267.209 217.226 269.082C217.226 269.192 217.226 269.302 217.226 269.416C217.146 278.549 216.643 278.956 207.596 277.792C206.333 277.629 205.93 277.179 205.93 275.956C205.956 272.979 206.763 269.599 205.64 267.142C204.543 264.752 200.64 265.752 198.19 264.309C193.246 261.399 190.26 257.272 189.14 251.642C188.773 249.799 188.996 248.642 191.296 248.886C192.817 248.994 194.342 249.001 195.863 248.909C198.237 248.856 200.446 248.536 201.316 251.909C201.866 254.042 204.233 254.716 206.423 254.739C209.903 254.779 213.387 254.846 216.863 254.739C220.733 254.602 222.82 252.376 222.92 248.452C223.146 239.539 223.037 236.919 211.153 237.569Z" fill="black"/>
</svg>