<?xml version="1.0" ?><svg xmlns="http://www.w3.org/2000/svg" fill="none" viewBox="0 0 200 200">
<mask id="mask0_520_1760" style="mask-type:alpha" maskUnits="userSpaceOnUse" x="0" y="0" width="200" height="200">
<rect y="200" width="200" height="200" transform="rotate(-90 0 200)" fill="black"/>
</mask>
<g mask="url(#mask0_520_1760)">
<path d="M124.584 99.9988C124.584 101.11 124.41 102.152 124.063 103.124C123.716 104.096 123.125 104.999 122.292 105.832L83.7503 144.374C82.2225 145.902 80.3128 146.631 78.0211 146.561C75.7295 146.492 73.8197 145.693 72.292 144.165C70.7642 142.638 70.0003 140.693 70.0003 138.332C70.0003 135.971 70.7642 134.027 72.292 132.499L104.792 99.9988L72.0836 67.2904C70.5559 65.7627 69.8267 63.8529 69.8961 61.5613C69.9656 59.2696 70.7642 57.3599 72.292 55.8321C73.8197 54.3043 75.7642 53.5404 78.1253 53.5404C80.4864 53.5404 82.4309 54.3043 83.9586 55.8321L122.292 94.1654C123.125 94.9988 123.716 95.9015 124.063 96.8738C124.41 97.846 124.584 98.8877 124.584 99.9988Z" fill="black"/>
</g>
</svg>