<?xml version="1.0" ?><svg xmlns="http://www.w3.org/2000/svg" width="200" height="200" viewBox="0 0 200 200" fill="none">
<path d="M23.2812 56.0627C21.4062 56.9065 20 58.9377 20 60.7502C20 62.0002 28.7188 101.219 29.2188 102.188C29.75 103.25 31.375 104.625 32.2812 104.844C32.6562 104.938 33.625 105.094 34.4062 105.219L35.8438 105.469L29.9375 119.375C24.3438 132.594 24.0625 133.375 24.1562 135.031C24.2812 137.125 25.125 138.5 26.875 139.375C29.375 140.656 32.5312 139.75 33.875 137.406C34.2812 136.688 36.9062 130.656 39.7188 123.969L44.8125 111.875H53.25H61.7188L66.0625 122.281C72.5938 137.844 72.7812 138.219 74.4375 139.188C76.1875 140.219 77.875 140.25 79.6875 139.281C81.5312 138.313 82.5938 136.344 82.4062 134.375C82.3438 133.469 80.1875 128.031 76.4688 119.219L70.6562 105.469L72.6875 105.125C75.9062 104.594 77.5 103.031 77.75 100.188C77.9375 97.9065 76.875 96.0002 74.9062 95.0315C73.5938 94.3752 73.1875 94.3752 55.9062 94.3752H38.25L34.5625 77.5627C32.5312 68.344 30.6875 60.1252 30.4375 59.344C29.5 56.344 26.0938 54.8127 23.2812 56.0627Z" fill="black"/>
<path d="M172.125 56.25C169.906 57.4375 169.906 57.5 165.687 76.5938L161.75 94.375H144.093C126.812 94.375 126.406 94.375 125.093 95.0312C123.125 96 122.062 97.9062 122.25 100.188C122.5 103.031 124.093 104.594 127.312 105.125L129.343 105.469L123.531 119.219C119.843 127.969 117.687 133.469 117.593 134.375C117.312 137.312 119.875 140 122.937 140C124.656 140 126.531 138.875 127.375 137.375C127.75 136.688 130.375 130.688 133.187 124.031L138.281 111.875H146.75H155.218L160.312 123.969C163.093 130.656 165.718 136.688 166.125 137.406C167.968 140.625 172.843 140.812 175.062 137.75C175.656 136.906 175.781 136.344 175.781 134.688C175.75 132.75 175.437 131.938 169.968 119.062L164.156 105.469L165.593 105.219C166.375 105.094 167.343 104.938 167.718 104.844C168.625 104.625 170.25 103.25 170.781 102.188C171.281 101.219 180 62 180 60.6875C180 59.4062 178.843 57.4062 177.656 56.5938C176.093 55.5625 173.687 55.4062 172.125 56.25Z" fill="black"/>
<path d="M63.5931 72.625C62.4369 73.1562 61.0931 74.5625 60.6556 75.7188C59.7806 78 60.8119 80.7812 62.9369 82.0312L64.2806 82.8125H79.4681H94.6868V106.094V129.375H92.4368C90.6556 129.375 89.8743 129.531 88.9368 130.094C87.4681 130.906 86.2493 133 86.2493 134.688C86.2493 136.469 87.4681 138.438 89.0618 139.281C90.3743 140 90.5931 140 99.9993 140C109.406 140 109.624 140 110.937 139.281C112.531 138.438 113.749 136.469 113.749 134.688C113.749 133 112.531 130.906 111.062 130.094C110.124 129.531 109.343 129.375 107.593 129.375H105.312V106.094V82.8125H120.531H135.718L137.062 82.0312C138.531 81.1562 139.687 79.2188 139.687 77.5625C139.687 75.5 138.124 73.25 136.156 72.5312C135.562 72.2812 124.156 72.1875 99.9056 72.1875C71.0306 72.2188 64.3431 72.2812 63.5931 72.625Z" fill="black"/>
</svg>