<?xml version="1.0" ?><svg xmlns="http://www.w3.org/2000/svg" fill="none" viewBox="0 0 200 200">
<mask id="mask0_510_1941" style="mask-type:alpha" maskUnits="userSpaceOnUse" x="0" y="0" width="200" height="200">
<rect width="200" height="200" fill="black"/>
</mask>
<g mask="url(#mask0_510_1941)">
<path d="M100 158.333C97.639 158.333 95.6598 157.535 94.0626 155.937C92.4654 154.34 91.6668 152.361 91.6668 150V108.333H50.0001C47.639 108.333 45.6598 107.535 44.0626 105.937C42.4654 104.34 41.6667 102.361 41.6667 100C41.6667 97.6389 42.4654 95.6597 44.0626 94.0625C45.6598 92.4652 47.639 91.6666 50.0001 91.6666H91.6668V50C91.6668 47.6388 92.4654 45.6597 94.0626 44.0625C95.6598 42.4652 97.639 41.6666 100 41.6666C102.361 41.6666 104.34 42.4652 105.938 44.0625C107.535 45.6597 108.333 47.6388 108.333 50V91.6666H150C152.361 91.6666 154.34 92.4652 155.938 94.0625C157.535 95.6597 158.333 97.6389 158.333 100C158.333 102.361 157.535 104.34 155.938 105.937C154.34 107.535 152.361 108.333 150 108.333H108.333V150C108.333 152.361 107.535 154.34 105.938 155.937C104.34 157.535 102.361 158.333 100 158.333Z" fill="black"/>
</g>
</svg>