<?xml version="1.0" ?><svg xmlns="http://www.w3.org/2000/svg" fill="none" viewBox="0 0 200 200">
<g clip-path="url(#clip0_522_1781)">
<path d="M131.818 20H44.5455C36.5455 20 30 26.5455 30 34.5455V136.364H44.5455V34.5455H131.818V20ZM124.545 49.0909L168.182 92.7273V165.455C168.182 173.455 161.636 180 153.636 180H73.5636C65.5636 180 59.0909 173.455 59.0909 165.455L59.1636 63.6364C59.1636 55.6364 65.6364 49.0909 73.6364 49.0909H124.545ZM117.273 100H157.273L117.273 60V100Z" fill="black"/>
</g>
<defs>
<clipPath id="clip0_522_1781">
<rect width="200" height="200" fill="white"/>
</clipPath>
</defs>
</svg>