<?xml version="1.0" ?><svg xmlns="http://www.w3.org/2000/svg" fill="none" viewBox="25 16.67 152.79 166.67">
<path d="M40.8055 17.3269C37.6444 18.1416 35.3632 19.2822 32.9842 21.1723C29.4321 24.0401 26.825 27.9507 25.5866 32.285C25.0326 34.3055 25 37.3689 25 100.069C25 162.77 25.0326 165.833 25.5866 167.854C27.6071 174.925 32.919 180.4 39.8278 182.584L42.272 183.333H80.7265H119.181L121.951 182.323C125.243 181.15 127.719 179.586 130.066 177.207C134.107 173.1 135.834 168.929 136.192 162.477L136.388 159.153L130.555 158.924C127.361 158.827 124.167 158.631 123.515 158.533L122.277 158.338V161.14C122.277 165.312 121.104 167.528 118.203 168.864C116.965 169.451 115.238 169.483 80.6288 169.483C40.9358 169.483 43.1519 169.581 41.001 167.593C40.4796 167.104 39.7952 166.126 39.4693 165.41C38.8827 164.171 38.8502 161.694 38.8502 100.135C38.8502 29.9712 38.7198 34.9573 40.7403 32.839C42.5327 30.9489 43.7385 30.5904 47.975 30.7208C51.4945 30.8185 51.8856 30.8837 53.0588 31.6984C54.9815 33.0672 55.7962 34.5011 56.1547 37.1733C56.5132 40.0737 57.4583 41.8661 59.3158 43.2022L60.7497 44.1799H80.5636H100.377L101.811 43.2022C103.669 41.8661 104.614 40.0737 104.972 37.1733C105.331 34.5336 106.211 32.9368 108.166 31.6333C109.242 30.8837 109.73 30.8185 113.185 30.7208C116.476 30.623 117.161 30.6882 118.236 31.2422C121.202 32.7739 122.277 34.8595 122.277 39.0635V41.9313L124.982 41.5402C126.448 41.3121 129.609 41.1165 132.021 41.1165L136.388 41.084L136.192 37.6947C135.964 33.5886 135.28 30.8511 133.813 28.0485C130.913 22.4759 126.285 18.8585 120.126 17.2943C117.682 16.6751 116.378 16.6425 80.4332 16.6751C44.6183 16.6751 43.1519 16.7077 40.8055 17.3269Z" fill="black"/>
<path d="M129.285 55.0001C121.627 55.6193 113.871 58.3567 107.19 62.8214C104.127 64.8745 98.9126 69.8931 96.3381 73.3475C87.9302 84.4928 85.4209 99.451 89.5597 113.431C90.7003 117.277 93.8614 123.501 96.3381 126.793C99.0104 130.345 104.192 135.364 107.483 137.514C117.912 144.391 130.719 146.867 142.451 144.195C150.5 142.37 158.191 138.231 163.927 132.626C171.129 125.522 175.3 117.766 177.223 107.728C178.005 103.72 177.973 96.3876 177.19 92.2489C174.257 76.6064 163.797 63.8642 149.197 57.9983C143.201 55.6193 135.575 54.4787 129.285 55.0001ZM135.314 73.0868C136.878 74.1622 137.66 75.368 137.823 77.03L137.986 78.4639L140.398 78.6594C141.897 78.7572 143.233 79.0831 143.885 79.4416C145.156 80.1911 146.296 81.8531 146.59 83.3196C146.85 84.7861 145.645 87.2628 144.146 88.2405C143.103 88.9574 142.712 88.99 137.106 88.99C131.632 88.99 131.11 89.0552 130.328 89.6418C129.253 90.4891 128.959 91.8904 129.578 93.3569C130.132 94.693 130.361 94.7582 134.402 94.9537C137.954 95.1493 140.202 96.1269 142.581 98.5059C147.796 103.72 147.926 112.095 142.809 117.472C141.897 118.418 140.463 119.558 139.583 119.982L137.986 120.731L137.856 122.621C137.693 124.74 137.041 125.848 135.314 127.021C132.349 129.074 128.014 126.858 127.591 123.11L127.428 121.676L125.049 121.481C121.529 121.22 119.834 120.112 119.02 117.538C118.303 115.354 119.476 112.747 121.692 111.607C122.344 111.281 124.038 111.15 128.405 111.15C133.782 111.15 134.304 111.085 135.086 110.499C136.161 109.651 136.455 108.25 135.835 106.783C135.281 105.48 135.053 105.382 131.045 105.187C127.591 104.991 125.114 103.916 122.735 101.569C118.792 97.5934 117.716 91.4342 120.128 86.1874C121.171 83.9062 123.778 81.1688 125.831 80.2237L127.428 79.4742L127.558 77.5514C127.786 74.4555 129.839 72.3698 132.707 72.3698C133.75 72.3698 134.565 72.598 135.314 73.0868Z" fill="black"/>
</svg>