<?xml version="1.0" ?><svg xmlns="http://www.w3.org/2000/svg" fill="none" viewBox="0 0 200 200">
<g clip-path="url(#clip0_510_1962)">
<path d="M96.825 17.7822C93.1137 18.4959 91.2224 19.8162 84.014 26.7035C79.482 31.0214 76.6629 33.448 75.7708 33.7691C74.5218 34.233 73.6653 34.1617 66.2428 33.1625C61.7465 32.5201 57.0004 31.9849 55.7157 31.9849C50.3629 31.9135 45.5097 34.4828 42.5122 38.9078C40.7279 41.6199 40.3354 42.9402 38.6225 52.7893C37.8374 57.2856 36.9453 61.4251 36.6598 62.0318C35.9818 63.2807 35.054 63.8874 27.7385 67.7057C17.7824 72.9157 16.0695 74.2718 13.9998 78.5897C12.8578 81.0163 12.5367 82.7291 12.501 85.9765C12.501 88.9741 13.0363 90.4728 17.4612 99.5369C20.3517 105.496 21.2438 107.637 21.2438 108.744C21.2438 109.85 20.3517 111.991 17.4612 117.95C13.0363 127.014 12.501 128.513 12.501 131.511C12.5367 134.758 12.8578 136.471 13.9998 138.898C16.0695 143.215 17.7824 144.572 27.7385 149.782C35.054 153.6 35.9818 154.207 36.6598 155.455C36.9453 156.062 37.8374 160.202 38.6225 164.734C39.4076 169.23 40.2997 173.655 40.5495 174.547C42.4765 180.97 48.4716 185.431 55.2161 185.502C56.6078 185.538 61.461 185.003 66.0644 184.36C73.6653 183.326 74.5218 183.254 75.7708 183.718C76.6629 184.039 79.482 186.466 84.014 190.784C89.4739 196.03 91.3295 197.564 93.1137 198.385C96.147 199.812 99.3586 200.312 102.356 199.812C106.817 199.063 108.458 197.992 115.988 190.784C120.52 186.466 123.339 184.039 124.231 183.718C125.48 183.254 126.337 183.326 133.759 184.325C138.255 184.967 143.002 185.502 144.286 185.502C149.639 185.574 154.492 183.004 157.49 178.579C159.274 175.867 159.667 174.547 161.379 164.698C162.165 160.202 163.057 156.062 163.342 155.455C164.02 154.171 164.805 153.671 173.191 149.282C181.113 145.107 182.862 143.858 184.753 141.003C186.645 138.22 187.465 135.579 187.501 132.082C187.501 128.442 187.144 127.407 182.541 117.95C179.65 111.991 178.758 109.85 178.758 108.744C178.758 107.637 179.65 105.496 182.541 99.5369C187.144 90.0803 187.501 89.0454 187.501 85.4055C187.465 81.9084 186.645 79.2677 184.753 76.4842C182.862 73.6294 181.113 72.3805 173.191 68.2053C164.805 63.816 164.02 63.3164 163.342 62.0318C163.057 61.4251 162.165 57.2856 161.379 52.7893C159.667 42.9402 159.274 41.6199 157.49 38.9078C154.492 34.4828 149.639 31.9135 144.286 31.9849C143.002 31.9849 138.255 32.5201 133.759 33.1625C126.337 34.1617 125.48 34.233 124.231 33.7691C123.339 33.448 120.52 31.0214 115.988 26.7035C110.599 21.5648 108.637 19.9233 106.96 19.1382C103.534 17.5324 100.322 17.1042 96.825 17.7822ZM82.9792 61.8176C91.2224 63.5662 97.4673 70.8103 98.1097 79.3747C98.7877 88.4031 92.5785 96.9675 83.6929 99.2871C77.1625 101 70.3109 99.0373 65.3864 94.1127C59.534 88.2603 58.0352 79.8387 61.4967 72.4518C65.315 64.3513 74.2006 59.962 82.9792 61.8176ZM137.399 69.49C139.683 70.8817 140.646 73.9863 139.469 76.1988C138.826 77.3764 68.3839 147.747 67.2777 148.318C66.0644 148.925 63.8876 148.782 62.6029 147.997C60.3191 146.606 59.3556 143.501 60.5332 141.288C61.1398 140.218 131.547 69.7754 132.653 69.1688C133.795 68.5621 136.114 68.7049 137.399 69.49ZM126.087 118.236C131.118 119.735 135.972 123.66 138.148 127.978C141.86 135.293 140.646 144.143 135.222 149.817C129.013 156.312 120.484 157.918 112.669 154.099C106.389 150.995 102.392 145.071 101.892 138.113C101.214 129.191 107.388 120.591 116.166 118.2C118.736 117.522 123.696 117.522 126.087 118.236Z" fill="black"/>
<path d="M75.2002 72.8076C72.0599 74.3063 70.3113 77.0541 70.2756 80.5512C70.24 85.5115 73.9869 89.2584 78.9471 89.2584C87.69 89.2584 90.9017 77.8749 83.4435 73.2358C81.0169 71.7727 77.7695 71.5943 75.2002 72.8076Z" fill="black"/>
<path d="M119.092 128.335C111.527 130.298 109.957 140.147 116.558 144.215C118.914 145.678 121.947 145.892 124.552 144.786C131.261 141.896 131.51 132.403 124.944 129.085C123.446 128.3 120.591 127.943 119.092 128.335Z" fill="black"/>
</g>
<defs>
<clipPath id="clip0_510_1962">
<rect width="200" height="200" fill="white"/>
</clipPath>
</defs>
</svg>