<?xml version="1.0" ?><svg xmlns="http://www.w3.org/2000/svg" fill="none" viewBox="6.17 8.74 23.14 18.07">
<path d="M26.5099 10.3181H19.8959C19.2129 10.3181 18.6592 10.8718 18.6592 11.5549V24.0002C18.6592 24.6832 19.2129 25.2369 19.8959 25.2369H26.5099C27.1929 25.2369 27.7466 24.6832 27.7466 24.0002V11.5549C27.7466 10.8718 27.1929 10.3181 26.5099 10.3181Z" fill="black"/>
<path d="M6.94052 26.0515C6.42744 25.5445 6.1709 24.7871 6.1709 23.7793V11.7854C6.1709 10.7713 6.42744 10.0107 6.94052 9.50353C7.45359 8.99637 8.224 8.74279 9.25173 8.74279H26.2318C27.2655 8.74279 28.0376 8.99805 28.5481 9.50856C29.0586 10.0191 29.3138 10.778 29.3136 11.7854V23.7793C29.3136 24.7871 29.0584 25.5445 28.5481 26.0515C28.0378 26.5584 27.2657 26.812 26.2318 26.8122H9.25173C8.22459 26.8122 7.45418 26.5586 6.94052 26.0515ZM26.212 25.2318C26.6963 25.2318 27.0712 25.1027 27.3368 24.8444C27.6025 24.586 27.735 24.2012 27.7344 23.6899V11.8739C27.7344 11.3634 27.6019 10.9773 27.3368 10.7157C27.0718 10.454 26.6969 10.3232 26.212 10.3232H9.27157C8.78079 10.3232 8.40456 10.454 8.14289 10.7157C7.88122 10.9773 7.75029 11.3634 7.75009 11.8739V23.6911C7.75009 24.2014 7.88103 24.5862 8.14289 24.8455C8.40476 25.1048 8.78098 25.234 9.27157 25.233L26.212 25.2318ZM9.47285 22.0814C9.3895 21.9791 9.34588 21.8501 9.35001 21.7182C9.35001 21.4891 9.43674 21.1913 9.6102 20.8249C9.78366 20.4584 10.0487 20.0904 10.4053 19.7208C10.7617 19.3514 11.2098 19.0422 11.7497 18.7934C12.2896 18.5445 12.926 18.4202 13.6587 18.4204C14.3916 18.4204 15.0296 18.5447 15.5727 18.7934C16.1157 19.042 16.5656 19.3512 16.9221 19.7208C17.2789 20.0906 17.544 20.4586 17.7172 20.8249C17.8905 21.1911 17.9776 21.4889 17.9786 21.7182C17.9826 21.8501 17.939 21.979 17.8557 22.0814C17.7741 22.1801 17.6547 22.2294 17.4976 22.2294H9.83102C9.67374 22.2288 9.55435 22.1795 9.47285 22.0814ZM12.1422 17.0671C11.7205 16.6221 11.5096 16.0626 11.5094 15.3887C11.5053 14.9946 11.6013 14.606 11.7884 14.2591C11.9755 13.9122 12.2476 13.6185 12.5791 13.4055C12.9028 13.2003 13.278 13.0914 13.6612 13.0914C14.0444 13.0914 14.4196 13.2003 14.7432 13.4055C15.0734 13.6197 15.3442 13.9137 15.5304 14.2604C15.7167 14.6071 15.8125 14.9952 15.8089 15.3887C15.8089 16.0626 15.5995 16.6221 15.1807 17.0671C14.762 17.5121 14.2548 17.7346 13.6593 17.7346C13.0702 17.7338 12.5645 17.5113 12.1422 17.0671ZM19.6164 14.3681C19.5588 14.3121 19.5134 14.2449 19.4828 14.1706C19.4523 14.0963 19.4373 14.0165 19.4388 13.9362C19.437 13.8566 19.4519 13.7774 19.4825 13.7039C19.513 13.6303 19.5587 13.564 19.6164 13.5091C19.6748 13.4524 19.744 13.408 19.8198 13.3785C19.8957 13.3491 19.9767 13.3351 20.058 13.3374H25.4158C25.4956 13.3357 25.5749 13.35 25.6491 13.3795C25.7233 13.409 25.7908 13.453 25.8476 13.5091C25.9054 13.564 25.951 13.6303 25.9816 13.7039C26.0122 13.7774 26.027 13.8566 26.0252 13.9362C26.0259 14.0163 26.0106 14.0958 25.9803 14.1699C25.9499 14.2441 25.9051 14.3114 25.8485 14.3681C25.7918 14.4247 25.7245 14.4695 25.6503 14.4999C25.5762 14.5302 25.4968 14.5455 25.4166 14.5448H20.0589C19.9769 14.547 19.8953 14.5324 19.8192 14.5018C19.7431 14.4712 19.674 14.4253 19.6164 14.3669V14.3681ZM19.6164 18.2162C19.5582 18.1585 19.5124 18.0896 19.4818 18.0136C19.4513 17.9376 19.4366 17.8561 19.4388 17.7742C19.4377 17.6962 19.453 17.6188 19.4835 17.5469C19.5141 17.4751 19.5594 17.4105 19.6164 17.3572C19.6748 17.3005 19.744 17.2561 19.8198 17.2266C19.8957 17.1971 19.9767 17.1831 20.058 17.1855H25.4158C25.4956 17.1838 25.5749 17.1981 25.6491 17.2276C25.7233 17.2571 25.7908 17.3011 25.8476 17.3572C25.9046 17.4105 25.9499 17.4751 25.9805 17.5469C26.0111 17.6188 26.0263 17.6962 26.0252 17.7742C26.0274 17.8561 26.0127 17.9376 25.9822 18.0136C25.9516 18.0896 25.9058 18.1585 25.8476 18.2162C25.7916 18.2737 25.7243 18.3191 25.6501 18.3497C25.5758 18.3802 25.4961 18.3952 25.4158 18.3938H20.058C19.9761 18.3956 19.8946 18.3807 19.8186 18.3498C19.7427 18.319 19.6739 18.2729 19.6164 18.2144V18.2162ZM19.6164 22.0586C19.5593 22.0053 19.5141 21.9407 19.4835 21.8689C19.4529 21.7971 19.4377 21.7196 19.4388 21.6416C19.4376 21.5605 19.4527 21.4801 19.4832 21.4051C19.5137 21.33 19.559 21.2618 19.6164 21.2047C19.6734 21.1454 19.7421 21.0987 19.8181 21.0674C19.8941 21.0362 19.9759 21.0211 20.058 21.0232H25.4158C25.4964 21.0217 25.5765 21.0371 25.6509 21.0683C25.7252 21.0996 25.7922 21.146 25.8476 21.2047C25.905 21.2618 25.9503 21.33 25.9808 21.4051C26.0114 21.4801 26.0265 21.5605 26.0252 21.6416C26.0263 21.7196 26.0111 21.7971 25.9805 21.8689C25.95 21.9407 25.9047 22.0053 25.8476 22.0586C25.7908 22.1147 25.7233 22.1588 25.6491 22.1883C25.5749 22.2178 25.4956 22.2321 25.4158 22.2303H20.058C19.9766 22.2325 19.8955 22.2182 19.8196 22.1884C19.7437 22.1587 19.6746 22.1139 19.6164 22.0569V22.0586Z" fill="black"/>
</svg>