<?xml version="1.0" ?><svg xmlns="http://www.w3.org/2000/svg" fill="none" viewBox="6.21 8.62 23.62 18.99">
<path d="M24.4911 18.99C27.0378 18.99 29.1023 16.6961 29.1023 13.8665C29.1023 11.0368 27.0378 8.74292 24.4911 8.74292C21.9444 8.74292 19.8799 11.0368 19.8799 13.8665C19.8799 16.6961 21.9444 18.99 24.4911 18.99Z" fill="black"/>
<path fill-rule="evenodd" clip-rule="evenodd" d="M19.7759 25.5445C19.7759 24.4047 20.6999 23.4807 21.8397 23.4807C22.9796 23.4807 23.9035 24.4047 23.9035 25.5445C23.9035 26.6844 22.9796 27.6084 21.8397 27.6084C20.6999 27.6084 19.7759 26.6844 19.7759 25.5445ZM21.8397 25.0236C21.552 25.0236 21.3187 25.2568 21.3187 25.5445C21.3187 25.8323 21.552 26.0655 21.8397 26.0655C22.1275 26.0655 22.3607 25.8323 22.3607 25.5445C22.3607 25.2568 22.1275 25.0236 21.8397 25.0236Z" fill="black"/>
<path fill-rule="evenodd" clip-rule="evenodd" d="M11.375 25.5445C11.375 24.4047 12.299 23.4807 13.4388 23.4807C14.5787 23.4807 15.5027 24.4047 15.5027 25.5445C15.5027 26.6844 14.5787 27.6084 13.4388 27.6084C12.299 27.6084 11.375 26.6844 11.375 25.5445ZM13.4388 25.0236C13.1511 25.0236 12.9179 25.2568 12.9179 25.5445C12.9179 25.8323 13.1511 26.0655 13.4388 26.0655C13.7266 26.0655 13.9598 25.8323 13.9598 25.5445C13.9598 25.2568 13.7266 25.0236 13.4388 25.0236Z" fill="black"/>
<path fill-rule="evenodd" clip-rule="evenodd" d="M18.5569 11.2026H10.1409L9.66657 9.21043C9.58383 8.86292 9.27334 8.61768 8.91612 8.61768H6.97748C6.55143 8.61768 6.20605 8.96306 6.20605 9.3891C6.20605 9.81515 6.55143 10.1606 6.97748 10.1606H8.30681L10.7304 20.3394C10.7298 20.3512 10.7296 20.3629 10.7296 20.3748C10.7296 20.5126 10.7657 20.642 10.8291 20.754L11.3968 23.1383C11.4795 23.4858 11.79 23.7311 12.1472 23.7311H23.1329C23.5589 23.7311 23.9043 23.3857 23.9043 22.9596C23.9043 22.5336 23.5589 22.1882 23.1329 22.1882H12.7565L12.5084 21.1462H23.1329C23.4921 21.1462 23.8038 20.8983 23.8845 20.5482L23.9289 20.356C23.0048 20.2859 22.1351 20.0214 21.3604 19.6033H12.1411L10.5083 12.7454H18.068C18.1666 12.2046 18.3326 11.6874 18.5569 11.2026Z" fill="black"/>
<path d="M24.4287 19.0285C27.127 19.0285 29.3144 16.8411 29.3144 14.1428C29.3144 11.4445 27.127 9.25708 24.4287 9.25708C21.7304 9.25708 19.543 11.4445 19.543 14.1428C19.543 16.8411 21.7304 19.0285 24.4287 19.0285Z" fill="black"/>
<path fill-rule="evenodd" clip-rule="evenodd" d="M24.4288 9.77149C22.0145 9.77149 20.0574 11.7286 20.0574 14.1429C20.0574 16.5572 22.0145 18.5143 24.4288 18.5143C26.8431 18.5143 28.8002 16.5572 28.8002 14.1429C28.8002 11.7286 26.8431 9.77149 24.4288 9.77149ZM19.0288 14.1429C19.0288 11.1606 21.4465 8.74292 24.4288 8.74292C27.4111 8.74292 29.8288 11.1606 29.8288 14.1429C29.8288 17.1253 27.4111 19.5429 24.4288 19.5429C21.4465 19.5429 19.0288 17.1253 19.0288 14.1429Z" fill="black"/>
<path d="M26.2285 15.3722C26.2285 15.7658 26.1005 16.1047 25.8446 16.3889C25.5886 16.6732 25.2561 16.8487 24.8472 16.9156V17.5908C24.8472 17.6268 24.8356 17.6564 24.8124 17.6796C24.7893 17.7027 24.7597 17.7143 24.7237 17.7143H24.2028C24.1694 17.7143 24.1404 17.7021 24.116 17.6776C24.0916 17.6532 24.0793 17.6243 24.0793 17.5908V16.9156C23.9096 16.8924 23.7456 16.8526 23.5874 16.796C23.4292 16.7394 23.2987 16.6822 23.1958 16.6243C23.0929 16.5664 22.9977 16.5047 22.9102 16.4391C22.8228 16.3735 22.763 16.3253 22.7308 16.2944C22.6987 16.2635 22.6762 16.2404 22.6633 16.2249C22.6196 16.1709 22.617 16.1182 22.6556 16.0668L23.053 15.5459C23.071 15.5201 23.1006 15.5047 23.1417 15.4996C23.1803 15.4944 23.2112 15.506 23.2344 15.5343L23.2421 15.542C23.5327 15.7967 23.8453 15.9574 24.1797 16.0243C24.2748 16.0449 24.37 16.0552 24.4652 16.0552C24.6735 16.0552 24.8568 15.9999 25.015 15.8893C25.1732 15.7787 25.2523 15.6218 25.2523 15.4185C25.2523 15.3465 25.233 15.2784 25.1944 15.214C25.1558 15.1497 25.1127 15.0957 25.0652 15.052C25.0176 15.0083 24.9423 14.96 24.8394 14.9073C24.7366 14.8546 24.6517 14.8134 24.5848 14.7838C24.5179 14.7543 24.415 14.7125 24.2761 14.6584C24.1758 14.6173 24.0967 14.5851 24.0388 14.562C23.9809 14.5388 23.9019 14.5047 23.8015 14.4597C23.7012 14.4147 23.6208 14.3748 23.5604 14.3401C23.4999 14.3054 23.4273 14.2597 23.3424 14.2032C23.2575 14.1466 23.1887 14.0919 23.136 14.0392C23.0832 13.9864 23.0273 13.9234 22.9681 13.8501C22.909 13.7768 22.8633 13.7022 22.8311 13.6263C22.799 13.5504 22.772 13.4649 22.7501 13.3697C22.7283 13.2746 22.7173 13.1742 22.7173 13.0688C22.7173 12.7138 22.8434 12.4026 23.0954 12.1351C23.3475 11.8675 23.6755 11.6952 24.0793 11.618V10.9235C24.0793 10.8901 24.0916 10.8611 24.116 10.8367C24.1404 10.8123 24.1694 10.8 24.2028 10.8H24.7237C24.7597 10.8 24.7893 10.8116 24.8124 10.8348C24.8356 10.8579 24.8472 10.8875 24.8472 10.9235V11.6026C24.9938 11.618 25.1359 11.6476 25.2735 11.6913C25.4111 11.7351 25.523 11.7782 25.6092 11.8206C25.6954 11.863 25.777 11.9113 25.8542 11.9653C25.9314 12.0193 25.9815 12.0566 26.0047 12.0772C26.0278 12.0978 26.0471 12.1158 26.0626 12.1312C26.1063 12.1775 26.1127 12.2264 26.0818 12.2778L25.7693 12.8411C25.7487 12.8797 25.7192 12.9003 25.6806 12.9029C25.6446 12.9106 25.6098 12.9016 25.5764 12.8759C25.5687 12.8681 25.55 12.8527 25.5204 12.8296C25.4909 12.8064 25.4407 12.7723 25.37 12.7273C25.2992 12.6823 25.224 12.6411 25.1443 12.6038C25.0645 12.5665 24.9687 12.5331 24.8568 12.5035C24.7449 12.4739 24.6349 12.4592 24.5269 12.4592C24.2825 12.4592 24.0832 12.5145 23.9289 12.6251C23.7745 12.7357 23.6974 12.8784 23.6974 13.0533C23.6974 13.1202 23.7083 13.182 23.7302 13.2386C23.752 13.2951 23.79 13.3485 23.844 13.3987C23.898 13.4488 23.9488 13.4913 23.9964 13.526C24.044 13.5607 24.116 13.6006 24.2125 13.6456C24.3089 13.6906 24.3867 13.7254 24.4459 13.7498C24.505 13.7742 24.5951 13.8096 24.716 13.8559C24.8523 13.9073 24.9565 13.9479 25.0285 13.9774C25.1005 14.007 25.1983 14.052 25.3217 14.1125C25.4452 14.1729 25.5423 14.2276 25.613 14.2765C25.6838 14.3253 25.7635 14.3896 25.8523 14.4694C25.941 14.5491 26.0092 14.6308 26.0568 14.7144C26.1044 14.798 26.1449 14.8964 26.1783 15.0096C26.2117 15.1227 26.2285 15.2436 26.2285 15.3722Z" fill="black"/>
</svg>