<?xml version="1.0" ?><svg xmlns="http://www.w3.org/2000/svg" fill="none" viewBox="8.74 6.17 18.36 23.14">
<path d="M10.2861 9H12.8575V10.2857H23.4004V9H25.4575L25.9718 27.7714H10.2861V9Z" fill="black"/>
<path fill-rule="evenodd" clip-rule="evenodd" d="M10.0288 8.74286H13.1145V10.0286H23.1431V8.74286H25.7075L26.2359 28.0285H10.0288V8.74286ZM10.5431 9.25714V27.5143H25.7074L25.2072 9.25714H23.6574V10.5428H12.6002V9.25714H10.5431Z" fill="black"/>
<path d="M15.5728 6.19926C14.8722 6.31678 14.1399 6.66933 13.6563 7.12133L13.3218 7.43321H11.9658C10.4878 7.43321 10.2844 7.45581 9.85959 7.66825C9.34883 7.92588 8.91944 8.48184 8.7974 9.05135C8.72508 9.39035 8.72508 27.3527 8.7974 27.6917C8.86972 28.0261 9.07764 28.4239 9.31719 28.677C9.55223 28.9256 10.0177 29.1878 10.3658 29.2601C10.7048 29.3324 25.1415 29.3324 25.4805 29.2601C26.2489 29.0974 26.8862 28.4555 27.049 27.6917C27.1213 27.3481 27.1213 9.39035 27.049 9.05135C26.8862 8.28748 26.2399 7.64113 25.4805 7.48293C25.3359 7.45129 24.7031 7.43321 23.8805 7.43321H22.52L22.2171 7.14393C21.8736 6.82301 21.5301 6.60154 21.069 6.42074C20.4769 6.18118 20.278 6.16762 17.887 6.17214C16.6756 6.17666 15.636 6.19022 15.5728 6.19926ZM20.269 7.59141C20.4272 7.63209 20.6848 7.72701 20.834 7.80385C21.286 8.0434 21.7922 8.61744 21.9233 9.04684L21.9504 9.15079H17.9231H13.8959L13.923 9.04684C13.9998 8.80728 14.2123 8.47732 14.4699 8.21516C14.7682 7.91232 15.2383 7.64565 15.6225 7.57333C15.731 7.55073 16.757 7.53265 17.9005 7.52813C19.6091 7.52361 20.0295 7.53717 20.269 7.59141ZM12.5127 9.09203C12.4766 9.26379 12.454 9.56211 12.463 9.77003C12.4766 10.1678 12.5489 10.2988 12.8246 10.4435C13.0054 10.5384 22.8409 10.5384 23.0217 10.4435C23.2974 10.2988 23.3697 10.1678 23.3833 9.77003C23.3923 9.56211 23.3697 9.26379 23.3335 9.09203L23.2703 8.7892H24.224C25.3178 8.7892 25.4624 8.82536 25.6432 9.14627L25.7427 9.32255V18.3715V27.4205L25.6478 27.5922C25.5935 27.6871 25.476 27.8047 25.3811 27.8589L25.2093 27.9538H17.9231H10.637L10.4652 27.8589C10.3703 27.8047 10.2528 27.6871 10.1985 27.5922L10.1036 27.4205V18.3715V9.32255L10.203 9.14627C10.3838 8.82536 10.524 8.7892 11.6223 8.7892H12.576L12.5127 9.09203Z" fill="black"/>
<path d="M20.0745 12.6763C19.7717 12.7712 19.5547 13.1374 19.6135 13.4583C19.6677 13.743 19.9389 13.9871 20.2056 13.9871C20.2689 13.9871 20.3186 14.0007 20.3186 14.0233C20.3186 14.0414 19.9615 14.412 19.5276 14.8459L18.7366 15.6369L17.6382 14.5386C16.4495 13.3543 16.3817 13.3046 16.0382 13.395C15.8981 13.4357 15.6088 13.7024 14.5014 14.8098C13.3352 15.9804 13.1364 16.2019 13.1092 16.3465C13.0279 16.7895 13.3217 17.1511 13.7646 17.1511C13.8686 17.1511 13.9952 17.1285 14.0494 17.1014C14.1036 17.0743 14.6099 16.5906 15.1794 16.0301L16.2054 15.0041L17.2812 16.0753C17.8688 16.6629 18.3976 17.1647 18.4518 17.1918C18.5784 17.2551 18.8948 17.2551 19.0214 17.1918C19.0756 17.1647 19.6089 16.6539 20.2101 16.0573L21.2994 14.9725L21.3265 15.1533C21.4305 15.7815 22.2983 15.9126 22.5921 15.3431C22.6644 15.203 22.669 15.0674 22.6599 14.1363C22.6464 12.9837 22.6418 12.9792 22.3345 12.7486C22.217 12.6583 22.1447 12.6537 21.209 12.6447C20.6576 12.6402 20.1468 12.6537 20.0745 12.6763Z" fill="black"/>
<path d="M14.8041 19.5286C14.7182 19.5647 14.4063 19.8314 14.1171 20.1207L13.5882 20.645L13.4029 20.4778C13.299 20.3874 13.1679 20.2925 13.1046 20.2699C12.5486 20.0574 11.9927 20.6586 12.2548 21.1874C12.3543 21.3863 13.073 22.1095 13.2764 22.218C13.4888 22.3264 13.6786 22.3264 13.8911 22.218C13.9815 22.1682 14.4154 21.7705 14.8538 21.323C15.4911 20.6812 15.6629 20.4823 15.7036 20.3377C15.7985 19.9941 15.5861 19.5919 15.2651 19.5015C15.0482 19.4427 14.9939 19.4472 14.8041 19.5286Z" fill="black"/>
<path d="M17.1051 20.3286C16.6938 20.6043 16.7028 21.1467 17.1277 21.4631C17.2497 21.558 17.2949 21.558 20.2058 21.558C23.1166 21.558 23.1618 21.558 23.2839 21.4631C23.7087 21.1467 23.7178 20.6043 23.3065 20.3286L23.1528 20.2246H20.2058H17.2588L17.1051 20.3286Z" fill="black"/>
<path d="M15.0077 23.3661C14.9851 23.3752 14.9037 23.3932 14.8314 23.4113C14.7455 23.4294 14.5014 23.6328 14.1443 23.9853L13.5884 24.5323L13.4211 24.3831C13.2358 24.2204 13.0053 24.1119 12.8516 24.1119C12.6618 24.1119 12.3861 24.2837 12.2821 24.469C12.0697 24.8487 12.1601 25.0701 12.7838 25.6849C13.281 26.173 13.4031 26.2363 13.7556 26.1685C13.8957 26.1414 14.0539 26.0058 14.75 25.3187C15.2065 24.8667 15.6133 24.4328 15.6495 24.3605C15.8077 24.0622 15.6947 23.6328 15.4145 23.4746C15.2698 23.3932 15.08 23.3435 15.0077 23.3661Z" fill="black"/>
<path d="M17.173 24.1751C16.9515 24.2745 16.8159 24.5005 16.8159 24.7762C16.8159 25.0294 16.8972 25.183 17.1278 25.3503C17.2498 25.4452 17.295 25.4452 20.2058 25.4452C23.1167 25.4452 23.1619 25.4452 23.2839 25.3503C23.5145 25.183 23.5958 25.0294 23.5958 24.7762C23.5958 24.496 23.4602 24.27 23.2297 24.1751C23.0127 24.0847 17.3809 24.0847 17.173 24.1751Z" fill="black"/>
</svg>