<?xml version="1.0" ?><svg xmlns="http://www.w3.org/2000/svg" fill="none" viewBox="6.69 8.23 23.14 19.93">
<g id="visitor alternate">
<g id="Group">
<path id="Vector" d="M22.4714 8.25559C21.0886 8.44991 19.9542 9.43962 19.5882 10.7863C19.5294 11.0033 19.5068 11.2428 19.5068 11.6902C19.5068 12.2596 19.5159 12.3274 19.656 12.7296C20.1531 14.1803 21.3959 15.0796 22.9143 15.0796C24.4915 15.0796 25.8247 14.0673 26.2405 12.5488C26.3534 12.1421 26.358 11.1931 26.245 10.7863C26.0552 10.0904 25.5897 9.38087 25.0474 8.96058C24.3243 8.40924 23.3346 8.13809 22.4714 8.25559ZM23.5741 9.84183C24.0577 10.0226 24.4147 10.3435 24.6497 10.8135C25.2824 12.0743 24.3469 13.5883 22.9369 13.5883C22.3585 13.5883 21.9156 13.3984 21.5224 12.9872C21.0614 12.4946 20.8897 11.9071 21.0208 11.2744C21.2648 10.1265 22.4895 9.43962 23.5741 9.84183Z" fill="black"/>
<g id="Vector_2">
<path d="M13.0078 12.1873C12.6734 12.2461 12.348 12.3636 11.9549 12.5624C11.4487 12.82 10.8522 13.4211 10.5901 13.9272C10.2737 14.5418 10.1924 14.8717 10.1924 15.5767C10.1924 16.2817 10.2692 16.6071 10.5901 17.2262C10.8115 17.651 11.39 18.2657 11.8057 18.5097C12.9943 19.2057 14.4404 19.165 15.5476 18.4103C17.0435 17.3889 17.4728 15.3779 16.5373 13.7781C16.2933 13.3623 15.6787 12.7839 15.2539 12.5624C14.689 12.2732 14.341 12.1828 13.74 12.1647C13.4553 12.1557 13.1253 12.1647 13.0078 12.1873ZM14.2958 13.7645C14.7839 13.9543 15.2132 14.3882 15.4211 14.8988C15.5612 15.2513 15.5612 15.9021 15.4211 16.2546C15.2223 16.7517 14.7794 17.1946 14.2823 17.3934C13.9298 17.5335 13.279 17.5335 12.9265 17.3934C11.625 16.8692 11.2499 15.2649 12.1944 14.2571C12.7322 13.6832 13.5682 13.4889 14.2958 13.7645Z" fill="black"/>
<path d="M14.2958 13.7645C14.7839 13.9543 15.2132 14.3882 15.4211 14.8988C15.5612 15.2513 15.5612 15.9021 15.4211 16.2546C15.2223 16.7517 14.7794 17.1946 14.2823 17.3934C13.9298 17.5335 13.279 17.5335 12.9265 17.3934C11.625 16.8692 11.2499 15.2649 12.1944 14.2571C12.7322 13.6832 13.5682 13.4889 14.2958 13.7645Z" fill="black"/>
</g>
<g id="Vector_3">
<path d="M20.6318 16.1236C20.2206 16.1778 19.5969 16.354 19.1586 16.5438C17.857 17.1087 16.7001 18.3786 16.2708 19.7208L16.1714 20.0281H13.6542H11.1415L10.6986 20.1502C8.74179 20.688 7.35891 22.0844 6.8166 24.0683C6.73074 24.3801 6.71718 24.5654 6.70362 26.0387L6.68555 27.6656L6.78949 27.8193C6.84824 27.9051 6.96574 28.0181 7.0516 28.0678C7.20977 28.1627 7.23689 28.1627 13.6045 28.1627C19.972 28.1627 19.9991 28.1627 20.1573 28.0678C20.2432 28.0181 20.3607 27.9051 20.4194 27.8193L20.5234 27.6656L20.5053 26.0613C20.4962 25.18 20.4736 24.4118 20.451 24.353L20.4194 24.2536H24.8573H29.2997L29.4895 24.1406C29.8239 23.9463 29.8284 23.9192 29.8284 22.2652C29.8284 20.9772 29.8194 20.7603 29.7335 20.3535C29.3132 18.2702 27.727 16.6794 25.5803 16.1823C25.2866 16.1145 24.9431 16.1055 23.0948 16.0919C21.9153 16.0874 20.8081 16.101 20.6318 16.1236ZM25.4448 17.6917C26.3622 17.9493 27.1033 18.469 27.6411 19.2237C28.1563 19.9378 28.328 20.5569 28.3687 21.8449L28.3958 22.7623H24.1432H19.8952L19.6421 22.3872C19.1766 21.6957 18.5801 21.1263 17.8977 20.7286C17.7214 20.6247 17.5814 20.5343 17.5814 20.5253C17.5814 20.5117 17.6401 20.34 17.7169 20.1366C18.1914 18.8306 19.3755 17.8544 20.7764 17.6104C20.8939 17.5923 21.9198 17.5787 23.0496 17.5833C25.0019 17.5923 25.1239 17.5968 25.4448 17.6917ZM16.1578 21.6008C17.5181 21.994 18.5756 23.0786 18.919 24.4253C19.0139 24.8049 19.0275 24.9496 19.0275 25.7721V26.694H13.5819H8.13621V26.0929C8.14073 25.7675 8.15881 25.2885 8.1814 25.0354C8.33054 23.3859 9.48294 22.0256 11.0873 21.6099C11.503 21.5014 11.5075 21.5014 13.6948 21.5104C15.62 21.5195 15.9183 21.533 16.1578 21.6008Z" fill="black"/>
<path d="M16.1578 21.6008C17.5181 21.994 18.5756 23.0786 18.919 24.4253C19.0139 24.8049 19.0275 24.9496 19.0275 25.7721V26.694H13.5819H8.13621V26.0929C8.14073 25.7675 8.15881 25.2885 8.1814 25.0354C8.33054 23.3859 9.48294 22.0256 11.0873 21.6099C11.503 21.5014 11.5075 21.5014 13.6948 21.5104C15.62 21.5195 15.9183 21.533 16.1578 21.6008Z" fill="black"/>
</g>
</g>
</g>
</svg>