<?xml version="1.0" ?><svg xmlns="http://www.w3.org/2000/svg" fill="none" viewBox="6.02 6.02 24.16 23.23">
<path fill-rule="evenodd" clip-rule="evenodd" d="M27.1975 25.5439H29.0404C29.3247 25.5439 29.5552 25.3134 29.5552 25.0291C29.5552 24.7448 29.3247 24.5143 29.0404 24.5143L25.9549 24.5143C25.9549 24.5143 25.9548 24.5143 25.9547 24.5143C25.8849 24.5143 25.8184 24.5282 25.7577 24.5533C25.697 24.5785 25.6401 24.6157 25.5907 24.6651C25.5414 24.7144 25.5041 24.7713 25.479 24.832C25.4538 24.8927 25.4399 24.9593 25.4399 25.0291C25.4399 25.0291 25.4399 25.0292 25.4399 25.0293L25.4399 28.1148C25.4399 28.3991 25.6704 28.6296 25.9547 28.6296C26.239 28.6296 26.4695 28.3991 26.4695 28.1148V26.2719L29.2935 29.096C29.4946 29.297 29.8205 29.297 30.0215 29.096C30.2226 28.895 30.2226 28.569 30.0216 28.368L27.1975 25.5439Z" fill="black"/>
<path fill-rule="evenodd" clip-rule="evenodd" d="M9.04221 25.5439H7.19931C6.915 25.5439 6.68452 25.3134 6.68452 25.0291C6.68452 24.7448 6.915 24.5143 7.19931 24.5143L10.2848 24.5143C10.2849 24.5143 10.2849 24.5143 10.285 24.5143C10.3548 24.5143 10.4214 24.5282 10.4821 24.5533C10.5428 24.5785 10.5997 24.6157 10.649 24.6651C10.6984 24.7144 10.7356 24.7713 10.7607 24.832C10.7859 24.8927 10.7998 24.9593 10.7998 25.0291C10.7998 25.0291 10.7998 25.0292 10.7998 25.0293L10.7998 28.1148C10.7998 28.3991 10.5693 28.6296 10.285 28.6296C10.0007 28.6296 9.77021 28.3991 9.77021 28.1148V26.2719L6.94623 29.096C6.74519 29.297 6.41924 29.297 6.2182 29.096C6.01716 28.895 6.01715 28.569 6.21819 28.368L9.04221 25.5439Z" fill="black"/>
<path fill-rule="evenodd" clip-rule="evenodd" d="M8.9924 9.72041H7.14951C6.86519 9.72041 6.63471 9.95089 6.63471 10.2352C6.63471 10.5195 6.86519 10.75 7.14951 10.75L10.235 10.75C10.2351 10.75 10.2351 10.75 10.2352 10.75C10.305 10.75 10.3716 10.7361 10.4323 10.7109C10.493 10.6858 10.5499 10.6486 10.5992 10.5992C10.6486 10.5499 10.6858 10.493 10.7109 10.4323C10.7361 10.3716 10.75 10.305 10.75 10.2352C10.75 10.2351 10.75 10.2351 10.75 10.235L10.75 7.14951C10.75 6.86519 10.5195 6.63471 10.2352 6.63471C9.95089 6.63471 9.72041 6.86519 9.72041 7.14951V8.99236L6.89643 6.1683C6.69539 5.96725 6.36944 5.96725 6.1684 6.16829C5.96735 6.36932 5.96735 6.69527 6.16839 6.89632L8.9924 9.72041Z" fill="black"/>
<path fill-rule="evenodd" clip-rule="evenodd" d="M27.2078 9.72041H29.0507C29.335 9.72041 29.5655 9.95089 29.5655 10.2352C29.5655 10.5195 29.335 10.75 29.0507 10.75L25.9652 10.75C25.9651 10.75 25.9651 10.75 25.965 10.75C25.8952 10.75 25.8286 10.7361 25.7679 10.7109C25.7072 10.6858 25.6503 10.6486 25.601 10.5992C25.5516 10.5499 25.5144 10.493 25.4893 10.4323C25.4641 10.3716 25.4502 10.305 25.4502 10.2352C25.4502 10.2351 25.4502 10.2351 25.4502 10.235L25.4502 7.14951C25.4502 6.86519 25.6807 6.63471 25.965 6.63471C26.2493 6.63471 26.4798 6.86519 26.4798 7.14951V8.99236L29.3038 6.1683C29.5048 5.96725 29.8308 5.96725 30.0318 6.16829C30.2328 6.36932 30.2328 6.69527 30.0318 6.89632L27.2078 9.72041Z" fill="black"/>
<path fill-rule="evenodd" clip-rule="evenodd" d="M22.4452 21.568V15.3221H13.7617V21.568C13.7617 21.8471 13.836 22.0586 13.9846 22.2027C14.1376 22.3512 14.3514 22.4255 14.626 22.4255H21.5809C21.8555 22.4255 22.067 22.3512 22.2156 22.2027C22.3686 22.0586 22.4452 21.8471 22.4452 21.568ZM20.1967 17.9082H16.0238C15.8797 17.9082 15.7604 17.8632 15.6659 17.7732C15.5759 17.6787 15.5308 17.5571 15.5308 17.4086V17.206C15.5308 17.0575 15.5759 16.9382 15.6659 16.8481C15.7604 16.7581 15.8797 16.7131 16.0238 16.7131H20.1967C20.3362 16.7131 20.451 16.7581 20.541 16.8481C20.6356 16.9382 20.6828 17.0575 20.6828 17.206V17.4086C20.6828 17.5571 20.6356 17.6787 20.541 17.7732C20.451 17.8632 20.3362 17.9082 20.1967 17.9082Z" fill="black"/>
<path fill-rule="evenodd" clip-rule="evenodd" d="M21.6079 23.5127H14.6058C13.9576 23.5127 13.4624 23.3462 13.1203 23.0131C12.7827 22.6844 12.6139 22.1983 12.6139 21.5546V15.2886C12.3655 15.2372 12.1629 15.1269 12.0062 14.9576C11.7811 14.71 11.6685 14.3792 11.6685 13.965V13.0197C11.6685 12.6056 11.7856 12.2769 12.0197 12.0339C12.2537 11.7908 12.5688 11.6692 12.965 11.6692H23.2487C23.6628 11.6692 23.9802 11.7908 24.2007 12.0339C24.4258 12.2769 24.5384 12.6056 24.5384 13.0197V13.965C24.5384 14.3792 24.4258 14.71 24.2007 14.9576C24.0445 15.1298 23.8397 15.241 23.5863 15.2912V14.7685H22.4452V15.3222H13.7617V21.5681C13.7617 21.8472 13.836 22.0587 13.9846 22.2028C14.1376 22.3513 14.3514 22.4256 14.626 22.4256H21.5809C21.8555 22.4256 22.067 22.3513 22.2156 22.2028C22.3686 22.0587 22.4452 21.8472 22.4452 21.5681V15.3222H23.2487C23.3652 15.3222 23.474 15.3126 23.5751 15.2934C23.5789 15.2927 23.5826 15.2919 23.5863 15.2912V21.5546C23.5863 22.1938 23.4175 22.6799 23.0799 23.0131C22.7423 23.3462 22.2516 23.5127 21.6079 23.5127ZM20.1967 17.9083H16.0238C15.8797 17.9083 15.7604 17.8633 15.6659 17.7733C15.5759 17.6788 15.5308 17.5572 15.5308 17.4087V17.2061C15.5308 17.0576 15.5759 16.9383 15.6659 16.8482C15.7604 16.7582 15.8797 16.7132 16.0238 16.7132H20.1967C20.3362 16.7132 20.451 16.7582 20.541 16.8482C20.6356 16.9383 20.6828 17.0576 20.6828 17.2061V17.4087C20.6828 17.5572 20.6356 17.6788 20.541 17.7733C20.451 17.8633 20.3362 17.9083 20.1967 17.9083ZM12.8907 14.1473C12.9582 14.2193 13.0685 14.2554 13.2216 14.2554H22.9988C23.1474 14.2554 23.2554 14.2193 23.323 14.1473C23.3905 14.0753 23.4242 13.965 23.4242 13.8165V13.175C23.4242 13.0219 23.3905 12.9094 23.323 12.8374C23.2554 12.7654 23.1474 12.7293 22.9988 12.7293H13.2216C13.0685 12.7293 12.9582 12.7654 12.8907 12.8374C12.8232 12.9094 12.7894 13.0219 12.7894 13.175V13.8165C12.7894 13.965 12.8232 14.0753 12.8907 14.1473Z" fill="black"/>
<path d="M23.5864 14.7684H22.4453V15.3221H23.2488C23.3653 15.3221 23.4741 15.3125 23.5752 15.2933L23.5864 15.2911V14.7684Z" fill="black"/>
</svg>