<?xml version="1.0" ?><svg xmlns="http://www.w3.org/2000/svg" fill="none" viewBox="6.69 6.69 22.36 23.14">
<g id="invoicing">
<g id="Group 1000001332">
<rect id="Rectangle 52" width="9.25971" height="2.97251" rx="0.801928" transform="matrix(1 0.000321186 -0.00038354 1 19.0659 24.8071)" fill="black"/>
<rect id="Rectangle 53" width="8.55965" height="2.79214" rx="0.801928" transform="matrix(1 0.000321186 -0.00038354 1 18.4246 26.6405)" fill="black"/>
<g id="Group">
<path id="Vector" d="M25.1316 29.8283H17.3062C17.2177 29.8295 17.1292 29.8259 17.0407 29.8162C16.9517 29.812 16.8626 29.8024 16.7741 29.7867C16.6582 29.7704 16.5435 29.7487 16.4294 29.7216C16.3153 29.6951 16.2029 29.6626 16.0917 29.6252C15.9805 29.5878 15.871 29.545 15.7633 29.4974C15.6562 29.4498 15.5508 29.3974 15.4477 29.3401C15.3447 29.2823 15.2445 29.2202 15.1473 29.1539C15.0495 29.087 14.9552 29.0159 14.8637 28.9406C14.7723 28.8646 14.6844 28.7851 14.5994 28.7013C14.515 28.6175 14.4346 28.5301 14.3578 28.4391C14.2809 28.3481 14.2076 28.2535 14.1388 28.1553C14.0701 28.0576 14.0061 27.9564 13.9461 27.8527C13.8862 27.7485 13.8308 27.6418 13.7802 27.5327C13.7295 27.4236 13.6835 27.3127 13.6428 27.1994C13.6014 27.0861 13.5653 26.971 13.5345 26.8541C13.503 26.7378 13.4774 26.6197 13.4565 26.5003C13.4355 26.3816 13.4198 26.2617 13.4093 26.1412C13.3988 26.0206 13.3936 25.8995 13.3936 25.7783V10.1571C13.3936 10.0052 13.3796 9.85452 13.3511 9.70566C13.322 9.5568 13.28 9.41216 13.2236 9.27174C13.1677 9.13132 13.0984 8.99812 13.0169 8.87156C12.9354 8.745 12.8428 8.62808 12.7391 8.52081C12.6349 8.41353 12.522 8.31771 12.4003 8.23273C12.278 8.14836 12.1493 8.07724 12.0137 8.01938C11.878 7.96092 11.7383 7.91693 11.5944 7.8874C11.4501 7.85787 11.3051 7.8428 11.1578 7.8428C11.0838 7.8428 11.0128 7.82834 10.9441 7.79881C10.8754 7.76988 10.8154 7.72769 10.763 7.67345C10.7106 7.61921 10.6698 7.55653 10.6413 7.48602C10.6134 7.4149 10.5988 7.34138 10.5988 7.26423C10.5988 7.1877 10.6134 7.11417 10.6413 7.04305C10.6698 6.97194 10.7106 6.90986 10.763 6.85502C10.8154 6.80078 10.8754 6.75919 10.9441 6.72966C11.0128 6.70074 11.0838 6.68567 11.1578 6.68567H22.8958C23.0239 6.68627 23.152 6.6929 23.2795 6.70556C23.407 6.71882 23.5333 6.7387 23.6591 6.76462C23.7849 6.79053 23.9089 6.82248 24.0311 6.86105C24.154 6.89962 24.2745 6.94482 24.3927 6.99544C24.5109 7.04607 24.6268 7.10272 24.7397 7.1654C24.8527 7.22807 24.9621 7.29618 25.0687 7.3697C25.1752 7.44323 25.2777 7.52218 25.3767 7.60655C25.4757 7.69093 25.5706 7.77952 25.6614 7.87354C25.7517 7.96695 25.8378 8.06519 25.9194 8.16764C26.0003 8.2701 26.0766 8.37677 26.1476 8.48706C26.2192 8.59735 26.285 8.71065 26.3456 8.82757C26.4055 8.94449 26.4603 9.06442 26.5097 9.18676C26.5587 9.3091 26.6017 9.43386 26.639 9.56042C26.6763 9.68758 26.7077 9.81595 26.7327 9.94613C26.7578 10.0763 26.777 10.2071 26.7892 10.3391C26.802 10.4711 26.8084 10.603 26.8084 10.7356V24.6212C26.8084 24.6984 26.7945 24.7719 26.7659 24.843C26.738 24.9135 26.6972 24.9762 26.6448 25.0304C26.5924 25.0847 26.5319 25.1269 26.4637 25.1558C26.395 25.1853 26.324 25.1998 26.2495 25.1998C26.1755 25.1998 26.1045 25.1853 26.0358 25.1558C25.9671 25.1269 25.9071 25.0847 25.8547 25.0304C25.8023 24.9762 25.7616 24.9135 25.733 24.843C25.7051 24.7719 25.6905 24.6984 25.6905 24.6212V10.7356C25.6905 10.641 25.6859 10.5464 25.6771 10.4524C25.6678 10.3584 25.6544 10.2643 25.6364 10.1715C25.6183 10.0787 25.5962 9.98711 25.5694 9.89671C25.5432 9.80571 25.5124 9.71651 25.4768 9.62912C25.4419 9.54173 25.4029 9.45616 25.3598 9.37299C25.3167 9.28922 25.2696 9.20846 25.2189 9.12951C25.1677 9.05056 25.1135 8.97462 25.0553 8.9017C24.9971 8.82817 24.9359 8.75826 24.8713 8.69136C24.8067 8.62447 24.7386 8.56058 24.6681 8.50092C24.5971 8.44065 24.5237 8.384 24.448 8.33157C24.3718 8.27914 24.2937 8.23032 24.2128 8.18572C24.1319 8.14112 24.0498 8.10014 23.9648 8.06398C23.8803 8.02782 23.7942 7.99588 23.7068 7.96816C23.6195 7.94104 23.531 7.91753 23.4407 7.89885C23.3511 7.88077 23.2608 7.86691 23.17 7.85726C23.0786 7.84762 22.9878 7.8428 22.8958 7.8428H13.6556C13.9316 8.16101 14.1429 8.519 14.2908 8.91797C14.4381 9.31694 14.5121 9.72977 14.5115 10.1571V25.7783C14.5115 25.9519 14.5266 26.1243 14.5569 26.2948C14.5866 26.4654 14.6308 26.6317 14.6902 26.7944C14.749 26.9566 14.8212 27.1127 14.9074 27.2615C14.9936 27.4104 15.0914 27.5496 15.202 27.6804C15.3121 27.8112 15.4332 27.9305 15.5642 28.0384C15.6952 28.1462 15.8349 28.2415 15.9822 28.3234C16.1301 28.4054 16.2838 28.4735 16.4428 28.5265C16.6023 28.5802 16.7653 28.6181 16.9313 28.641C17.0244 28.6555 17.0926 28.6543 17.1677 28.667C17.2137 28.6718 17.2602 28.673 17.3062 28.6712H25.1316C25.2061 28.6712 25.2771 28.6862 25.3458 28.7152C25.414 28.7447 25.4745 28.7863 25.5269 28.8405C25.5793 28.8948 25.6201 28.9574 25.648 29.0286C25.6766 29.0997 25.6905 29.1732 25.6905 29.2497C25.6905 29.3269 25.6766 29.4004 25.648 29.4715C25.6201 29.542 25.5793 29.6047 25.5269 29.659C25.4745 29.7132 25.414 29.7554 25.3458 29.7843C25.2771 29.8138 25.2061 29.8283 25.1316 29.8283Z" fill="black"/>
</g>
<g id="Group_2">
<path id="Vector_2" d="M25.1308 29.8284H17.3055C17.1273 29.829 16.9498 29.8151 16.7733 29.7868C16.7076 29.7766 16.6458 29.7543 16.5876 29.7205C16.5294 29.6868 16.4787 29.644 16.4351 29.5915C16.392 29.5391 16.3588 29.4806 16.3355 29.4156C16.3128 29.3511 16.3011 29.2842 16.3011 29.2155C16.3011 29.1462 16.3128 29.0793 16.3355 29.0148C16.3588 28.9503 16.392 28.8912 16.4351 28.8394C16.4787 28.787 16.5294 28.7436 16.5876 28.7098C16.6458 28.6767 16.7076 28.6544 16.7733 28.6435C16.888 28.6261 16.9998 28.5977 17.1093 28.5592C17.2188 28.5206 17.3241 28.4724 17.4255 28.4145C17.5268 28.3567 17.6223 28.2898 17.7113 28.2138C17.801 28.1379 17.8837 28.0547 17.9588 27.9637C18.0339 27.8727 18.1009 27.7757 18.1591 27.672C18.2173 27.569 18.2662 27.4611 18.3058 27.3484C18.346 27.2363 18.3757 27.1212 18.3955 27.0031C18.4153 26.8849 18.4246 26.7662 18.4234 26.6463V24.6213C18.4234 24.5448 18.438 24.4712 18.4659 24.4001C18.4945 24.329 18.5352 24.2669 18.5876 24.2121C18.64 24.1578 18.7 24.1163 18.7687 24.0867C18.8374 24.0578 18.9084 24.0427 18.9824 24.0427H28.4846C28.5591 24.0427 28.6301 24.0578 28.6988 24.0867C28.767 24.1163 28.8275 24.1578 28.8799 24.2121C28.9323 24.2669 28.9731 24.329 29.001 24.4001C29.0295 24.4712 29.0435 24.5448 29.0435 24.6213V25.7784C29.0435 25.911 29.0371 26.0436 29.0243 26.1756C29.0121 26.3076 28.9929 26.4383 28.9678 26.5685C28.9428 26.6987 28.9113 26.8271 28.8741 26.9536C28.8368 27.0808 28.7937 27.2056 28.7448 27.3279C28.6953 27.4502 28.6406 27.5702 28.5806 27.6871C28.5201 27.804 28.4543 27.9173 28.3827 28.0276C28.3116 28.1379 28.2354 28.244 28.1544 28.3464C28.0729 28.4489 27.9867 28.5471 27.8965 28.6411C27.8057 28.7345 27.7108 28.8237 27.6118 28.9081C27.5128 28.9919 27.4103 29.0708 27.3038 29.1443C27.1972 29.2185 27.0878 29.2866 26.9748 29.3493C26.8619 29.4113 26.746 29.468 26.6278 29.5192C26.5096 29.5698 26.3891 29.6144 26.2662 29.653C26.144 29.6916 26.0199 29.7241 25.8942 29.75C25.7684 29.776 25.6421 29.7952 25.5145 29.8085C25.387 29.8218 25.2589 29.8284 25.1308 29.8284ZM18.8467 28.6713H25.1308C25.2228 28.6713 25.3137 28.6664 25.4051 28.6574C25.4959 28.6477 25.5862 28.6339 25.6758 28.6152C25.7661 28.5965 25.8546 28.5736 25.9419 28.5459C26.0292 28.5188 26.1154 28.4868 26.1998 28.4501C26.2849 28.4139 26.3669 28.3735 26.4479 28.3289C26.5288 28.2843 26.6068 28.2355 26.6831 28.1831C26.7588 28.1301 26.8322 28.074 26.9032 28.0137C26.9736 27.9535 27.0418 27.8902 27.1064 27.8233C27.171 27.7564 27.2322 27.6859 27.2904 27.613C27.3486 27.5394 27.4028 27.4635 27.454 27.3851C27.5046 27.3062 27.5518 27.2248 27.5949 27.1417C27.638 27.0579 27.677 26.9723 27.7119 26.8849C27.7474 26.7975 27.7783 26.7083 27.8045 26.6179C27.8313 26.5275 27.8534 26.4353 27.8715 26.3425C27.8895 26.2497 27.9029 26.1563 27.9122 26.0623C27.921 25.9677 27.9256 25.873 27.9256 25.7784V25.1999H19.5413V26.6463C19.5431 27.0157 19.4837 27.3737 19.3643 27.7214C19.245 28.0692 19.0726 28.3862 18.8467 28.6713Z" fill="black"/>
</g>
<path id="Vector_3" d="M20.1009 14.2071C19.9909 14.2071 19.882 14.1963 19.7743 14.174C19.666 14.1517 19.5612 14.1185 19.4593 14.0751C19.358 14.0317 19.2613 13.9781 19.1693 13.9148C19.0779 13.8515 18.9935 13.7792 18.9155 13.6991C18.8375 13.6183 18.7682 13.5309 18.707 13.4357C18.6459 13.3411 18.5941 13.241 18.5522 13.1356C18.5097 13.0307 18.4782 12.9222 18.4567 12.8101C18.4351 12.6986 18.4241 12.5853 18.4241 12.4714C18.4241 12.3575 18.4351 12.2448 18.4567 12.1327C18.4782 12.0212 18.5097 11.9127 18.5522 11.8073C18.5941 11.7018 18.6459 11.6018 18.707 11.5071C18.7682 11.4125 18.8375 11.3251 18.9155 11.2444C18.9935 11.1636 19.0779 11.0919 19.1693 11.0286C19.2613 10.9653 19.358 10.9117 19.4593 10.8683C19.5612 10.8243 19.666 10.7918 19.7743 10.7695C19.882 10.7472 19.9909 10.7357 20.1009 10.7357C20.211 10.7357 20.3204 10.7472 20.4281 10.7695C20.5364 10.7918 20.6413 10.8243 20.7431 10.8683C20.8445 10.9117 20.9411 10.9653 21.0325 11.0286C21.1245 11.0919 21.2089 11.1636 21.287 11.2444C21.365 11.3251 21.4343 11.4125 21.4954 11.5071C21.5565 11.6018 21.6084 11.7018 21.6503 11.8073C21.6928 11.9127 21.7242 12.0212 21.7458 12.1327C21.7673 12.2448 21.7778 12.3575 21.7778 12.4714C21.7778 12.5486 21.7638 12.6221 21.7353 12.6932C21.7073 12.7637 21.6666 12.8264 21.6142 12.8806C21.5618 12.9349 21.5012 12.9771 21.4331 13.006C21.3644 13.0355 21.2934 13.05 21.2188 13.05C21.1449 13.05 21.0739 13.0355 21.0052 13.006C20.9364 12.9771 20.8765 12.9349 20.8241 12.8806C20.7717 12.8264 20.7309 12.7637 20.7024 12.6932C20.6744 12.6221 20.6599 12.5486 20.6599 12.4714C20.6599 12.3949 20.6459 12.3213 20.6174 12.2502C20.5894 12.1791 20.5487 12.117 20.4963 12.0622C20.4439 12.008 20.3833 11.9664 20.3152 11.9368C20.2465 11.9079 20.1755 11.8928 20.1009 11.8928C20.027 11.8928 19.956 11.9079 19.8872 11.9368C19.8185 11.9664 19.7586 12.008 19.7062 12.0622C19.6538 12.117 19.613 12.1791 19.5845 12.2502C19.5565 12.3213 19.542 12.3949 19.542 12.4714C19.542 12.5486 19.5565 12.6221 19.5845 12.6932C19.613 12.7637 19.6538 12.8264 19.7062 12.8806C19.7586 12.9349 19.8185 12.9771 19.8872 13.006C19.956 13.0355 20.027 13.05 20.1009 13.05C20.1755 13.05 20.2465 13.065 20.3152 13.094C20.3833 13.1235 20.4439 13.1651 20.4963 13.2193C20.5487 13.2742 20.5894 13.3363 20.6174 13.4074C20.6459 13.4785 20.6599 13.552 20.6599 13.6285C20.6599 13.7057 20.6459 13.7792 20.6174 13.8503C20.5894 13.9208 20.5487 13.9835 20.4963 14.0378C20.4439 14.092 20.3833 14.1342 20.3152 14.1631C20.2465 14.1926 20.1755 14.2071 20.1009 14.2071Z" fill="black"/>
<path id="Vector_4" d="M20.1009 16.5213C19.9909 16.5213 19.882 16.5105 19.7743 16.4882C19.666 16.4659 19.5612 16.4327 19.4593 16.3893C19.358 16.3459 19.2613 16.2923 19.1693 16.229C19.0779 16.1657 18.9935 16.0934 18.9155 16.0133C18.8375 15.9325 18.7682 15.8451 18.707 15.7499C18.6459 15.6553 18.5941 15.5552 18.5522 15.4498C18.5097 15.3449 18.4782 15.2364 18.4567 15.1243C18.4351 15.0128 18.4241 14.8995 18.4241 14.7856C18.4241 14.7091 18.4386 14.6356 18.4666 14.5644C18.4951 14.4933 18.5359 14.4313 18.5883 14.3764C18.6407 14.3222 18.7006 14.2806 18.7693 14.2511C18.838 14.2221 18.9091 14.2071 18.983 14.2071C19.0576 14.2071 19.1286 14.2221 19.1973 14.2511C19.2654 14.2806 19.326 14.3222 19.3784 14.3764C19.4308 14.4313 19.4715 14.4933 19.4995 14.5644C19.528 14.6356 19.542 14.7091 19.542 14.7856C19.542 14.8628 19.5565 14.9363 19.5845 15.0074C19.613 15.0779 19.6538 15.1406 19.7062 15.1948C19.7586 15.2491 19.8185 15.2913 19.8872 15.3202C19.956 15.3497 20.027 15.3642 20.1009 15.3642C20.1755 15.3642 20.2465 15.3497 20.3152 15.3202C20.3833 15.2913 20.4439 15.2491 20.4963 15.1948C20.5487 15.1406 20.5894 15.0779 20.6174 15.0074C20.6459 14.9363 20.6599 14.8628 20.6599 14.7856C20.6599 14.7091 20.6459 14.6356 20.6174 14.5644C20.5894 14.4933 20.5487 14.4313 20.4963 14.3764C20.4439 14.3222 20.3833 14.2806 20.3152 14.2511C20.2465 14.2221 20.1755 14.2071 20.1009 14.2071C20.027 14.2071 19.956 14.1926 19.8872 14.1631C19.8185 14.1341 19.7586 14.0919 19.7062 14.0377C19.6538 13.9835 19.613 13.9208 19.5845 13.8503C19.5565 13.7792 19.542 13.7056 19.542 13.6285C19.542 13.552 19.5565 13.4784 19.5845 13.4073C19.613 13.3362 19.6538 13.2741 19.7062 13.2193C19.7586 13.165 19.8185 13.1235 19.8872 13.0939C19.956 13.065 20.027 13.0499 20.1009 13.0499C20.211 13.0499 20.3204 13.0614 20.4281 13.0837C20.5364 13.106 20.6413 13.1385 20.7431 13.1825C20.8445 13.2259 20.9411 13.2795 21.0325 13.3428C21.1245 13.4061 21.2089 13.4778 21.287 13.5586C21.365 13.6393 21.4343 13.7267 21.4954 13.8213C21.5565 13.916 21.6084 14.016 21.6503 14.1215C21.6928 14.2269 21.7242 14.3354 21.7458 14.4469C21.7673 14.559 21.7778 14.6717 21.7778 14.7856C21.7778 14.8995 21.7673 15.0128 21.7458 15.1243C21.7242 15.2364 21.6928 15.3449 21.6503 15.4498C21.6084 15.5552 21.5565 15.6553 21.4954 15.7499C21.4343 15.8451 21.365 15.9325 21.287 16.0133C21.2089 16.0934 21.1245 16.1657 21.0325 16.229C20.9411 16.2923 20.8445 16.3459 20.7431 16.3893C20.6413 16.4327 20.5364 16.4659 20.4281 16.4882C20.3204 16.5105 20.211 16.5213 20.1009 16.5213Z" fill="black"/>
<path id="Vector_5" d="M20.1005 11.8928C20.0265 11.8928 19.9555 11.8783 19.8868 11.8488C19.8181 11.8199 19.7581 11.7777 19.7057 11.7235C19.6533 11.6692 19.6125 11.6065 19.584 11.536C19.5561 11.4649 19.5415 11.3914 19.5415 11.3142V10.7357C19.5415 10.6591 19.5561 10.5856 19.584 10.5145C19.6125 10.4434 19.6533 10.3813 19.7057 10.3265C19.7581 10.2722 19.8181 10.2306 19.8868 10.2011C19.9555 10.1722 20.0265 10.1571 20.1005 10.1571C20.175 10.1571 20.246 10.1722 20.3147 10.2011C20.3828 10.2306 20.4434 10.2722 20.4958 10.3265C20.5482 10.3813 20.589 10.4434 20.6169 10.5145C20.6454 10.5856 20.6594 10.6591 20.6594 10.7357V11.3142C20.6594 11.3914 20.6454 11.4649 20.6169 11.536C20.589 11.6065 20.5482 11.6692 20.4958 11.7235C20.4434 11.7777 20.3828 11.8199 20.3147 11.8488C20.246 11.8783 20.175 11.8928 20.1005 11.8928Z" fill="black"/>
<path id="Vector_6" d="M20.1005 17.1C20.0265 17.1 19.9555 17.0855 19.8868 17.056C19.8181 17.027 19.7581 16.9848 19.7057 16.9306C19.6533 16.8764 19.6125 16.8137 19.584 16.7432C19.5561 16.6721 19.5415 16.5985 19.5415 16.5214V15.9428C19.5415 15.8663 19.5561 15.7928 19.584 15.7216C19.6125 15.6505 19.6533 15.5885 19.7057 15.5336C19.7581 15.4794 19.8181 15.4378 19.8868 15.4083C19.9555 15.3793 20.0265 15.3643 20.1005 15.3643C20.175 15.3643 20.246 15.3793 20.3147 15.4083C20.3828 15.4378 20.4434 15.4794 20.4958 15.5336C20.5482 15.5885 20.589 15.6505 20.6169 15.7216C20.6454 15.7928 20.6594 15.8663 20.6594 15.9428V16.5214C20.6594 16.5985 20.6454 16.6721 20.6169 16.7432C20.589 16.8137 20.5482 16.8764 20.4958 16.9306C20.4434 16.9848 20.3828 17.027 20.3147 17.056C20.246 17.0855 20.175 17.1 20.1005 17.1Z" fill="black"/>
<path id="Vector_7" d="M23.4545 19.9927H16.7471C16.6731 19.9927 16.6021 19.9782 16.5334 19.9487C16.4647 19.9198 16.4047 19.8776 16.3523 19.8234C16.2999 19.7691 16.2591 19.7064 16.2306 19.6359C16.2027 19.5648 16.1881 19.4913 16.1881 19.4141C16.1881 19.3376 16.2027 19.2641 16.2306 19.193C16.2591 19.1218 16.2999 19.0598 16.3523 19.0049C16.4047 18.9507 16.4647 18.9091 16.5334 18.8796C16.6021 18.8506 16.6731 18.8356 16.7471 18.8356H23.4545C23.529 18.8356 23.6001 18.8506 23.6688 18.8796C23.7369 18.9091 23.7974 18.9507 23.8498 19.0049C23.9022 19.0598 23.943 19.1218 23.9709 19.193C23.9995 19.2641 24.0134 19.3376 24.0134 19.4141C24.0134 19.4913 23.9995 19.5648 23.9709 19.6359C23.943 19.7064 23.9022 19.7691 23.8498 19.8234C23.7974 19.8776 23.7369 19.9198 23.6688 19.9487C23.6001 19.9782 23.529 19.9927 23.4545 19.9927Z" fill="black"/>
<path id="Vector_8" d="M23.4545 22.307H16.7471C16.6731 22.307 16.6021 22.2926 16.5334 22.263C16.4647 22.2341 16.4047 22.1919 16.3523 22.1377C16.2999 22.0834 16.2591 22.0208 16.2306 21.9503C16.2027 21.8791 16.1881 21.8056 16.1881 21.7285C16.1881 21.6519 16.2027 21.5784 16.2306 21.5073C16.2591 21.4362 16.2999 21.3735 16.3523 21.3193C16.4047 21.265 16.4647 21.2234 16.5334 21.1939C16.6021 21.165 16.6731 21.1499 16.7471 21.1499H23.4545C23.529 21.1499 23.6001 21.165 23.6688 21.1939C23.7369 21.2234 23.7974 21.265 23.8498 21.3193C23.9022 21.3735 23.943 21.4362 23.9709 21.5073C23.9995 21.5784 24.0134 21.6519 24.0134 21.7285C24.0134 21.8056 23.9995 21.8791 23.9709 21.9503C23.943 22.0208 23.9022 22.0834 23.8498 22.1377C23.7974 22.1919 23.7369 22.2341 23.6688 22.263C23.6001 22.2926 23.529 22.307 23.4545 22.307Z" fill="black"/>
<g id="Group_3">
<path id="Vector_9" d="M13.9523 25.1999H8.36277C8.25273 25.1999 8.14385 25.189 8.03613 25.1667C7.92784 25.1444 7.82303 25.1113 7.72114 25.0679C7.61983 25.0245 7.52318 24.9709 7.43118 24.9076C7.33977 24.8443 7.25535 24.772 7.17733 24.6918C7.0993 24.6111 7.03002 24.5237 6.96888 24.4285C6.90775 24.3338 6.85593 24.2338 6.81401 24.1283C6.7715 24.0235 6.74006 23.915 6.71852 23.8029C6.69698 23.6914 6.68591 23.5781 6.68591 23.4642V14.2071C6.68591 14.0932 6.69698 13.9805 6.71852 13.8684C6.74006 13.7569 6.7715 13.6485 6.81401 13.543C6.85593 13.4375 6.90775 13.3375 6.96888 13.2429C7.03002 13.1482 7.0993 13.0608 7.17733 12.9801C7.25535 12.8993 7.33977 12.8276 7.43118 12.7643C7.52318 12.7011 7.61983 12.6474 7.72114 12.604C7.82303 12.56 7.92784 12.5275 8.03613 12.5052C8.14385 12.4829 8.25273 12.4714 8.36277 12.4714H13.9523C14.0268 12.4714 14.0979 12.4865 14.1666 12.5154C14.2347 12.545 14.2952 12.5865 14.3476 12.6408C14.4 12.6956 14.4408 12.7577 14.4687 12.8288C14.4973 12.8999 14.5112 12.9735 14.5112 13.05V24.6213C14.5112 24.6985 14.4973 24.772 14.4687 24.8431C14.4408 24.9136 14.4 24.9763 14.3476 25.0305C14.2952 25.0848 14.2347 25.127 14.1666 25.1559C14.0979 25.1854 14.0268 25.1999 13.9523 25.1999ZM8.36277 13.6286C8.28883 13.6286 8.21779 13.6436 8.14909 13.6726C8.08038 13.7021 8.02041 13.7437 7.96801 13.7979C7.91561 13.8528 7.87485 13.9148 7.84632 13.986C7.81837 14.0571 7.80382 14.1306 7.80382 14.2071V23.4642C7.80382 23.5413 7.81837 23.6149 7.84632 23.686C7.87485 23.7565 7.91561 23.8192 7.96801 23.8734C8.02041 23.9276 8.08038 23.9698 8.14909 23.9988C8.21779 24.0283 8.28883 24.0428 8.36277 24.0428H13.3933V13.6286H8.36277Z" fill="black"/>
</g>
<g id="Group_4">
<path id="Vector_10" d="M13.9523 13.6286H8.36279C8.28884 13.6286 8.21781 13.6141 8.1491 13.5846C8.0804 13.5557 8.02043 13.5135 7.96803 13.4592C7.91562 13.405 7.87487 13.3423 7.84634 13.2718C7.81839 13.2007 7.80383 13.1272 7.80383 13.05V10.1572C7.80383 10.0439 7.80966 9.92998 7.82014 9.81728C7.8312 9.70398 7.84692 9.59188 7.86846 9.48038C7.89 9.36889 7.91679 9.2586 7.94823 9.14952C7.98025 9.04104 8.01752 8.93376 8.05944 8.8289C8.10136 8.72403 8.14852 8.62097 8.20034 8.52093C8.25158 8.42089 8.30805 8.32325 8.36919 8.22863C8.43033 8.13401 8.49554 8.04301 8.56541 7.95502C8.63527 7.86703 8.70864 7.78326 8.78608 7.7025C8.8641 7.62234 8.94503 7.5458 9.03003 7.47409C9.11504 7.40177 9.20296 7.33427 9.29437 7.27099C9.38578 7.20771 9.48011 7.14925 9.57676 7.09561C9.67399 7.04257 9.77298 6.99376 9.87429 6.95036C9.9756 6.90697 10.0792 6.8684 10.184 6.83525C10.2894 6.80271 10.396 6.77499 10.5037 6.75269C10.6114 6.73039 10.7197 6.71412 10.8292 6.70267C10.9386 6.69182 11.0481 6.68579 11.1575 6.68579C11.2676 6.68579 11.3771 6.69182 11.4865 6.70267C11.596 6.71412 11.7043 6.73039 11.812 6.75269C11.9197 6.77499 12.0263 6.80271 12.1311 6.83525C12.2364 6.8684 12.3395 6.90697 12.4414 6.95036C12.5427 6.99376 12.6417 7.04257 12.7389 7.09561C12.8356 7.14925 12.9299 7.20771 13.0207 7.27099C13.1121 7.33427 13.2006 7.40177 13.2851 7.47409C13.3701 7.5458 13.4516 7.62234 13.529 7.7025C13.607 7.78326 13.6804 7.86703 13.7503 7.95502C13.8201 8.04301 13.8854 8.13401 13.9465 8.22863C14.007 8.32325 14.0635 8.42089 14.1153 8.52093C14.1672 8.62097 14.2143 8.72403 14.2562 8.8289C14.2982 8.93376 14.3354 9.04104 14.3669 9.14952C14.3989 9.2586 14.4257 9.36889 14.4472 9.48038C14.4688 9.59188 14.4845 9.70398 14.4955 9.81728C14.506 9.92998 14.5113 10.0439 14.5113 10.1572V13.05C14.5113 13.1272 14.4973 13.2007 14.4688 13.2718C14.4408 13.3423 14.4001 13.405 14.3477 13.4592C14.2953 13.5135 14.2347 13.5557 14.1666 13.5846C14.0979 13.6141 14.0268 13.6286 13.9523 13.6286ZM8.92174 12.4714H13.3934V10.1572C13.3934 10.0053 13.3794 9.85464 13.3509 9.70578C13.3217 9.55692 13.2798 9.41228 13.2233 9.27186C13.1674 9.13144 13.0982 8.99825 13.0166 8.87168C12.9351 8.74512 12.8426 8.62821 12.7389 8.52093C12.6347 8.41365 12.5217 8.31783 12.4001 8.23285C12.2778 8.14848 12.1491 8.07736 12.0134 8.01951C11.8778 7.96105 11.738 7.91705 11.5942 7.88752C11.4498 7.85799 11.3049 7.84292 11.1575 7.84292C11.0108 7.84292 10.8658 7.85799 10.7214 7.88752C10.5776 7.91705 10.4379 7.96105 10.3022 8.01951C10.1666 8.07736 10.0379 8.14848 9.91563 8.23285C9.79335 8.31783 9.6804 8.41365 9.57676 8.52093C9.47312 8.62821 9.38054 8.74512 9.29903 8.87168C9.21693 8.99825 9.14823 9.13144 9.09233 9.27186C9.03586 9.41228 8.99335 9.55692 8.96482 9.70578C8.93629 9.85464 8.92174 10.0053 8.92174 10.1572V12.4714Z" fill="black"/>
</g>
<rect id="Rectangle 51" width="6.03857" height="10.6267" rx="0.801928" transform="matrix(1 0.000321186 -0.00038354 1 7.56934 13.4889)" fill="black"/>
</g>
</g>
</svg>