<?xml version="1.0" ?><svg xmlns="http://www.w3.org/2000/svg" fill="none" viewBox="6.86 6.99 23.18 22.02">
<ellipse cx="17.9909" cy="18.0039" rx="2.66404" ry="2.31429" fill="black"/>
<path d="M24.9176 21.0895L25.184 20.3181L26.7825 21.3467L27.8481 20.8324L28.3809 21.6038L27.5817 22.3753V24.9467L28.3809 25.461L27.8481 26.4895L26.7825 25.9753L24.9176 27.261V28.0324L23.852 28.2895L23.5856 27.0038L21.7208 25.9753L20.6552 26.4895L19.856 25.461L21.9872 24.6895L22.7864 25.461L24.1184 25.9753L25.184 25.7181L26.2497 24.9467L26.7825 23.9181V22.8895L25.9833 21.861L24.9176 21.0895Z" fill="black" stroke-width="0.514286"/>
<path d="M11.5977 14.6609L11.0649 15.9467L9.20003 15.4324L8.66723 15.6895L7.33521 14.1467L8.66723 13.3752V11.5752L7.33521 10.2895L8.66723 9.00379L9.99925 9.51808L10.7985 8.48951L11.0649 7.46094H13.1961V9.00379L14.5281 9.51808H16.3929L16.6593 10.2895L14.2617 11.3181L12.9297 10.2895L11.0649 10.5467L9.99925 12.6038L11.5977 14.6609Z" fill="black" stroke-width="0.514286"/>
<path d="M13.0734 8.83711C13.1015 8.87779 13.3029 8.97723 13.5089 9.05408C13.8789 9.18968 14.3425 9.44732 14.6188 9.66881C14.6937 9.72757 14.8061 9.77729 14.8716 9.77729C14.9372 9.77729 15.1667 9.66429 15.3821 9.52869M13.0734 8.83711L12.9982 8.90726C12.9966 8.90553 12.995 8.90377 12.9935 8.90197M13.0734 8.83711L12.9888 8.89556C12.9903 8.89777 12.9919 8.8999 12.9935 8.90197M13.0734 8.83711C13.0313 8.79191 13.0125 8.59755 13.0125 8.27662V7.89131H12.9097M12.9935 8.90197C13.005 8.91679 13.0185 8.92821 13.0281 8.93581C13.0407 8.94566 13.055 8.95536 13.0699 8.96465C13.0998 8.98328 13.1372 9.00356 13.1787 9.02415C13.2618 9.06546 13.367 9.11093 13.473 9.15045L13.4735 9.15065C13.834 9.28277 14.2876 9.53517 14.5544 9.74906L14.5553 9.74975L14.5553 9.74974C14.6005 9.78519 14.6551 9.81663 14.7078 9.83947C14.7582 9.86128 14.818 9.88015 14.8716 9.88015C14.9085 9.88015 14.9509 9.8665 14.9847 9.85389C15.023 9.8396 15.0678 9.8197 15.1158 9.79625C15.2119 9.7493 15.3262 9.6854 15.4364 9.616M12.9935 8.90197C12.9676 8.87145 12.9545 8.83214 12.9466 8.80144C12.9371 8.7649 12.9301 8.72073 12.9249 8.67105C12.9144 8.57137 12.9097 8.43836 12.9097 8.27662V7.89131M15.4364 9.616C15.4363 9.61609 15.4362 9.61617 15.436 9.61626L15.3821 9.52869M15.4364 9.616C15.4366 9.61591 15.4367 9.61582 15.4369 9.61573L15.3821 9.52869M15.4364 9.616C15.546 9.54852 15.648 9.48699 15.7246 9.44248C15.7489 9.42842 15.7702 9.41625 15.7883 9.40624M15.3821 9.52869C15.6022 9.39308 15.7942 9.28008 15.8129 9.28008C15.8316 9.28008 16.0283 9.55581 16.2531 9.89029M16.2531 9.89029L16.1676 9.94742C16.1676 9.94745 16.1676 9.94748 16.1676 9.9475M16.2531 9.89029C16.712 10.5773 16.8197 10.6632 17.0304 10.5141L15.3633 8.84615C15.6256 8.68795 15.8738 8.55687 15.9206 8.55687C16.0611 8.55687 16.1828 8.69699 16.6886 9.46088L16.7743 9.40402C16.7743 9.40404 16.7743 9.40407 16.7744 9.4041C16.9077 9.60514 17.0108 9.76344 17.0864 9.8898C17.1613 10.0149 17.2132 10.115 17.2401 10.1982C17.2677 10.2836 17.2731 10.3637 17.2383 10.439C17.2062 10.5086 17.1467 10.5572 17.0905 10.5976L17.0899 10.598C17.0323 10.6387 16.9662 10.6753 16.8894 10.6789C16.8089 10.6827 16.7374 10.6496 16.6705 10.596C16.6051 10.5436 16.5359 10.4649 16.4567 10.3609C16.3767 10.2559 16.2825 10.1195 16.1676 9.9475M16.2531 9.89029L16.1677 9.94766C16.1677 9.94761 16.1676 9.94756 16.1676 9.9475M15.7883 9.40624C15.7844 9.40125 15.7808 9.39657 15.7773 9.39221C15.7655 9.37734 15.7574 9.36777 15.7526 9.36258C15.7499 9.35972 15.7502 9.36028 15.7527 9.36231C15.7538 9.36324 15.7578 9.36654 15.764 9.37013L15.7642 9.37022C15.768 9.3724 15.7864 9.38294 15.8129 9.38294C15.8237 9.38294 15.8317 9.38111 15.8344 9.38049C15.8378 9.37967 15.8402 9.37887 15.841 9.37859C15.8417 9.37835 15.8421 9.3782 15.8421 9.3782C15.8421 9.3782 15.8415 9.37844 15.8402 9.37903C15.8356 9.38107 15.828 9.38484 15.8167 9.39081C15.8084 9.39517 15.7989 9.40033 15.7883 9.40624ZM15.7883 9.40624C15.8102 9.43465 15.8386 9.47304 15.8722 9.51979C15.9509 9.62931 16.0556 9.78084 16.1676 9.9475M12.9097 7.89131V7.78845L10.467 8.50287C10.2696 8.58651 9.97414 8.74291 9.80061 8.85458L9.8003 8.85477L9.55528 9.01368L9.1804 8.78162C9.18033 8.78158 9.18026 8.78153 9.18019 8.78149C8.94694 8.63516 8.77844 8.54077 8.65043 8.49686C8.58531 8.47453 8.5236 8.46266 8.46472 8.46749C8.40312 8.47255 8.35125 8.49534 8.30701 8.53121C8.29712 8.5392 8.28885 8.54843 8.28444 8.55344C8.27844 8.56025 8.27185 8.56827 8.26497 8.57692C8.25115 8.59432 8.23389 8.61716 8.21401 8.64417C8.17413 8.69837 8.12169 8.77209 8.06118 8.85861C7.94007 9.0318 7.78533 9.25818 7.63148 9.48645C7.47762 9.71473 7.32437 9.94533 7.20624 10.127C7.14721 10.2177 7.09669 10.2966 7.05917 10.3571C7.02437 10.4132 6.99458 10.463 6.98405 10.4888L6.98355 10.4901L6.98355 10.4901C6.96188 10.5454 6.95167 10.6049 6.96463 10.6684C6.97734 10.7308 7.01017 10.7864 7.05553 10.8386C7.14305 10.9393 7.29762 11.0495 7.52551 11.1932C7.52552 11.1932 7.52553 11.1932 7.52553 11.1932L7.9375 11.4531L7.9156 11.5535C7.91556 11.5536 7.91552 11.5538 7.91548 11.554C7.90256 11.6112 7.89398 11.7268 7.8879 11.8614C7.8816 12.0005 7.87763 12.1709 7.87616 12.3444C7.87324 12.6883 7.88005 13.0545 7.89977 13.2117C7.89978 13.2117 7.89978 13.2118 7.89979 13.2118L7.91534 13.3379L7.50053 13.6102L7.50036 13.6103C7.30967 13.736 7.18482 13.8226 7.10676 13.8924C7.02636 13.9643 6.98099 14.0312 6.97242 14.1185C6.96624 14.167 6.97747 14.2167 6.99563 14.2662C7.01455 14.3178 7.04489 14.3791 7.08691 14.4536C7.17104 14.6027 7.3101 14.8181 7.52287 15.1364C7.81977 15.5841 8.12089 16.025 8.18718 16.1093C8.23307 16.1706 8.28465 16.2248 8.34957 16.2594C8.41787 16.2958 8.49179 16.3057 8.57256 16.2936C8.65028 16.282 8.73497 16.25 8.82994 16.2031C8.92553 16.1559 9.03738 16.0906 9.17035 16.0076L9.55753 15.7716L9.70386 15.8734L9.70463 15.874L9.70464 15.874C9.84782 15.9717 10.0907 16.0977 10.321 16.2029C10.437 16.2559 10.5517 16.3044 10.6514 16.3422C10.749 16.3792 10.8387 16.4084 10.9019 16.4192L10.9052 16.4198L10.9052 16.4198C10.9751 16.4294 11.0378 16.4322 11.0961 16.4203C11.1576 16.4078 11.2067 16.3805 11.2522 16.3425L11.2537 16.3413L11.2537 16.3413C11.3245 16.2797 11.3628 16.1862 11.3757 16.1011C11.3885 16.0168 11.3801 15.9158 11.327 15.839C11.3135 15.8194 11.2938 15.8052 11.2862 15.7997L11.2858 15.7994C11.2741 15.791 11.2598 15.7818 11.2443 15.7723C11.213 15.7532 11.1715 15.73 11.1232 15.7044C11.0262 15.6529 10.8977 15.5898 10.7601 15.5279C10.4924 15.4077 10.1679 15.2217 10.0362 15.12C9.9504 15.0537 9.86853 15.0011 9.79481 14.9646C9.72355 14.9293 9.65036 14.9042 9.58466 14.9042C9.54718 14.9042 9.50651 14.915 9.46953 14.9279C9.43036 14.9414 9.38587 14.9606 9.33777 14.984C9.24143 15.0308 9.1245 15.0972 8.99626 15.1775L8.99431 15.1787L8.99432 15.1787C8.88685 15.2493 8.78502 15.3082 8.70919 15.3461C8.68752 15.357 8.66888 15.3657 8.65345 15.3723C8.64939 15.3666 8.64504 15.3604 8.64041 15.3538C8.61439 15.3168 8.58069 15.2675 8.54189 15.2099C8.46435 15.0949 8.36734 14.948 8.27242 14.8023C8.17748 14.6565 8.08493 14.5123 8.01624 14.4025C7.98677 14.3554 7.96197 14.3151 7.94337 14.2839M12.9097 7.89131H12.2164H11.5232V8.29922C11.5232 8.44473 11.523 8.55968 11.516 8.64969C11.5091 8.7391 11.4949 8.81681 11.459 8.88216C11.4209 8.9514 11.3649 8.99548 11.2975 9.03014C11.2341 9.06274 11.1526 9.09083 11.0576 9.12357L11.0566 9.12393C11.0564 9.12398 11.0563 9.12403 11.0562 9.12407C10.734 9.23803 10.2757 9.48571 10.0122 9.68284C9.85812 9.80224 9.72799 9.88446 9.56158 9.87076C9.48193 9.8642 9.4017 9.83634 9.31435 9.79399C9.22703 9.75166 9.12637 9.6917 9.00548 9.6158L9.00538 9.61573C8.89804 9.54816 8.79806 9.48645 8.72345 9.44179C8.70301 9.42955 8.68468 9.41872 8.66876 9.40947C8.64637 9.43973 8.61773 9.47988 8.58447 9.52752C8.50597 9.64 8.40404 9.79094 8.30305 9.94364C8.20206 10.0963 8.10247 10.2501 8.02861 10.3682C7.99376 10.4239 7.96509 10.4709 7.94481 10.5059C7.96079 10.5182 7.98038 10.5325 8.00329 10.5487C8.07764 10.6013 8.181 10.669 8.29428 10.7382L8.29428 10.7382L8.29552 10.7389C8.41201 10.8124 8.52195 10.8873 8.60582 10.9496C8.64761 10.9807 8.68411 11.0095 8.71209 11.034C8.726 11.0461 8.73903 11.0583 8.74994 11.0699C8.75876 11.0793 8.77391 11.0963 8.78366 11.1174L8.78412 11.1172L8.78745 11.1269C8.79373 11.1451 8.79561 11.1634 8.79641 11.1757C8.79732 11.1898 8.7973 11.2049 8.79675 11.2203C8.79564 11.2511 8.79218 11.288 8.78695 11.328C8.77647 11.4083 8.75818 11.507 8.7339 11.6054L8.7339 11.6054L8.7336 11.6066C8.62101 12.0413 8.62065 12.7067 8.72475 13.1527C8.7488 13.2525 8.76825 13.3543 8.77933 13.4387C8.78486 13.4808 8.78854 13.5203 8.78939 13.5539C8.79009 13.5814 8.78963 13.6195 8.77846 13.6519C8.77058 13.6763 8.75638 13.6956 8.74749 13.7068C8.73622 13.721 8.72264 13.7353 8.70839 13.749C8.67974 13.7767 8.64224 13.8081 8.59973 13.8409C8.51448 13.9067 8.40268 13.9832 8.28554 14.0548M8.28554 14.0548C8.28574 14.0547 8.28595 14.0546 8.28615 14.0544L8.2313 13.9674L8.28491 14.0552C8.28512 14.0551 8.28533 14.0549 8.28554 14.0548ZM8.28554 14.0548C8.17202 14.1264 8.06959 14.1942 7.99604 14.2459C7.97585 14.2601 7.95822 14.2728 7.94337 14.2839M7.94337 14.2839C7.93095 14.2931 7.92047 14.3012 7.91204 14.308C7.90248 14.3157 7.89762 14.3202 7.89593 14.3219C7.89488 14.3229 7.89707 14.3209 7.90024 14.3165C7.90183 14.3143 7.90518 14.3094 7.90845 14.3023C7.91128 14.2962 7.91739 14.2814 7.91739 14.2612C7.91739 14.2455 7.9135 14.2338 7.91299 14.2322L7.91294 14.2321C7.9119 14.2289 7.91101 14.2269 7.91096 14.2267L7.91095 14.2267C7.91094 14.2267 7.91094 14.2267 7.91097 14.2268C7.91112 14.2271 7.91191 14.2287 7.91375 14.2322C7.91795 14.2402 7.92482 14.2524 7.93454 14.269C7.9373 14.2737 7.94025 14.2787 7.94337 14.2839ZM13.7242 7.92857V8.39603L10.4671 8.50284L10.7555 8.38032V7.90597C10.7555 7.68777 10.7589 7.54233 10.7716 7.4422C10.7844 7.34094 10.8085 7.26877 10.8631 7.21174C10.8924 7.17999 10.9275 7.15529 10.9822 7.13866C11.0313 7.12374 11.0957 7.11549 11.184 7.11004C11.3618 7.09906 11.6703 7.09798 12.2258 7.09798C12.3226 7.09798 12.413 7.09775 12.4974 7.09754C12.7386 7.09693 12.9307 7.09644 13.0817 7.10179C13.2807 7.10884 13.431 7.12595 13.5349 7.18032C13.5911 7.20971 13.6347 7.25012 13.6653 7.30343C13.6948 7.35473 13.7091 7.41244 13.7167 7.47194C13.7274 7.55622 13.7263 7.66409 13.7251 7.79047C13.7246 7.83435 13.7242 7.88045 13.7242 7.92857Z" fill="black" stroke-width="0.205714"/>
<path d="M17.9929 8.46673C17.9139 8.39751 17.8817 8.28219 17.8763 8.18746C17.871 8.09486 17.889 7.97555 17.9644 7.90132C17.9967 7.86812 18.0403 7.85395 18.0763 7.846C18.1162 7.83721 18.1668 7.83207 18.2288 7.82915C18.3534 7.82329 18.5421 7.82571 18.8229 7.83474L18.8229 7.83474C21.3589 7.91695 23.8415 8.97621 25.7091 10.7698C27.4872 12.4769 28.6185 14.8282 28.7843 17.1784C28.7843 17.1784 28.7843 17.1784 28.7843 17.1784L28.8016 17.4218L28.9807 17.2513L28.9807 17.2513L28.9817 17.2504C29.1646 17.0805 29.3076 16.9672 29.4344 16.9253C29.5027 16.9027 29.5698 16.8993 29.636 16.9199C29.6999 16.9398 29.7539 16.9792 29.8021 17.0258C29.8537 17.0756 29.9053 17.1348 29.9243 17.211C29.9446 17.2925 29.9228 17.3711 29.8787 17.4489C29.8355 17.5249 29.7647 17.6113 29.6676 17.7153C29.5694 17.8205 29.4392 17.9489 29.2729 18.1094C29.0161 18.3573 28.8509 18.5113 28.735 18.6031C28.621 18.6934 28.5363 18.7395 28.4429 18.7395C28.3475 18.7395 28.2629 18.6939 28.149 18.6037C28.0338 18.5125 27.8697 18.3597 27.6132 18.1143L27.6128 18.114C27.3449 17.8553 27.1847 17.6963 27.092 17.5856C26.997 17.4721 26.9586 17.3925 26.9586 17.2941C26.9586 17.0802 27.1439 16.9065 27.3564 16.9065C27.3836 16.9065 27.4075 16.9153 27.4216 16.9211C27.4382 16.9279 27.4552 16.9369 27.4718 16.9466C27.5051 16.966 27.544 16.9927 27.5853 17.0235C27.6684 17.0854 27.7683 17.1691 27.8662 17.259L27.8671 17.2598L28.0002 17.385L28.0682 17.0094L27.9657 17.0176C27.9657 17.0175 27.9657 17.0175 27.9657 17.0174C27.9244 16.5035 27.73 15.64 27.5215 15.0408L27.5215 15.0405C26.5166 12.1308 24.0098 9.79969 20.9742 8.95421L20.9741 8.95417C20.1902 8.73479 19.0757 8.56925 18.3794 8.56925C18.2988 8.56925 18.2247 8.56201 18.1609 8.54661C18.0984 8.53153 18.0384 8.50688 17.9929 8.46673ZM17.9929 8.46673C17.993 8.46683 17.9932 8.46693 17.9933 8.46703L18.0609 8.38955M17.9929 8.46673C17.9929 8.46668 17.9928 8.46664 17.9928 8.46659L18.0609 8.38955M18.0609 8.38955C17.9626 8.30367 17.9485 8.05959 18.0375 7.97371M18.0609 8.38955C18.1171 8.43927 18.2295 8.4664 18.3794 8.4664C19.0865 8.4664 20.2104 8.63364 21.0018 8.85512L18.0375 7.97371M18.0375 7.97371C18.0797 7.9285 18.2576 7.91947 18.8195 7.93754C21.3296 8.01891 23.7881 9.06757 25.6378 10.844C27.3986 12.5345 28.5178 14.8623 28.6817 17.1856L18.0375 7.97371Z" fill="black" stroke-width="0.205714"/>
<path d="M9.69487 12.8502L9.69487 12.8502L9.69469 12.8494C9.42943 11.5834 10.2933 10.2951 11.6112 9.97118C12.2049 9.8244 13.0042 9.94689 13.5545 10.2571C13.7685 10.3771 14.0052 10.582 14.1879 10.7827C14.2796 10.8835 14.3602 10.9859 14.4185 11.0792C14.4736 11.1672 14.5202 11.2646 14.5202 11.3503C14.5202 11.5682 14.3306 11.7334 14.113 11.7334C14.0374 11.7334 13.9676 11.7248 13.9 11.6801C13.8389 11.6398 13.7893 11.5756 13.734 11.4955C13.5376 11.2246 13.2146 10.9568 12.9326 10.8292L12.9326 10.8292L12.9318 10.8288C12.8184 10.7763 12.7474 10.7502 12.655 10.7354C12.5584 10.7199 12.4354 10.7163 12.2164 10.7163C11.9925 10.7163 11.8712 10.72 11.7769 10.7358C11.6869 10.7509 11.6187 10.7777 11.5018 10.833L11.5017 10.8331C11.1098 11.0179 10.8272 11.291 10.6364 11.6679L10.6364 11.6679L10.636 11.6688C10.5507 11.8333 10.5127 11.9135 10.4927 12.0005C10.4724 12.0887 10.4695 12.1883 10.4695 12.3944C10.4695 12.5821 10.4744 12.6911 10.4907 12.7791C10.5063 12.8642 10.5334 12.9336 10.5856 13.041L10.5856 13.0411C10.8187 13.5213 11.1318 13.8127 11.586 13.9744L11.586 13.9744L11.5865 13.9746C11.665 14.0031 11.7444 14.0372 11.8104 14.0691C11.8737 14.0997 11.9328 14.1319 11.9655 14.1572L11.9657 14.157L11.9707 14.1614C12.0525 14.2336 12.0858 14.3406 12.0827 14.439C12.0797 14.5378 12.0397 14.6428 11.9555 14.7145C11.8709 14.7872 11.7537 14.8056 11.6382 14.7983C11.5199 14.7908 11.3857 14.7556 11.2478 14.7009C10.9715 14.5912 10.6628 14.3962 10.4076 14.1499L10.4076 14.1499L10.4072 14.1494C10.0271 13.7779 9.81141 13.3846 9.69487 12.8502Z" fill="black" stroke-width="0.205714"/>
<mask id="path-7-outside-1_2949_56812" maskUnits="userSpaceOnUse" x="10.0461" y="9.96472" width="16" height="16" fill="black">
<rect fill="white" x="10.0461" y="9.96472" width="16" height="16"/>
<path d="M17.1245 11.0926C17.0262 11.1468 16.9794 11.3141 16.8763 11.9921L16.7967 12.5119L16.394 12.6384C16.1692 12.7062 15.8227 12.8418 15.626 12.9413L15.2654 13.113L14.7269 12.7334C14.3523 12.4667 14.1509 12.3537 14.0619 12.3537C13.9495 12.3537 13.7903 12.4848 13.1675 13.0859C12.5353 13.6916 12.4042 13.8453 12.4042 13.9493C12.4042 14.0397 12.5213 14.234 12.7975 14.5956L13.1909 15.1154L12.9895 15.5087C12.835 15.8115 12.6571 16.2726 12.5681 16.589C12.5681 16.5935 12.2637 16.6387 11.8891 16.693C11.3412 16.7698 11.196 16.806 11.1304 16.8828C11.0555 16.9642 11.0461 17.0907 11.0461 18.0083C11.0461 18.953 11.0555 19.0524 11.1304 19.1248C11.1913 19.1835 11.3739 19.2332 11.7533 19.2875C12.6571 19.4186 12.5587 19.3734 12.6571 19.6943C12.7039 19.8525 12.8397 20.1825 12.9661 20.4356L13.1909 20.8876L12.7975 21.4074C12.5213 21.769 12.4042 21.9634 12.4042 22.0538C12.4042 22.1623 12.54 22.3159 13.1628 22.9171C13.795 23.5273 13.9495 23.6539 14.0619 23.6539C14.1556 23.6539 14.3476 23.5454 14.7269 23.2742L15.2607 22.89L15.7431 23.1115C16.0053 23.2335 16.3518 23.3646 16.5064 23.4098L16.7967 23.4867L16.8997 24.1421C16.9794 24.6212 17.0309 24.8201 17.0917 24.8788C17.1714 24.9557 17.2697 24.9647 18.2391 24.9647C18.8619 24.9647 19.3302 24.9466 19.3817 24.9195C19.4894 24.8653 19.5362 24.7026 19.6392 24.0155L19.7188 23.4912L20.0139 23.4098C20.1731 23.3646 20.5196 23.229 20.7819 23.1115L21.2595 22.89L21.7934 23.2697C22.168 23.5409 22.3647 23.6539 22.4583 23.6539C22.566 23.6539 22.7253 23.5228 23.3528 22.9171C23.9943 22.2979 24.1114 22.1623 24.1114 22.0493C24.1114 21.9498 24.0037 21.7735 23.718 21.4029L23.3247 20.8876L23.5073 20.5441C23.6103 20.3497 23.7461 20.0243 23.8164 19.8118C23.8866 19.5994 23.9475 19.4231 23.9475 19.4186C23.9522 19.4095 24.2425 19.3643 24.5984 19.3146C25.2727 19.2197 25.3945 19.1835 25.4413 19.0615C25.4554 19.0253 25.4694 18.5372 25.4694 17.9812C25.4694 17.0862 25.4601 16.9642 25.3898 16.8828C25.3196 16.806 25.1744 16.7698 24.6265 16.693C24.2519 16.6387 23.9475 16.5935 23.9475 16.589C23.8913 16.363 23.6431 15.7211 23.512 15.4635L23.3293 15.1154L23.718 14.6047C23.999 14.234 24.1114 14.0577 24.1114 13.9583C24.1114 13.8408 23.999 13.7142 23.3481 13.0859C22.7206 12.4802 22.566 12.3537 22.4536 12.3537C22.36 12.3537 22.1633 12.4667 21.7887 12.7334L21.2595 13.113L20.8942 12.9368C20.6226 12.8057 19.9764 12.5706 19.7282 12.5119C19.7235 12.5119 19.672 12.2181 19.6158 11.8565C19.5362 11.3276 19.4987 11.1875 19.4191 11.1197C19.3348 11.0519 19.2084 11.0428 18.2625 11.0428C17.6443 11.0428 17.1714 11.0654 17.1245 11.0926ZM19.0773 12.2723C19.1288 12.6158 19.199 12.9187 19.2318 12.9503C19.2599 12.9774 19.4613 13.0498 19.672 13.1085C19.8874 13.1628 20.3136 13.3345 20.6273 13.4837C20.9364 13.6329 21.2314 13.7549 21.2829 13.7549C21.3344 13.7549 21.606 13.5922 21.887 13.3933C22.168 13.1944 22.4115 13.0317 22.4255 13.0317C22.4396 13.0317 22.6691 13.2441 22.936 13.5018C23.2778 13.8317 23.409 13.9899 23.3809 14.0306C23.3621 14.0668 23.1889 14.2973 23.0015 14.5459C22.8142 14.79 22.6597 15.0341 22.6597 15.0838C22.6597 15.1335 22.7861 15.4183 22.9407 15.7166C23.0952 16.0195 23.2732 16.4308 23.3293 16.6387C23.3902 16.8421 23.4651 17.0365 23.4932 17.0636C23.526 17.0952 23.8398 17.1585 24.1957 17.2128L24.8372 17.3032V18.0038V18.7044L24.1957 18.7948C23.8398 18.849 23.526 18.9123 23.4932 18.944C23.4651 18.9711 23.3902 19.1654 23.3293 19.3689C23.2732 19.5768 23.0952 19.9881 22.9407 20.2909C22.7861 20.5893 22.6597 20.874 22.6597 20.9238C22.6597 20.9735 22.8283 21.2356 23.0343 21.5069C23.2404 21.7781 23.409 22.0131 23.409 22.0267C23.409 22.0402 23.1889 22.2617 22.9219 22.5194C22.3647 23.0572 22.4771 23.0482 21.8215 22.5736C21.5545 22.3792 21.3344 22.2527 21.2642 22.2527C21.2033 22.2527 21.0301 22.3205 20.8849 22.4064C20.5571 22.5962 20.1778 22.7499 19.6533 22.9081C19.4285 22.9714 19.2271 23.0482 19.2084 23.0798C19.1897 23.1115 19.1288 23.4098 19.0773 23.7443L18.9789 24.3545H18.2578H17.5366L17.4383 23.7443C17.3868 23.4098 17.3259 23.1115 17.3072 23.0798C17.2884 23.0482 17.0871 22.9714 16.8623 22.9081C16.3472 22.7544 16.0006 22.6143 15.6447 22.4109C15.4902 22.325 15.3122 22.2527 15.2514 22.2527C15.1858 22.2527 14.9329 22.4018 14.6332 22.6143C14.3569 22.8132 14.1134 22.9759 14.0947 22.9759C14.0807 22.9759 13.8465 22.7634 13.5796 22.5058C13.0223 21.9679 13.0317 22.0764 13.5234 21.4436C13.7201 21.1904 13.8559 20.9735 13.8559 20.9102C13.8559 20.8469 13.7716 20.6616 13.6732 20.4989C13.4625 20.1599 13.2424 19.6355 13.1581 19.283C13.0645 18.9078 13.0551 18.9033 12.3293 18.7948L11.6783 18.6999V18.0038V17.3077L12.3105 17.2128C12.6571 17.163 12.9661 17.1043 12.9989 17.0862C13.0317 17.0681 13.1113 16.8738 13.1769 16.6568C13.3408 16.1505 13.5 15.7844 13.6967 15.468C13.7856 15.3279 13.8559 15.1606 13.8559 15.1019C13.8559 15.0341 13.7248 14.8216 13.5234 14.564C13.0317 13.9312 13.0223 14.0397 13.5796 13.5018C13.8465 13.2441 14.076 13.0317 14.0947 13.0317C14.1087 13.0317 14.3523 13.1944 14.6332 13.3933C14.9142 13.5922 15.1811 13.7549 15.2326 13.7549C15.2842 13.7549 15.5792 13.6329 15.8882 13.4837C16.202 13.3345 16.6328 13.1628 16.8482 13.104C17.0636 13.0452 17.2697 12.9639 17.2978 12.9277C17.3259 12.887 17.3914 12.6023 17.4336 12.2994C17.4804 11.9921 17.5226 11.7163 17.5366 11.6847C17.5507 11.6395 17.7193 11.6305 18.2671 11.6395L18.9789 11.6531L19.0773 12.2723Z"/>
</mask>
<path d="M17.1245 11.0926C17.0262 11.1468 16.9794 11.3141 16.8763 11.9921L16.7967 12.5119L16.394 12.6384C16.1692 12.7062 15.8227 12.8418 15.626 12.9413L15.2654 13.113L14.7269 12.7334C14.3523 12.4667 14.1509 12.3537 14.0619 12.3537C13.9495 12.3537 13.7903 12.4848 13.1675 13.0859C12.5353 13.6916 12.4042 13.8453 12.4042 13.9493C12.4042 14.0397 12.5213 14.234 12.7975 14.5956L13.1909 15.1154L12.9895 15.5087C12.835 15.8115 12.6571 16.2726 12.5681 16.589C12.5681 16.5935 12.2637 16.6387 11.8891 16.693C11.3412 16.7698 11.196 16.806 11.1304 16.8828C11.0555 16.9642 11.0461 17.0907 11.0461 18.0083C11.0461 18.953 11.0555 19.0524 11.1304 19.1248C11.1913 19.1835 11.3739 19.2332 11.7533 19.2875C12.6571 19.4186 12.5587 19.3734 12.6571 19.6943C12.7039 19.8525 12.8397 20.1825 12.9661 20.4356L13.1909 20.8876L12.7975 21.4074C12.5213 21.769 12.4042 21.9634 12.4042 22.0538C12.4042 22.1623 12.54 22.3159 13.1628 22.9171C13.795 23.5273 13.9495 23.6539 14.0619 23.6539C14.1556 23.6539 14.3476 23.5454 14.7269 23.2742L15.2607 22.89L15.7431 23.1115C16.0053 23.2335 16.3518 23.3646 16.5064 23.4098L16.7967 23.4867L16.8997 24.1421C16.9794 24.6212 17.0309 24.8201 17.0917 24.8788C17.1714 24.9557 17.2697 24.9647 18.2391 24.9647C18.8619 24.9647 19.3302 24.9466 19.3817 24.9195C19.4894 24.8653 19.5362 24.7026 19.6392 24.0155L19.7188 23.4912L20.0139 23.4098C20.1731 23.3646 20.5196 23.229 20.7819 23.1115L21.2595 22.89L21.7934 23.2697C22.168 23.5409 22.3647 23.6539 22.4583 23.6539C22.566 23.6539 22.7253 23.5228 23.3528 22.9171C23.9943 22.2979 24.1114 22.1623 24.1114 22.0493C24.1114 21.9498 24.0037 21.7735 23.718 21.4029L23.3247 20.8876L23.5073 20.5441C23.6103 20.3497 23.7461 20.0243 23.8164 19.8118C23.8866 19.5994 23.9475 19.4231 23.9475 19.4186C23.9522 19.4095 24.2425 19.3643 24.5984 19.3146C25.2727 19.2197 25.3945 19.1835 25.4413 19.0615C25.4554 19.0253 25.4694 18.5372 25.4694 17.9812C25.4694 17.0862 25.4601 16.9642 25.3898 16.8828C25.3196 16.806 25.1744 16.7698 24.6265 16.693C24.2519 16.6387 23.9475 16.5935 23.9475 16.589C23.8913 16.363 23.6431 15.7211 23.512 15.4635L23.3293 15.1154L23.718 14.6047C23.999 14.234 24.1114 14.0577 24.1114 13.9583C24.1114 13.8408 23.999 13.7142 23.3481 13.0859C22.7206 12.4802 22.566 12.3537 22.4536 12.3537C22.36 12.3537 22.1633 12.4667 21.7887 12.7334L21.2595 13.113L20.8942 12.9368C20.6226 12.8057 19.9764 12.5706 19.7282 12.5119C19.7235 12.5119 19.672 12.2181 19.6158 11.8565C19.5362 11.3276 19.4987 11.1875 19.4191 11.1197C19.3348 11.0519 19.2084 11.0428 18.2625 11.0428C17.6443 11.0428 17.1714 11.0654 17.1245 11.0926ZM19.0773 12.2723C19.1288 12.6158 19.199 12.9187 19.2318 12.9503C19.2599 12.9774 19.4613 13.0498 19.672 13.1085C19.8874 13.1628 20.3136 13.3345 20.6273 13.4837C20.9364 13.6329 21.2314 13.7549 21.2829 13.7549C21.3344 13.7549 21.606 13.5922 21.887 13.3933C22.168 13.1944 22.4115 13.0317 22.4255 13.0317C22.4396 13.0317 22.6691 13.2441 22.936 13.5018C23.2778 13.8317 23.409 13.9899 23.3809 14.0306C23.3621 14.0668 23.1889 14.2973 23.0015 14.5459C22.8142 14.79 22.6597 15.0341 22.6597 15.0838C22.6597 15.1335 22.7861 15.4183 22.9407 15.7166C23.0952 16.0195 23.2732 16.4308 23.3293 16.6387C23.3902 16.8421 23.4651 17.0365 23.4932 17.0636C23.526 17.0952 23.8398 17.1585 24.1957 17.2128L24.8372 17.3032V18.0038V18.7044L24.1957 18.7948C23.8398 18.849 23.526 18.9123 23.4932 18.944C23.4651 18.9711 23.3902 19.1654 23.3293 19.3689C23.2732 19.5768 23.0952 19.9881 22.9407 20.2909C22.7861 20.5893 22.6597 20.874 22.6597 20.9238C22.6597 20.9735 22.8283 21.2356 23.0343 21.5069C23.2404 21.7781 23.409 22.0131 23.409 22.0267C23.409 22.0402 23.1889 22.2617 22.9219 22.5194C22.3647 23.0572 22.4771 23.0482 21.8215 22.5736C21.5545 22.3792 21.3344 22.2527 21.2642 22.2527C21.2033 22.2527 21.0301 22.3205 20.8849 22.4064C20.5571 22.5962 20.1778 22.7499 19.6533 22.9081C19.4285 22.9714 19.2271 23.0482 19.2084 23.0798C19.1897 23.1115 19.1288 23.4098 19.0773 23.7443L18.9789 24.3545H18.2578H17.5366L17.4383 23.7443C17.3868 23.4098 17.3259 23.1115 17.3072 23.0798C17.2884 23.0482 17.0871 22.9714 16.8623 22.9081C16.3472 22.7544 16.0006 22.6143 15.6447 22.4109C15.4902 22.325 15.3122 22.2527 15.2514 22.2527C15.1858 22.2527 14.9329 22.4018 14.6332 22.6143C14.3569 22.8132 14.1134 22.9759 14.0947 22.9759C14.0807 22.9759 13.8465 22.7634 13.5796 22.5058C13.0223 21.9679 13.0317 22.0764 13.5234 21.4436C13.7201 21.1904 13.8559 20.9735 13.8559 20.9102C13.8559 20.8469 13.7716 20.6616 13.6732 20.4989C13.4625 20.1599 13.2424 19.6355 13.1581 19.283C13.0645 18.9078 13.0551 18.9033 12.3293 18.7948L11.6783 18.6999V18.0038V17.3077L12.3105 17.2128C12.6571 17.163 12.9661 17.1043 12.9989 17.0862C13.0317 17.0681 13.1113 16.8738 13.1769 16.6568C13.3408 16.1505 13.5 15.7844 13.6967 15.468C13.7856 15.3279 13.8559 15.1606 13.8559 15.1019C13.8559 15.0341 13.7248 14.8216 13.5234 14.564C13.0317 13.9312 13.0223 14.0397 13.5796 13.5018C13.8465 13.2441 14.076 13.0317 14.0947 13.0317C14.1087 13.0317 14.3523 13.1944 14.6332 13.3933C14.9142 13.5922 15.1811 13.7549 15.2326 13.7549C15.2842 13.7549 15.5792 13.6329 15.8882 13.4837C16.202 13.3345 16.6328 13.1628 16.8482 13.104C17.0636 13.0452 17.2697 12.9639 17.2978 12.9277C17.3259 12.887 17.3914 12.6023 17.4336 12.2994C17.4804 11.9921 17.5226 11.7163 17.5366 11.6847C17.5507 11.6395 17.7193 11.6305 18.2671 11.6395L18.9789 11.6531L19.0773 12.2723Z" fill="black"/>
<path d="M17.1245 11.0926C17.0262 11.1468 16.9794 11.3141 16.8763 11.9921L16.7967 12.5119L16.394 12.6384C16.1692 12.7062 15.8227 12.8418 15.626 12.9413L15.2654 13.113L14.7269 12.7334C14.3523 12.4667 14.1509 12.3537 14.0619 12.3537C13.9495 12.3537 13.7903 12.4848 13.1675 13.0859C12.5353 13.6916 12.4042 13.8453 12.4042 13.9493C12.4042 14.0397 12.5213 14.234 12.7975 14.5956L13.1909 15.1154L12.9895 15.5087C12.835 15.8115 12.6571 16.2726 12.5681 16.589C12.5681 16.5935 12.2637 16.6387 11.8891 16.693C11.3412 16.7698 11.196 16.806 11.1304 16.8828C11.0555 16.9642 11.0461 17.0907 11.0461 18.0083C11.0461 18.953 11.0555 19.0524 11.1304 19.1248C11.1913 19.1835 11.3739 19.2332 11.7533 19.2875C12.6571 19.4186 12.5587 19.3734 12.6571 19.6943C12.7039 19.8525 12.8397 20.1825 12.9661 20.4356L13.1909 20.8876L12.7975 21.4074C12.5213 21.769 12.4042 21.9634 12.4042 22.0538C12.4042 22.1623 12.54 22.3159 13.1628 22.9171C13.795 23.5273 13.9495 23.6539 14.0619 23.6539C14.1556 23.6539 14.3476 23.5454 14.7269 23.2742L15.2607 22.89L15.7431 23.1115C16.0053 23.2335 16.3518 23.3646 16.5064 23.4098L16.7967 23.4867L16.8997 24.1421C16.9794 24.6212 17.0309 24.8201 17.0917 24.8788C17.1714 24.9557 17.2697 24.9647 18.2391 24.9647C18.8619 24.9647 19.3302 24.9466 19.3817 24.9195C19.4894 24.8653 19.5362 24.7026 19.6392 24.0155L19.7188 23.4912L20.0139 23.4098C20.1731 23.3646 20.5196 23.229 20.7819 23.1115L21.2595 22.89L21.7934 23.2697C22.168 23.5409 22.3647 23.6539 22.4583 23.6539C22.566 23.6539 22.7253 23.5228 23.3528 22.9171C23.9943 22.2979 24.1114 22.1623 24.1114 22.0493C24.1114 21.9498 24.0037 21.7735 23.718 21.4029L23.3247 20.8876L23.5073 20.5441C23.6103 20.3497 23.7461 20.0243 23.8164 19.8118C23.8866 19.5994 23.9475 19.4231 23.9475 19.4186C23.9522 19.4095 24.2425 19.3643 24.5984 19.3146C25.2727 19.2197 25.3945 19.1835 25.4413 19.0615C25.4554 19.0253 25.4694 18.5372 25.4694 17.9812C25.4694 17.0862 25.4601 16.9642 25.3898 16.8828C25.3196 16.806 25.1744 16.7698 24.6265 16.693C24.2519 16.6387 23.9475 16.5935 23.9475 16.589C23.8913 16.363 23.6431 15.7211 23.512 15.4635L23.3293 15.1154L23.718 14.6047C23.999 14.234 24.1114 14.0577 24.1114 13.9583C24.1114 13.8408 23.999 13.7142 23.3481 13.0859C22.7206 12.4802 22.566 12.3537 22.4536 12.3537C22.36 12.3537 22.1633 12.4667 21.7887 12.7334L21.2595 13.113L20.8942 12.9368C20.6226 12.8057 19.9764 12.5706 19.7282 12.5119C19.7235 12.5119 19.672 12.2181 19.6158 11.8565C19.5362 11.3276 19.4987 11.1875 19.4191 11.1197C19.3348 11.0519 19.2084 11.0428 18.2625 11.0428C17.6443 11.0428 17.1714 11.0654 17.1245 11.0926ZM19.0773 12.2723C19.1288 12.6158 19.199 12.9187 19.2318 12.9503C19.2599 12.9774 19.4613 13.0498 19.672 13.1085C19.8874 13.1628 20.3136 13.3345 20.6273 13.4837C20.9364 13.6329 21.2314 13.7549 21.2829 13.7549C21.3344 13.7549 21.606 13.5922 21.887 13.3933C22.168 13.1944 22.4115 13.0317 22.4255 13.0317C22.4396 13.0317 22.6691 13.2441 22.936 13.5018C23.2778 13.8317 23.409 13.9899 23.3809 14.0306C23.3621 14.0668 23.1889 14.2973 23.0015 14.5459C22.8142 14.79 22.6597 15.0341 22.6597 15.0838C22.6597 15.1335 22.7861 15.4183 22.9407 15.7166C23.0952 16.0195 23.2732 16.4308 23.3293 16.6387C23.3902 16.8421 23.4651 17.0365 23.4932 17.0636C23.526 17.0952 23.8398 17.1585 24.1957 17.2128L24.8372 17.3032V18.0038V18.7044L24.1957 18.7948C23.8398 18.849 23.526 18.9123 23.4932 18.944C23.4651 18.9711 23.3902 19.1654 23.3293 19.3689C23.2732 19.5768 23.0952 19.9881 22.9407 20.2909C22.7861 20.5893 22.6597 20.874 22.6597 20.9238C22.6597 20.9735 22.8283 21.2356 23.0343 21.5069C23.2404 21.7781 23.409 22.0131 23.409 22.0267C23.409 22.0402 23.1889 22.2617 22.9219 22.5194C22.3647 23.0572 22.4771 23.0482 21.8215 22.5736C21.5545 22.3792 21.3344 22.2527 21.2642 22.2527C21.2033 22.2527 21.0301 22.3205 20.8849 22.4064C20.5571 22.5962 20.1778 22.7499 19.6533 22.9081C19.4285 22.9714 19.2271 23.0482 19.2084 23.0798C19.1897 23.1115 19.1288 23.4098 19.0773 23.7443L18.9789 24.3545H18.2578H17.5366L17.4383 23.7443C17.3868 23.4098 17.3259 23.1115 17.3072 23.0798C17.2884 23.0482 17.0871 22.9714 16.8623 22.9081C16.3472 22.7544 16.0006 22.6143 15.6447 22.4109C15.4902 22.325 15.3122 22.2527 15.2514 22.2527C15.1858 22.2527 14.9329 22.4018 14.6332 22.6143C14.3569 22.8132 14.1134 22.9759 14.0947 22.9759C14.0807 22.9759 13.8465 22.7634 13.5796 22.5058C13.0223 21.9679 13.0317 22.0764 13.5234 21.4436C13.7201 21.1904 13.8559 20.9735 13.8559 20.9102C13.8559 20.8469 13.7716 20.6616 13.6732 20.4989C13.4625 20.1599 13.2424 19.6355 13.1581 19.283C13.0645 18.9078 13.0551 18.9033 12.3293 18.7948L11.6783 18.6999V18.0038V17.3077L12.3105 17.2128C12.6571 17.163 12.9661 17.1043 12.9989 17.0862C13.0317 17.0681 13.1113 16.8738 13.1769 16.6568C13.3408 16.1505 13.5 15.7844 13.6967 15.468C13.7856 15.3279 13.8559 15.1606 13.8559 15.1019C13.8559 15.0341 13.7248 14.8216 13.5234 14.564C13.0317 13.9312 13.0223 14.0397 13.5796 13.5018C13.8465 13.2441 14.076 13.0317 14.0947 13.0317C14.1087 13.0317 14.3523 13.1944 14.6332 13.3933C14.9142 13.5922 15.1811 13.7549 15.2326 13.7549C15.2842 13.7549 15.5792 13.6329 15.8882 13.4837C16.202 13.3345 16.6328 13.1628 16.8482 13.104C17.0636 13.0452 17.2697 12.9639 17.2978 12.9277C17.3259 12.887 17.3914 12.6023 17.4336 12.2994C17.4804 11.9921 17.5226 11.7163 17.5366 11.6847C17.5507 11.6395 17.7193 11.6305 18.2671 11.6395L18.9789 11.6531L19.0773 12.2723Z" stroke-width="0.411429" mask="url(#path-7-outside-1_2949_56812)" fill="black"/>
<path d="M17.5926 20.7611L17.5706 20.8615C16.7358 20.6788 15.9179 20.0493 15.5523 19.3105L15.5522 19.3104C15.3115 18.8225 15.2372 18.5087 15.2372 18.0038C15.2372 17.1936 15.5298 16.5115 16.121 15.9454C16.6374 15.447 17.1967 15.1787 17.8713 15.1037C18.8328 14.9918 19.7157 15.2863 20.3938 15.9362L20.3938 15.9362L20.3947 15.937C20.6822 16.2191 20.8068 16.3819 20.9628 16.6971L20.9628 16.6972C21.0817 16.9382 21.1602 17.1346 21.2083 17.3377C21.2565 17.5409 21.2731 17.7462 21.2731 18.0038C21.2731 18.2614 21.2565 18.4667 21.2083 18.6699C21.1602 18.873 21.0817 19.0694 20.9628 19.3104L20.9627 19.3106C20.5924 20.0584 19.7886 20.6742 18.9449 20.8615C18.7723 20.9001 18.5118 20.9182 18.2575 20.9182C18.0032 20.9182 17.7426 20.9001 17.5701 20.8614L17.5926 20.7611ZM17.5926 20.7611C16.7871 20.5848 15.9957 19.9746 15.6445 19.2649L17.5926 20.7611ZM18.583 20.1262C19.5437 19.9701 20.2994 19.2384 20.4601 18.3118C20.6418 17.2596 19.8732 16.1722 18.7449 15.9118C17.5142 15.6311 16.2695 16.4573 16.0549 17.6914C15.8197 19.0538 17.1581 20.3553 18.583 20.1262Z" fill="black" stroke-width="0.205714"/>
<path d="M17.7994 27.4204C17.9612 27.4283 18.0915 27.4369 18.1953 27.4494C18.298 27.4617 18.3823 27.4786 18.4484 27.5062C18.5178 27.5352 18.572 27.5783 18.6049 27.6431C18.6355 27.7032 18.6415 27.7707 18.6415 27.835C18.6415 27.8915 18.6383 27.9531 18.6153 28.0074C18.589 28.0695 18.5421 28.1115 18.4789 28.1375C18.4213 28.1612 18.3488 28.1723 18.2636 28.1785C18.1768 28.1848 18.067 28.1865 17.9299 28.1865C16.981 28.1865 16.0057 28.0215 14.9253 27.68L14.9252 27.6799C11.7715 26.6805 9.27844 24.2704 8.23268 21.2147L8.23259 21.2145C7.9727 20.4482 7.77384 19.5173 7.72631 18.8199L7.72627 18.8194L7.71187 18.59L7.53405 18.7568L7.53365 18.7572L17.7941 27.5231M17.7994 27.4204C17.7993 27.4204 17.7992 27.4204 17.7991 27.4204L17.7941 27.5231M17.7994 27.4204C17.7995 27.4204 17.7996 27.4204 17.7997 27.4204L17.7941 27.5231M17.7994 27.4204C14.1869 27.2234 11.0597 25.2187 9.47539 22.0932L9.47533 22.0931C8.98892 21.1362 8.62803 19.9198 8.5496 18.99M17.7941 27.5231C14.1461 27.3242 10.9852 25.2992 9.38364 22.1397C8.89194 21.1724 8.52668 19.9429 8.44707 18.9982M8.5496 18.99C8.54961 18.9902 8.54962 18.9903 8.54963 18.9905L8.44707 18.9982M8.5496 18.99C8.54958 18.9899 8.54957 18.9897 8.54956 18.9896L8.44707 18.9982M8.5496 18.99L8.44707 18.9982M8.36746 18.3428L8.4925 18.4587L8.49683 18.483L8.49684 18.483L8.49706 18.4844C8.50215 18.5155 8.50828 18.563 8.51471 18.6195L8.39705 18.5105C8.39654 18.5072 8.39604 18.504 8.39556 18.501L8.36746 18.3428ZM8.64816 18.7432L8.71867 18.6683L8.64876 18.7437L8.64844 18.7434C8.64835 18.7433 8.64825 18.7432 8.64816 18.7432Z" fill="black" stroke-width="0.205714"/>
<path d="M26.9683 20.2326L26.6954 20.0595L26.6944 20.0589C26.4995 19.9381 26.2604 19.8182 26.0461 19.7283C25.9388 19.6833 25.8364 19.6452 25.7476 19.6182C25.6616 19.5921 25.5794 19.5734 25.5164 19.5734C25.4652 19.5734 25.4122 19.5861 25.3666 19.6046C25.322 19.6226 25.2752 19.6499 25.2407 19.6865M26.9683 20.2326L25.315 19.7576M26.9683 20.2326L27.3016 20.0233C27.3017 20.0233 27.3018 20.0232 27.3018 20.0232C27.5718 19.8517 27.7355 19.7519 27.8496 19.7088C27.9098 19.6861 27.9658 19.6752 28.0223 19.6828C28.0783 19.6902 28.123 19.7145 28.161 19.7385L28.1617 19.7389C28.1833 19.7528 28.2047 19.7744 28.2221 19.7932C28.2415 19.8142 28.2638 19.8406 28.2882 19.8709C28.3371 19.9316 28.3974 20.0118 28.4645 20.1044C28.5988 20.2899 28.7628 20.5286 28.9217 20.768C29.0805 21.0075 29.2349 21.2488 29.3498 21.4396C29.4072 21.5348 29.4555 21.6186 29.4897 21.6838C29.5067 21.7162 29.521 21.7456 29.5314 21.7703C29.5366 21.7826 29.5414 21.7952 29.5451 21.8074C29.5482 21.8179 29.5528 21.8354 29.5528 21.8549C29.5528 21.9023 29.5443 21.9498 29.5186 21.9988C29.494 22.0455 29.4567 22.0877 29.4088 22.1302C29.3149 22.2134 29.1582 22.3164 28.9096 22.4711L28.9092 22.4713L28.5813 22.6734L28.605 22.7933L28.605 22.7932L28.6055 22.796C28.6283 22.9307 28.6385 23.2917 28.6379 23.636C28.6376 23.8104 28.6345 23.9841 28.6285 24.1281C28.6227 24.2685 28.6138 24.39 28.5998 24.4535L28.5997 24.4538L28.578 24.5506L28.9995 24.8192L28.9997 24.8193C29.206 24.9514 29.3343 25.0373 29.412 25.1067C29.452 25.1424 29.4834 25.1778 29.5055 25.2175C29.5284 25.2585 29.5381 25.298 29.5428 25.3367L29.5428 25.3367L29.5431 25.3401C29.5474 25.3901 29.5347 25.4416 29.5134 25.4957C29.4918 25.5505 29.4577 25.617 29.4096 25.6999C29.3135 25.866 29.1536 26.1116 28.9035 26.4862C28.9034 26.4862 28.9034 26.4863 28.9033 26.4864L28.8178 26.4292C28.4713 26.9536 28.1528 27.3965 28.1154 27.4191L26.9683 20.2326ZM25.2407 19.6865C25.2404 19.6868 25.2401 19.6871 25.2398 19.6874L25.315 19.7576M25.2407 19.6865C25.241 19.6861 25.2413 19.6858 25.2416 19.6855L25.315 19.7576M25.2407 19.6865C25.1783 19.7505 25.1466 19.841 25.1373 19.9229C25.1282 20.0035 25.1385 20.0981 25.1865 20.1705M25.315 19.7576C25.2307 19.8435 25.212 20.0243 25.2729 20.1147M25.1865 20.1705C25.1857 20.1694 25.185 20.1682 25.1843 20.1671L25.2729 20.1147M25.1865 20.1705C25.1868 20.171 25.1872 20.1716 25.1875 20.1721L25.2729 20.1147M25.1865 20.1705C25.1985 20.1894 25.2143 20.2026 25.2225 20.2092C25.2336 20.2181 25.2463 20.2267 25.259 20.2347C25.2845 20.2508 25.317 20.2686 25.3531 20.2871C25.4256 20.3241 25.5193 20.367 25.6167 20.4083L25.6184 20.409L25.6184 20.409C25.7972 20.4811 26.0209 20.596 26.2143 20.7091C26.3107 20.7656 26.3984 20.8208 26.4682 20.8691C26.5391 20.9182 26.5846 20.9555 26.6044 20.9773C26.648 21.0299 26.704 21.0663 26.7713 21.0835C26.8377 21.1004 26.9092 21.0971 26.9833 21.0807C27.1289 21.0484 27.3063 20.9602 27.5189 20.8257C27.5347 20.816 27.5502 20.8064 27.5655 20.797C27.6571 20.7406 27.7396 20.6897 27.803 20.6512C27.8207 20.6404 27.8368 20.6306 27.8511 20.6221C27.8729 20.6523 27.9005 20.6917 27.9324 20.7381C28.0105 20.8515 28.1122 21.0035 28.2132 21.1571C28.3143 21.3108 28.4143 21.4654 28.4888 21.5839C28.5238 21.6395 28.5529 21.6866 28.5737 21.7217C28.5601 21.7321 28.5437 21.744 28.5249 21.7573C28.4555 21.8063 28.3583 21.8693 28.2501 21.9338L28.2487 21.9346L28.2487 21.9346C28.1368 22.0035 28.0279 22.0762 27.9428 22.1386C27.9003 22.1697 27.8626 22.1991 27.833 22.2247C27.8077 22.2466 27.7759 22.2759 27.7589 22.306L27.7584 22.3069C27.7254 22.3667 27.7195 22.4359 27.726 22.5154C27.7326 22.5949 27.7529 22.6986 27.7858 22.8369M25.2729 20.1147L27.8859 22.8132M27.7858 22.8369C27.7858 22.8369 27.7858 22.8369 27.7858 22.837L27.8859 22.8132M27.7858 22.8369C27.7858 22.8368 27.7858 22.8367 27.7858 22.8367L27.8859 22.8132M27.7858 22.8369C27.8947 23.3012 27.8942 23.9665 27.7863 24.3874M27.8859 22.8132C27.9983 23.2923 27.9983 23.9748 27.8859 24.4133M27.7863 24.3874C27.7864 24.3873 27.7864 24.3872 27.7864 24.387L27.8859 24.4133M27.7863 24.3874C27.7863 24.3875 27.7863 24.3876 27.7863 24.3877L27.8859 24.4133M27.7863 24.3874C27.7534 24.5125 27.7327 24.6088 27.7261 24.6858C27.7193 24.7644 27.7263 24.8311 27.7558 24.8918C27.7558 24.892 27.7559 24.8921 27.756 24.8923L27.8484 24.8472L27.8859 24.4133M20.2715 26.1174C20.0608 25.7919 19.8501 25.5026 19.8126 25.4755L19.876 25.3945C19.8757 25.3943 19.8754 25.394 19.8751 25.3938C19.7502 25.2967 19.5879 25.3043 19.4661 25.3599C19.3445 25.4154 19.2321 25.5336 19.2321 25.6925C19.2321 25.723 19.2431 25.7538 19.2507 25.7732C19.2599 25.7969 19.2726 25.8241 19.2875 25.8535C19.3174 25.9125 19.3594 25.9866 19.409 26.0696C19.5084 26.2358 19.6418 26.4428 19.7788 26.6461C19.9159 26.8493 20.0575 27.0501 20.1735 27.2037C20.2314 27.2804 20.2839 27.3465 20.3267 27.3957C20.3481 27.4202 20.3683 27.4419 20.3864 27.459C20.4007 27.4725 20.4257 27.4951 20.4552 27.5063L20.4573 27.5071L20.4573 27.5071C20.4961 27.5208 20.5388 27.5333 20.5889 27.5333C20.6392 27.5333 20.6884 27.5208 20.7429 27.4986C20.8469 27.4562 20.996 27.3669 21.2477 27.2131L21.2486 27.2125L21.2486 27.2125L21.6172 26.9818L21.7957 27.1058L21.7966 27.1065L21.7966 27.1065C21.9297 27.1969 22.2211 27.3533 22.448 27.4583L22.4491 27.4587L22.4491 27.4587L22.7911 27.6123V28.0836C22.7911 28.1297 22.7907 28.1739 22.7903 28.2161C22.7891 28.3439 22.7881 28.4529 22.7993 28.538C22.8071 28.5974 22.8217 28.6549 22.8515 28.7059C22.8825 28.7589 22.9263 28.799 22.9825 28.8281C23.0866 28.882 23.2367 28.8989 23.4356 28.9059C23.5861 28.9112 23.7774 28.9107 24.0174 28.9101C24.1019 28.9099 24.1925 28.9097 24.2895 28.9097C24.8449 28.9097 25.1534 28.9086 25.3313 28.8976C25.4196 28.8921 25.484 28.8839 25.533 28.869C25.5878 28.8523 25.6229 28.8276 25.6522 28.7959C25.7068 28.7389 25.7309 28.6667 25.7437 28.5654C25.7563 28.4653 25.7597 28.3199 25.7597 28.1017V27.6273L26.0482 27.5048L20.6743 26.723C20.6649 26.714 20.4823 26.4383 20.2715 26.1174ZM20.2715 26.1174L20.3575 26.0609C20.3576 26.061 20.3576 26.0611 20.3577 26.0612C20.3578 26.0613 20.3578 26.0614 20.3579 26.0614L20.2715 26.1174ZM28.8553 22.3838C29.3563 22.0719 29.45 21.9905 29.45 21.8549C29.45 21.7148 28.2605 19.9248 28.106 19.8254C27.9702 19.7395 27.9046 19.7621 27.3567 20.1102L26.9681 20.3542L28.8553 22.3838ZM28.2447 25.2832C28.2445 25.2831 28.2443 25.283 28.244 25.2828L28.298 25.1953L28.2454 25.2836C28.2451 25.2835 28.2449 25.2834 28.2447 25.2832ZM28.5738 25.5012C28.5752 25.4989 28.5765 25.4967 28.5777 25.4946C28.5883 25.4765 28.5958 25.4631 28.6004 25.4542C28.6014 25.4524 28.602 25.451 28.6025 25.45C28.6033 25.4485 28.6036 25.4478 28.6036 25.4479L28.603 25.4493L28.6017 25.4531L28.6017 25.4533C28.6011 25.4552 28.5979 25.4657 28.5979 25.48C28.5979 25.508 28.6098 25.5266 28.6115 25.5293L28.6117 25.5295C28.6141 25.5334 28.6161 25.5358 28.6167 25.5364C28.6156 25.5353 28.6116 25.5313 28.6028 25.524C28.5951 25.5175 28.5854 25.5099 28.5738 25.5012ZM23.1942 26.9045C23.3463 26.9481 23.4722 26.999 23.5398 27.1441C23.5705 27.21 23.586 27.2889 23.5946 27.3815C23.6033 27.4746 23.6056 27.5895 23.6056 27.731V28.1163H24.2988H24.9921V27.7084C24.9921 27.5685 24.9968 27.4328 25.004 27.3274C25.0076 27.2748 25.0119 27.2286 25.0167 27.1927C25.019 27.1748 25.0217 27.158 25.0249 27.1436C25.0271 27.1335 25.0321 27.1109 25.0439 27.091L25.0434 27.0907L25.0497 27.0822C25.0618 27.0659 25.0766 27.0541 25.0861 27.047C25.0971 27.0389 25.1093 27.0312 25.1216 27.024C25.1464 27.0095 25.1771 26.9941 25.2108 26.9784C25.2784 26.9469 25.3644 26.9119 25.453 26.8796L25.453 26.8795L25.4541 26.8791C25.8422 26.7425 26.1146 26.5981 26.4631 26.3503C26.5529 26.2847 26.6396 26.2307 26.7161 26.1925C26.7886 26.1564 26.8654 26.1275 26.9306 26.1275C26.9677 26.1275 27.009 26.1391 27.0451 26.1517C27.0843 26.1654 27.1293 26.1845 27.1777 26.2075C27.2748 26.2534 27.3916 26.3174 27.513 26.391L27.5131 26.391L27.5146 26.3919C27.6216 26.4593 27.7227 26.521 27.7979 26.5657C27.8174 26.5773 27.8351 26.5876 27.8506 26.5966L23.1942 26.9045Z" fill="black" stroke-width="0.205714"/>
<path d="M24.5364 21.311L24.5363 21.311L24.5377 21.3096C24.6177 21.2251 24.7369 21.2016 24.8532 21.2061C24.9722 21.2106 25.1086 21.2447 25.249 21.2991C25.5303 21.4082 25.8474 21.6068 26.1074 21.8578C26.4828 22.2201 26.7035 22.618 26.8155 23.1348C27.1003 24.4383 26.216 25.7318 24.8553 26.0414L24.8549 26.0415C24.244 26.1783 23.5156 26.0654 22.9602 25.7504C22.7393 25.6258 22.5026 25.4198 22.3212 25.2169C22.2302 25.1151 22.1509 25.0114 22.0936 24.9161C22.0389 24.8252 21.9948 24.7267 21.9948 24.6393C21.9948 24.4176 22.1938 24.2743 22.4067 24.2743C22.4806 24.2743 22.5493 24.283 22.6162 24.3279C22.6763 24.3681 22.7256 24.432 22.781 24.5121C22.9774 24.7831 23.3004 25.0508 23.5824 25.1784L23.5824 25.1784L23.5832 25.1788C23.6967 25.2313 23.7676 25.2575 23.86 25.2723C23.9566 25.2877 24.0797 25.2913 24.2986 25.2913C24.5225 25.2913 24.6438 25.2877 24.7381 25.2718C24.8281 25.2567 24.8963 25.2299 25.0132 25.1746L25.0134 25.1746C25.4052 24.9897 25.6878 24.7166 25.8786 24.3397L25.8786 24.3397L25.8791 24.3389C25.9643 24.1744 26.0023 24.0941 26.0224 24.0071C26.0427 23.919 26.0455 23.8194 26.0455 23.6132C26.0455 23.4231 26.0406 23.3145 26.0239 23.2261C26.0077 23.1407 25.9796 23.0702 25.9248 22.9577L25.9247 22.9575C25.6971 22.488 25.3521 22.173 24.8779 22.0062L24.8779 22.0062L24.875 22.0051C24.8142 21.9816 24.7484 21.9534 24.6918 21.9261C24.6398 21.901 24.5844 21.8715 24.5516 21.8439C24.4695 21.7776 24.4336 21.6782 24.4328 21.5834C24.432 21.488 24.4663 21.3879 24.5364 21.311Z" fill="black" stroke-width="0.205714"/>
</svg>