<?xml version="1.0" ?><svg xmlns="http://www.w3.org/2000/svg" fill="none" viewBox="8.74 6.69 18.25 23.14">
<g id="planning">
<g id="Group 1000001405">
<g id="Group">
<g id="Vector">
<path d="M17.0581 6.75409C16.4387 6.92136 15.8058 7.43221 15.5165 8.00184L15.3582 8.30925H14.5219C13.2108 8.30925 13.1656 8.3409 13.1656 9.17273V9.71071H11.9586C11.2895 9.71071 10.6566 9.73331 10.5436 9.76044C9.78858 9.93223 9.12402 10.5561 8.85729 11.3337L8.75784 11.6321L8.74427 19.6565C8.73975 24.6294 8.74879 27.7985 8.77592 27.9929C8.83017 28.3907 9.06977 28.8835 9.33198 29.1367C9.58967 29.3853 10.0011 29.6295 10.3582 29.738C10.6385 29.8284 10.8148 29.8284 17.8673 29.8284C24.9198 29.8284 25.0961 29.8284 25.3764 29.738C25.7335 29.6295 26.1449 29.3853 26.4026 29.1367C26.6648 28.8835 26.9044 28.3907 26.9587 27.9929C26.9858 27.7985 26.9948 24.6294 26.9903 19.6565L26.9768 11.6321L26.8773 11.3337C26.6151 10.5697 25.9957 9.97292 25.2588 9.77852C25.0509 9.72427 24.7209 9.71071 23.7805 9.71071H22.5689V9.17273C22.5689 8.33638 22.5283 8.30925 21.1856 8.30925H20.3221L20.1729 8.00184C19.8745 7.39605 19.2823 6.93492 18.568 6.74957C18.229 6.66367 17.3926 6.66367 17.0581 6.75409ZM18.3917 7.85265C18.8257 8.04704 19.1557 8.43131 19.2914 8.906C19.3411 9.09135 19.4089 9.20438 19.5219 9.29931L19.6801 9.43946H20.5572H21.4387V10.5245V11.6095H17.8673H14.2958V10.5245V9.43946H15.1232C16.0951 9.43946 16.1765 9.41233 16.3076 9.04615C16.4749 8.58954 16.5563 8.44488 16.7416 8.24144C17.1801 7.76675 17.8402 7.60852 18.3917 7.85265ZM13.1656 11.5868C13.1656 12.4594 13.1973 12.5588 13.4957 12.699C13.6765 12.7803 13.8573 12.7849 17.8221 12.7849C20.4125 12.7849 22.0174 12.7668 22.1214 12.7397C22.2073 12.7171 22.3384 12.6312 22.4152 12.5543L22.5463 12.4187L22.5599 11.6275L22.5735 10.8364L23.7579 10.85C24.8972 10.8635 24.9514 10.868 25.1458 10.9675C25.408 11.1076 25.5346 11.2252 25.6793 11.4738L25.8013 11.6773L25.8104 19.8147L25.8239 27.9522L25.72 28.1331C25.6069 28.332 25.2724 28.5806 25.0192 28.653C24.7887 28.7162 10.9459 28.7162 10.7154 28.653C10.4622 28.5806 10.1276 28.332 10.0146 28.1331L9.91065 27.9522V19.869C9.91065 12.7125 9.91969 11.7677 9.97846 11.623C10.1231 11.2794 10.3944 11.0217 10.747 10.8952C10.8284 10.868 11.3302 10.8454 12.0264 10.8454L13.1656 10.8409V11.5868Z" fill="black"/>
<path d="M18.3917 7.85265C18.8257 8.04704 19.1557 8.43131 19.2914 8.906C19.3411 9.09135 19.4089 9.20438 19.5219 9.29931L19.6801 9.43946H20.5572H21.4387V10.5245V11.6095H17.8673H14.2958V10.5245V9.43946H15.1232C16.0951 9.43946 16.1765 9.41233 16.3076 9.04615C16.4749 8.58954 16.5563 8.44488 16.7416 8.24144C17.1801 7.76675 17.8402 7.60852 18.3917 7.85265Z" fill="black"/>
</g>
<path id="Vector_2" d="M16.9358 15.9178C16.6465 16.18 16.6872 16.605 17.0217 16.8084C17.1619 16.8943 17.2749 16.8988 20.4937 16.8988H23.8211L23.9748 16.7948C24.2867 16.5869 24.3048 16.1303 24.0109 15.8861L23.8708 15.7686H20.4847H17.0986L16.9358 15.9178Z" fill="black"/>
<path id="Vector_3" d="M17.0672 20.2221C16.6784 20.3894 16.6422 20.9816 16.9994 21.2258C17.1124 21.3026 17.3158 21.3071 20.4759 21.3071C23.7942 21.3071 23.8303 21.3071 23.9569 21.2122C24.3321 20.9364 24.296 20.3849 23.8936 20.2176C23.6766 20.1227 17.2797 20.1272 17.0672 20.2221Z" fill="black"/>
<path id="Vector_4" d="M14.5177 23.7795C14.1967 24.087 13.7673 24.4848 13.5683 24.6701L13.2067 25.0092L12.7636 24.5662C12.2754 24.0824 12.1443 24.0191 11.8459 24.1457C11.6334 24.2361 11.5295 24.3944 11.5295 24.643C11.5249 24.9233 11.6153 25.0544 12.3432 25.7732C12.9445 26.3655 12.9761 26.3926 13.1569 26.3926C13.2564 26.3926 13.3875 26.3745 13.4463 26.3519C13.5638 26.3067 15.7203 24.2678 15.8423 24.0915C15.9418 23.9423 15.9463 23.6665 15.8514 23.4993C15.7429 23.3229 15.5575 23.228 15.3179 23.228C15.1099 23.228 15.0964 23.237 14.5177 23.7795Z" fill="black"/>
<path id="Vector_5" d="M16.9358 24.7325C16.6465 24.9947 16.6872 25.4196 17.0217 25.6231C17.1619 25.709 17.2749 25.7135 20.4937 25.7135H23.8211L23.9748 25.6095C24.2867 25.4016 24.3048 24.945 24.0109 24.7008L23.8708 24.5833H20.4847H17.0986L16.9358 24.7325Z" fill="black"/>
</g>
<g id="Vector_6">
<path d="M12.1961 14.4165C12.1047 14.4566 12.0111 14.5702 11.9955 14.6594C11.9889 14.6995 11.9844 15.2432 11.9889 15.8717C11.9955 16.9837 11.9978 17.0126 12.0423 17.0728C12.0669 17.1062 12.1159 17.1553 12.1493 17.1798C12.2095 17.2266 12.234 17.2266 13.4106 17.2266C14.5872 17.2266 14.6117 17.2266 14.6719 17.1798C14.7053 17.1553 14.7544 17.1062 14.7789 17.0728C14.8257 17.0126 14.8257 16.9881 14.8257 15.8115C14.8257 14.6349 14.8257 14.6104 14.7789 14.5502C14.7544 14.5168 14.7053 14.4677 14.6719 14.4432C14.6117 14.3964 14.5828 14.3964 13.4374 14.392C12.4947 14.3875 12.2496 14.392 12.1961 14.4165ZM14.1237 15.8115V16.5246H13.4106H12.6975V15.8115V15.0984H13.4106H14.1237V15.8115Z" fill="black"/>
<path d="M14.1237 15.8115V16.5246H13.4106H12.6975V15.8115V15.0984H13.4106H14.1237V15.8115Z" fill="black"/>
</g>
<g id="Vector_7">
<path d="M12.1961 19.2827C12.1047 19.3228 12.0111 19.4365 11.9955 19.5256C11.9889 19.5657 11.9844 20.1094 11.9889 20.7379C11.9955 21.8499 11.9978 21.8788 12.0423 21.939C12.0669 21.9724 12.1159 22.0215 12.1493 22.046C12.2095 22.0928 12.234 22.0928 13.4106 22.0928C14.5872 22.0928 14.6117 22.0928 14.6719 22.046C14.7053 22.0215 14.7544 21.9724 14.7789 21.939C14.8257 21.8788 14.8257 21.8543 14.8257 20.6777C14.8257 19.5011 14.8257 19.4766 14.7789 19.4164C14.7544 19.383 14.7053 19.3339 14.6719 19.3094C14.6117 19.2626 14.5828 19.2626 13.4374 19.2582C12.4947 19.2537 12.2496 19.2582 12.1961 19.2827ZM14.1237 20.6777V21.3908H13.4106H12.6975V20.6777V19.9646H13.4106H14.1237V20.6777Z" fill="black"/>
<path d="M14.1237 20.6777V21.3908H13.4106H12.6975V20.6777V19.9646H13.4106H14.1237V20.6777Z" fill="black"/>
</g>
</g>
</g>
</svg>