<?xml version="1.0" ?><svg xmlns="http://www.w3.org/2000/svg" fill="none" viewBox="6.5 7.5 22.5 20.71">
<g id="Inventory">
<g id="Inventory_2">
<g id="ô­">
<path fill-rule="evenodd" clip-rule="evenodd" d="M25.3405 24.8059V13.8865H10.1595V24.8059C10.1595 25.2939 10.2893 25.6637 10.5491 25.9156C10.8166 26.1753 11.1905 26.3051 11.6705 26.3051H23.8295C24.3095 26.3051 24.6794 26.1753 24.9391 25.9156C25.2067 25.6637 25.3405 25.2939 25.3405 24.8059ZM21.4095 18.4077H14.1141C13.8623 18.4077 13.6537 18.329 13.4885 18.1716C13.3311 18.0063 13.2524 17.7939 13.2524 17.5341V17.18C13.2524 16.9203 13.3311 16.7117 13.4885 16.5543C13.6537 16.397 13.8623 16.3183 14.1141 16.3183H21.4095C21.6535 16.3183 21.8541 16.397 22.0115 16.5543C22.1768 16.7117 22.2594 16.9203 22.2594 17.18V17.5341C22.2594 17.7939 22.1768 18.0063 22.0115 18.1716C21.8541 18.329 21.6535 18.4077 21.4095 18.4077Z" fill="black"/>
<path fill-rule="evenodd" clip-rule="evenodd" d="M23.8767 28.2057H11.6351C10.5018 28.2057 9.63615 27.9145 9.03804 27.3322C8.4478 26.7577 8.15268 25.9077 8.15268 24.7823V13.8277C7.71839 13.7378 7.36425 13.5449 7.09024 13.249C6.69675 12.8162 6.5 12.2377 6.5 11.5137V9.86101C6.5 9.13698 6.70462 8.56248 7.11385 8.13751C7.52308 7.71253 8.07398 7.50005 8.76653 7.50005H26.7453C27.4693 7.50005 28.0241 7.71253 28.4098 8.13751C28.8033 8.56248 29 9.13698 29 9.86101V11.5137C29 12.2377 28.8033 12.8162 28.4098 13.249C28.1366 13.55 27.7785 13.7445 27.3355 13.8322V12.9185H25.3405V13.8865H10.1595V24.8059C10.1595 25.2939 10.2893 25.6637 10.5491 25.9156C10.8166 26.1753 11.1905 26.3051 11.6705 26.3051H23.8295C24.3095 26.3051 24.6794 26.1753 24.9391 25.9156C25.2067 25.6637 25.3405 25.2939 25.3405 24.8059V13.8865H26.7453C26.9489 13.8865 27.1392 13.8696 27.316 13.836C27.3225 13.8348 27.329 13.8335 27.3355 13.8322V24.7823C27.3355 25.8998 27.0404 26.7498 26.4502 27.3322C25.8599 27.9145 25.0021 28.2057 23.8767 28.2057ZM21.4095 18.4077H14.1141C13.8623 18.4077 13.6537 18.329 13.4885 18.1716C13.3311 18.0063 13.2524 17.7939 13.2524 17.5341V17.18C13.2524 16.9203 13.3311 16.7117 13.4885 16.5543C13.6537 16.397 13.8623 16.3183 14.1141 16.3183H21.4095C21.6535 16.3183 21.8541 16.397 22.0115 16.5543C22.1768 16.7117 22.2594 16.9203 22.2594 17.18V17.5341C22.2594 17.7939 22.1768 18.0063 22.0115 18.1716C21.8541 18.329 21.6535 18.4077 21.4095 18.4077ZM8.63667 11.8324C8.75472 11.9583 8.94753 12.0213 9.21511 12.0213H26.3085C26.5682 12.0213 26.7571 11.9583 26.8751 11.8324C26.9932 11.7065 27.0522 11.5137 27.0522 11.254V10.1325C27.0522 9.86495 26.9932 9.6682 26.8751 9.54228C26.7571 9.41636 26.5682 9.3534 26.3085 9.3534H9.21511C8.94753 9.3534 8.75472 9.41636 8.63667 9.54228C8.51863 9.6682 8.4596 9.86495 8.4596 10.1325V11.254C8.4596 11.5137 8.51863 11.7065 8.63667 11.8324Z" fill="black"/>
<path d="M27.3355 12.9185H25.3405V13.8865H26.7453C26.9489 13.8865 27.1392 13.8696 27.316 13.836L27.3355 13.8322V12.9185Z" fill="black"/>
</g>
</g>
</g>
</svg>