<?xml version="1.0" ?><svg xmlns="http://www.w3.org/2000/svg" fill="none" viewBox="6.17 6.71 23.14 23.14">
<path d="M26.2285 7.22852H13.1142H12.3428V24.7142H17.7428L18.5142 20.8571L20.3142 19.3142L23.9142 18.0285L26.2285 19.3142V7.22852Z" fill="black"/>
<path fill-rule="evenodd" clip-rule="evenodd" d="M12.0854 6.97119H26.4854V19.751L23.8909 18.3096L20.4452 19.5402L18.7487 20.9944L17.9534 24.9712H12.0854V6.97119ZM12.5997 7.48548V24.4569H17.5318L18.2793 20.7194L20.1827 19.0878L23.9371 17.747L25.9711 18.877V7.48548H12.5997Z" fill="black"/>
<path d="M11.7626 6.89039L11.5728 7.0712V16.2289V25.3866L11.7626 25.5674L11.9524 25.7437H14.6826H17.4127L17.4941 25.9561C17.8918 27.0274 18.8094 28.1755 19.7812 28.8219C20.848 29.536 21.9192 29.857 23.2346 29.857C24.9613 29.857 26.3986 29.2603 27.5603 28.058C28.7084 26.8737 29.3141 25.3595 29.3141 23.687C29.3141 22.0372 28.7672 20.6902 27.61 19.5014L27.1445 19.0268L27.1354 13.1055L27.1219 7.18872L27.0224 7.03052C26.9682 6.94463 26.8642 6.83615 26.7919 6.79095C26.6653 6.71863 26.2224 6.71411 19.3066 6.71411H11.9524L11.7626 6.89039ZM25.7432 13.1145C25.7432 17.9013 25.7387 18.159 25.6664 18.1273C24.1567 17.5081 22.7103 17.4584 21.2367 17.9736C19.397 18.62 17.9551 20.0936 17.363 21.9242C17.1777 22.5118 17.1008 23.0361 17.1008 23.7413V24.3876H15.0261H12.9514V16.2289V8.07013H19.3473H25.7432V13.1145ZM24.3917 19.2031C26.3941 19.7184 27.6914 21.2688 27.9084 23.3932C28.0892 25.2193 27.0676 27.059 25.3816 27.9314C24.6584 28.3066 24.0346 28.4602 23.212 28.4602C21.0514 28.4602 19.2343 27.0455 18.6377 24.8939C18.5518 24.6001 18.5382 24.4283 18.5382 23.7774C18.5382 23.0813 18.5518 22.9638 18.6648 22.557C18.9631 21.4541 19.5824 20.5411 20.4321 19.9354C20.9791 19.5421 21.8062 19.2121 22.5159 19.0991C22.9769 19.0268 23.9036 19.0811 24.3917 19.2031Z" fill="black"/>
<path d="M14.5562 9.51663C14.1629 9.77428 14.1629 10.4478 14.5562 10.6919C14.7008 10.7823 14.7686 10.7823 19.3203 10.7823C24.419 10.7823 24.1162 10.8004 24.297 10.4975C24.419 10.3032 24.419 9.90536 24.297 9.711C24.1162 9.40815 24.419 9.42623 19.3158 9.42623C14.7867 9.42623 14.6872 9.43075 14.5562 9.51663Z" fill="black"/>
<path d="M14.5562 12.2288C14.1629 12.4864 14.1629 13.1599 14.5562 13.404C14.7008 13.4944 14.7686 13.4944 19.3203 13.4944C24.419 13.4944 24.1162 13.5125 24.297 13.2097C24.419 13.0153 24.419 12.6175 24.297 12.4232C24.1162 12.1203 24.419 12.1384 19.3158 12.1384C14.7867 12.1384 14.6872 12.1429 14.5562 12.2288Z" fill="black"/>
<path d="M14.5562 14.9407C14.1629 15.1984 14.1629 15.8719 14.5562 16.116C14.7008 16.2064 14.7686 16.2064 19.3203 16.2064C24.419 16.2064 24.1162 16.2244 24.297 15.9216C24.419 15.7272 24.419 15.3295 24.297 15.1351C24.1162 14.8323 24.419 14.8503 19.3158 14.8503C14.7867 14.8503 14.6872 14.8549 14.5562 14.9407Z" fill="black"/>
<path d="M14.5562 17.6528C14.1629 17.9149 14.1629 18.5839 14.5562 18.828C14.7008 18.9184 14.7641 18.9229 16.0659 18.9093L17.4174 18.8958L17.5394 18.7828C17.8784 18.4664 17.8784 18.0144 17.5394 17.698L17.4174 17.585L16.0568 17.5714C14.7551 17.5624 14.6872 17.5669 14.5562 17.6528Z" fill="black"/>
<path d="M25.0426 21.4948C24.9025 21.5491 24.7443 21.7389 23.7544 23.009C23.2527 23.6554 22.8142 24.2114 22.7871 24.243C22.7419 24.2882 22.6379 24.1888 22.2854 23.7729C21.8153 23.2215 21.6752 23.122 21.3723 23.122C21.1147 23.122 20.9022 23.2531 20.7847 23.4836C20.6672 23.7142 20.6536 23.8769 20.744 24.0848C20.8299 24.2837 22.2808 25.9516 22.4436 26.0375C22.6199 26.1279 22.9317 26.1234 23.108 26.0239C23.3159 25.9155 25.9512 22.5344 26.0144 22.3039C26.0913 22.0146 25.9692 21.6847 25.7297 21.54C25.576 21.4451 25.2144 21.4225 25.0426 21.4948Z" fill="black"/>
<path d="M7.50481 9.03288C6.86748 9.27697 6.42903 9.74253 6.24371 10.3708C6.18043 10.5923 6.17139 11.2522 6.17139 16.3554V22.0959L6.87652 23.7955C7.26525 24.7266 7.6133 25.5357 7.64946 25.5899C7.86642 25.9244 8.61223 25.9018 8.79756 25.5538C8.82468 25.5041 9.16369 24.7085 9.55241 23.7864L10.2621 22.105L10.2756 16.5904C10.2847 12.9247 10.2711 10.9539 10.2395 10.7143C10.1445 10.0002 9.71514 9.39901 9.0778 9.09616C8.79756 8.96508 8.72524 8.95152 8.27323 8.94248C7.84382 8.92892 7.73986 8.94248 7.50481 9.03288ZM8.55347 10.4205C8.76592 10.5471 8.8518 10.7505 8.8744 11.1754L8.897 11.5506H8.23255H7.57261V11.1528C7.57261 10.7189 7.63138 10.5742 7.87094 10.416C8.0427 10.303 8.36363 10.303 8.55347 10.4205ZM8.88344 17.0651V21.2235H8.22803H7.57261V17.0651V12.9066H8.22803H8.88344V17.0651Z" fill="black"/>
</svg>