<?xml version="1.0" ?><svg xmlns="http://www.w3.org/2000/svg" fill="none" viewBox="5.4 6.43 24.69 23.32">
<g id="approval-matrix">
<g id="Group 159093">
<g id="Vector">
<path d="M19.203 16.0488H22.4889C22.724 16.0488 22.9552 16.1081 23.1605 16.2211C23.3659 16.334 23.5385 16.4969 23.6622 16.6943C23.7858 16.8916 23.8562 17.1169 23.8668 17.3487C23.8775 17.5805 23.8279 17.8111 23.7228 18.0186L21.3088 22.7833C21.1942 23.0096 21.018 23.1999 20.7999 23.3329C20.5818 23.4659 20.3305 23.5363 20.0742 23.5362H17.3036C17.1911 23.5362 17.0787 23.5225 16.969 23.4953L14.375 22.8555M19.203 16.0488V12.6454C19.203 12.2844 19.0577 11.9381 18.799 11.6828C18.5403 11.4275 18.1895 11.2841 17.8236 11.2841H17.7581C17.4132 11.2841 17.1339 11.5597 17.1339 11.9001C17.134 12.3861 16.9881 12.8613 16.7145 13.2655L14.375 16.7294V22.8555M19.203 16.0488H17.8236ZM14.375 22.8555H12.9956C12.6297 22.8555 12.2789 22.7121 12.0202 22.4568C11.7615 22.2015 11.6161 21.8552 11.6161 21.4941V17.4101C11.6161 17.0491 11.7615 16.7028 12.0202 16.4475C12.2789 16.1922 12.6297 16.0488 12.9956 16.0488H14.7199" fill="black"/>
<path d="M19.203 16.0488H22.4889C22.724 16.0488 22.9552 16.1081 23.1605 16.2211C23.3659 16.334 23.5385 16.4969 23.6622 16.6943C23.7858 16.8916 23.8562 17.1169 23.8668 17.3487C23.8775 17.5805 23.8279 17.8111 23.7228 18.0186L21.3088 22.7833C21.1942 23.0096 21.018 23.1999 20.7999 23.3329C20.5818 23.4659 20.3305 23.5363 20.0742 23.5362H17.3036C17.1911 23.5362 17.0787 23.5225 16.969 23.4953L14.375 22.8555M19.203 16.0488V12.6454C19.203 12.2844 19.0577 11.9381 18.799 11.6828C18.5403 11.4275 18.1895 11.2841 17.8236 11.2841H17.7581C17.4132 11.2841 17.1339 11.5597 17.1339 11.9001C17.134 12.3861 16.9881 12.8613 16.7145 13.2655L14.375 16.7294V22.8555M19.203 16.0488H17.8236M14.375 22.8555H12.9956C12.6297 22.8555 12.2789 22.7121 12.0202 22.4568C11.7615 22.2015 11.6161 21.8552 11.6161 21.4941V17.4101C11.6161 17.0491 11.7615 16.7028 12.0202 16.4475C12.2789 16.1922 12.6297 16.0488 12.9956 16.0488H14.7199" stroke-width="1.54286" stroke-linecap="round" stroke-linejoin="round" fill="black"/>
</g>
<path id="Vector 3" d="M10.255 7.20001H6.68525C6.40121 7.20001 6.17096 7.43027 6.17096 7.7143V28.4672C6.17096 28.7513 6.40121 28.9815 6.68525 28.9815H10.255" stroke-width="1.54286" stroke-linecap="round" fill="black"/>
<path id="Vector 4" d="M25.2298 28.9816H28.7996C29.0836 28.9816 29.3138 28.7513 29.3138 28.4673L29.3138 7.71434C29.3138 7.43031 29.0836 7.20006 28.7996 7.20006H25.2298" stroke-width="1.54286" stroke-linecap="round" fill="black"/>
</g>
</g>
</svg>