<?xml version="1.0" ?><svg xmlns="http://www.w3.org/2000/svg" fill="none" viewBox="6 4 24.4 28.2">
<path fill-rule="evenodd" clip-rule="evenodd" d="M17.4353 10.0005C17.4353 12.9986 15.0048 15.429 12.0067 15.429C9.00858 15.429 6.57812 12.9986 6.57812 10.0005C6.57812 7.00235 9.00858 4.5719 12.0067 4.5719C15.0048 4.5719 17.4353 7.00235 17.4353 10.0005ZM9.69123 9.07521C9.7092 8.78769 9.93838 8.55851 10.2259 8.54054L13.687 8.32422C14.016 8.30366 14.2941 8.56492 14.2941 8.89454V10.8577V12.572C14.2941 12.8876 14.0383 13.1434 13.7227 13.1434H10.0452C9.71562 13.1434 9.45435 12.8653 9.47491 12.5363L9.69123 9.07521ZM12.0033 6.85788L11.1462 7.14359L10.8604 8.28645H13.1462L12.5747 7.14359L12.0033 6.85788Z" fill="black"/>
<path d="M25.0644 9.38449C24.9519 9.46183 24.9097 9.56027 24.9097 9.75715C24.9097 10.1791 25.0855 10.2845 25.8026 10.3197L26.4073 10.3408L24.6565 12.0916L22.9058 13.8424H21.148C19.8753 13.8494 19.362 13.8705 19.2776 13.9338C19.2144 13.983 18.7362 14.7634 18.2089 15.6705C17.6253 16.6759 17.2175 17.3158 17.1612 17.2947C17.112 17.2806 16.8729 17.2736 16.6339 17.2736C15.7831 17.2666 15.0519 17.822 14.8479 18.6236L14.7565 18.9752H12.0706H9.37764L9.23701 19.158C9.15264 19.2634 9.08936 19.39 9.08936 19.4392C9.08936 19.622 9.25107 19.8752 9.41982 19.9525C9.53232 20.0017 10.4604 20.0299 12.2886 20.0299H14.9886L15.3331 20.3744C15.9097 20.9509 16.7394 21.0986 17.4354 20.747C17.7659 20.5783 18.2019 20.1072 18.3425 19.7767C18.4972 19.4041 18.469 18.715 18.2792 18.3072L18.1104 17.9556L18.9894 16.4228L19.8753 14.897H21.5979H23.3206L25.2261 12.9986C26.2737 11.9509 27.1526 11.1002 27.1808 11.1002C27.2089 11.1002 27.23 11.3814 27.23 11.7259C27.23 12.3236 27.237 12.3658 27.4128 12.4994C27.6589 12.6892 27.8136 12.6822 28.0526 12.4783L28.2495 12.3095V10.9244C28.2495 9.13136 28.3901 9.27199 26.569 9.27199C25.4651 9.27199 25.1909 9.29308 25.0644 9.38449ZM16.8729 18.3424C16.9292 18.3424 17.0698 18.4338 17.1823 18.5463C17.5972 18.9681 17.3651 19.7486 16.7815 19.8611C16.1206 19.9806 15.5933 19.2283 15.9589 18.6939C16.1347 18.4267 16.4722 18.2509 16.669 18.3142C16.7253 18.3283 16.8097 18.3424 16.8729 18.3424Z" fill="black"/>
<mask id="mask0_4679_40458" style="mask-type:alpha" maskUnits="userSpaceOnUse" x="7" y="18" width="24" height="15">
<path d="M30.3989 18.2002H7.39893V32.2002H30.3989V18.2002Z" fill="white"/>
<path fill-rule="evenodd" clip-rule="evenodd" d="M23.1088 18.5348C23 18.6747 23 18.6851 23 24.5203V30.3709H22.3522H21.7044V26.5102V22.6443L21.5749 22.5199L21.4505 22.3904H19.4242H17.398L17.2736 22.5199L17.1441 22.6443V26.5102V30.3709H16.4963H15.8485V26.2511C15.8485 23.3024 15.833 22.1002 15.7915 22.0069C15.6827 21.7737 15.5791 21.7633 13.501 21.7789L11.5525 21.7944L11.4333 21.9136L11.3141 22.0328L11.2986 26.1993L11.2882 30.3709H10.6404H9.99267H8.54508C8.37407 30.5057 8.34371 30.9162 8.50436 31.0769C8.608 31.1805 16.4704 31.2001 16.4704 31.2001C29.4621 31.2001 29.5295 31.2001 29.6332 31.0965C29.7057 31.0239 29.7368 30.9254 29.7368 30.7648C29.7368 30.3865 29.6798 30.3709 28.5086 30.3709H27.5085V24.4892C27.5085 18.6747 27.5085 18.6074 27.4048 18.5037C27.3064 18.4053 27.2338 18.4001 25.2594 18.4001H23.2124L23.1088 18.5348ZM26.6793 30.3709V24.8001V19.2292H25.2542H23.8291V24.8001V30.3709H25.2542H26.6793ZM14.9676 30.3709V26.5102V22.6495H13.5684H12.1692V26.5102V30.3709H13.5684H14.9676ZM20.8234 30.3709V26.7952V23.2195H19.3983H17.9732V26.7952V30.3709H19.3983H20.8234Z" fill="black"/>
<path d="M14.9676 26.5102V30.3709H13.5684H12.1692V26.5102V22.6495H13.5684H14.9676V26.5102Z" fill="black"/>
<path d="M26.6793 24.8001V30.3709H25.2542H23.8291V24.8001V19.2292H25.2542H26.6793V24.8001Z" fill="black"/>
</mask>
<g mask="url(#mask0_4679_40458)">
<path fill-rule="evenodd" clip-rule="evenodd" d="M23.1088 18.5348C23 18.6747 23 18.6851 23 24.5203V30.3709H22.3522H21.7044V26.5102V22.6443L21.5749 22.5199L21.4505 22.3904H19.4242H17.398L17.2736 22.5199L17.1441 22.6443V26.5102V30.3709H16.4963H15.8485V26.2511C15.8485 23.3024 15.833 22.1002 15.7915 22.0069C15.6827 21.7737 15.5791 21.7633 13.501 21.7789L11.5525 21.7944L11.4333 21.9136L11.3141 22.0328L11.2986 26.1993L11.2882 30.3709H10.6404H9.99267H8.54508C8.37407 30.5057 8.34371 30.9162 8.50436 31.0769C8.608 31.1805 16.4704 31.2001 16.4704 31.2001C29.4621 31.2001 29.5295 31.2001 29.6332 31.0965C29.7057 31.0239 29.7368 30.9254 29.7368 30.7648C29.7368 30.3865 29.6798 30.3709 28.5086 30.3709H27.5085V24.4892C27.5085 18.6747 27.5085 18.6074 27.4048 18.5037C27.3064 18.4053 27.2338 18.4001 25.2594 18.4001H23.2124L23.1088 18.5348ZM26.6793 30.3709V24.8001V19.2292H25.2542H23.8291V24.8001V30.3709H25.2542H26.6793ZM14.9676 30.3709V26.5102V22.6495H13.5684H12.1692V26.5102V30.3709H13.5684H14.9676ZM20.8234 30.3709V26.7952V23.2195H19.3983H17.9732V26.7952V30.3709H19.3983H20.8234Z" fill="black"/>
<path d="M14.9676 26.5102V30.3709H13.5684H12.1692V26.5102V22.6495H13.5684H14.9676V26.5102Z" fill="black"/>
<path d="M26.6793 24.8001V30.3709H25.2542H23.8291V24.8001V19.2292H25.2542H26.6793V24.8001Z" fill="black"/>
<path d="M26.6794 30.371H26.7594V30.451H26.6794V30.371ZM23.8292 30.371V30.451H23.7492V30.371H23.8292ZM23.8292 19.2293H23.7492V19.1493H23.8292V19.2293ZM26.6794 19.2293V19.1493H26.7594V19.2293H26.6794ZM14.9677 30.371H15.0477V30.451H14.9677V30.371ZM12.1693 30.371V30.451H12.0893V30.371H12.1693ZM12.1693 22.6496H12.0893V22.5696H12.1693V22.6496ZM14.9677 22.6496V22.5696H15.0477V22.6496H14.9677ZM26.7594 24.8002V30.371H26.5994V24.8002H26.7594ZM26.6794 30.451H25.2543V30.291H26.6794V30.451ZM25.2543 30.451H23.8292V30.291H25.2543V30.451ZM23.7492 30.371V24.8002H23.9092V30.371H23.7492ZM23.7492 24.8002V19.2293H23.9092V24.8002H23.7492ZM23.8292 19.1493H25.2543V19.3093H23.8292V19.1493ZM25.2543 19.1493H26.6794V19.3093H25.2543V19.1493ZM26.7594 19.2293V24.8002H26.5994V19.2293H26.7594ZM15.0477 26.5103V30.371H14.8877V26.5103H15.0477ZM14.9677 30.451H13.5685V30.291H14.9677V30.451ZM13.5685 30.451H12.1693V30.291H13.5685V30.451ZM12.0893 30.371V26.5103H12.2493V30.371H12.0893ZM12.0893 26.5103V22.6496H12.2493V26.5103H12.0893ZM12.1693 22.5696H13.5685V22.7296H12.1693V22.5696ZM13.5685 22.5696H14.9677V22.7296H13.5685V22.5696ZM15.0477 22.6496V26.5103H14.8877V22.6496H15.0477ZM23.1089 18.5349L23.2357 18.6325L23.2352 18.6332L23.1089 18.5349ZM23.0001 30.371H23.1601V30.531H23.0001V30.371ZM21.7045 30.371V30.531H21.5445V30.371H21.7045ZM21.7045 22.6444L21.8153 22.529L21.8645 22.5762V22.6444H21.7045ZM21.575 22.52L21.4641 22.6356L21.4595 22.6308L21.575 22.52ZM21.4506 22.3905V22.2305H21.5188L21.566 22.2797L21.4506 22.3905ZM17.3981 22.3905L17.2827 22.2797L17.3299 22.2305H17.3981V22.3905ZM17.2737 22.52L17.3893 22.6309L17.3845 22.6355L17.2737 22.52ZM17.1442 22.6444H16.9842V22.5762L17.0334 22.529L17.1442 22.6444ZM17.1442 30.371H17.3042V30.531H17.1442V30.371ZM15.8486 30.371V30.531H15.6886V30.371H15.8486ZM15.7916 22.007L15.9367 21.9393L15.9378 21.942L15.7916 22.007ZM13.5011 21.779L13.4998 21.619H13.4999L13.5011 21.779ZM11.5526 21.7945L11.4395 21.6814L11.4858 21.6351L11.5513 21.6345L11.5526 21.7945ZM11.4334 21.9137L11.5466 22.0269L11.4334 21.9137ZM11.3142 22.0329L11.1542 22.0323L11.1545 21.9664L11.2011 21.9198L11.3142 22.0329ZM11.2987 26.1994L11.1387 26.199V26.1988L11.2987 26.1994ZM11.2883 30.371L11.4483 30.3714L11.4479 30.531H11.2883V30.371ZM8.54514 30.371L8.44612 30.2454L8.48969 30.211H8.54514V30.371ZM16.4705 31.2002V31.3602H16.4701L16.4705 31.2002ZM27.5086 30.371V30.531H27.3486V30.371H27.5086ZM27.4049 18.5038L27.5181 18.3907L27.4049 18.5038ZM23.2125 18.4002L23.0857 18.3026L23.1337 18.2402H23.2125V18.4002ZM20.8235 30.371H20.9835V30.531H20.8235V30.371ZM17.9733 30.371V30.531H17.8133V30.371H17.9733ZM17.9733 23.2196H17.8133V23.0596H17.9733V23.2196ZM20.8235 23.2196V23.0596H20.9835V23.2196H20.8235ZM23.2352 18.6332C23.2226 18.6493 23.2223 18.6505 23.2207 18.6543C23.2178 18.6614 23.2113 18.6808 23.2045 18.7303C23.1907 18.8313 23.1805 19.0187 23.1736 19.3948C23.1601 20.1424 23.1601 21.6017 23.1601 24.5204H22.8401C22.8401 21.6039 22.84 20.1404 22.8537 19.389C22.8605 19.0157 22.8707 18.8096 22.8874 18.6869C22.896 18.6246 22.9073 18.5747 22.9252 18.5316C22.9444 18.4853 22.968 18.4555 22.9826 18.4367L23.2352 18.6332ZM23.1601 24.5204V30.371H22.8401V24.5204H23.1601ZM23.0001 30.531H22.3523V30.211H23.0001V30.531ZM22.3523 30.531H21.7045V30.211H22.3523V30.531ZM21.5445 30.371V26.5103H21.8645V30.371H21.5445ZM21.5445 26.5103V22.6444H21.8645V26.5103H21.5445ZM21.5937 22.7598L21.4642 22.6355L21.6858 22.4046L21.8153 22.529L21.5937 22.7598ZM21.4595 22.6308L21.3352 22.5013L21.566 22.2797L21.6904 22.4092L21.4595 22.6308ZM21.4506 22.5505H19.4243V22.2305H21.4506V22.5505ZM19.4243 22.5505H17.3981V22.2305H19.4243V22.5505ZM17.5135 22.5013L17.3892 22.6308L17.1583 22.4092L17.2827 22.2797L17.5135 22.5013ZM17.3845 22.6355L17.255 22.7598L17.0334 22.529L17.1629 22.4046L17.3845 22.6355ZM17.3042 22.6444V26.5103H16.9842V22.6444H17.3042ZM17.3042 26.5103V30.371H16.9842V26.5103H17.3042ZM17.1442 30.531H16.4964V30.211H17.1442V30.531ZM16.4964 30.531H15.8486V30.211H16.4964V30.531ZM15.6886 30.371V26.2512H16.0086V30.371H15.6886ZM15.6886 26.2512C15.6886 24.7769 15.6848 23.7401 15.6757 23.0605C15.6712 22.7204 15.6654 22.4711 15.6582 22.3016C15.6546 22.2166 15.6507 22.1536 15.6467 22.1099C15.6446 22.088 15.6427 22.0729 15.6412 22.0634C15.6389 22.0494 15.6389 22.0573 15.6454 22.072L15.9378 21.942C15.9495 21.9683 15.9545 21.9965 15.957 22.0119C15.9603 22.0317 15.9629 22.0549 15.9653 22.0805C15.9701 22.132 15.9742 22.2011 15.9779 22.2881C15.9853 22.4624 15.9911 22.7154 15.9957 23.0562C16.0048 23.7382 16.0086 24.7769 16.0086 26.2512H15.6886ZM15.6466 22.0747C15.624 22.0262 15.6146 22.0178 15.5995 22.009C15.5733 21.9938 15.5145 21.9734 15.369 21.9589C15.0806 21.9302 14.5466 21.9312 13.5023 21.939L13.4999 21.619C14.5337 21.6113 15.0906 21.6096 15.4007 21.6405C15.5545 21.6558 15.6718 21.6808 15.7607 21.7326C15.8605 21.7908 15.9048 21.8712 15.9366 21.9393L15.6466 22.0747ZM13.5024 21.939L11.5539 21.9545L11.5513 21.6345L13.4998 21.619L13.5024 21.939ZM11.6657 21.9077L11.5466 22.0269L11.3203 21.8006L11.4395 21.6814L11.6657 21.9077ZM11.5466 22.0269L11.4274 22.146L11.2011 21.9198L11.3203 21.8006L11.5466 22.0269ZM11.4742 22.0335L11.4587 26.2L11.1387 26.1988L11.1542 22.0323L11.4742 22.0335ZM11.4587 26.1998L11.4483 30.3714L11.1283 30.3706L11.1387 26.199L11.4587 26.1998ZM11.2883 30.531H10.6405V30.211H11.2883V30.531ZM10.6405 30.531H9.99273V30.211H10.6405V30.531ZM8.64416 30.4967C8.61024 30.5235 8.56768 30.6052 8.56008 30.7245C8.55252 30.8432 8.58405 30.9303 8.61755 30.9638L8.39128 31.1901C8.26414 31.063 8.23052 30.8645 8.24073 30.7041C8.25091 30.5443 8.30904 30.3534 8.44612 30.2454L8.64416 30.4967ZM8.61755 30.9638C8.59868 30.945 8.58005 30.9363 8.57476 30.9339C8.5673 30.9305 8.56178 30.9288 8.56019 30.9283C8.55696 30.9274 8.55723 30.9277 8.56347 30.9288C8.57525 30.9308 8.59543 30.9333 8.62565 30.9361C8.68525 30.9416 8.77213 30.947 8.88389 30.9522C9.10678 30.9626 9.42082 30.9718 9.79633 30.98C10.547 30.9964 11.5387 31.0085 12.5278 31.0175C13.5168 31.0264 14.5025 31.0321 15.2411 31.0355C15.6104 31.0372 15.9179 31.0384 16.133 31.0392C16.2406 31.0395 16.3251 31.0398 16.3826 31.04C16.4114 31.04 16.4335 31.0401 16.4484 31.0401C16.4558 31.0402 16.4614 31.0402 16.4652 31.0402C16.4671 31.0402 16.4685 31.0402 16.4695 31.0402C16.47 31.0402 16.4703 31.0402 16.4705 31.0402C16.4707 31.0402 16.4708 31.0402 16.4708 31.0402C16.4709 31.0402 16.4709 31.0402 16.4705 31.2002C16.4701 31.3602 16.4701 31.3602 16.47 31.3602C16.47 31.3602 16.4699 31.3602 16.4697 31.3602C16.4695 31.3602 16.4691 31.3602 16.4687 31.3602C16.4677 31.3602 16.4663 31.3602 16.4644 31.3602C16.4606 31.3602 16.455 31.3602 16.4475 31.3601C16.4326 31.3601 16.4105 31.36 16.3817 31.3599C16.3241 31.3598 16.2395 31.3595 16.1319 31.3592C15.9167 31.3584 15.6091 31.3572 15.2396 31.3555C14.5008 31.3521 13.5145 31.3464 12.5249 31.3374C11.5355 31.3285 10.5421 31.3163 9.78934 31.2999C9.41317 31.2917 9.09596 31.2824 8.86903 31.2719C8.75589 31.2666 8.66323 31.2609 8.59626 31.2548C8.5632 31.2517 8.53335 31.2483 8.50931 31.2441C8.49762 31.2421 8.48353 31.2393 8.4696 31.2352C8.46266 31.2332 8.45272 31.2299 8.44175 31.2249C8.43296 31.2209 8.41177 31.2106 8.39128 31.1901L8.61755 30.9638ZM16.4705 31.0402C22.9669 31.0402 26.2307 31.0402 27.8837 31.0272C28.7116 31.0208 29.1309 31.011 29.3494 30.9968C29.4607 30.9896 29.5088 30.9817 29.5295 30.9762C29.5378 30.974 29.535 30.9738 29.5279 30.9781C29.5202 30.9828 29.5155 30.988 29.5201 30.9834L29.7464 31.2097C29.738 31.218 29.7206 31.2354 29.6942 31.2515C29.6684 31.2672 29.6409 31.2776 29.6121 31.2853C29.5584 31.2997 29.4828 31.3088 29.3702 31.3161C29.1409 31.3311 28.712 31.3408 27.8862 31.3472C26.2316 31.3602 22.9659 31.3602 16.4705 31.3602V31.0402ZM29.5201 30.9834C29.5497 30.9538 29.5769 30.9059 29.5769 30.7649H29.8969C29.8969 30.9452 29.8619 31.0942 29.7464 31.2097L29.5201 30.9834ZM29.5769 30.7649C29.5769 30.6653 29.5713 30.6268 29.5628 30.6073C29.5623 30.6061 29.5626 30.5942 29.5134 30.5786C29.4551 30.56 29.3569 30.5466 29.1878 30.5392C29.0218 30.532 28.8023 30.531 28.5087 30.531V30.211C28.8007 30.211 29.0275 30.212 29.2016 30.2195C29.3726 30.2269 29.5082 30.2411 29.6106 30.2737C29.722 30.3092 29.8098 30.3721 29.8565 30.4802C29.8954 30.57 29.8969 30.6753 29.8969 30.7649H29.5769ZM28.5087 30.531H27.5086V30.211H28.5087V30.531ZM27.3486 30.371V24.4893H27.6686V30.371H27.3486ZM27.3486 24.4893C27.3486 21.581 27.3486 20.1126 27.3356 19.3578C27.3291 18.978 27.3194 18.7872 27.3062 18.6858C27.2996 18.6352 27.2934 18.6184 27.2921 18.6154C27.292 18.6153 27.293 18.6174 27.2951 18.6201C27.2965 18.622 27.297 18.6222 27.2918 18.617L27.5181 18.3907C27.5373 18.4099 27.5647 18.4391 27.5862 18.4892C27.6047 18.5324 27.6155 18.5833 27.6235 18.6444C27.6394 18.7666 27.6491 18.9754 27.6556 19.3523C27.6686 20.1107 27.6686 21.5831 27.6686 24.4893H27.3486ZM27.2918 18.617C27.2815 18.6067 27.2816 18.6054 27.2629 18.6002C27.2301 18.5911 27.1659 18.5817 27.0278 18.5749C26.7556 18.5615 26.2491 18.5602 25.2595 18.5602V18.2402C26.2443 18.2402 26.7613 18.2414 27.0435 18.2553C27.1827 18.2621 27.2785 18.2724 27.3487 18.292C27.433 18.3154 27.4791 18.3518 27.5181 18.3907L27.2918 18.617ZM25.2595 18.5602H23.2125V18.2402H25.2595V18.5602ZM23.3393 18.4978L23.2357 18.6325L22.9821 18.4374L23.0857 18.3026L23.3393 18.4978ZM20.9835 26.7953V30.371H20.6635V26.7953H20.9835ZM20.8235 30.531H19.3984V30.211H20.8235V30.531ZM19.3984 30.531H17.9733V30.211H19.3984V30.531ZM17.8133 30.371V26.7953H18.1333V30.371H17.8133ZM17.8133 26.7953V23.2196H18.1333V26.7953H17.8133ZM17.9733 23.0596H19.3984V23.3796H17.9733V23.0596ZM19.3984 23.0596H20.8235V23.3796H19.3984V23.0596ZM20.9835 23.2196V26.7953H20.6635V23.2196H20.9835ZM9.99273 30.531H8.54514V30.211H9.99273V30.531Z" fill="black"/>
</g>
<mask id="mask1_4679_40458" style="mask-type:alpha" maskUnits="userSpaceOnUse" x="8" y="6" width="8" height="9">
<path d="M15.4277 6.2865H8.42773V14.2865H15.4277V6.2865Z" fill="white"/>
<path d="M11.7487 6.87664C11.4795 6.92485 11.2358 7.0561 11.0469 7.25566C10.8085 7.50342 10.6867 7.81414 10.6867 8.17039V8.30298H10.4215C10.1309 8.30298 10.0518 8.31503 9.93131 8.38066C9.79202 8.45432 9.66212 8.61905 9.61658 8.77842C9.60051 8.83199 9.42773 12.3503 9.42773 12.6088C9.42773 12.6825 9.43577 12.7736 9.44648 12.8111C9.50541 13.0347 9.70497 13.2222 9.93398 13.2704C10.0344 13.2919 13.9103 13.2919 14.0108 13.2704C14.2411 13.2222 14.438 13.0374 14.4983 12.8111C14.509 12.7736 14.517 12.6825 14.517 12.6088C14.517 12.3503 14.3443 8.83199 14.3282 8.77842C14.2826 8.61905 14.1527 8.45432 14.0134 8.38066C13.8929 8.31503 13.8126 8.30298 13.5246 8.30298H13.2621L13.2541 8.11816C13.2434 7.83958 13.1818 7.64137 13.0371 7.42574C12.7612 7.01057 12.2389 6.78824 11.7487 6.87664ZM12.1532 7.30521C12.3956 7.3561 12.6206 7.53021 12.7331 7.75387C12.8014 7.89048 12.8295 8.01235 12.8295 8.17842V8.30298H11.9724H11.1152V8.17842C11.1166 7.91458 11.1969 7.71101 11.3684 7.53824C11.5773 7.33066 11.8639 7.24494 12.1532 7.30521ZM13.771 8.73691C13.8326 8.75967 13.8701 8.79048 13.8969 8.84405C13.913 8.87619 13.9344 9.22842 14.0041 10.6923C14.0509 11.6874 14.0871 12.5526 14.0858 12.6155C14.0818 12.7481 14.0603 12.7869 13.9733 12.8298C13.9197 12.8566 13.8969 12.8566 11.9724 12.8566C10.0478 12.8566 10.0251 12.8566 9.97149 12.8298C9.8831 12.7856 9.863 12.7481 9.85898 12.6088C9.85765 12.5419 9.89381 11.6807 9.94068 10.6923C10.0358 8.70878 10.0251 8.82932 10.1228 8.76905L10.171 8.73824L11.5639 8.73155C12.33 8.72753 13.1282 8.72351 13.3384 8.72217C13.6318 8.71949 13.7322 8.72351 13.771 8.73691Z" fill="black"/>
</mask>
<g mask="url(#mask1_4679_40458)">
<path d="M11.7487 6.87664C11.4795 6.92485 11.2358 7.0561 11.0469 7.25566C10.8085 7.50342 10.6867 7.81414 10.6867 8.17039V8.30298H10.4215C10.1309 8.30298 10.0518 8.31503 9.93131 8.38066C9.79202 8.45432 9.66212 8.61905 9.61658 8.77842C9.60051 8.83199 9.42773 12.3503 9.42773 12.6088C9.42773 12.6825 9.43577 12.7736 9.44648 12.8111C9.50541 13.0347 9.70497 13.2222 9.93398 13.2704C10.0344 13.2919 13.9103 13.2919 14.0108 13.2704C14.2411 13.2222 14.438 13.0374 14.4983 12.8111C14.509 12.7736 14.517 12.6825 14.517 12.6088C14.517 12.3503 14.3443 8.83199 14.3282 8.77842C14.2826 8.61905 14.1527 8.45432 14.0134 8.38066C13.8929 8.31503 13.8126 8.30298 13.5246 8.30298H13.2621L13.2541 8.11816C13.2434 7.83958 13.1818 7.64137 13.0371 7.42574C12.7612 7.01057 12.2389 6.78824 11.7487 6.87664ZM12.1532 7.30521C12.3956 7.3561 12.6206 7.53021 12.7331 7.75387C12.8014 7.89048 12.8295 8.01235 12.8295 8.17842V8.30298H11.9724H11.1152V8.17842C11.1166 7.91458 11.1969 7.71101 11.3684 7.53824C11.5773 7.33066 11.8639 7.24494 12.1532 7.30521ZM13.771 8.73691C13.8326 8.75967 13.8701 8.79048 13.8969 8.84405C13.913 8.87619 13.9344 9.22842 14.0041 10.6923C14.0509 11.6874 14.0871 12.5526 14.0858 12.6155C14.0818 12.7481 14.0603 12.7869 13.9733 12.8298C13.9197 12.8566 13.8969 12.8566 11.9724 12.8566C10.0478 12.8566 10.0251 12.8566 9.97149 12.8298C9.8831 12.7856 9.863 12.7481 9.85898 12.6088C9.85765 12.5419 9.89381 11.6807 9.94068 10.6923C10.0358 8.70878 10.0251 8.82932 10.1228 8.76905L10.171 8.73824L11.5639 8.73155C12.33 8.72753 13.1282 8.72351 13.3384 8.72217C13.6318 8.71949 13.7322 8.72351 13.771 8.73691Z" fill="black"/>
<path d="M11.7487 6.87664C11.4795 6.92485 11.2358 7.0561 11.0469 7.25566C10.8085 7.50342 10.6867 7.81414 10.6867 8.17039V8.30298H10.4215C10.1309 8.30298 10.0518 8.31503 9.93131 8.38066C9.79202 8.45432 9.66212 8.61905 9.61658 8.77842C9.60051 8.83199 9.42773 12.3503 9.42773 12.6088C9.42773 12.6825 9.43577 12.7736 9.44648 12.8111C9.50541 13.0347 9.70497 13.2222 9.93398 13.2704C10.0344 13.2919 13.9103 13.2919 14.0108 13.2704C14.2411 13.2222 14.438 13.0374 14.4983 12.8111C14.509 12.7736 14.517 12.6825 14.517 12.6088C14.517 12.3503 14.3443 8.83199 14.3282 8.77842C14.2826 8.61905 14.1527 8.45432 14.0134 8.38066C13.8929 8.31503 13.8126 8.30298 13.5246 8.30298H13.2621L13.2541 8.11816C13.2434 7.83958 13.1818 7.64137 13.0371 7.42574C12.7612 7.01057 12.2389 6.78824 11.7487 6.87664ZM12.1532 7.30521C12.3956 7.3561 12.6206 7.53021 12.7331 7.75387C12.8014 7.89048 12.8295 8.01235 12.8295 8.17842V8.30298H11.9724H11.1152V8.17842C11.1166 7.91458 11.1969 7.71101 11.3684 7.53824C11.5773 7.33066 11.8639 7.24494 12.1532 7.30521ZM13.771 8.73691C13.8326 8.75967 13.8701 8.79048 13.8969 8.84405C13.913 8.87619 13.9344 9.22842 14.0041 10.6923C14.0509 11.6874 14.0871 12.5526 14.0858 12.6155C14.0818 12.7481 14.0603 12.7869 13.9733 12.8298C13.9197 12.8566 13.8969 12.8566 11.9724 12.8566C10.0478 12.8566 10.0251 12.8566 9.97149 12.8298C9.8831 12.7856 9.863 12.7481 9.85898 12.6088C9.85765 12.5419 9.89381 11.6807 9.94068 10.6923C10.0358 8.70878 10.0251 8.82932 10.1228 8.76905L10.171 8.73824L11.5639 8.73155C12.33 8.72753 13.1282 8.72351 13.3384 8.72217C13.6318 8.71949 13.7322 8.72351 13.771 8.73691Z" stroke-width="0.228571" fill="black"/>
</g>
<mask id="mask2_4679_40458" style="mask-type:alpha" maskUnits="userSpaceOnUse" x="9" y="8" width="5" height="4">
<path d="M13.7158 8.45679H9.71582V11.4568H13.7158V8.45679Z" fill="white"/>
<path d="M10.8101 9.21392C10.7057 9.2782 10.6896 9.37999 10.7539 9.5782C10.8182 9.77776 10.8999 9.90901 11.0619 10.0725C11.2508 10.2626 11.4128 10.3564 11.6713 10.426C11.7985 10.4595 12.0637 10.4675 12.2043 10.4408C12.6182 10.3617 12.9517 10.1126 13.1365 9.7416C13.2034 9.60767 13.2503 9.4416 13.2409 9.3666C13.2289 9.25945 13.1445 9.18713 13.0307 9.18713C12.9195 9.18713 12.8459 9.24874 12.8164 9.36794C12.7561 9.60633 12.5981 9.81794 12.3972 9.9291C12.1334 10.0751 11.8066 10.0738 11.5467 9.92374C11.4463 9.86481 11.3043 9.72553 11.2454 9.62776C11.2173 9.58088 11.1771 9.48445 11.1543 9.41347C11.1142 9.2849 11.0834 9.23803 11.0124 9.20186C10.9655 9.17776 10.8597 9.18445 10.8101 9.21392Z" fill="black"/>
</mask>
<g mask="url(#mask2_4679_40458)">
<path d="M10.8101 9.21392C10.7057 9.2782 10.6896 9.37999 10.7539 9.5782C10.8182 9.77776 10.8999 9.90901 11.0619 10.0725C11.2508 10.2626 11.4128 10.3564 11.6713 10.426C11.7985 10.4595 12.0637 10.4675 12.2043 10.4408C12.6182 10.3617 12.9517 10.1126 13.1365 9.7416C13.2034 9.60767 13.2503 9.4416 13.2409 9.3666C13.2289 9.25945 13.1445 9.18713 13.0307 9.18713C12.9195 9.18713 12.8459 9.24874 12.8164 9.36794C12.7561 9.60633 12.5981 9.81794 12.3972 9.9291C12.1334 10.0751 11.8066 10.0738 11.5467 9.92374C11.4463 9.86481 11.3043 9.72553 11.2454 9.62776C11.2173 9.58088 11.1771 9.48445 11.1543 9.41347C11.1142 9.2849 11.0834 9.23803 11.0124 9.20186C10.9655 9.17776 10.8597 9.18445 10.8101 9.21392Z" fill="black"/>
<path d="M10.8101 9.21392C10.7057 9.2782 10.6896 9.37999 10.7539 9.5782C10.8182 9.77776 10.8999 9.90901 11.0619 10.0725C11.2508 10.2626 11.4128 10.3564 11.6713 10.426C11.7985 10.4595 12.0637 10.4675 12.2043 10.4408C12.6182 10.3617 12.9517 10.1126 13.1365 9.7416C13.2034 9.60767 13.2503 9.4416 13.2409 9.3666C13.2289 9.25945 13.1445 9.18713 13.0307 9.18713C12.9195 9.18713 12.8459 9.24874 12.8164 9.36794C12.7561 9.60633 12.5981 9.81794 12.3972 9.9291C12.1334 10.0751 11.8066 10.0738 11.5467 9.92374C11.4463 9.86481 11.3043 9.72553 11.2454 9.62776C11.2173 9.58088 11.1771 9.48445 11.1543 9.41347C11.1142 9.2849 11.0834 9.23803 11.0124 9.20186C10.9655 9.17776 10.8597 9.18445 10.8101 9.21392Z" stroke-width="0.228571" fill="black"/>
</g>
<path d="M18.0005 10C18.0005 13.3137 15.3142 16 12.0005 16C8.68678 16 6.00049 13.3137 6.00049 10C6.00049 6.68629 8.68678 4 12.0005 4C15.3142 4 18.0005 6.68629 18.0005 10ZM6.77193 10C6.77193 12.8877 9.11284 15.2286 12.0005 15.2286C14.8881 15.2286 17.229 12.8877 17.229 10C17.229 7.11235 14.8881 4.77144 12.0005 4.77144C9.11284 4.77144 6.77193 7.11235 6.77193 10Z" fill="black"/>
</svg>