<?xml version="1.0" ?><svg xmlns="http://www.w3.org/2000/svg" fill="none" viewBox="5.69 5.69 25 25">
<path d="M23.0461 26.3178C26.2432 26.3178 28.8351 23.726 28.8351 20.5289C28.8351 17.3317 26.2432 14.7399 23.0461 14.7399C19.8489 14.7399 17.2571 17.3317 17.2571 20.5289C17.2571 23.726 19.8489 26.3178 23.0461 26.3178Z" fill="black"/>
<mask id="mask0_4679_41084" style="mask-type:alpha" maskUnits="userSpaceOnUse" x="5" y="5" width="26" height="26">
<path d="M30.6858 5.68567H5.68579V30.6857H30.6858V5.68567Z" fill="white"/>
<path d="M21.002 29.8285C21.8505 29.8285 22.5414 29.1357 22.5414 28.2834V26.9357C22.736 26.9528 22.9334 26.9622 23.1318 26.9622C26.7089 26.9622 29.6179 24.0438 29.6179 20.4571C29.6179 16.8705 26.7089 13.952 23.1318 13.952C22.9334 13.952 22.736 13.9615 22.5414 13.9786V8.22985C22.5414 7.37851 21.8505 6.68567 21.002 6.68567H8.22618C7.37673 6.68567 6.68579 7.37851 6.68579 8.22985V28.2834C6.68579 29.1347 7.37673 29.8276 8.22618 29.8276H21.002V29.8285ZM23.1318 14.7701C26.2581 14.7701 28.8017 17.3213 28.8017 20.4571C28.8017 23.592 26.2581 26.1432 23.1318 26.1432C22.9325 26.1432 22.736 26.1327 22.5414 26.1128C22.2633 26.0834 21.991 26.034 21.7252 25.9657C21.1301 25.8129 20.5721 25.5652 20.069 25.2396C19.8612 25.1058 19.6628 24.9577 19.4749 24.7983C19.4635 24.7888 19.4521 24.7793 19.4417 24.7698C19.2281 24.5866 19.0288 24.3873 18.8456 24.1747C18.596 23.8853 18.3749 23.5711 18.186 23.2351C18.0788 23.0434 17.982 22.845 17.8965 22.6391C17.7153 22.2054 17.5871 21.745 17.5188 21.2648C17.4808 21.0009 17.4609 20.7305 17.4609 20.4562C17.4609 20.3309 17.4656 20.2056 17.4732 20.0822C17.4894 19.8269 17.5235 19.5763 17.5729 19.3305C17.6137 19.1284 17.665 18.93 17.7267 18.7354C17.9573 18.0075 18.3312 17.3422 18.8143 16.7737C18.9946 16.5611 19.1902 16.3617 19.3999 16.1786C20.0586 15.5996 20.8511 15.1716 21.7252 14.9466C21.99 14.8783 22.2633 14.8289 22.5414 14.7995C22.736 14.7805 22.9325 14.7701 23.1318 14.7701ZM19.4749 25.8271V26.7326H17.5188V24.7708H18.2809C18.634 25.1694 19.0345 25.5244 19.4749 25.8271ZM17.5188 17.1998V16.7746H17.7874C17.6925 16.9122 17.6023 17.0546 17.5188 17.1998ZM7.50202 28.2834V8.22985C7.50202 7.82933 7.82661 7.50379 8.22618 7.50379H21.002C21.4006 7.50379 21.7252 7.82933 21.7252 8.22985V14.1067C20.3538 14.4113 19.1437 15.1535 18.2496 16.1795H17.2217C17.0575 16.1795 16.9247 16.3124 16.9247 16.4766V18.5656C16.7434 19.1644 16.6456 19.7994 16.6456 20.4571C16.6456 21.1148 16.7434 21.7498 16.9247 22.3477V22.9381C16.9247 23.1032 17.0575 23.2361 17.2217 23.2361H17.2673C17.4229 23.5654 17.6052 23.8796 17.8121 24.1757H17.2217C17.0575 24.1757 16.9247 24.3086 16.9247 24.4728V27.0306C16.9247 27.1948 17.0575 27.3276 17.2217 27.3276H19.772C19.9352 27.3276 20.0681 27.1948 20.0681 27.0306V26.1897C20.5834 26.4678 21.1387 26.6775 21.7252 26.8075V28.2834C21.7252 28.6839 21.3997 29.0095 21.001 29.0095H8.22618C7.82661 29.0095 7.50202 28.6839 7.50202 28.2834Z" fill="black"/>
</mask>
<g mask="url(#mask0_4679_41084)">
<path d="M21.002 29.8285C21.8505 29.8285 22.5414 29.1357 22.5414 28.2834V26.9357C22.736 26.9528 22.9334 26.9622 23.1318 26.9622C26.7089 26.9622 29.6179 24.0438 29.6179 20.4571C29.6179 16.8705 26.7089 13.952 23.1318 13.952C22.9334 13.952 22.736 13.9615 22.5414 13.9786V8.22985C22.5414 7.37851 21.8505 6.68567 21.002 6.68567H8.22618C7.37673 6.68567 6.68579 7.37851 6.68579 8.22985V28.2834C6.68579 29.1347 7.37673 29.8276 8.22618 29.8276H21.002V29.8285ZM23.1318 14.7701C26.2581 14.7701 28.8017 17.3213 28.8017 20.4571C28.8017 23.592 26.2581 26.1432 23.1318 26.1432C22.9325 26.1432 22.736 26.1327 22.5414 26.1128C22.2633 26.0834 21.991 26.034 21.7252 25.9657C21.1301 25.8129 20.5721 25.5652 20.069 25.2396C19.8612 25.1058 19.6628 24.9577 19.4749 24.7983C19.4635 24.7888 19.4521 24.7793 19.4417 24.7698C19.2281 24.5866 19.0288 24.3873 18.8456 24.1747C18.596 23.8853 18.3749 23.5711 18.186 23.2351C18.0788 23.0434 17.982 22.845 17.8965 22.6391C17.7153 22.2054 17.5871 21.745 17.5188 21.2648C17.4808 21.0009 17.4609 20.7305 17.4609 20.4562C17.4609 20.3309 17.4656 20.2056 17.4732 20.0822C17.4894 19.8269 17.5235 19.5763 17.5729 19.3305C17.6137 19.1284 17.665 18.93 17.7267 18.7354C17.9573 18.0075 18.3312 17.3422 18.8143 16.7737C18.9946 16.5611 19.1902 16.3617 19.3999 16.1786C20.0586 15.5996 20.8511 15.1716 21.7252 14.9466C21.99 14.8783 22.2633 14.8289 22.5414 14.7995C22.736 14.7805 22.9325 14.7701 23.1318 14.7701ZM19.4749 25.8271V26.7326H17.5188V24.7708H18.2809C18.634 25.1694 19.0345 25.5244 19.4749 25.8271ZM17.5188 17.1998V16.7746H17.7874C17.6925 16.9122 17.6023 17.0546 17.5188 17.1998ZM7.50202 28.2834V8.22985C7.50202 7.82933 7.82661 7.50379 8.22618 7.50379H21.002C21.4006 7.50379 21.7252 7.82933 21.7252 8.22985V14.1067C20.3538 14.4113 19.1437 15.1535 18.2496 16.1795H17.2217C17.0575 16.1795 16.9247 16.3124 16.9247 16.4766V18.5656C16.7434 19.1644 16.6456 19.7994 16.6456 20.4571C16.6456 21.1148 16.7434 21.7498 16.9247 22.3477V22.9381C16.9247 23.1032 17.0575 23.2361 17.2217 23.2361H17.2673C17.4229 23.5654 17.6052 23.8796 17.8121 24.1757H17.2217C17.0575 24.1757 16.9247 24.3086 16.9247 24.4728V27.0306C16.9247 27.1948 17.0575 27.3276 17.2217 27.3276H19.772C19.9352 27.3276 20.0681 27.1948 20.0681 27.0306V26.1897C20.5834 26.4678 21.1387 26.6775 21.7252 26.8075V28.2834C21.7252 28.6839 21.3997 29.0095 21.001 29.0095H8.22618C7.82661 29.0095 7.50202 28.6839 7.50202 28.2834Z" fill="black"/>
<path d="M21.002 29.8285C21.8505 29.8285 22.5414 29.1357 22.5414 28.2834V26.9357C22.736 26.9528 22.9334 26.9622 23.1318 26.9622C26.7089 26.9622 29.6179 24.0438 29.6179 20.4571C29.6179 16.8705 26.7089 13.952 23.1318 13.952C22.9334 13.952 22.736 13.9615 22.5414 13.9786V8.22985C22.5414 7.37851 21.8505 6.68567 21.002 6.68567H8.22618C7.37673 6.68567 6.68579 7.37851 6.68579 8.22985V28.2834C6.68579 29.1347 7.37673 29.8276 8.22618 29.8276H21.002V29.8285ZM23.1318 14.7701C26.2581 14.7701 28.8017 17.3213 28.8017 20.4571C28.8017 23.592 26.2581 26.1432 23.1318 26.1432C22.9325 26.1432 22.736 26.1327 22.5414 26.1128C22.2633 26.0834 21.991 26.034 21.7252 25.9657C21.1301 25.8129 20.5721 25.5652 20.069 25.2396C19.8612 25.1058 19.6628 24.9577 19.4749 24.7983C19.4635 24.7888 19.4521 24.7793 19.4417 24.7698C19.2281 24.5866 19.0288 24.3873 18.8456 24.1747C18.596 23.8853 18.3749 23.5711 18.186 23.2351C18.0788 23.0434 17.982 22.845 17.8965 22.6391C17.7153 22.2054 17.5871 21.745 17.5188 21.2648C17.4808 21.0009 17.4609 20.7305 17.4609 20.4562C17.4609 20.3309 17.4656 20.2056 17.4732 20.0822C17.4894 19.8269 17.5235 19.5763 17.5729 19.3305C17.6137 19.1284 17.665 18.93 17.7267 18.7354C17.9573 18.0075 18.3312 17.3422 18.8143 16.7737C18.9946 16.5611 19.1902 16.3617 19.3999 16.1786C20.0586 15.5996 20.8511 15.1716 21.7252 14.9466C21.99 14.8783 22.2633 14.8289 22.5414 14.7995C22.736 14.7805 22.9325 14.7701 23.1318 14.7701ZM19.4749 25.8271V26.7326H17.5188V24.7708H18.2809C18.634 25.1694 19.0345 25.5244 19.4749 25.8271ZM17.5188 17.1998V16.7746H17.7874C17.6925 16.9122 17.6023 17.0546 17.5188 17.1998ZM7.50202 28.2834V8.22985C7.50202 7.82933 7.82661 7.50379 8.22618 7.50379H21.002C21.4006 7.50379 21.7252 7.82933 21.7252 8.22985V14.1067C20.3538 14.4113 19.1437 15.1535 18.2496 16.1795H17.2217C17.0575 16.1795 16.9247 16.3124 16.9247 16.4766V18.5656C16.7434 19.1644 16.6456 19.7994 16.6456 20.4571C16.6456 21.1148 16.7434 21.7498 16.9247 22.3477V22.9381C16.9247 23.1032 17.0575 23.2361 17.2217 23.2361H17.2673C17.4229 23.5654 17.6052 23.8796 17.8121 24.1757H17.2217C17.0575 24.1757 16.9247 24.3086 16.9247 24.4728V27.0306C16.9247 27.1948 17.0575 27.3276 17.2217 27.3276H19.772C19.9352 27.3276 20.0681 27.1948 20.0681 27.0306V26.1897C20.5834 26.4678 21.1387 26.6775 21.7252 26.8075V28.2834C21.7252 28.6839 21.3997 29.0095 21.001 29.0095H8.22618C7.82661 29.0095 7.50202 28.6839 7.50202 28.2834Z" stroke-width="0.308571" fill="black"/>
</g>
<mask id="mask1_4679_41084" style="mask-type:alpha" maskUnits="userSpaceOnUse" x="8" y="8" width="14" height="8">
<path d="M21.1299 8.34863H8.12988V15.3486H21.1299V8.34863Z" fill="white"/>
<path d="M9.42695 14.6588H19.7722C19.9354 14.6588 20.0692 14.526 20.0692 14.3608V9.64665C20.0692 9.48246 19.9364 9.34863 19.7722 9.34863H9.42695C9.2637 9.34863 9.12988 9.48151 9.12988 9.64665V14.3608C9.12988 14.526 9.26275 14.6588 9.42695 14.6588ZM9.72402 9.94372H19.4751V14.0628H9.72402V9.94372Z" fill="black"/>
</mask>
<g mask="url(#mask1_4679_41084)">
<path d="M9.42695 14.6588H19.7722C19.9354 14.6588 20.0692 14.526 20.0692 14.3608V9.64665C20.0692 9.48246 19.9364 9.34863 19.7722 9.34863H9.42695C9.2637 9.34863 9.12988 9.48151 9.12988 9.64665V14.3608C9.12988 14.526 9.26275 14.6588 9.42695 14.6588ZM9.72402 9.94372H19.4751V14.0628H9.72402V9.94372Z" fill="black"/>
<path d="M9.42695 14.6588H19.7722C19.9354 14.6588 20.0692 14.526 20.0692 14.3608V9.64665C20.0692 9.48246 19.9364 9.34863 19.7722 9.34863H9.42695C9.2637 9.34863 9.12988 9.48151 9.12988 9.64665V14.3608C9.12988 14.526 9.26275 14.6588 9.42695 14.6588ZM9.72402 9.94372H19.4751V14.0628H9.72402V9.94372Z" stroke-width="0.308571" fill="black"/>
</g>
<mask id="mask2_4679_41084" style="mask-type:alpha" maskUnits="userSpaceOnUse" x="8" y="15" width="6" height="6">
<path d="M13.1299 15.1786H8.12988V20.1786H13.1299V15.1786Z" fill="white"/>
<path d="M9.42695 19.3315H11.9772C12.1404 19.3315 12.2743 19.1986 12.2743 19.0344V16.4766C12.2743 16.3124 12.1414 16.1786 11.9772 16.1786H9.42695C9.2637 16.1786 9.12988 16.3124 9.12988 16.4766V19.0344C9.12988 19.1986 9.26275 19.3315 9.42695 19.3315ZM9.72402 16.7746H11.6801V18.7364H9.72402V16.7746Z" fill="black"/>
</mask>
<g mask="url(#mask2_4679_41084)">
<path d="M9.42695 19.3315H11.9772C12.1404 19.3315 12.2743 19.1986 12.2743 19.0344V16.4766C12.2743 16.3124 12.1414 16.1786 11.9772 16.1786H9.42695C9.2637 16.1786 9.12988 16.3124 9.12988 16.4766V19.0344C9.12988 19.1986 9.26275 19.3315 9.42695 19.3315ZM9.72402 16.7746H11.6801V18.7364H9.72402V16.7746Z" fill="black"/>
<path d="M9.42695 19.3315H11.9772C12.1404 19.3315 12.2743 19.1986 12.2743 19.0344V16.4766C12.2743 16.3124 12.1414 16.1786 11.9772 16.1786H9.42695C9.2637 16.1786 9.12988 16.3124 9.12988 16.4766V19.0344C9.12988 19.1986 9.26275 19.3315 9.42695 19.3315ZM9.72402 16.7746H11.6801V18.7364H9.72402V16.7746Z" stroke-width="0.308571" fill="black"/>
</g>
<mask id="mask3_4679_41084" style="mask-type:alpha" maskUnits="userSpaceOnUse" x="12" y="15" width="6" height="6">
<path d="M17.041 15.1793H12.041V20.1793H17.041V15.1793Z" fill="white"/>
<path d="M15.8883 16.1793H13.338C13.1748 16.1793 13.041 16.3122 13.041 16.4773V19.0342C13.041 19.1984 13.1738 19.3322 13.338 19.3322H15.8883C16.0525 19.3322 16.1853 19.1994 16.1853 19.0342V16.4764C16.1853 16.3122 16.0525 16.1793 15.8883 16.1793ZM15.5922 18.7362H13.6361V16.7744H15.5922V18.7362Z" fill="black"/>
</mask>
<g mask="url(#mask3_4679_41084)">
<path d="M15.8883 16.1793H13.338C13.1748 16.1793 13.041 16.3122 13.041 16.4773V19.0342C13.041 19.1984 13.1738 19.3322 13.338 19.3322H15.8883C16.0525 19.3322 16.1853 19.1994 16.1853 19.0342V16.4764C16.1853 16.3122 16.0525 16.1793 15.8883 16.1793ZM15.5922 18.7362H13.6361V16.7744H15.5922V18.7362Z" fill="black"/>
<path d="M15.8883 16.1793H13.338C13.1748 16.1793 13.041 16.3122 13.041 16.4773V19.0342C13.041 19.1984 13.1738 19.3322 13.338 19.3322H15.8883C16.0525 19.3322 16.1853 19.1994 16.1853 19.0342V16.4764C16.1853 16.3122 16.0525 16.1793 15.8883 16.1793ZM15.5922 18.7362H13.6361V16.7744H15.5922V18.7362Z" stroke-width="0.308571" fill="black"/>
</g>
<mask id="mask4_4679_41084" style="mask-type:alpha" maskUnits="userSpaceOnUse" x="8" y="19" width="6" height="6">
<path d="M13.1299 19.0823H8.12988V24.0823H13.1299V19.0823Z" fill="white"/>
<path d="M9.42695 23.2361H11.9772C12.1404 23.2361 12.2743 23.1023 12.2743 22.9381V20.3803C12.2743 20.2161 12.1414 20.0823 11.9772 20.0823H9.42695C9.2637 20.0823 9.12988 20.2161 9.12988 20.3803V22.9381C9.12988 23.1023 9.26275 23.2361 9.42695 23.2361ZM9.72402 20.6793H11.6801V22.641H9.72402V20.6793Z" fill="black"/>
</mask>
<g mask="url(#mask4_4679_41084)">
<path d="M9.42695 23.2361H11.9772C12.1404 23.2361 12.2743 23.1023 12.2743 22.9381V20.3803C12.2743 20.2161 12.1414 20.0823 11.9772 20.0823H9.42695C9.2637 20.0823 9.12988 20.2161 9.12988 20.3803V22.9381C9.12988 23.1023 9.26275 23.2361 9.42695 23.2361ZM9.72402 20.6793H11.6801V22.641H9.72402V20.6793Z" fill="black"/>
<path d="M9.42695 23.2361H11.9772C12.1404 23.2361 12.2743 23.1023 12.2743 22.9381V20.3803C12.2743 20.2161 12.1414 20.0823 11.9772 20.0823H9.42695C9.2637 20.0823 9.12988 20.2161 9.12988 20.3803V22.9381C9.12988 23.1023 9.26275 23.2361 9.42695 23.2361ZM9.72402 20.6793H11.6801V22.641H9.72402V20.6793Z" stroke-width="0.308571" fill="black"/>
</g>
<mask id="mask5_4679_41084" style="mask-type:alpha" maskUnits="userSpaceOnUse" x="12" y="19" width="6" height="6">
<path d="M17.041 19.083H12.041V24.083H17.041V19.083Z" fill="white"/>
<path d="M15.8883 20.083H13.338C13.1748 20.083 13.041 20.2168 13.041 20.381V22.9389C13.041 23.103 13.1738 23.2369 13.338 23.2369H15.8883C16.0525 23.2369 16.1853 23.103 16.1853 22.9389V20.381C16.1853 20.2168 16.0525 20.083 15.8883 20.083ZM15.5922 22.6399H13.6361V20.6781H15.5922V22.6399Z" fill="black"/>
</mask>
<g mask="url(#mask5_4679_41084)">
<path d="M15.8883 20.083H13.338C13.1748 20.083 13.041 20.2168 13.041 20.381V22.9389C13.041 23.103 13.1738 23.2369 13.338 23.2369H15.8883C16.0525 23.2369 16.1853 23.103 16.1853 22.9389V20.381C16.1853 20.2168 16.0525 20.083 15.8883 20.083ZM15.5922 22.6399H13.6361V20.6781H15.5922V22.6399Z" fill="black"/>
<path d="M15.8883 20.083H13.338C13.1748 20.083 13.041 20.2168 13.041 20.381V22.9389C13.041 23.103 13.1738 23.2369 13.338 23.2369H15.8883C16.0525 23.2369 16.1853 23.103 16.1853 22.9389V20.381C16.1853 20.2168 16.0525 20.083 15.8883 20.083ZM15.5922 22.6399H13.6361V20.6781H15.5922V22.6399Z" stroke-width="0.308571" fill="black"/>
</g>
<mask id="mask6_4679_41084" style="mask-type:alpha" maskUnits="userSpaceOnUse" x="8" y="23" width="6" height="6">
<path d="M13.1299 23.1746H8.12988V28.1746H13.1299V23.1746Z" fill="white"/>
<path d="M9.42695 27.3275H11.9772C12.1404 27.3275 12.2743 27.1946 12.2743 27.0304V24.4726C12.2743 24.3084 12.1414 24.1746 11.9772 24.1746H9.42695C9.2637 24.1746 9.12988 24.3084 9.12988 24.4726V27.0304C9.12988 27.1946 9.26275 27.3275 9.42695 27.3275ZM9.72402 24.7706H11.6801V26.7324H9.72402V24.7706Z" fill="black"/>
</mask>
<g mask="url(#mask6_4679_41084)">
<path d="M9.42695 27.3275H11.9772C12.1404 27.3275 12.2743 27.1946 12.2743 27.0304V24.4726C12.2743 24.3084 12.1414 24.1746 11.9772 24.1746H9.42695C9.2637 24.1746 9.12988 24.3084 9.12988 24.4726V27.0304C9.12988 27.1946 9.26275 27.3275 9.42695 27.3275ZM9.72402 24.7706H11.6801V26.7324H9.72402V24.7706Z" fill="black"/>
<path d="M9.42695 27.3275H11.9772C12.1404 27.3275 12.2743 27.1946 12.2743 27.0304V24.4726C12.2743 24.3084 12.1414 24.1746 11.9772 24.1746H9.42695C9.2637 24.1746 9.12988 24.3084 9.12988 24.4726V27.0304C9.12988 27.1946 9.26275 27.3275 9.42695 27.3275ZM9.72402 24.7706H11.6801V26.7324H9.72402V24.7706Z" stroke-width="0.308571" fill="black"/>
</g>
<mask id="mask7_4679_41084" style="mask-type:alpha" maskUnits="userSpaceOnUse" x="12" y="23" width="6" height="6">
<path d="M17.041 23.1755H12.041V28.1755H17.041V23.1755Z" fill="white"/>
<path d="M15.8883 24.1755H13.338C13.1748 24.1755 13.041 24.3084 13.041 24.4736V27.0304C13.041 27.1946 13.1738 27.3284 13.338 27.3284H15.8883C16.0525 27.3284 16.1853 27.1946 16.1853 27.0304V24.4736C16.1853 24.3084 16.0525 24.1755 15.8883 24.1755ZM15.5922 26.7324H13.6361V24.7706H15.5922V26.7324Z" fill="black"/>
</mask>
<g mask="url(#mask7_4679_41084)">
<path d="M15.8883 24.1755H13.338C13.1748 24.1755 13.041 24.3084 13.041 24.4736V27.0304C13.041 27.1946 13.1738 27.3284 13.338 27.3284H15.8883C16.0525 27.3284 16.1853 27.1946 16.1853 27.0304V24.4736C16.1853 24.3084 16.0525 24.1755 15.8883 24.1755ZM15.5922 26.7324H13.6361V24.7706H15.5922V26.7324Z" fill="black"/>
<path d="M15.8883 24.1755H13.338C13.1748 24.1755 13.041 24.3084 13.041 24.4736V27.0304C13.041 27.1946 13.1738 27.3284 13.338 27.3284H15.8883C16.0525 27.3284 16.1853 27.1946 16.1853 27.0304V24.4736C16.1853 24.3084 16.0525 24.1755 15.8883 24.1755ZM15.5922 26.7324H13.6361V24.7706H15.5922V26.7324Z" stroke-width="0.308571" fill="black"/>
</g>
<mask id="mask8_4679_41084" style="mask-type:alpha" maskUnits="userSpaceOnUse" x="19" y="15" width="7" height="10">
<path d="M25.9934 15.8344H19.9934V24.8344H25.9934V15.8344Z" fill="white"/>
<path d="M21.5799 17.7673C21.298 18.072 21.1566 18.4488 21.1566 18.8967C21.1566 19.34 21.281 19.7157 21.5306 20.0261C21.5875 20.0982 21.653 20.1647 21.7251 20.2274C21.9339 20.4096 22.2063 20.5567 22.5414 20.6697C22.5945 20.6877 22.6496 20.7048 22.7065 20.7208V22.4388C22.6486 22.4113 22.5936 22.3771 22.5414 22.3372C22.4578 22.2727 22.3781 22.1919 22.305 22.0951C22.1855 21.9358 22.1038 21.7478 22.0602 21.5286L21.7251 21.5646L20.9934 21.6434C21.075 22.1825 21.262 22.5992 21.5572 22.8944C21.6103 22.9475 21.6663 22.9969 21.7251 23.0424C21.9539 23.2189 22.2263 23.3376 22.5414 23.3974C22.5955 23.4078 22.6496 23.4164 22.7065 23.423V24.1699H23.2988V23.403C23.8302 23.3261 24.246 23.1182 24.544 22.7794C24.8429 22.4406 24.9919 22.024 24.9919 21.5286C24.9919 21.0863 24.8733 20.7228 24.636 20.44C24.3988 20.1581 23.9536 19.9275 23.2988 19.75V18.146C23.5635 18.2608 23.7268 18.4801 23.7894 18.8018L24.824 18.6671C24.7528 18.2571 24.5895 17.9296 24.3333 17.6847C24.077 17.4408 23.7325 17.2918 23.2988 17.2406V16.8344H22.7065V17.2406C22.6496 17.2453 22.5945 17.2529 22.5414 17.2624C22.2206 17.3184 21.9491 17.4399 21.7251 17.6287C21.6739 17.6715 21.6255 17.717 21.5799 17.7673ZM23.2988 20.8974C23.5446 20.9686 23.7211 21.0702 23.8283 21.2031C23.9365 21.335 23.9906 21.4935 23.9906 21.6767C23.9906 21.8817 23.9261 22.0601 23.798 22.212C23.6698 22.3629 23.5038 22.4578 23.2997 22.4967V20.8974H23.2988ZM22.3221 18.4127C22.3829 18.3301 22.455 18.2627 22.5414 18.2105C22.5926 18.1802 22.6467 18.1545 22.7065 18.1346V19.5534C22.6467 19.5268 22.5917 19.4984 22.5414 19.4671C22.4446 19.4054 22.3677 19.3342 22.3098 19.2516C22.2225 19.1273 22.1788 18.9926 22.1788 18.8483C22.1788 18.6889 22.2272 18.5437 22.3221 18.4127Z" fill="black"/>
</mask>
<g mask="url(#mask8_4679_41084)">
<path d="M21.5799 17.7673C21.298 18.072 21.1566 18.4488 21.1566 18.8967C21.1566 19.34 21.281 19.7157 21.5306 20.0261C21.5875 20.0982 21.653 20.1647 21.7251 20.2274C21.9339 20.4096 22.2063 20.5567 22.5414 20.6697C22.5945 20.6877 22.6496 20.7048 22.7065 20.7208V22.4388C22.6486 22.4113 22.5936 22.3771 22.5414 22.3372C22.4578 22.2727 22.3781 22.1919 22.305 22.0951C22.1855 21.9358 22.1038 21.7478 22.0602 21.5286L21.7251 21.5646L20.9934 21.6434C21.075 22.1825 21.262 22.5992 21.5572 22.8944C21.6103 22.9475 21.6663 22.9969 21.7251 23.0424C21.9539 23.2189 22.2263 23.3376 22.5414 23.3974C22.5955 23.4078 22.6496 23.4164 22.7065 23.423V24.1699H23.2988V23.403C23.8302 23.3261 24.246 23.1182 24.544 22.7794C24.8429 22.4406 24.9919 22.024 24.9919 21.5286C24.9919 21.0863 24.8733 20.7228 24.636 20.44C24.3988 20.1581 23.9536 19.9275 23.2988 19.75V18.146C23.5635 18.2608 23.7268 18.4801 23.7894 18.8018L24.824 18.6671C24.7528 18.2571 24.5895 17.9296 24.3333 17.6847C24.077 17.4408 23.7325 17.2918 23.2988 17.2406V16.8344H22.7065V17.2406C22.6496 17.2453 22.5945 17.2529 22.5414 17.2624C22.2206 17.3184 21.9491 17.4399 21.7251 17.6287C21.6739 17.6715 21.6255 17.717 21.5799 17.7673ZM23.2988 20.8974C23.5446 20.9686 23.7211 21.0702 23.8283 21.2031C23.9365 21.335 23.9906 21.4935 23.9906 21.6767C23.9906 21.8817 23.9261 22.0601 23.798 22.212C23.6698 22.3629 23.5038 22.4578 23.2997 22.4967V20.8974H23.2988ZM22.3221 18.4127C22.3829 18.3301 22.455 18.2627 22.5414 18.2105C22.5926 18.1802 22.6467 18.1545 22.7065 18.1346V19.5534C22.6467 19.5268 22.5917 19.4984 22.5414 19.4671C22.4446 19.4054 22.3677 19.3342 22.3098 19.2516C22.2225 19.1273 22.1788 18.9926 22.1788 18.8483C22.1788 18.6889 22.2272 18.5437 22.3221 18.4127Z" fill="black"/>
<path d="M21.5799 17.7673C21.298 18.072 21.1566 18.4488 21.1566 18.8967C21.1566 19.34 21.281 19.7157 21.5306 20.0261C21.5875 20.0982 21.653 20.1647 21.7251 20.2274C21.9339 20.4096 22.2063 20.5567 22.5414 20.6697C22.5945 20.6877 22.6496 20.7047 22.7065 20.7208V22.4388C22.6486 22.4113 22.5936 22.3771 22.5414 22.3372C22.4578 22.2727 22.3781 22.1919 22.305 22.0951C22.1855 21.9357 22.1038 21.7478 22.0602 21.5286L21.7251 21.5646L20.9934 21.6434C21.075 22.1825 21.262 22.5992 21.5572 22.8944C21.6103 22.9475 21.6663 22.9969 21.7251 23.0424C21.9539 23.2189 22.2263 23.3376 22.5414 23.3974C22.5955 23.4078 22.6496 23.4164 22.7065 23.423V24.1699H23.2988V23.403C23.8302 23.3261 24.246 23.1182 24.544 22.7794C24.8429 22.4406 24.9919 22.024 24.9919 21.5286C24.9919 21.0863 24.8733 20.7228 24.636 20.44C24.3988 20.1581 23.9536 19.9275 23.2988 19.75V18.146C23.5635 18.2608 23.7268 18.4801 23.7894 18.8018L24.824 18.6671C24.7528 18.2571 24.5895 17.9296 24.3333 17.6847C24.077 17.4408 23.7325 17.2918 23.2988 17.2406V16.8344H22.7065V17.2406C22.6496 17.2453 22.5945 17.2529 22.5414 17.2624C22.2206 17.3184 21.9491 17.4399 21.7251 17.6287C21.6739 17.6715 21.6255 17.717 21.5799 17.7673ZM23.2988 20.8974C23.5446 20.9686 23.7211 21.0702 23.8283 21.2031C23.9365 21.335 23.9906 21.4935 23.9906 21.6767C23.9906 21.8817 23.9261 22.0601 23.798 22.212C23.6698 22.3629 23.5038 22.4578 23.2997 22.4967V20.8974H23.2988ZM22.3221 18.4127C22.3829 18.3301 22.455 18.2627 22.5414 18.2105C22.5926 18.1802 22.6467 18.1545 22.7065 18.1346V19.5534C22.6467 19.5268 22.5917 19.4984 22.5414 19.4671C22.4446 19.4054 22.3677 19.3342 22.3098 19.2516C22.2225 19.1273 22.1788 18.9926 22.1788 18.8483C22.1788 18.6889 22.2272 18.5437 22.3221 18.4127Z" stroke-width="0.308571" fill="black"/>
</g>
</svg>