<?xml version="1.0" ?><svg xmlns="http://www.w3.org/2000/svg" fill="none" viewBox="7 7 22.86 22">
<path d="M18.1819 20.3C16.7819 20.3 15.5819 19.3 15.5819 18C15.5819 16.7 16.7819 15.7 18.1819 15.7C19.5819 15.7 20.7819 16.7 20.7819 18C20.7819 19.3 19.5819 20.3 18.1819 20.3ZM16.7819 9.29995H14.8819L13.7819 8.89995V7.19995H11.2819L10.9819 8.39995L10.3819 9.19995L9.08193 8.69995L7.48193 10.3L8.88193 11.7V13.2L7.48193 14.1L9.08193 16L9.68193 15.7L11.5819 16.3L12.2819 14.7L10.7819 12.7L11.6819 10.9L13.2819 10.7L14.5819 11.8L17.2819 10.6L16.7819 9.29995ZM27.6819 24.7999V22.5L28.4819 21.7L27.6819 20.6L26.6819 21L24.9819 19.9L24.5819 21.2L25.6819 22.1L26.3819 23V23.9L25.8819 24.7999L24.9819 25.5L24.0819 25.7L22.8819 25.2L21.9819 24.2999L19.4819 25.2999L20.5819 26.7999L21.6819 26.2999L23.2819 27.2L23.5819 28.6L25.0819 28.2V27.4L26.6819 26.2999L27.7819 26.9L28.4819 25.4L27.6819 24.7999Z" fill="black"/>
<path d="M7.48213 10.5C7.48213 10.4 8.68213 8.6 8.78213 8.5C8.98213 8.3 9.28213 8.5 9.78213 8.7L10.0821 8.9L10.2821 8.8C10.4821 8.7 10.7821 8.5 10.9821 8.4L11.1821 8.3V7.9C11.1821 7.4 11.1821 7.3 11.2821 7.1C11.3821 7 11.3821 7 12.5821 7H12.8821C13.5821 7 13.8821 7 14.0821 7.2C14.1821 7.3 14.1821 7.5 14.1821 7.8V8.3C14.3821 8.4 14.8821 8.7 15.1821 8.8H15.2821L15.5821 8.7C16.0821 8.4 16.1821 8.4 16.1821 8.4C16.4821 8.4 16.5821 8.6 17.0821 9.4C17.5821 10.2 17.7821 10.4 17.3821 10.7C17.2821 10.8 17.1821 10.8 17.0821 10.8C16.8821 10.8 16.6821 10.5 16.3821 10C16.2821 9.8 16.1821 9.6 16.0821 9.5C15.9821 9.5 15.8821 9.6 15.7821 9.7C15.6821 9.8 15.3821 10 15.1821 10C15.0821 10 14.8821 9.9 14.7821 9.8C14.4821 9.6 14.0821 9.3 13.7821 9.2C13.5821 9.2 13.3821 9.1 13.2821 9C13.1821 8.9 13.1821 8.8 13.1821 8.3V8H12.0821V8.3C12.0821 8.9 12.0821 9 11.5821 9.2C11.2821 9.3 10.8821 9.5 10.5821 9.7C10.1821 10.1 9.98213 10 9.48213 9.7C9.38213 9.6 9.28213 9.6 9.18213 9.5C9.08213 9.8 8.78213 10.3 8.58213 10.5C8.68213 10.5 8.68213 10.6 8.88213 10.7C9.38213 11 9.38213 11.1 9.38213 11.1C9.38213 11.2 9.38213 11.5 9.38213 11.7C9.28213 12.1 9.28213 12.8 9.38213 13.2C9.48213 13.5 9.48213 13.7 9.38213 13.8C9.38213 13.8 9.38213 14 8.88213 14.3C8.78213 14.4 8.68213 14.4 8.68213 14.5C8.78213 14.7 9.08213 15.2 9.28213 15.4C9.38213 15.4 9.38213 15.3 9.48213 15.3C9.98213 15 10.0821 15 10.0821 15C10.1821 15 10.3821 15.1 10.5821 15.2C10.6821 15.3 10.9821 15.5 11.2821 15.6C11.7821 15.8 11.8821 15.9 11.8821 15.9C11.9821 16.1 11.9821 16.4 11.7821 16.5C11.6821 16.6 11.5821 16.6 11.4821 16.6H11.3821C11.0821 16.6 10.4821 16.2 10.1821 16L10.0821 15.9L9.78213 16.1C9.38213 16.3 8.98213 16.6 8.68213 16.2C8.58213 16.1 8.28213 15.7 8.08213 15.2C7.58213 14.5 7.48213 14.3 7.58213 14.1C7.58213 13.9 7.78213 13.8 8.18213 13.5L8.48213 13.3V13.2C8.48213 12.9 8.48213 11.7 8.48213 11.5L8.18213 11.3C7.68213 11.1 7.28213 10.8 7.48213 10.5ZM18.5821 8.7C19.2821 8.7 20.2821 8.9 21.0821 9.1C23.9821 9.9 26.3821 12.2 27.2821 15.1C27.4821 15.7 27.6821 16.6 27.6821 17.1V17.2C27.3821 16.9 27.2821 16.9 27.1821 16.9C26.8821 16.9 26.6821 17.1 26.6821 17.4C26.6821 17.6 26.7821 17.8 27.3821 18.3C27.8821 18.8 28.0821 19 28.2821 19C28.4821 19 28.5821 18.9 29.1821 18.3C29.7821 17.7 30.0821 17.4 29.6821 17.1C29.3821 16.8 28.9821 17.1 28.7821 17.3C28.5821 14.9 27.4821 12.6 25.7821 10.8C23.9821 9 21.4821 7.9 19.0821 7.8C18.3821 7.8 18.2821 7.8 18.1821 7.9C18.0821 8 18.0821 8.2 18.0821 8.2C18.0821 8.3 18.0821 8.5 18.1821 8.6C18.1821 8.6 18.3821 8.7 18.5821 8.7ZM11.9821 10.9C12.1821 10.8 12.1821 10.8 12.5821 10.8C12.9821 10.8 13.0821 10.8 13.1821 10.9C13.4821 11 13.7821 11.3 13.8821 11.5C13.9821 11.7 14.0821 11.8 14.3821 11.8C14.6821 11.8 14.8821 11.6 14.8821 11.3C14.8821 11 14.2821 10.3 13.8821 10.1C13.2821 9.8 12.4821 9.6 11.8821 9.8C10.5821 10.1 9.68213 11.5 9.98213 12.8C10.0821 13.3 10.2821 13.8 10.6821 14.2C11.0821 14.6 11.5821 14.9 11.9821 14.9C12.0821 14.9 12.1821 14.9 12.2821 14.8C12.3821 14.7 12.4821 14.6 12.4821 14.4C12.4821 14.3 12.3821 14.1 12.2821 14C12.1821 13.9 11.9821 13.9 11.8821 13.8C11.4821 13.6 11.1821 13.4 10.9821 12.9C10.8821 12.7 10.8821 12.7 10.8821 12.3C10.8821 11.9 10.8821 11.9 11.0821 11.6C11.3821 11.4 11.5821 11.1 11.9821 10.9ZM24.5821 19.5C24.2821 19.5 24.1821 19.6 24.0821 19.6L23.9821 19.8C23.8821 20 23.7821 20.4 23.6821 20.6L23.5821 20.9L23.8821 21.3C24.1821 21.7 24.2821 21.9 24.2821 22.1C24.2821 22.3 24.1821 22.5 23.4821 23.1C22.7821 23.8 22.6821 23.9 22.4821 23.9C22.3821 23.9 22.1821 23.8 21.6821 23.5L21.2821 23.2L20.9821 23.4C20.6821 23.5 20.3821 23.7 20.1821 23.7H19.9821V24C19.8821 24.7 19.7821 25 19.5821 25.1C19.5821 25.1 19.4821 25.2 18.3821 25.2C17.3821 25.2 17.2821 25.2 17.0821 25.1C16.9821 25 16.8821 24.8 16.8821 24.3L16.7821 23.8H16.5821C16.3821 23.7 16.0821 23.6 15.7821 23.5L15.5821 23.1L15.1821 23.4C14.7821 23.7 14.5821 23.8 14.3821 23.8C14.1821 23.8 14.0821 23.7 13.3821 23C12.6821 22.3 12.5821 22.2 12.5821 22C12.5821 21.9 12.6821 21.7 12.9821 21.2L13.2821 20.8L13.0821 20.5C12.9821 20.2 12.7821 19.9 12.7821 19.7V19.6V19.5C12.7821 19.5 12.5821 19.5 12.3821 19.4H12.1821C11.7821 19.3 11.5821 19.3 11.4821 19.2C11.3821 19.1 11.3821 18.9 11.3821 17.9C11.3821 16.9 11.3821 16.8 11.4821 16.6C11.5821 16.5 11.7821 16.4 12.3821 16.3C12.5821 16.3 12.7821 16.2 12.8821 16.2C12.9821 15.9 13.1821 15.5 13.2821 15.2L13.3821 14.9L13.0821 14.5C12.6821 14 12.6821 13.9 12.6821 13.7C12.6821 13.5 12.7821 13.4 13.4821 12.7C14.1821 12 14.2821 11.9 14.4821 11.9C14.5821 11.9 14.7821 12 15.2821 12.3L15.6821 12.6L15.8821 12.5C16.0821 12.4 16.3821 12.3 16.6821 12.2L16.9821 12.1L17.0821 11.7C17.1821 11 17.2821 10.8 17.3821 10.7C17.3821 10.7 17.4821 10.6 18.5821 10.6C19.5821 10.6 19.6821 10.6 19.7821 10.7C19.8821 10.8 19.9821 11 20.0821 11.6C20.0821 11.8 20.1821 12 20.1821 12.1C20.4821 12.2 20.9821 12.4 21.1821 12.5L21.3821 12.6L21.7821 12.3C22.2821 11.9 22.3821 11.9 22.5821 11.9C22.7821 11.9 22.9821 12 23.5821 12.7C24.2821 13.4 24.3821 13.5 24.3821 13.7C24.3821 13.9 24.2821 14 23.9821 14.5L23.5821 15.1L23.6821 15.3C23.7821 15.5 23.9821 16 24.0821 16.3C24.1821 16.3 24.3821 16.3 24.5821 16.4C25.1821 16.5 25.2821 16.5 25.4821 16.7C25.5821 16.9 25.5821 17.1 25.5821 18C25.5821 18.5 25.5821 19.1 25.5821 19.2C25.4821 19.4 25.1821 19.4 24.5821 19.5ZM23.3821 18.8C23.3821 18.8 23.4821 18.7 24.1821 18.6L24.5821 18.5V17.5L24.1821 17.4C23.4821 17.3 23.3821 17.2 23.3821 17.2C23.2821 17.1 23.2821 17 23.1821 16.7C23.1821 16.5 22.9821 16.1 22.7821 15.8C22.6821 15.5 22.4821 15.2 22.4821 15.1C22.4821 15.1 22.4821 14.9 22.8821 14.4C22.9821 14.2 23.0821 14.1 23.1821 14C23.1821 13.9 23.0821 13.8 22.8821 13.6C22.6821 13.4 22.5821 13.3 22.4821 13.2C22.3821 13.3 22.2821 13.4 22.0821 13.5C21.4821 14 21.3821 14 21.3821 14C21.2821 14 21.0821 13.9 20.6821 13.7C20.3821 13.5 19.9821 13.4 19.7821 13.3C19.4821 13.2 19.2821 13.1 19.2821 13.1C19.2821 13.1 19.1821 13 19.0821 12.3L18.9821 11.9H18.4821C18.3821 11.9 18.0821 11.9 17.9821 11.9C17.9821 12 17.9821 12.2 17.8821 12.4C17.8821 12.5 17.7821 13 17.6821 13.1C17.5821 13.2 17.3821 13.3 17.1821 13.4C16.9821 13.5 16.5821 13.6 16.2821 13.8C15.9821 13.8 15.5821 14 15.4821 14C15.4821 14 15.2821 14 14.7821 13.6C14.5821 13.5 14.4821 13.4 14.3821 13.3C14.2821 13.4 14.1821 13.5 13.9821 13.7L13.8821 13.8C13.7821 13.9 13.6821 14 13.6821 14C13.6821 14 13.7821 14.2 13.8821 14.3L13.9821 14.5C14.3821 15 14.3821 15.1 14.3821 15.2C14.3821 15.3 14.2821 15.6 14.1821 15.7C13.9821 16 13.8821 16.4 13.6821 16.8C13.5821 17.3 13.4821 17.3 13.3821 17.3C13.2821 17.4 12.8821 17.4 12.6821 17.5L12.2821 17.6V18.6L12.7821 18.7C13.4821 18.8 13.5821 18.8 13.7821 19.3C13.8821 19.6 14.0821 20.1 14.2821 20.5C14.2821 20.6 14.4821 20.9 14.4821 21C14.4821 21 14.4821 21.2 14.0821 21.7L13.9821 21.9C13.8821 22 13.7821 22.1 13.7821 22.2C13.7821 22.2 13.8821 22.3 13.9821 22.4L14.0821 22.5C14.2821 22.7 14.3821 22.8 14.4821 22.9C14.5821 22.8 14.6821 22.8 14.8821 22.6C15.3821 22 15.4821 22 15.5821 22C15.7821 22 15.9821 22.2 16.0821 22.2C16.3821 22.4 16.6821 22.5 17.1821 22.7C17.6821 22.8 17.6821 22.9 17.6821 23C17.6821 23.1 17.7821 23.5 17.8821 23.7L17.9821 24.1H18.9821L19.0821 23.7C19.0821 23.5 19.1821 23 19.2821 23C19.2821 23 19.3821 22.9 19.7821 22.7C20.2821 22.5 20.5821 22.4 20.8821 22.2C20.9821 22.1 21.1821 22 21.3821 22C21.3821 22 21.5821 22 22.0821 22.4L22.2821 22.5C22.3821 22.6 22.4821 22.7 22.5821 22.7C22.5821 22.7 22.6821 22.6 22.7821 22.5L22.8821 22.4C23.0821 22.2 23.1821 22.1 23.2821 22C23.1821 21.9 23.0821 21.8 22.9821 21.6C22.5821 21.1 22.5821 20.9 22.5821 20.9C22.5821 20.8 22.7821 20.4 22.8821 20.2C23.0821 19.9 23.1821 19.5 23.2821 19.3C23.2821 18.9 23.2821 18.8 23.3821 18.8ZM21.1821 16.7C21.3821 17.2 21.4821 17.5 21.4821 18.1C21.4821 18.7 21.3821 19 21.1821 19.4C20.7821 20.2 19.9821 20.8 19.1821 21C18.9821 21 18.7821 21.1 18.4821 21.1C18.1821 21.1 17.9821 21.1 17.7821 21C16.9821 20.8 16.0821 20.2 15.7821 19.4C15.5821 18.9 15.4821 18.6 15.4821 18.1C15.4821 17.3 15.7821 16.6 16.3821 16C16.8821 15.5 17.4821 15.2 18.1821 15.1C19.0821 15 19.9821 15.3 20.6821 16C20.8821 16.2 20.9821 16.3 21.1821 16.7ZM18.8821 16C18.7821 16 18.5821 16 18.4821 16C18.0821 16 17.6821 16.1 17.3821 16.3C16.8821 16.6 16.5821 17.1 16.4821 17.7C16.3821 18.3 16.5821 19 17.0821 19.4C17.5821 19.8 18.1821 20.1 18.7821 20C19.6821 19.9 20.3821 19.2 20.4821 18.3C20.5821 17.3 19.8821 16.3 18.8821 16ZM17.9821 27.3C14.5821 27.1 11.5821 25.2 10.0821 22C9.58213 21.1 9.28213 19.9 9.18213 19V18.9C9.48213 19.2 9.58213 19.2 9.68213 19.2C9.98213 19.2 10.1821 19 10.1821 18.7C10.1821 18.5 10.0821 18.3 9.48213 17.8C8.98213 17.3 8.78213 17.1 8.58213 17.1C8.38213 17.1 8.28213 17.2 7.68213 17.8C7.08213 18.4 6.78213 18.7 7.18213 19C7.48213 19.3 7.88213 19 8.08213 18.8C8.08213 19.5 8.28213 20.4 8.58213 21.2C9.58213 24.3 12.0821 26.7 15.0821 27.7C16.1821 28 17.0821 28.2 17.9821 28.2C18.4821 28.2 18.7821 28.2 18.7821 27.7C18.8821 27.4 18.4821 27.3 17.9821 27.3ZM29.4821 21.9C29.4821 21.6 28.2821 19.8 28.0821 19.7C27.7821 19.5 27.6821 19.6 27.1821 20L26.8821 20.2L26.6821 20C26.3821 19.8 25.7821 19.5 25.4821 19.5C25.3821 19.5 25.1821 19.6 25.1821 19.6C25.0821 19.8 24.9821 20 25.0821 20.2C25.0821 20.2 25.1821 20.3 25.5821 20.5C25.9821 20.7 26.3821 21 26.4821 21C26.7821 21.4 27.2821 21 27.4821 20.9C27.5821 20.8 27.6821 20.8 27.6821 20.8C27.8821 21 28.1821 21.5 28.2821 21.7C28.1821 21.7 28.1821 21.8 28.0821 21.9C27.7821 22.1 27.5821 22.2 27.5821 22.3C27.4821 22.4 27.4821 22.6 27.5821 22.9C27.6821 23.3 27.6821 24 27.5821 24.4C27.4821 24.7 27.4821 24.8 27.5821 25C27.6821 25.2 28.0821 25.4 28.0821 25.4C28.1821 25.5 28.2821 25.5 28.2821 25.6C28.1821 25.8 27.8821 26.3 27.6821 26.5C27.5821 26.5 27.5821 26.4 27.4821 26.3C26.9821 26 26.8821 26 26.7821 26C26.6821 26 26.4821 26.1 26.2821 26.2C25.9821 26.4 25.6821 26.6 25.3821 26.7C24.9821 26.8 24.9821 26.9 24.9821 27C24.9821 27 24.8821 27.1 24.8821 27.7V28H23.7821V27.7C23.7821 27.1 23.7821 26.9 23.2821 26.8C22.9821 26.7 22.4821 26.4 22.2821 26.2C22.0821 26 21.8821 26 21.7821 26C21.5821 26 21.2821 26.2 21.1821 26.3C21.0821 26.4 20.9821 26.4 20.9821 26.4C20.8821 26.3 20.7821 26.1 20.6821 26C20.6821 26 20.2821 25.4 20.1821 25.3C20.0821 25.2 19.8821 25.2 19.6821 25.3C19.4821 25.4 19.3821 25.5 19.3821 25.7C19.3821 25.9 20.3821 27.5 20.6821 27.6C20.8821 27.7 21.0821 27.6 21.5821 27.3L21.8821 27.1L21.9821 27.2C22.0821 27.3 22.3821 27.5 22.5821 27.6L22.8821 27.7V28.2C22.8821 28.5 22.8821 28.7 22.9821 28.8C23.1821 29 23.3821 29 23.9821 29C24.0821 29 24.0821 29 24.1821 29H24.4821C25.6821 29 25.7821 29 25.8821 28.9C25.9821 28.8 25.9821 28.6 25.9821 28.1V27.7L26.1821 27.6C26.3821 27.5 26.6821 27.4 26.8821 27.2L27.0821 27.1L27.3821 27.3C27.7821 27.6 28.0821 27.7 28.2821 27.6C28.3821 27.5 28.7821 26.9 28.9821 26.5C29.5821 25.6 29.5821 25.5 29.5821 25.3C29.5821 25.1 29.3821 25 28.9821 24.7L28.6821 24.5C28.7821 24.3 28.6821 23.1 28.6821 22.8V22.7L28.9821 22.5C29.2821 22.3 29.4821 22.1 29.4821 21.9ZM24.8821 25.1C24.6821 25.2 24.6821 25.2 24.2821 25.2C23.8821 25.2 23.7821 25.2 23.6821 25.1C23.3821 25 23.0821 24.7 22.9821 24.5C22.8821 24.3 22.7821 24.2 22.4821 24.2C22.1821 24.2 21.9821 24.4 21.9821 24.7C21.9821 25.1 22.5821 25.7 22.9821 25.9C23.3821 26.1 23.8821 26.3 24.3821 26.3C24.5821 26.3 24.7821 26.3 24.8821 26.2C26.2821 25.9 27.1821 24.5 26.8821 23.2C26.7821 22.7 26.5821 22.3 26.1821 21.9C25.7821 21.5 25.2821 21.2 24.8821 21.2C24.6821 21.2 24.5821 21.3 24.5821 21.3C24.4821 21.4 24.4821 21.5 24.4821 21.7C24.4821 21.8 24.5821 21.9 24.5821 22C24.6821 22.1 24.8821 22.2 24.9821 22.2C25.3821 22.4 25.6821 22.7 25.9821 23.1C26.0821 23.3 26.0821 23.4 26.0821 23.7C26.0821 24.1 26.0821 24.1 25.8821 24.4C25.4821 24.7 25.2821 24.9 24.8821 25.1Z" fill="black"/>
</svg>