<?xml version="1.0" ?><svg xmlns="http://www.w3.org/2000/svg" fill="none" viewBox="4.17 9 26.08 20.05">
<g id="fee-head">
<path id="Rectangle 34624705" d="M8.74268 12.5715L15.1712 10.7715L20.3141 12.0572L21.3427 12.5715L15.1712 14.6286L8.74268 12.5715Z" fill="black"/>
<g id="Group 1171274899">
<path id="Rectangle 34624719" d="M24.1712 21.8286H29.3141V27.4858L21.8569 26.9715L24.1712 21.8286Z" fill="black"/>
</g>
<g id="Group 1171274898">
<g id="Group">
<g id="Vector">
<mask id="path-3-outside-1_3021_55924" maskUnits="userSpaceOnUse" x="4.17139" y="9.00012" width="20" height="12" fill="black">
<rect fill="white" x="4.17139" y="9.00012" width="20" height="12"/>
<path d="M15.1274 19.8161L14.9663 19.6743C14.9506 19.6604 13.2627 18.2265 9.33173 18.0503L9.0994 18.0407V14.7174C9.0994 14.5834 9.20802 14.4742 9.34259 14.4742C9.47656 14.4742 9.58579 14.5834 9.58579 14.7174V17.5766C12.9054 17.7691 14.6205 18.8161 15.1274 19.1842C15.6337 18.8161 17.3488 17.7691 20.669 17.5766V13.5708L15.1274 15.1712L6.17139 12.5854L15.1274 10.0001L23.2736 12.3524C23.4027 12.3892 23.4769 12.5244 23.4401 12.6523C23.4027 12.7821 23.2681 12.8557 23.139 12.8189L15.1274 10.5064L7.92445 12.5854L15.1274 14.6649L21.1548 12.9245L21.1554 18.0407L20.9231 18.0503C16.9716 18.2278 15.3048 19.6598 15.2885 19.6743L15.1274 19.8161Z"/>
</mask>
<path d="M15.1274 19.8161L14.9663 19.6743C14.9506 19.6604 13.2627 18.2265 9.33173 18.0503L9.0994 18.0407V14.7174C9.0994 14.5834 9.20802 14.4742 9.34259 14.4742C9.47656 14.4742 9.58579 14.5834 9.58579 14.7174V17.5766C12.9054 17.7691 14.6205 18.8161 15.1274 19.1842C15.6337 18.8161 17.3488 17.7691 20.669 17.5766V13.5708L15.1274 15.1712L6.17139 12.5854L15.1274 10.0001L23.2736 12.3524C23.4027 12.3892 23.4769 12.5244 23.4401 12.6523C23.4027 12.7821 23.2681 12.8557 23.139 12.8189L15.1274 10.5064L7.92445 12.5854L15.1274 14.6649L21.1548 12.9245L21.1554 18.0407L20.9231 18.0503C16.9716 18.2278 15.3048 19.6598 15.2885 19.6743L15.1274 19.8161Z" fill="black"/>
<path d="M15.1274 19.8161L14.9663 19.6743C14.9506 19.6604 13.2627 18.2265 9.33173 18.0503L9.0994 18.0407V14.7174C9.0994 14.5834 9.20802 14.4742 9.34259 14.4742C9.47656 14.4742 9.58579 14.5834 9.58579 14.7174V17.5766C12.9054 17.7691 14.6205 18.8161 15.1274 19.1842C15.6337 18.8161 17.3488 17.7691 20.669 17.5766V13.5708L15.1274 15.1712L6.17139 12.5854L15.1274 10.0001L23.2736 12.3524C23.4027 12.3892 23.4769 12.5244 23.4401 12.6523C23.4027 12.7821 23.2681 12.8557 23.139 12.8189L15.1274 10.5064L7.92445 12.5854L15.1274 14.6649L21.1548 12.9245L21.1554 18.0407L20.9231 18.0503C16.9716 18.2278 15.3048 19.6598 15.2885 19.6743L15.1274 19.8161Z" stroke-width="0.771429" mask="url(#path-3-outside-1_3021_55924)" fill="black"/>
</g>
</g>
<g id="Vector_2">
<mask id="path-4-outside-2_3021_55924" maskUnits="userSpaceOnUse" x="21.9634" y="11.342" width="2" height="7" fill="black">
<rect fill="white" x="21.9634" y="11.342" width="2" height="7"/>
<path d="M23.2066 17.0587C23.072 17.0587 22.9634 16.9501 22.9634 16.8155V12.5852C22.9634 12.4507 23.072 12.342 23.2066 12.342C23.3405 12.342 23.4498 12.4507 23.4498 12.5852V16.8155C23.4498 16.9501 23.3405 17.0587 23.2066 17.0587Z"/>
</mask>
<path d="M23.2066 17.0587C23.072 17.0587 22.9634 16.9501 22.9634 16.8155V12.5852C22.9634 12.4507 23.072 12.342 23.2066 12.342C23.3405 12.342 23.4498 12.4507 23.4498 12.5852V16.8155C23.4498 16.9501 23.3405 17.0587 23.2066 17.0587Z" fill="black"/>
<path d="M23.2066 17.0587C23.072 17.0587 22.9634 16.9501 22.9634 16.8155V12.5852C22.9634 12.4507 23.072 12.342 23.2066 12.342C23.3405 12.342 23.4498 12.4507 23.4498 12.5852V16.8155C23.4498 16.9501 23.3405 17.0587 23.2066 17.0587Z" stroke-width="0.771429" mask="url(#path-4-outside-2_3021_55924)" fill="black"/>
</g>
<g id="Vector_3">
<mask id="path-5-outside-3_3021_55924" maskUnits="userSpaceOnUse" x="24.4297" y="11.3379" width="4" height="6" fill="black">
<rect fill="white" x="24.4297" y="11.3379" width="4" height="6"/>
<path d="M26.5992 16.5332C25.9541 16.5332 25.4297 16.0082 25.4297 15.3625C25.4297 15.2291 25.5383 15.1193 25.6729 15.1193C25.8069 15.1193 25.9149 15.2291 25.9149 15.3625C25.9149 15.7408 26.2226 16.0468 26.5992 16.0468C26.9776 16.0468 27.2835 15.7408 27.2835 15.3625C27.2835 15.0861 27.1574 14.8736 26.5244 14.6667C26.2534 14.578 25.4297 14.3094 25.4297 13.5086C25.4297 12.8629 25.9541 12.3379 26.5992 12.3379C27.2449 12.3379 27.7699 12.8629 27.7699 13.5086C27.7699 13.6426 27.6619 13.7506 27.5267 13.7506C27.3934 13.7506 27.2835 13.6426 27.2835 13.5086C27.2835 13.1308 26.9776 12.8243 26.5992 12.8243C26.2226 12.8243 25.9149 13.1308 25.9149 13.5086C25.9149 13.7174 26.0018 13.9847 26.6752 14.2044C27.1852 14.371 27.7699 14.6534 27.7699 15.3625C27.7699 16.0082 27.2449 16.5332 26.5992 16.5332Z"/>
</mask>
<path d="M26.5992 16.5332C25.9541 16.5332 25.4297 16.0082 25.4297 15.3625C25.4297 15.2291 25.5383 15.1193 25.6729 15.1193C25.8069 15.1193 25.9149 15.2291 25.9149 15.3625C25.9149 15.7408 26.2226 16.0468 26.5992 16.0468C26.9776 16.0468 27.2835 15.7408 27.2835 15.3625C27.2835 15.0861 27.1574 14.8736 26.5244 14.6667C26.2534 14.578 25.4297 14.3094 25.4297 13.5086C25.4297 12.8629 25.9541 12.3379 26.5992 12.3379C27.2449 12.3379 27.7699 12.8629 27.7699 13.5086C27.7699 13.6426 27.6619 13.7506 27.5267 13.7506C27.3934 13.7506 27.2835 13.6426 27.2835 13.5086C27.2835 13.1308 26.9776 12.8243 26.5992 12.8243C26.2226 12.8243 25.9149 13.1308 25.9149 13.5086C25.9149 13.7174 26.0018 13.9847 26.6752 14.2044C27.1852 14.371 27.7699 14.6534 27.7699 15.3625C27.7699 16.0082 27.2449 16.5332 26.5992 16.5332Z" fill="black"/>
<path d="M26.5992 16.5332C25.9541 16.5332 25.4297 16.0082 25.4297 15.3625C25.4297 15.2291 25.5383 15.1193 25.6729 15.1193C25.8069 15.1193 25.9149 15.2291 25.9149 15.3625C25.9149 15.7408 26.2226 16.0468 26.5992 16.0468C26.9776 16.0468 27.2835 15.7408 27.2835 15.3625C27.2835 15.0861 27.1574 14.8736 26.5244 14.6667C26.2534 14.578 25.4297 14.3094 25.4297 13.5086C25.4297 12.8629 25.9541 12.3379 26.5992 12.3379C27.2449 12.3379 27.7699 12.8629 27.7699 13.5086C27.7699 13.6426 27.6619 13.7506 27.5267 13.7506C27.3934 13.7506 27.2835 13.6426 27.2835 13.5086C27.2835 13.1308 26.9776 12.8243 26.5992 12.8243C26.2226 12.8243 25.9149 13.1308 25.9149 13.5086C25.9149 13.7174 26.0018 13.9847 26.6752 14.2044C27.1852 14.371 27.7699 14.6534 27.7699 15.3625C27.7699 16.0082 27.2449 16.5332 26.5992 16.5332Z" stroke-width="0.771429" mask="url(#path-5-outside-3_3021_55924)" fill="black"/>
</g>
<g id="Vector_4">
<mask id="path-6-outside-4_3021_55924" maskUnits="userSpaceOnUse" x="25.356" y="10.8208" width="2" height="3" fill="black">
<rect fill="white" x="25.356" y="10.8208" width="2" height="3"/>
<path d="M26.5992 12.8304C26.4658 12.8304 26.356 12.7212 26.356 12.5872V12.064C26.356 11.9294 26.4658 11.8208 26.5992 11.8208C26.7343 11.8208 26.8423 11.9294 26.8423 12.064V12.5872C26.8423 12.7212 26.7343 12.8304 26.5992 12.8304Z"/>
</mask>
<path d="M26.5992 12.8304C26.4658 12.8304 26.356 12.7212 26.356 12.5872V12.064C26.356 11.9294 26.4658 11.8208 26.5992 11.8208C26.7343 11.8208 26.8423 11.9294 26.8423 12.064V12.5872C26.8423 12.7212 26.7343 12.8304 26.5992 12.8304Z" fill="black"/>
<path d="M26.5992 12.8304C26.4658 12.8304 26.356 12.7212 26.356 12.5872V12.064C26.356 11.9294 26.4658 11.8208 26.5992 11.8208C26.7343 11.8208 26.8423 11.9294 26.8423 12.064V12.5872C26.8423 12.7212 26.7343 12.8304 26.5992 12.8304Z" stroke-width="0.771429" mask="url(#path-6-outside-4_3021_55924)" fill="black"/>
</g>
<g id="Vector_5">
<mask id="path-7-outside-5_3021_55924" maskUnits="userSpaceOnUse" x="25.356" y="15.0469" width="2" height="3" fill="black">
<rect fill="white" x="25.356" y="15.0469" width="2" height="3"/>
<path d="M26.5992 17.0571C26.4658 17.0571 26.356 16.9478 26.356 16.8139V16.2901C26.356 16.1567 26.4658 16.0469 26.5992 16.0469C26.7343 16.0469 26.8423 16.1567 26.8423 16.2901V16.8139C26.8423 16.9478 26.7343 17.0571 26.5992 17.0571Z"/>
</mask>
<path d="M26.5992 17.0571C26.4658 17.0571 26.356 16.9478 26.356 16.8139V16.2901C26.356 16.1567 26.4658 16.0469 26.5992 16.0469C26.7343 16.0469 26.8423 16.1567 26.8423 16.2901V16.8139C26.8423 16.9478 26.7343 17.0571 26.5992 17.0571Z" fill="black"/>
<path d="M26.5992 17.0571C26.4658 17.0571 26.356 16.9478 26.356 16.8139V16.2901C26.356 16.1567 26.4658 16.0469 26.5992 16.0469C26.7343 16.0469 26.8423 16.1567 26.8423 16.2901V16.8139C26.8423 16.9478 26.7343 17.0571 26.5992 17.0571Z" stroke-width="0.771429" mask="url(#path-7-outside-5_3021_55924)" fill="black"/>
</g>
<g id="Vector_6">
<mask id="path-8-outside-6_3021_55924" maskUnits="userSpaceOnUse" x="7.79102" y="19.5287" width="15" height="7" fill="black">
<rect fill="white" x="7.79102" y="19.5287" width="15" height="7"/>
<path d="M21.8682 26.0628C21.8471 26.0628 21.8266 26.0604 21.8055 26.055C20.4187 25.6845 18.9885 25.5378 17.5547 25.6199C17.2312 25.638 16.9005 25.6688 16.5813 25.6989C15.9519 25.7575 15.3031 25.8178 14.6532 25.7919C13.5446 25.7466 12.4282 25.3164 11.7391 24.6682L9.009 22.0709C8.87201 21.9388 8.79477 21.7619 8.79115 21.5731C8.78753 21.383 8.85813 21.2037 8.98908 21.0674C9.66436 20.3679 10.7844 20.3462 11.485 21.0221L12.564 22.0432C12.6612 22.1349 12.666 22.2888 12.5737 22.3865C12.4807 22.4843 12.3268 22.4885 12.2291 22.3962L11.1489 21.3739C10.6402 20.8833 9.82911 20.8978 9.3403 21.4053C9.29866 21.4481 9.27694 21.5043 9.27754 21.564C9.27875 21.6231 9.30289 21.6787 9.34573 21.7203L12.074 24.3146C12.6793 24.8849 13.6768 25.2657 14.6731 25.3055C15.2886 25.3308 15.9229 25.2723 16.536 25.215C16.8595 25.1842 17.195 25.1534 17.5275 25.1335C19.0132 25.049 20.4941 25.2005 21.9304 25.5855C22.0607 25.6199 22.1374 25.7533 22.103 25.883C22.074 25.9916 21.9756 26.0628 21.8682 26.0628Z"/>
</mask>
<path d="M21.8682 26.0628C21.8471 26.0628 21.8266 26.0604 21.8055 26.055C20.4187 25.6845 18.9885 25.5378 17.5547 25.6199C17.2312 25.638 16.9005 25.6688 16.5813 25.6989C15.9519 25.7575 15.3031 25.8178 14.6532 25.7919C13.5446 25.7466 12.4282 25.3164 11.7391 24.6682L9.009 22.0709C8.87201 21.9388 8.79477 21.7619 8.79115 21.5731C8.78753 21.383 8.85813 21.2037 8.98908 21.0674C9.66436 20.3679 10.7844 20.3462 11.485 21.0221L12.564 22.0432C12.6612 22.1349 12.666 22.2888 12.5737 22.3865C12.4807 22.4843 12.3268 22.4885 12.2291 22.3962L11.1489 21.3739C10.6402 20.8833 9.82911 20.8978 9.3403 21.4053C9.29866 21.4481 9.27694 21.5043 9.27754 21.564C9.27875 21.6231 9.30289 21.6787 9.34573 21.7203L12.074 24.3146C12.6793 24.8849 13.6768 25.2657 14.6731 25.3055C15.2886 25.3308 15.9229 25.2723 16.536 25.215C16.8595 25.1842 17.195 25.1534 17.5275 25.1335C19.0132 25.049 20.4941 25.2005 21.9304 25.5855C22.0607 25.6199 22.1374 25.7533 22.103 25.883C22.074 25.9916 21.9756 26.0628 21.8682 26.0628Z" fill="black"/>
<path d="M21.8682 26.0628C21.8471 26.0628 21.8266 26.0604 21.8055 26.055C20.4187 25.6845 18.9885 25.5378 17.5547 25.6199C17.2312 25.638 16.9005 25.6688 16.5813 25.6989C15.9519 25.7575 15.3031 25.8178 14.6532 25.7919C13.5446 25.7466 12.4282 25.3164 11.7391 24.6682L9.009 22.0709C8.87201 21.9388 8.79477 21.7619 8.79115 21.5731C8.78753 21.383 8.85813 21.2037 8.98908 21.0674C9.66436 20.3679 10.7844 20.3462 11.485 21.0221L12.564 22.0432C12.6612 22.1349 12.666 22.2888 12.5737 22.3865C12.4807 22.4843 12.3268 22.4885 12.2291 22.3962L11.1489 21.3739C10.6402 20.8833 9.82911 20.8978 9.3403 21.4053C9.29866 21.4481 9.27694 21.5043 9.27754 21.564C9.27875 21.6231 9.30289 21.6787 9.34573 21.7203L12.074 24.3146C12.6793 24.8849 13.6768 25.2657 14.6731 25.3055C15.2886 25.3308 15.9229 25.2723 16.536 25.215C16.8595 25.1842 17.195 25.1534 17.5275 25.1335C19.0132 25.049 20.4941 25.2005 21.9304 25.5855C22.0607 25.6199 22.1374 25.7533 22.103 25.883C22.074 25.9916 21.9756 26.0628 21.8682 26.0628Z" stroke-width="0.771429" mask="url(#path-8-outside-6_3021_55924)" fill="black"/>
</g>
<g id="Vector_7">
<mask id="path-9-outside-7_3021_55924" maskUnits="userSpaceOnUse" x="12.1216" y="19.3503" width="13" height="5" fill="black">
<rect fill="white" x="12.1216" y="19.3503" width="13" height="5"/>
<path d="M14.2344 23.7131C13.9369 23.7131 13.6575 23.5972 13.4481 23.3866C13.2374 23.1772 13.1216 22.8978 13.1216 22.6009C13.1216 22.304 13.2374 22.0246 13.4481 21.8146C13.6575 21.604 13.9369 21.4881 14.2344 21.4881H15.0581C15.7895 21.4881 16.501 21.3421 17.1726 21.0524L17.2927 20.9999C17.7435 20.805 18.2094 20.604 18.7091 20.4785C20.0904 20.1339 22.255 20.4025 23.8095 22.2986C23.8946 22.4024 23.8795 22.555 23.7763 22.6407C23.6713 22.7258 23.5187 22.7107 23.4336 22.6063C22.1138 20.9963 20.1694 20.6149 18.8267 20.9504C18.3669 21.0663 17.939 21.2504 17.4864 21.4465L17.3639 21.499C16.6319 21.8146 15.8553 21.9745 15.0581 21.9745H14.2344C14.066 21.9745 13.9097 22.0397 13.7914 22.158C13.6731 22.2768 13.608 22.4337 13.608 22.6003C13.608 22.7675 13.6731 22.925 13.7914 23.0432C13.9097 23.1615 14.0672 23.2267 14.2344 23.2267H15.1722C15.7123 23.2267 16.2542 23.1688 16.7822 23.0559L18.5159 22.6842C18.6469 22.6564 18.776 22.7403 18.8044 22.8713C18.8322 23.0028 18.7483 23.132 18.6173 23.1597L16.8842 23.5315C16.323 23.6515 15.746 23.7125 15.1722 23.7125L14.2344 23.7131Z"/>
</mask>
<path d="M14.2344 23.7131C13.9369 23.7131 13.6575 23.5972 13.4481 23.3866C13.2374 23.1772 13.1216 22.8978 13.1216 22.6009C13.1216 22.304 13.2374 22.0246 13.4481 21.8146C13.6575 21.604 13.9369 21.4881 14.2344 21.4881H15.0581C15.7895 21.4881 16.501 21.3421 17.1726 21.0524L17.2927 20.9999C17.7435 20.805 18.2094 20.604 18.7091 20.4785C20.0904 20.1339 22.255 20.4025 23.8095 22.2986C23.8946 22.4024 23.8795 22.555 23.7763 22.6407C23.6713 22.7258 23.5187 22.7107 23.4336 22.6063C22.1138 20.9963 20.1694 20.6149 18.8267 20.9504C18.3669 21.0663 17.939 21.2504 17.4864 21.4465L17.3639 21.499C16.6319 21.8146 15.8553 21.9745 15.0581 21.9745H14.2344C14.066 21.9745 13.9097 22.0397 13.7914 22.158C13.6731 22.2768 13.608 22.4337 13.608 22.6003C13.608 22.7675 13.6731 22.925 13.7914 23.0432C13.9097 23.1615 14.0672 23.2267 14.2344 23.2267H15.1722C15.7123 23.2267 16.2542 23.1688 16.7822 23.0559L18.5159 22.6842C18.6469 22.6564 18.776 22.7403 18.8044 22.8713C18.8322 23.0028 18.7483 23.132 18.6173 23.1597L16.8842 23.5315C16.323 23.6515 15.746 23.7125 15.1722 23.7125L14.2344 23.7131Z" fill="black"/>
<path d="M14.2344 23.7131C13.9369 23.7131 13.6575 23.5972 13.4481 23.3866C13.2374 23.1772 13.1216 22.8978 13.1216 22.6009C13.1216 22.304 13.2374 22.0246 13.4481 21.8146C13.6575 21.604 13.9369 21.4881 14.2344 21.4881H15.0581C15.7895 21.4881 16.501 21.3421 17.1726 21.0524L17.2927 20.9999C17.7435 20.805 18.2094 20.604 18.7091 20.4785C20.0904 20.1339 22.255 20.4025 23.8095 22.2986C23.8946 22.4024 23.8795 22.555 23.7763 22.6407C23.6713 22.7258 23.5187 22.7107 23.4336 22.6063C22.1138 20.9963 20.1694 20.6149 18.8267 20.9504C18.3669 21.0663 17.939 21.2504 17.4864 21.4465L17.3639 21.499C16.6319 21.8146 15.8553 21.9745 15.0581 21.9745H14.2344C14.066 21.9745 13.9097 22.0397 13.7914 22.158C13.6731 22.2768 13.608 22.4337 13.608 22.6003C13.608 22.7675 13.6731 22.925 13.7914 23.0432C13.9097 23.1615 14.0672 23.2267 14.2344 23.2267H15.1722C15.7123 23.2267 16.2542 23.1688 16.7822 23.0559L18.5159 22.6842C18.6469 22.6564 18.776 22.7403 18.8044 22.8713C18.8322 23.0028 18.7483 23.132 18.6173 23.1597L16.8842 23.5315C16.323 23.6515 15.746 23.7125 15.1722 23.7125L14.2344 23.7131Z" stroke-width="0.771429" mask="url(#path-9-outside-7_3021_55924)" fill="black"/>
</g>
<g id="Group_2">
<g id="Vector_8">
<mask id="path-10-outside-8_3021_55924" maskUnits="userSpaceOnUse" x="20.2529" y="20.054" width="10" height="9" fill="black">
<rect fill="white" x="20.2529" y="20.054" width="10" height="9"/>
<path d="M29.071 27.8351H22.0811C21.7902 27.8351 21.5253 27.6854 21.3744 27.4362C21.2224 27.1876 21.2127 26.884 21.3473 26.6251L24.014 21.4993C24.157 21.2247 24.4382 21.054 24.7478 21.054H29.071C29.2056 21.054 29.3142 21.1632 29.3142 21.2972C29.3142 21.4317 29.2056 21.5403 29.071 21.5403H24.7478C24.6205 21.5403 24.504 21.611 24.4455 21.7238L21.7794 26.8496C21.722 26.9583 21.7269 27.0801 21.7902 27.1839C21.8536 27.2889 21.9592 27.3487 22.0811 27.3487H29.071C29.2056 27.3487 29.3142 27.4579 29.3142 27.5919C29.3142 27.7253 29.2056 27.8351 29.071 27.8351Z"/>
</mask>
<path d="M29.071 27.8351H22.0811C21.7902 27.8351 21.5253 27.6854 21.3744 27.4362C21.2224 27.1876 21.2127 26.884 21.3473 26.6251L24.014 21.4993C24.157 21.2247 24.4382 21.054 24.7478 21.054H29.071C29.2056 21.054 29.3142 21.1632 29.3142 21.2972C29.3142 21.4317 29.2056 21.5403 29.071 21.5403H24.7478C24.6205 21.5403 24.504 21.611 24.4455 21.7238L21.7794 26.8496C21.722 26.9583 21.7269 27.0801 21.7902 27.1839C21.8536 27.2889 21.9592 27.3487 22.0811 27.3487H29.071C29.2056 27.3487 29.3142 27.4579 29.3142 27.5919C29.3142 27.7253 29.2056 27.8351 29.071 27.8351Z" fill="black"/>
<path d="M29.071 27.8351H22.0811C21.7902 27.8351 21.5253 27.6854 21.3744 27.4362C21.2224 27.1876 21.2127 26.884 21.3473 26.6251L24.014 21.4993C24.157 21.2247 24.4382 21.054 24.7478 21.054H29.071C29.2056 21.054 29.3142 21.1632 29.3142 21.2972C29.3142 21.4317 29.2056 21.5403 29.071 21.5403H24.7478C24.6205 21.5403 24.504 21.611 24.4455 21.7238L21.7794 26.8496C21.722 26.9583 21.7269 27.0801 21.7902 27.1839C21.8536 27.2889 21.9592 27.3487 22.0811 27.3487H29.071C29.2056 27.3487 29.3142 27.4579 29.3142 27.5919C29.3142 27.7253 29.2056 27.8351 29.071 27.8351Z" stroke-width="0.771429" mask="url(#path-10-outside-8_3021_55924)" fill="black"/>
</g>
</g>
</g>
</g>
</svg>