<?xml version="1.0" ?><svg xmlns="http://www.w3.org/2000/svg" fill="none" viewBox="5.17 5.94 25 24">
<mask id="mask0_4684_37311" style="mask-type:alpha" maskUnits="userSpaceOnUse" x="13" y="20" width="9" height="10">
<path d="M21.165 20.2344H13.165V29.2344H21.165V20.2344Z" fill="white"/>
<path d="M18.186 28.3726C17.067 28.366 16.1203 27.6953 15.7111 26.5968C15.1973 25.2185 14.6896 23.838 14.1878 22.4552C14.1574 22.3583 14.1574 22.2544 14.1878 22.1575C14.268 21.9002 14.3752 21.6514 14.462 21.3953C14.5018 21.2778 14.5614 21.235 14.6898 21.2344C15.1278 21.2344 15.1284 21.226 15.2845 21.6441C15.5183 22.2696 15.7513 22.8955 15.9835 23.5218C16.1299 23.9129 16.3095 23.9701 16.6464 23.7327C17.5364 23.1 18.6674 23.0699 19.5713 23.6586C20.006 23.9414 20.3447 24.3493 20.5429 24.8286C20.741 25.3078 20.7893 25.8359 20.6813 26.3431C20.4746 27.3645 19.6388 28.1581 18.5722 28.3419C18.4427 28.3636 18.3137 28.363 18.186 28.3726ZM18.157 27.4615C18.4838 27.461 18.8032 27.3638 19.0748 27.1821C19.3465 27.0005 19.5582 26.7424 19.6835 26.4406C19.8087 26.1388 19.8418 25.8066 19.7786 25.486C19.7154 25.1654 19.5587 24.8706 19.3282 24.6389C19.0978 24.4072 18.8039 24.2489 18.4836 24.1839C18.1634 24.119 17.831 24.1503 17.5285 24.2739C17.226 24.3975 16.9668 24.6079 16.7837 24.8785C16.6005 25.1492 16.5016 25.468 16.4993 25.7947C16.4975 26.0134 16.539 26.2302 16.6216 26.4327C16.7041 26.6351 16.826 26.8192 16.9802 26.9742C17.1344 27.1292 17.3178 27.2521 17.5198 27.3358C17.7218 27.4194 17.9384 27.4621 18.157 27.4615Z" fill="black"/>
</mask>
<g mask="url(#mask0_4684_37311)">
<path d="M18.186 28.3726C17.067 28.366 16.1203 27.6953 15.7111 26.5968C15.1973 25.2185 14.6896 23.838 14.1878 22.4552C14.1574 22.3583 14.1574 22.2544 14.1878 22.1575C14.268 21.9002 14.3752 21.6514 14.462 21.3953C14.5018 21.2778 14.5614 21.235 14.6898 21.2344C15.1278 21.2344 15.1284 21.226 15.2845 21.6441C15.5183 22.2696 15.7513 22.8955 15.9835 23.5218C16.1299 23.9129 16.3095 23.9701 16.6464 23.7327C17.5364 23.1 18.6674 23.0699 19.5713 23.6586C20.006 23.9414 20.3447 24.3493 20.5429 24.8286C20.741 25.3078 20.7893 25.8359 20.6813 26.3431C20.4746 27.3645 19.6388 28.1581 18.5722 28.3419C18.4427 28.3636 18.3137 28.363 18.186 28.3726ZM18.157 27.4615C18.4838 27.461 18.8032 27.3638 19.0748 27.1821C19.3465 27.0005 19.5582 26.7424 19.6835 26.4406C19.8087 26.1388 19.8418 25.8066 19.7786 25.486C19.7154 25.1654 19.5587 24.8706 19.3282 24.6389C19.0978 24.4072 18.8039 24.2489 18.4836 24.1839C18.1634 24.119 17.831 24.1503 17.5285 24.2739C17.226 24.3975 16.9668 24.6079 16.7837 24.8785C16.6005 25.1492 16.5016 25.468 16.4993 25.7947C16.4975 26.0134 16.539 26.2302 16.6216 26.4327C16.7041 26.6351 16.826 26.8192 16.9802 26.9742C17.1344 27.1292 17.3178 27.2521 17.5198 27.3358C17.7218 27.4194 17.9384 27.4621 18.157 27.4615Z" fill="black"/>
</g>
<mask id="mask1_4684_37311" style="mask-type:alpha" maskUnits="userSpaceOnUse" x="5" y="5" width="26" height="25">
<path d="M30.1709 5.94287H5.1709V29.9429H30.1709V5.94287Z" fill="white"/>
<path d="M29.3125 20.598C29.1058 21.0928 28.731 21.2476 28.2032 21.2458C24.1905 21.2313 20.1779 21.238 16.1647 21.238H15.8321C16.0575 21.8454 16.275 22.4317 16.4775 22.9752C16.9155 22.8511 17.3313 22.6872 17.7628 22.6185C19.4566 22.3467 21.1674 23.6688 21.359 25.3705C21.5717 27.2614 20.3033 28.8299 18.4106 29.0173C17.065 29.1499 15.6772 28.2942 15.162 26.974C14.7221 25.8489 14.3184 24.7095 13.9014 23.576C13.8683 23.4868 13.8327 23.3952 13.7809 23.2705C13.7363 23.3808 13.7044 23.4549 13.676 23.5308C13.2687 24.6365 12.8734 25.7465 12.4522 26.845C11.9792 28.0803 11.0783 28.8185 9.7617 28.9926C8.07446 29.2156 6.51136 28.0381 6.2179 26.3599C6.2052 26.3029 6.18951 26.2466 6.1709 26.1912V25.4253C6.18895 25.3773 6.20385 25.3282 6.21549 25.2783C6.50051 23.5579 8.12267 22.36 9.84727 22.6269C10.2618 22.6914 10.6607 22.8559 11.0831 22.9788C11.2868 22.4305 11.5025 21.8504 11.7303 21.2386H11.4585C10.3365 21.2386 9.21395 21.2386 8.09194 21.2386C7.53816 21.2386 7.18264 20.8915 7.18204 20.3383C7.17842 16.9775 7.17842 13.6169 7.18204 10.2565C7.18204 9.7021 7.53395 9.36104 8.08591 9.3526C8.28718 9.34898 8.48784 9.3526 8.69211 9.3526C8.69211 9.23208 8.69211 9.1423 8.69211 9.05131C8.687 8.61276 8.81398 8.18282 9.05654 7.81742C9.2991 7.45202 9.64601 7.16808 10.0521 7.00252C10.3534 6.882 10.4902 6.94226 10.6071 7.25139C10.8481 7.8835 11.0892 8.51682 11.3145 9.15073C11.3681 9.29897 11.435 9.35863 11.6013 9.35802C13.0548 9.35079 14.5084 9.35079 15.9623 9.35802C16.1328 9.35802 16.1961 9.29294 16.2485 9.14772C16.4835 8.49814 16.7245 7.85096 16.9716 7.20619C17.0668 6.95492 17.2229 6.88743 17.4705 6.98685C18.1334 7.2538 18.5823 7.72924 18.7757 8.41438C18.8577 8.70603 18.8637 9.01696 18.9083 9.35381H19.1686C22.1815 9.35381 25.1944 9.36164 28.2074 9.34597C28.7346 9.34597 29.1112 9.49903 29.3119 10.0004L29.3131 19.9448C29.201 20.084 29.0823 20.2076 28.878 20.1322C28.6738 20.0569 28.6611 19.8912 28.6611 19.7068C28.6611 17.4375 28.6599 12.6628 28.6599 10.3927C28.6599 10.0275 28.6292 9.99737 28.2604 9.99737H18.6612C17.3645 13.5213 16.0671 17.044 14.7613 20.5926H28.2592C28.6286 20.5926 28.6611 20.5607 28.6617 20.1973C28.6617 19.9719 28.6617 19.7466 28.6617 19.5212C28.6617 19.3404 28.678 19.1711 28.8811 19.0994C29.0841 19.0277 29.2053 19.1482 29.3137 19.2916L29.3125 20.598ZM13.2789 10.01C13.191 10.0052 13.1253 9.99797 13.059 9.99797H8.17811C7.87682 9.99797 7.83946 10.0353 7.83946 10.3348V20.2594C7.83946 20.5432 7.88585 20.5914 8.16244 20.592C9.36761 20.592 10.5727 20.589 11.7779 20.5962C11.9352 20.5962 11.9979 20.5426 12.0497 20.4016C12.4347 19.3513 12.833 18.3052 13.2169 17.2555C13.2581 17.1355 13.2784 17.0094 13.2771 16.8825C13.2814 15.5966 13.2771 14.3113 13.2802 13.026C13.2802 12.7494 13.3952 12.6005 13.6019 12.5951C13.8086 12.5897 13.9388 12.7445 13.9394 13.032C13.9394 13.4538 13.9394 13.8756 13.9394 14.2974V15.185L13.99 15.1941C14.6328 13.4707 15.2765 11.7443 15.9213 10.0148H13.9394C13.9394 10.2836 13.9424 10.5385 13.9394 10.7928C13.9364 11.0471 13.808 11.1923 13.6061 11.1899C13.4043 11.1875 13.2838 11.0404 13.2808 10.7855C13.2777 10.5307 13.2789 10.2758 13.2789 10.01ZM17.4765 7.72803C17.4434 7.81239 17.4097 7.89435 17.3789 7.9775L11.5869 23.5049C11.4308 23.9225 11.2639 23.9707 10.8975 23.7146C10.6007 23.4995 10.2607 23.3515 9.90105 23.2807C9.54137 23.21 9.17062 23.2182 8.81444 23.3048C7.52973 23.5941 6.69816 24.8041 6.85182 26.1478C6.99463 27.3934 8.1052 28.3653 9.38569 28.3641C10.5185 28.3641 11.4525 27.6826 11.8719 26.5455C13.6025 21.8454 15.3328 17.147 17.0626 12.4505C17.4151 11.4924 17.7718 10.5355 18.1165 9.57495C18.3774 8.84824 18.1044 8.06186 17.4765 7.72803ZM18.1858 28.3726C18.3135 28.3629 18.4425 28.3635 18.5678 28.3418C19.6362 28.1611 20.472 27.3645 20.6769 26.3431C20.7849 25.8359 20.7367 25.3078 20.5385 24.8286C20.3404 24.3493 20.0016 23.9414 19.5669 23.6586C18.663 23.071 17.532 23.1 16.642 23.7327C16.3081 23.9701 16.1286 23.9134 15.9791 23.5218C15.7457 22.8963 15.5127 22.2704 15.2801 21.6441C15.1241 21.2259 15.1235 21.2319 14.6854 21.2344C14.557 21.2344 14.4974 21.2777 14.4576 21.3952C14.3708 21.6513 14.2636 21.9002 14.1834 22.1575C14.153 22.2544 14.153 22.3583 14.1834 22.4552C14.6888 23.8379 15.198 25.2184 15.711 26.5968C16.1201 27.6953 17.0668 28.3659 18.1858 28.3726ZM10.6963 9.34838C10.4872 8.78798 10.2907 8.26373 10.0937 7.73105C9.59177 7.9775 9.23263 8.70904 9.35676 9.21702C9.36942 9.26703 9.43329 9.34175 9.47728 9.34236C9.87017 9.352 10.2654 9.34838 10.6963 9.34838Z" fill="black"/>
</mask>
<g mask="url(#mask1_4684_37311)">
<path d="M29.3125 20.598C29.1058 21.0928 28.731 21.2476 28.2032 21.2458C24.1905 21.2313 20.1779 21.238 16.1647 21.238H15.8321C16.0575 21.8454 16.275 22.4317 16.4775 22.9752C16.9155 22.8511 17.3313 22.6872 17.7628 22.6185C19.4566 22.3467 21.1674 23.6688 21.359 25.3705C21.5717 27.2614 20.3033 28.8299 18.4106 29.0173C17.065 29.1499 15.6772 28.2942 15.162 26.974C14.7221 25.8489 14.3184 24.7095 13.9014 23.576C13.8683 23.4868 13.8327 23.3952 13.7809 23.2705C13.7363 23.3808 13.7044 23.4549 13.676 23.5308C13.2687 24.6365 12.8734 25.7465 12.4522 26.845C11.9792 28.0803 11.0783 28.8185 9.7617 28.9926C8.07446 29.2156 6.51136 28.0381 6.2179 26.3599C6.2052 26.3029 6.18951 26.2466 6.1709 26.1912V25.4253C6.18895 25.3773 6.20385 25.3282 6.21549 25.2783C6.50051 23.5579 8.12267 22.36 9.84727 22.6269C10.2618 22.6914 10.6607 22.8559 11.0831 22.9788C11.2868 22.4305 11.5025 21.8504 11.7303 21.2386H11.4585C10.3365 21.2386 9.21395 21.2386 8.09194 21.2386C7.53816 21.2386 7.18264 20.8915 7.18204 20.3383C7.17842 16.9775 7.17842 13.6169 7.18204 10.2565C7.18204 9.7021 7.53395 9.36104 8.08591 9.3526C8.28718 9.34898 8.48784 9.3526 8.69211 9.3526C8.69211 9.23208 8.69211 9.1423 8.69211 9.05131C8.687 8.61276 8.81398 8.18282 9.05654 7.81742C9.2991 7.45202 9.64601 7.16808 10.0521 7.00252C10.3534 6.882 10.4902 6.94226 10.6071 7.25139C10.8481 7.8835 11.0892 8.51682 11.3145 9.15073C11.3681 9.29897 11.435 9.35863 11.6013 9.35802C13.0548 9.35079 14.5084 9.35079 15.9623 9.35802C16.1328 9.35802 16.1961 9.29294 16.2485 9.14772C16.4835 8.49814 16.7245 7.85096 16.9716 7.20619C17.0668 6.95492 17.2229 6.88743 17.4705 6.98685C18.1334 7.2538 18.5823 7.72924 18.7757 8.41438C18.8577 8.70603 18.8637 9.01696 18.9083 9.35381H19.1686C22.1815 9.35381 25.1944 9.36164 28.2074 9.34597C28.7346 9.34597 29.1112 9.49903 29.3119 10.0004L29.3131 19.9448C29.201 20.084 29.0823 20.2076 28.878 20.1322C28.6738 20.0569 28.6611 19.8912 28.6611 19.7068C28.6611 17.4375 28.6599 12.6628 28.6599 10.3927C28.6599 10.0275 28.6292 9.99737 28.2604 9.99737H18.6612C17.3645 13.5213 16.0671 17.044 14.7613 20.5926H28.2592C28.6286 20.5926 28.6611 20.5607 28.6617 20.1973C28.6617 19.9719 28.6617 19.7466 28.6617 19.5212C28.6617 19.3404 28.678 19.1711 28.8811 19.0994C29.0841 19.0277 29.2053 19.1482 29.3137 19.2916L29.3125 20.598ZM13.2789 10.01C13.191 10.0052 13.1253 9.99797 13.059 9.99797H8.17811C7.87682 9.99797 7.83946 10.0353 7.83946 10.3348V20.2594C7.83946 20.5432 7.88585 20.5914 8.16244 20.592C9.36761 20.592 10.5727 20.589 11.7779 20.5962C11.9352 20.5962 11.9979 20.5426 12.0497 20.4016C12.4347 19.3513 12.833 18.3052 13.2169 17.2555C13.2581 17.1355 13.2784 17.0094 13.2771 16.8825C13.2814 15.5966 13.2771 14.3113 13.2802 13.026C13.2802 12.7494 13.3952 12.6005 13.6019 12.5951C13.8086 12.5897 13.9388 12.7445 13.9394 13.032C13.9394 13.4538 13.9394 13.8756 13.9394 14.2974V15.185L13.99 15.1941C14.6328 13.4707 15.2765 11.7443 15.9213 10.0148H13.9394C13.9394 10.2836 13.9424 10.5385 13.9394 10.7928C13.9364 11.0471 13.808 11.1923 13.6061 11.1899C13.4043 11.1875 13.2838 11.0404 13.2808 10.7855C13.2777 10.5307 13.2789 10.2758 13.2789 10.01ZM17.4765 7.72803C17.4434 7.81239 17.4097 7.89435 17.3789 7.9775L11.5869 23.5049C11.4308 23.9225 11.2639 23.9707 10.8975 23.7146C10.6007 23.4995 10.2607 23.3515 9.90105 23.2807C9.54137 23.21 9.17062 23.2182 8.81444 23.3048C7.52973 23.5941 6.69816 24.8041 6.85182 26.1478C6.99463 27.3934 8.1052 28.3653 9.38569 28.3641C10.5185 28.3641 11.4525 27.6826 11.8719 26.5455C13.6025 21.8454 15.3328 17.147 17.0626 12.4505C17.4151 11.4924 17.7718 10.5355 18.1165 9.57495C18.3774 8.84824 18.1044 8.06186 17.4765 7.72803ZM18.1858 28.3726C18.3135 28.3629 18.4425 28.3635 18.5678 28.3418C19.6362 28.1611 20.472 27.3645 20.6769 26.3431C20.7849 25.8359 20.7367 25.3078 20.5385 24.8286C20.3404 24.3493 20.0016 23.9414 19.5669 23.6586C18.663 23.071 17.532 23.1 16.642 23.7327C16.3081 23.9701 16.1286 23.9134 15.9791 23.5218C15.7457 22.8963 15.5127 22.2704 15.2801 21.6441C15.1241 21.2259 15.1235 21.2319 14.6854 21.2344C14.557 21.2344 14.4974 21.2777 14.4576 21.3952C14.3708 21.6513 14.2636 21.9002 14.1834 22.1575C14.153 22.2544 14.153 22.3583 14.1834 22.4552C14.6888 23.8379 15.198 25.2184 15.711 26.5968C16.1201 27.6953 17.0668 28.3659 18.1858 28.3726ZM10.6963 9.34838C10.4872 8.78798 10.2907 8.26373 10.0937 7.73105C9.59177 7.9775 9.23263 8.70904 9.35676 9.21702C9.36942 9.26703 9.43329 9.34175 9.47728 9.34236C9.87017 9.352 10.2654 9.34838 10.6963 9.34838Z" fill="black"/>
</g>
<mask id="mask2_4684_37311" style="mask-type:alpha" maskUnits="userSpaceOnUse" x="5" y="6" width="14" height="23">
<path d="M18.8331 6.72803H5.83301V28.728H18.8331V6.72803Z" fill="white"/>
<path d="M17.4761 7.72803C18.104 8.06186 18.3769 8.84823 18.116 9.57676C17.7713 10.5373 17.4146 11.4942 17.0621 12.4523C15.3319 17.1524 13.6017 21.8508 11.8714 26.5473C11.4496 27.6844 10.518 28.3647 9.38511 28.3659C8.10461 28.3659 6.99405 27.3952 6.85124 26.1496C6.69758 24.8059 7.52915 23.5959 8.81386 23.3066C9.17004 23.22 9.54079 23.2118 9.90047 23.2825C10.2602 23.3533 10.6002 23.5013 10.8971 23.7164C11.2634 23.9725 11.4303 23.9243 11.5864 23.5067L17.3809 7.9775C17.4092 7.89434 17.4411 7.81239 17.4761 7.72803ZM11.061 25.8146C11.0634 25.5962 11.0223 25.3794 10.94 25.177C10.8578 24.9746 10.7361 24.7907 10.582 24.6358C10.4279 24.4809 10.2446 24.3583 10.0426 24.275C9.84057 24.1918 9.62404 24.1496 9.40559 24.1509C8.96658 24.1485 8.54463 24.3207 8.23256 24.6295C7.92049 24.9383 7.74387 25.3584 7.74156 25.7974C7.73924 26.2364 7.91141 26.6584 8.2202 26.9705C8.52899 27.2825 8.94911 27.4591 9.38812 27.4615C9.60649 27.4647 9.82333 27.4244 10.0261 27.3431C10.2288 27.2618 10.4133 27.141 10.5689 26.9878C10.7246 26.8346 10.8482 26.652 10.9327 26.4506C11.0171 26.2492 11.0607 26.033 11.061 25.8146Z" fill="black"/>
</mask>
<g mask="url(#mask2_4684_37311)">
</g>
<mask id="mask3_4684_37311" style="mask-type:alpha" maskUnits="userSpaceOnUse" x="8" y="6" width="4" height="4">
<path d="M11.3295 6.73108H8.32959V9.73108H11.3295V6.73108Z" fill="white"/>
<path d="M10.6962 9.34842C10.2654 9.34842 9.87009 9.35203 9.47479 9.34239C9.43321 9.34239 9.36934 9.26707 9.35428 9.21705C9.23014 8.70907 9.58928 7.97754 10.0912 7.73108C10.2907 8.25955 10.4871 8.78801 10.6962 9.34842Z" fill="black"/>
</mask>
<g mask="url(#mask3_4684_37311)">
</g>
<mask id="mask4_4684_37311" style="mask-type:alpha" maskUnits="userSpaceOnUse" x="6" y="23" width="6" height="6">
<path d="M11.7417 23.1509H6.7417V28.1509H11.7417V23.1509Z" fill="white"/>
<path d="M11.0611 25.8146C11.0609 26.033 11.0173 26.2492 10.9328 26.4506C10.8484 26.652 10.7247 26.8346 10.5691 26.9879C10.4135 27.1411 10.2289 27.2619 10.0262 27.3432C9.82348 27.4245 9.60665 27.4647 9.38828 27.4615C8.94927 27.4592 8.52915 27.2826 8.22036 26.9705C7.91157 26.6584 7.7394 26.2365 7.74172 25.7975C7.74403 25.3585 7.92065 24.9383 8.23272 24.6296C8.54479 24.3208 8.96674 24.1486 9.40575 24.1509C9.6242 24.1496 9.84073 24.1918 10.0427 24.2751C10.2447 24.3583 10.4281 24.481 10.5822 24.6358C10.7362 24.7907 10.8579 24.9747 10.9402 25.1771C11.0224 25.3795 11.0635 25.5962 11.0611 25.8146ZM9.41298 24.7957C9.14513 24.7944 8.88775 24.8996 8.69744 25.0881C8.50714 25.2766 8.39951 25.5329 8.39823 25.8008C8.39695 26.0686 8.50213 26.326 8.69063 26.5163C8.87912 26.7066 9.13549 26.8143 9.40334 26.8155C9.67119 26.8168 9.92858 26.7116 10.1189 26.5231C10.3092 26.3346 10.4169 26.0783 10.4181 25.8104C10.4194 25.5426 10.3142 25.2852 10.1258 25.0949C9.93721 24.9046 9.68083 24.797 9.41298 24.7957Z" fill="black"/>
</mask>
<g mask="url(#mask4_4684_37311)">
<path d="M11.0615 25.8146C11.0613 26.033 11.0177 26.2492 10.9332 26.4506C10.8488 26.652 10.7251 26.8346 10.5695 26.9879C10.4139 27.1411 10.2293 27.2619 10.0266 27.3432C9.82397 27.4245 9.60714 27.4647 9.38877 27.4615C8.94976 27.4592 8.52964 27.2826 8.22085 26.9705C7.91206 26.6584 7.73989 26.2365 7.74221 25.7975C7.74452 25.3585 7.92114 24.9383 8.23321 24.6296C8.54528 24.3208 8.96723 24.1486 9.40624 24.1509C9.62469 24.1496 9.84122 24.1918 10.0431 24.2751C10.2451 24.3583 10.4285 24.481 10.5826 24.6358C10.7366 24.7907 10.8583 24.9747 10.9406 25.1771C11.0228 25.3795 11.0639 25.5962 11.0615 25.8146ZM9.41347 24.7957C9.14562 24.7944 8.88824 24.8996 8.69793 25.0881C8.50763 25.2766 8.4 25.5329 8.39872 25.8008C8.39744 26.0686 8.50262 26.326 8.69112 26.5163C8.87961 26.7066 9.13598 26.8143 9.40383 26.8155C9.67168 26.8168 9.92907 26.7116 10.1193 26.5231C10.3096 26.3346 10.4173 26.0783 10.4185 25.8104C10.4198 25.5426 10.3146 25.2852 10.1262 25.0949C9.9377 24.9046 9.68132 24.797 9.41347 24.7957Z" fill="black"/>
</g>
<mask id="mask5_4684_37311" style="mask-type:alpha" maskUnits="userSpaceOnUse" x="15" y="23" width="6" height="6">
<path d="M20.5117 23.1509H15.5117V28.1509H20.5117V23.1509Z" fill="white"/>
<path d="M18.1568 27.4614C17.8299 27.4594 17.5109 27.3607 17.2401 27.1776C16.9692 26.9945 16.7586 26.7354 16.6349 26.4328C16.5111 26.1302 16.4798 25.7978 16.5447 25.4774C16.6096 25.157 16.7679 24.863 16.9997 24.6325C17.2315 24.402 17.5263 24.2453 17.8471 24.1821C18.1678 24.1189 18.5001 24.1521 18.802 24.2775C19.1039 24.4029 19.3619 24.6149 19.5434 24.8867C19.725 25.1585 19.8221 25.478 19.8223 25.8049C19.8225 26.0233 19.7794 26.2395 19.6957 26.4411C19.6119 26.6428 19.4891 26.8259 19.3343 26.9798C19.1795 27.1338 18.9957 27.2556 18.7936 27.3383C18.5915 27.4209 18.3751 27.4628 18.1568 27.4614ZM17.1535 25.7977C17.1518 25.9976 17.2095 26.1935 17.3193 26.3606C17.4291 26.5276 17.5861 26.6583 17.7702 26.736C17.9544 26.8138 18.1575 26.8351 18.3538 26.7972C18.5501 26.7594 18.7307 26.6641 18.8728 26.5235C19.0149 26.3828 19.112 26.2032 19.1518 26.0073C19.1917 25.8114 19.1724 25.6081 19.0966 25.4231C19.0207 25.2382 18.8916 25.0799 18.7257 24.9684C18.5598 24.8569 18.3645 24.7972 18.1646 24.7968C17.8982 24.797 17.6427 24.9021 17.4534 25.0895C17.2641 25.2769 17.1563 25.5314 17.1535 25.7977Z" fill="black"/>
</mask>
<g mask="url(#mask5_4684_37311)">
<path d="M18.1568 27.4614C17.8299 27.4594 17.5109 27.3607 17.2401 27.1776C16.9692 26.9945 16.7586 26.7354 16.6349 26.4328C16.5111 26.1302 16.4798 25.7978 16.5447 25.4774C16.6096 25.157 16.7679 24.863 16.9997 24.6325C17.2315 24.402 17.5263 24.2453 17.8471 24.1821C18.1678 24.1189 18.5001 24.1521 18.802 24.2775C19.1039 24.4029 19.3619 24.6149 19.5434 24.8867C19.725 25.1585 19.8221 25.478 19.8223 25.8049C19.8225 26.0233 19.7794 26.2395 19.6957 26.4411C19.6119 26.6428 19.4891 26.8259 19.3343 26.9798C19.1795 27.1338 18.9957 27.2556 18.7936 27.3383C18.5915 27.4209 18.3751 27.4628 18.1568 27.4614ZM17.1535 25.7977C17.1518 25.9976 17.2095 26.1935 17.3193 26.3606C17.4291 26.5276 17.5861 26.6583 17.7702 26.736C17.9544 26.8138 18.1575 26.8351 18.3538 26.7972C18.5501 26.7594 18.7307 26.6641 18.8728 26.5235C19.0149 26.3828 19.112 26.2032 19.1518 26.0073C19.1917 25.8114 19.1724 25.6081 19.0966 25.4231C19.0207 25.2382 18.8916 25.0799 18.7257 24.9684C18.5598 24.8569 18.3645 24.7972 18.1646 24.7968C17.8982 24.797 17.6427 24.9021 17.4534 25.0895C17.2641 25.2769 17.1563 25.5314 17.1535 25.7977Z" fill="black"/>
</g>
<mask id="mask6_4684_37311" style="mask-type:alpha" maskUnits="userSpaceOnUse" x="20" y="12" width="5" height="6">
<path d="M24.0425 12.7755H20.0425V17.7755H24.0425V12.7755Z" fill="white"/>
<path d="M23.2081 17.282C23.1731 17.2506 23.1002 17.1892 23.0333 17.1211C23.014 17.1024 23.0134 17.0656 23.0044 17.0373C22.8459 16.5293 22.8459 16.5293 22.3277 16.5293C21.7992 16.5293 21.792 16.5293 21.6401 17.05C21.5799 17.2578 21.4636 17.3133 21.2714 17.2639C21.0791 17.2145 21.002 17.0933 21.0629 16.8933C21.3527 15.946 21.6492 15.0012 21.9354 14.0539C21.9957 13.8538 22.1234 13.7773 22.3175 13.7755C22.5229 13.7755 22.6543 13.8575 22.7164 14.0642C22.9821 14.9481 23.2551 15.8291 23.5256 16.7113C23.5431 16.7716 23.56 16.8264 23.5769 16.8842C23.6437 17.1174 23.528 17.2747 23.2081 17.282ZM22.3428 14.7511L22.2976 14.7595L21.9318 16.0177H22.7115L22.3428 14.7511Z" fill="black"/>
</mask>
<g mask="url(#mask6_4684_37311)">
<path d="M23.2081 17.282C23.1731 17.2506 23.1002 17.1892 23.0333 17.1211C23.014 17.1024 23.0134 17.0656 23.0044 17.0373C22.8459 16.5293 22.8459 16.5293 22.3277 16.5293C21.7992 16.5293 21.792 16.5293 21.6401 17.05C21.5799 17.2578 21.4636 17.3133 21.2714 17.2639C21.0791 17.2145 21.002 17.0933 21.0629 16.8933C21.3527 15.946 21.6492 15.0012 21.9354 14.0539C21.9957 13.8538 22.1234 13.7773 22.3175 13.7755C22.5229 13.7755 22.6543 13.8575 22.7164 14.0642C22.9821 14.9481 23.2551 15.8291 23.5256 16.7113C23.5431 16.7716 23.56 16.8264 23.5769 16.8842C23.6437 17.1174 23.528 17.2747 23.2081 17.282ZM22.3428 14.7511L22.2976 14.7595L21.9318 16.0177H22.7115L22.3428 14.7511Z" fill="black"/>
<path d="M23.2081 17.282C23.1731 17.2506 23.1002 17.1892 23.0333 17.1211C23.014 17.1024 23.0134 17.0656 23.0044 17.0373C22.8459 16.5293 22.8459 16.5293 22.3277 16.5293C21.7992 16.5293 21.792 16.5293 21.6401 17.05C21.5799 17.2578 21.4636 17.3133 21.2714 17.2639C21.0791 17.2145 21.002 17.0933 21.0629 16.8933C21.3527 15.946 21.6492 15.0012 21.9354 14.0539C21.9957 13.8538 22.1234 13.7773 22.3175 13.7755C22.5229 13.7755 22.6543 13.8575 22.7164 14.0642C22.9821 14.9481 23.2551 15.8291 23.5256 16.7113C23.5431 16.7716 23.56 16.8264 23.5769 16.8842C23.6437 17.1174 23.528 17.2747 23.2081 17.282ZM22.3428 14.7511L22.2976 14.7595L21.9318 16.0177H22.7115L22.3428 14.7511Z" stroke-width="0.308571" fill="black"/>
</g>
<mask id="mask7_4684_37311" style="mask-type:alpha" maskUnits="userSpaceOnUse" x="24" y="12" width="5" height="6">
<path d="M28.0659 12.782H24.0659V17.782H28.0659V12.782Z" fill="white"/>
<path d="M26.2586 16.0142C26.0489 16.3944 25.8615 16.7373 25.6717 17.0765C25.5409 17.311 25.4156 17.3537 25.2192 17.238C25.0384 17.1314 25.0191 17.0103 25.1529 16.7801C25.3638 16.4185 25.5747 16.0516 25.7922 15.6954C25.8245 15.652 25.8422 15.5995 25.8429 15.5454C25.8435 15.4913 25.8271 15.4383 25.7958 15.3941C25.5771 15.0211 25.3662 14.6469 25.1553 14.2745C25.0318 14.0552 25.054 13.9341 25.2282 13.8377C25.4162 13.7328 25.5614 13.7738 25.6771 13.9799C25.8706 14.3251 26.0561 14.6746 26.258 15.047C26.4665 14.668 26.6557 14.3185 26.8504 13.972C26.9594 13.7786 27.0992 13.737 27.2812 13.8322C27.4535 13.9214 27.4891 14.0504 27.38 14.245C27.1673 14.6258 26.954 15.0055 26.7298 15.3791C26.6952 15.4262 26.6768 15.4833 26.6774 15.5418C26.6781 15.6003 26.6977 15.6569 26.7335 15.7033C26.9588 16.0648 27.1709 16.439 27.3848 16.8102C27.5054 17.0193 27.4776 17.1434 27.2957 17.2441C27.1137 17.3447 26.9859 17.311 26.8702 17.1079C26.6702 16.756 26.4743 16.4011 26.2586 16.0142Z" fill="black"/>
</mask>
<g mask="url(#mask7_4684_37311)">
<path d="M26.2586 16.0142C26.0489 16.3944 25.8615 16.7373 25.6717 17.0765C25.5409 17.311 25.4156 17.3537 25.2192 17.238C25.0384 17.1314 25.0191 17.0103 25.1529 16.7801C25.3638 16.4185 25.5747 16.0516 25.7922 15.6954C25.8245 15.652 25.8422 15.5995 25.8429 15.5454C25.8435 15.4913 25.8271 15.4383 25.7958 15.3941C25.5771 15.0211 25.3662 14.6469 25.1553 14.2745C25.0318 14.0552 25.054 13.9341 25.2282 13.8377C25.4162 13.7328 25.5614 13.7738 25.6771 13.9799C25.8706 14.3251 26.0561 14.6746 26.258 15.047C26.4665 14.668 26.6557 14.3185 26.8504 13.972C26.9594 13.7786 27.0992 13.737 27.2812 13.8322C27.4535 13.9214 27.4891 14.0504 27.38 14.245C27.1673 14.6258 26.954 15.0055 26.7298 15.3791C26.6952 15.4262 26.6768 15.4833 26.6774 15.5418C26.6781 15.6003 26.6977 15.6569 26.7335 15.7033C26.9588 16.0648 27.1709 16.439 27.3848 16.8102C27.5054 17.0193 27.4776 17.1434 27.2957 17.2441C27.1137 17.3447 26.9859 17.311 26.8702 17.1079C26.6702 16.756 26.4743 16.4011 26.2586 16.0142Z" fill="black"/>
<path d="M26.2586 16.0142C26.0489 16.3944 25.8615 16.7373 25.6717 17.0765C25.5409 17.311 25.4156 17.3537 25.2192 17.238C25.0384 17.1314 25.0191 17.0103 25.1529 16.7801C25.3638 16.4185 25.5747 16.0516 25.7922 15.6954C25.8245 15.652 25.8422 15.5995 25.8429 15.5454C25.8435 15.4913 25.8271 15.4383 25.7958 15.3941C25.5771 15.0211 25.3662 14.6469 25.1553 14.2745C25.0318 14.0552 25.054 13.9341 25.2282 13.8377C25.4162 13.7328 25.5614 13.7738 25.6771 13.9799C25.8706 14.3251 26.0561 14.6746 26.258 15.047C26.4665 14.668 26.6557 14.3185 26.8504 13.972C26.9594 13.7786 27.0992 13.737 27.2812 13.8322C27.4535 13.9214 27.4891 14.0504 27.38 14.245C27.1673 14.6258 26.954 15.0055 26.7298 15.3791C26.6952 15.4262 26.6768 15.4833 26.6774 15.5418C26.6781 15.6003 26.6977 15.6569 26.7335 15.7033C26.9588 16.0648 27.1709 16.439 27.3848 16.8102C27.5054 17.0193 27.4776 17.1434 27.2957 17.2441C27.1137 17.3447 26.9859 17.311 26.8702 17.1079C26.6702 16.756 26.4743 16.4011 26.2586 16.0142Z" stroke-width="0.308571" fill="black"/>
</g>
<mask id="mask8_4684_37311" style="mask-type:alpha" maskUnits="userSpaceOnUse" x="16" y="12" width="5" height="6">
<path d="M20.7441 12.7917H16.7441V17.7917H20.7441V12.7917Z" fill="white"/>
<path d="M19.2235 14.3769V15.2374C19.2235 15.8158 19.2235 16.3949 19.2235 16.974C19.2235 17.1867 19.1265 17.2801 18.9222 17.2819C18.7179 17.2837 18.6251 17.1934 18.6209 16.977C18.6209 16.2021 18.6209 15.4278 18.6209 14.6535V14.3522C18.4154 14.3522 18.2304 14.3492 18.0454 14.3522C17.8514 14.3564 17.7441 14.269 17.7441 14.0738C17.7441 13.8785 17.8478 13.7906 18.0454 13.7918C18.6251 13.7954 19.205 13.7954 19.7851 13.7918C19.9779 13.7918 20.0864 13.8665 20.0924 14.0653C20.0984 14.2642 20.0044 14.3461 19.7761 14.351C19.6182 14.3546 19.4603 14.354 19.3018 14.3564C19.2752 14.3609 19.249 14.3678 19.2235 14.3769Z" fill="black"/>
</mask>
<g mask="url(#mask8_4684_37311)">
<path d="M19.2235 14.3769V15.2374C19.2235 15.8158 19.2235 16.3949 19.2235 16.974C19.2235 17.1867 19.1265 17.2801 18.9222 17.2819C18.7179 17.2837 18.6251 17.1934 18.6209 16.977C18.6209 16.2021 18.6209 15.4278 18.6209 14.6535V14.3522C18.4154 14.3522 18.2304 14.3492 18.0454 14.3522C17.8514 14.3564 17.7441 14.269 17.7441 14.0738C17.7441 13.8785 17.8478 13.7906 18.0454 13.7918C18.6251 13.7954 19.205 13.7954 19.7851 13.7918C19.9779 13.7918 20.0864 13.8665 20.0924 14.0653C20.0984 14.2642 20.0044 14.3461 19.7761 14.351C19.6182 14.3546 19.4603 14.354 19.3018 14.3564C19.2752 14.3609 19.249 14.3678 19.2235 14.3769Z" fill="black"/>
<path d="M19.2235 14.3769V15.2374C19.2235 15.8158 19.2235 16.3949 19.2235 16.974C19.2235 17.1867 19.1265 17.2801 18.9222 17.2819C18.7179 17.2837 18.6251 17.1934 18.6209 16.977C18.6209 16.2021 18.6209 15.4278 18.6209 14.6535V14.3522C18.4154 14.3522 18.2304 14.3492 18.0454 14.3522C17.8514 14.3564 17.7441 14.269 17.7441 14.0738C17.7441 13.8785 17.8478 13.7906 18.0454 13.7918C18.6251 13.7954 19.205 13.7954 19.7851 13.7918C19.9779 13.7918 20.0864 13.8665 20.0924 14.0653C20.0984 14.2642 20.0044 14.3461 19.7761 14.351C19.6182 14.3546 19.4603 14.354 19.3018 14.3564C19.2752 14.3609 19.249 14.3678 19.2235 14.3769Z" stroke-width="0.308571" fill="black"/>
</g>
<mask id="mask9_4684_37311" style="mask-type:alpha" maskUnits="userSpaceOnUse" x="7" y="11" width="6" height="9">
<path d="M12.957 11.4333H7.95703V19.4333H12.957V11.4333Z" fill="white"/>
<path d="M10.9347 18.0756C10.9311 18.1515 10.9515 18.2347 10.919 18.2811C10.863 18.36 10.7792 18.457 10.6973 18.4679C10.637 18.4757 10.505 18.3522 10.5062 18.2871C10.5123 18.087 10.4056 18.081 10.2556 18.0653C9.81934 18.0201 9.41862 17.8846 9.1107 17.5525C8.97873 17.4115 8.91606 17.2512 8.98596 17.0572C9.08479 16.7884 9.28003 16.7402 9.51564 16.9005C9.73884 17.0489 9.96953 17.1857 10.2068 17.3103C10.2797 17.3495 10.3773 17.3428 10.4966 17.3627V16.0852C10.4966 15.6472 10.4966 15.6472 10.1001 15.4826C10.0398 15.4567 9.97541 15.4308 9.91455 15.4013C9.28304 15.094 9.02573 14.6469 9.09985 13.9949C9.16734 13.4013 9.553 12.9964 10.208 12.85C10.3773 12.8132 10.534 12.8072 10.5135 12.5649C10.5105 12.5234 10.6412 12.4281 10.7039 12.4336C10.7804 12.4402 10.8624 12.5161 10.9184 12.5818C10.9491 12.6192 10.9311 12.6969 10.9341 12.7391C11.2474 12.8192 11.5583 12.8741 11.85 12.9801C12.132 13.0832 12.2025 13.2772 12.1001 13.5116C12.0055 13.7285 11.8681 13.7773 11.6463 13.6882C11.4246 13.599 11.2022 13.5218 10.9274 13.4194C10.9274 13.7984 10.9521 14.1196 10.9214 14.4348C10.8847 14.8059 10.9817 15.0078 11.3631 15.1645C12.1591 15.4935 12.4574 16.2359 12.2067 17.0626C12.0482 17.5875 11.6752 17.8809 11.1612 18.0189C11.0895 18.0412 11.0166 18.0563 10.9347 18.0756ZM10.8889 17.3356C11.3161 17.2645 11.5373 17.0126 11.5391 16.6125C11.5398 16.4269 11.4749 16.2471 11.356 16.1046C11.237 15.9622 11.0716 15.8663 10.8889 15.834V17.3356ZM10.5219 13.5188C10.1206 13.5188 9.84947 13.7346 9.82958 14.0575C9.80668 14.4335 10.085 14.7282 10.5219 14.7885V13.5188Z" fill="black"/>
</mask>
<g mask="url(#mask9_4684_37311)">
<path d="M10.9343 18.0756C10.9307 18.1515 10.9511 18.2347 10.9186 18.2811C10.8626 18.36 10.7788 18.457 10.6969 18.4679C10.6366 18.4757 10.5046 18.3522 10.5058 18.2871C10.5119 18.087 10.4052 18.081 10.2552 18.0653C9.81885 18.0201 9.41813 17.8846 9.11021 17.5525C8.97824 17.4115 8.91557 17.2512 8.98547 17.0572C9.0843 16.7884 9.27954 16.7402 9.51515 16.9005C9.73835 17.0489 9.96904 17.1857 10.2064 17.3103C10.2793 17.3495 10.3769 17.3428 10.4962 17.3627V16.0852C10.4962 15.6472 10.4962 15.6472 10.0997 15.4826C10.0394 15.4567 9.97492 15.4308 9.91406 15.4013C9.28255 15.094 9.02524 14.6469 9.09936 13.9949C9.16685 13.4013 9.55251 12.9964 10.2076 12.85C10.3769 12.8132 10.5336 12.8072 10.5131 12.5649C10.5101 12.5234 10.6408 12.4281 10.7035 12.4336C10.78 12.4402 10.862 12.5161 10.918 12.5818C10.9487 12.6192 10.9307 12.6969 10.9337 12.7391C11.247 12.8192 11.5579 12.8741 11.8496 12.9801C12.1316 13.0832 12.2021 13.2772 12.0997 13.5116C12.0051 13.7285 11.8677 13.7773 11.6459 13.6882C11.4242 13.599 11.2018 13.5218 10.927 13.4194C10.927 13.7984 10.9517 14.1196 10.921 14.4348C10.8843 14.8059 10.9813 15.0078 11.3627 15.1645C12.1587 15.4935 12.457 16.2359 12.2063 17.0626C12.0478 17.5875 11.6748 17.8809 11.1608 18.0189C11.0891 18.0412 11.0162 18.0563 10.9343 18.0756ZM10.8885 17.3356C11.3157 17.2645 11.5369 17.0126 11.5387 16.6125C11.5394 16.4269 11.4745 16.2471 11.3556 16.1046C11.2366 15.9622 11.0712 15.8663 10.8885 15.834V17.3356ZM10.5215 13.5188C10.1202 13.5188 9.84898 13.7346 9.82909 14.0575C9.80619 14.4335 10.0846 14.7282 10.5215 14.7885V13.5188Z" fill="black"/>
<path d="M10.9343 18.0756C10.9307 18.1515 10.9511 18.2347 10.9186 18.2811C10.8626 18.36 10.7788 18.457 10.6969 18.4679C10.6366 18.4757 10.5046 18.3522 10.5058 18.2871C10.5119 18.087 10.4052 18.081 10.2552 18.0653C9.81885 18.0201 9.41813 17.8846 9.11021 17.5525C8.97824 17.4115 8.91557 17.2512 8.98547 17.0572C9.0843 16.7884 9.27954 16.7402 9.51515 16.9005C9.73835 17.0489 9.96904 17.1857 10.2064 17.3103C10.2793 17.3495 10.3769 17.3428 10.4962 17.3627V16.0852C10.4962 15.6472 10.4962 15.6472 10.0997 15.4826C10.0394 15.4567 9.97492 15.4308 9.91406 15.4013C9.28255 15.094 9.02524 14.6469 9.09936 13.9949C9.16685 13.4013 9.55251 12.9964 10.2076 12.85C10.3769 12.8132 10.5336 12.8072 10.5131 12.5649C10.5101 12.5234 10.6408 12.4281 10.7035 12.4336C10.78 12.4402 10.862 12.5161 10.918 12.5818C10.9487 12.6192 10.9307 12.6969 10.9337 12.7391C11.247 12.8192 11.5579 12.8741 11.8496 12.9801C12.1316 13.0832 12.2021 13.2772 12.0997 13.5116C12.0051 13.7285 11.8677 13.7773 11.6459 13.6882C11.4242 13.599 11.2018 13.5218 10.927 13.4194C10.927 13.7984 10.9517 14.1196 10.921 14.4348C10.8843 14.8059 10.9813 15.0078 11.3627 15.1645C12.1587 15.4935 12.457 16.2359 12.2063 17.0626C12.0478 17.5875 11.6748 17.8809 11.1608 18.0189C11.0891 18.0412 11.0162 18.0563 10.9343 18.0756ZM10.8885 17.3356C11.3157 17.2645 11.5369 17.0126 11.5387 16.6125C11.5394 16.4269 11.4745 16.2471 11.3556 16.1046C11.2366 15.9622 11.0712 15.8663 10.8885 15.834V17.3356ZM10.5215 13.5188C10.1202 13.5188 9.84898 13.7346 9.82909 14.0575C9.80619 14.4335 10.0846 14.7282 10.5215 14.7885V13.5188Z" stroke-width="0.205714" fill="black"/>
</g>
</svg>