<?xml version="1.0" ?><svg xmlns="http://www.w3.org/2000/svg" fill="none" viewBox="5.17 8.4 25 20">
<g id="bank-account">
<path id="Exclude" fill-rule="evenodd" clip-rule="evenodd" d="M29.1009 14.0361C29.1009 16.6755 26.9613 18.8151 24.3219 18.8151C21.6826 18.8151 19.543 16.6755 19.543 14.0361C19.543 11.3968 21.6826 9.25714 24.3219 9.25714C26.9613 9.25714 29.1009 11.3968 29.1009 14.0361ZM24.9194 11.3479L24.0233 10.7506L23.1273 11.3479V12.8414L24.0233 13.7374L24.9194 13.1401V11.3479ZM22.2308 14.6335H26.1137V16.7243H22.2308V14.6335Z" fill="black"/>
<g id="Group 159072">
<path id="Vector 50" d="M18.3428 15.9758H8.1875V22.5469H18.3428V15.9758Z" fill="black" stroke-width="0.514286"/>
<g id="Group">
<g id="Vector">
<mask id="path-3-outside-1_2562_53806" maskUnits="userSpaceOnUse" x="5.1709" y="8.40057" width="25" height="20" fill="black">
<rect fill="white" x="5.1709" y="8.40057" width="25" height="20"/>
<path d="M23.0186 8.82137C21.2732 9.20873 19.9011 10.3475 19.2337 11.9669C19.0284 12.4663 18.865 13.213 18.865 13.6517V13.9597H12.6113C6.41825 13.9597 6.35758 13.9597 6.26424 14.053C6.1709 14.1464 6.1709 14.2071 6.1709 19.8587C6.1709 25.3331 6.17557 25.5851 6.25957 25.8558C6.47425 26.5418 7.06229 27.1252 7.753 27.3259C7.98168 27.3912 8.89641 27.4006 16.6249 27.4006C24.3534 27.4006 25.2681 27.3912 25.4968 27.3259C26.1875 27.1252 26.7756 26.5418 26.9902 25.8558C27.0742 25.5898 27.0789 25.3751 27.0789 21.9169V18.2673L27.2656 18.1413C27.3683 18.076 27.6063 17.866 27.7976 17.6746C28.563 16.9092 29.053 15.9805 29.2537 14.9071C29.3564 14.3471 29.3237 13.213 29.1837 12.6716C28.717 10.8282 27.2236 9.33474 25.3801 8.86337C24.8248 8.72337 23.5693 8.70003 23.0186 8.82137ZM25.3288 9.68943C26.7756 10.1095 27.919 11.2529 28.367 12.723C28.4883 13.1103 28.4977 13.2083 28.4977 13.9364C28.5023 14.6317 28.4883 14.7764 28.395 15.0984C28.0216 16.3819 27.1862 17.3899 26.0288 17.95C24.2554 18.8133 22.1879 18.4213 20.8298 16.9699C20.3538 16.4565 20.0318 15.8918 19.8124 15.1871C19.7004 14.8138 19.6864 14.7064 19.6864 13.983C19.6818 13.2877 19.6958 13.143 19.7891 12.821C20.0038 12.0836 20.3491 11.4675 20.8485 10.9308C21.9919 9.7081 23.728 9.2274 25.3288 9.68943ZM18.9584 15.0191C19.2804 16.6665 20.4471 18.1086 21.9826 18.7667C22.65 19.056 23.0886 19.1494 23.882 19.1727C24.8201 19.2054 25.4548 19.0887 26.2529 18.7433C26.3275 18.7107 26.3322 18.846 26.3322 21.1888V23.667H16.6249H6.91761V19.1867V14.7064H12.9053H18.893L18.9584 15.0191ZM26.3182 24.9131C26.3042 25.1931 26.2669 25.4964 26.2389 25.5898C26.1175 26.0051 25.6788 26.4392 25.2448 26.5698C24.9601 26.6585 8.2897 26.6585 8.00502 26.5698C7.56165 26.4345 7.13229 26.0145 7.01095 25.5898C6.98295 25.4964 6.94561 25.1931 6.93161 24.9131L6.90361 24.4137H16.6249H26.3462L26.3182 24.9131Z"/>
</mask>
<path d="M23.0186 8.82137C21.2732 9.20873 19.9011 10.3475 19.2337 11.9669C19.0284 12.4663 18.865 13.213 18.865 13.6517V13.9597H12.6113C6.41825 13.9597 6.35758 13.9597 6.26424 14.053C6.1709 14.1464 6.1709 14.2071 6.1709 19.8587C6.1709 25.3331 6.17557 25.5851 6.25957 25.8558C6.47425 26.5418 7.06229 27.1252 7.753 27.3259C7.98168 27.3912 8.89641 27.4006 16.6249 27.4006C24.3534 27.4006 25.2681 27.3912 25.4968 27.3259C26.1875 27.1252 26.7756 26.5418 26.9902 25.8558C27.0742 25.5898 27.0789 25.3751 27.0789 21.9169V18.2673L27.2656 18.1413C27.3683 18.076 27.6063 17.866 27.7976 17.6746C28.563 16.9092 29.053 15.9805 29.2537 14.9071C29.3564 14.3471 29.3237 13.213 29.1837 12.6716C28.717 10.8282 27.2236 9.33474 25.3801 8.86337C24.8248 8.72337 23.5693 8.70003 23.0186 8.82137ZM25.3288 9.68943C26.7756 10.1095 27.919 11.2529 28.367 12.723C28.4883 13.1103 28.4977 13.2083 28.4977 13.9364C28.5023 14.6317 28.4883 14.7764 28.395 15.0984C28.0216 16.3819 27.1862 17.3899 26.0288 17.95C24.2554 18.8133 22.1879 18.4213 20.8298 16.9699C20.3538 16.4565 20.0318 15.8918 19.8124 15.1871C19.7004 14.8138 19.6864 14.7064 19.6864 13.983C19.6818 13.2877 19.6958 13.143 19.7891 12.821C20.0038 12.0836 20.3491 11.4675 20.8485 10.9308C21.9919 9.7081 23.728 9.2274 25.3288 9.68943ZM18.9584 15.0191C19.2804 16.6665 20.4471 18.1086 21.9826 18.7667C22.65 19.056 23.0886 19.1494 23.882 19.1727C24.8201 19.2054 25.4548 19.0887 26.2529 18.7433C26.3275 18.7107 26.3322 18.846 26.3322 21.1888V23.667H16.6249H6.91761V19.1867V14.7064H12.9053H18.893L18.9584 15.0191ZM26.3182 24.9131C26.3042 25.1931 26.2669 25.4964 26.2389 25.5898C26.1175 26.0051 25.6788 26.4392 25.2448 26.5698C24.9601 26.6585 8.2897 26.6585 8.00502 26.5698C7.56165 26.4345 7.13229 26.0145 7.01095 25.5898C6.98295 25.4964 6.94561 25.1931 6.93161 24.9131L6.90361 24.4137H16.6249H26.3462L26.3182 24.9131Z" fill="black"/>
<path d="M23.0186 8.82137C21.2732 9.20873 19.9011 10.3475 19.2337 11.9669C19.0284 12.4663 18.865 13.213 18.865 13.6517V13.9597H12.6113C6.41825 13.9597 6.35758 13.9597 6.26424 14.053C6.1709 14.1464 6.1709 14.2071 6.1709 19.8587C6.1709 25.3331 6.17557 25.5851 6.25957 25.8558C6.47425 26.5418 7.06229 27.1252 7.753 27.3259C7.98168 27.3912 8.89641 27.4006 16.6249 27.4006C24.3534 27.4006 25.2681 27.3912 25.4968 27.3259C26.1875 27.1252 26.7756 26.5418 26.9902 25.8558C27.0742 25.5898 27.0789 25.3751 27.0789 21.9169V18.2673L27.2656 18.1413C27.3683 18.076 27.6063 17.866 27.7976 17.6746C28.563 16.9092 29.053 15.9805 29.2537 14.9071C29.3564 14.3471 29.3237 13.213 29.1837 12.6716C28.717 10.8282 27.2236 9.33474 25.3801 8.86337C24.8248 8.72337 23.5693 8.70003 23.0186 8.82137ZM25.3288 9.68943C26.7756 10.1095 27.919 11.2529 28.367 12.723C28.4883 13.1103 28.4977 13.2083 28.4977 13.9364C28.5023 14.6317 28.4883 14.7764 28.395 15.0984C28.0216 16.3819 27.1862 17.3899 26.0288 17.95C24.2554 18.8133 22.1879 18.4213 20.8298 16.9699C20.3538 16.4565 20.0318 15.8918 19.8124 15.1871C19.7004 14.8138 19.6864 14.7064 19.6864 13.983C19.6818 13.2877 19.6958 13.143 19.7891 12.821C20.0038 12.0836 20.3491 11.4675 20.8485 10.9308C21.9919 9.7081 23.728 9.2274 25.3288 9.68943ZM18.9584 15.0191C19.2804 16.6665 20.4471 18.1086 21.9826 18.7667C22.65 19.056 23.0886 19.1494 23.882 19.1727C24.8201 19.2054 25.4548 19.0887 26.2529 18.7433C26.3275 18.7107 26.3322 18.846 26.3322 21.1888V23.667H16.6249H6.91761V19.1867V14.7064H12.9053H18.893L18.9584 15.0191ZM26.3182 24.9131C26.3042 25.1931 26.2669 25.4964 26.2389 25.5898C26.1175 26.0051 25.6788 26.4392 25.2448 26.5698C24.9601 26.6585 8.2897 26.6585 8.00502 26.5698C7.56165 26.4345 7.13229 26.0145 7.01095 25.5898C6.98295 25.4964 6.94561 25.1931 6.93161 24.9131L6.90361 24.4137H16.6249H26.3462L26.3182 24.9131Z" stroke-width="0.102857" mask="url(#path-3-outside-1_2562_53806)" fill="black"/>
</g>
<g id="Vector_2">
<mask id="path-4-outside-2_2562_53806" maskUnits="userSpaceOnUse" x="20.4785" y="9.94656" width="7" height="8" fill="black">
<rect fill="white" x="20.4785" y="9.94656" width="7" height="8"/>
<path d="M23.4946 10.3241C23.1633 10.4548 22.8226 10.7955 22.6966 11.1362C22.6126 11.3555 22.5986 11.5002 22.5986 12.0929C22.5986 12.6856 22.6126 12.8303 22.6966 13.0496C22.8226 13.3903 23.1633 13.731 23.4946 13.8617L23.742 13.955L23.0186 13.9597C22.2066 13.9644 22.0432 14.0064 21.7725 14.2911C21.5019 14.5804 21.4785 14.6924 21.4785 15.7798C21.4785 16.6992 21.4832 16.7645 21.5719 16.8532C21.6605 16.9419 21.7259 16.9466 24.092 16.9466C26.4582 16.9466 26.5235 16.9419 26.6122 16.8532C26.7009 16.7645 26.7055 16.6992 26.7055 15.7798C26.7055 14.6924 26.6822 14.5804 26.4115 14.2911C26.1408 14.0064 25.9775 13.9644 25.1654 13.9597L24.442 13.955L24.6894 13.8617C25.0207 13.731 25.3614 13.3903 25.4874 13.0496C25.5714 12.8303 25.5854 12.6856 25.5854 12.0929C25.5854 11.2389 25.5154 11.0008 25.1654 10.6462C24.7501 10.2355 24.0687 10.1048 23.4946 10.3241ZM24.4654 11.1268C24.7547 11.3182 24.8154 11.4862 24.8154 12.0929C24.8154 12.5503 24.8014 12.6529 24.7174 12.793C24.4234 13.2923 23.7607 13.2923 23.4666 12.793C23.3826 12.6529 23.3686 12.5503 23.3686 12.0929C23.3686 11.6355 23.3826 11.5329 23.4666 11.3929C23.6067 11.1549 23.8307 11.0195 24.092 11.0195C24.2414 11.0195 24.3627 11.0522 24.4654 11.1268ZM25.6975 14.7717C25.9075 14.8604 25.9588 15.0284 25.9588 15.6678V16.1998H24.092H22.2252V15.6678C22.2252 15.0424 22.2766 14.8604 22.4772 14.7717C22.6919 14.6784 25.4734 14.6784 25.6975 14.7717Z"/>
</mask>
<path d="M23.4946 10.3241C23.1633 10.4548 22.8226 10.7955 22.6966 11.1362C22.6126 11.3555 22.5986 11.5002 22.5986 12.0929C22.5986 12.6856 22.6126 12.8303 22.6966 13.0496C22.8226 13.3903 23.1633 13.731 23.4946 13.8617L23.742 13.955L23.0186 13.9597C22.2066 13.9644 22.0432 14.0064 21.7725 14.2911C21.5019 14.5804 21.4785 14.6924 21.4785 15.7798C21.4785 16.6992 21.4832 16.7645 21.5719 16.8532C21.6605 16.9419 21.7259 16.9466 24.092 16.9466C26.4582 16.9466 26.5235 16.9419 26.6122 16.8532C26.7009 16.7645 26.7055 16.6992 26.7055 15.7798C26.7055 14.6924 26.6822 14.5804 26.4115 14.2911C26.1408 14.0064 25.9775 13.9644 25.1654 13.9597L24.442 13.955L24.6894 13.8617C25.0207 13.731 25.3614 13.3903 25.4874 13.0496C25.5714 12.8303 25.5854 12.6856 25.5854 12.0929C25.5854 11.2389 25.5154 11.0008 25.1654 10.6462C24.7501 10.2355 24.0687 10.1048 23.4946 10.3241ZM24.4654 11.1268C24.7547 11.3182 24.8154 11.4862 24.8154 12.0929C24.8154 12.5503 24.8014 12.6529 24.7174 12.793C24.4234 13.2923 23.7607 13.2923 23.4666 12.793C23.3826 12.6529 23.3686 12.5503 23.3686 12.0929C23.3686 11.6355 23.3826 11.5329 23.4666 11.3929C23.6067 11.1549 23.8307 11.0195 24.092 11.0195C24.2414 11.0195 24.3627 11.0522 24.4654 11.1268ZM25.6975 14.7717C25.9075 14.8604 25.9588 15.0284 25.9588 15.6678V16.1998H24.092H22.2252V15.6678C22.2252 15.0424 22.2766 14.8604 22.4772 14.7717C22.6919 14.6784 25.4734 14.6784 25.6975 14.7717Z" fill="black"/>
<path d="M23.4946 10.3241C23.1633 10.4548 22.8226 10.7955 22.6966 11.1362C22.6126 11.3555 22.5986 11.5002 22.5986 12.0929C22.5986 12.6856 22.6126 12.8303 22.6966 13.0496C22.8226 13.3903 23.1633 13.731 23.4946 13.8617L23.742 13.955L23.0186 13.9597C22.2066 13.9644 22.0432 14.0064 21.7725 14.2911C21.5019 14.5804 21.4785 14.6924 21.4785 15.7798C21.4785 16.6992 21.4832 16.7645 21.5719 16.8532C21.6605 16.9419 21.7259 16.9466 24.092 16.9466C26.4582 16.9466 26.5235 16.9419 26.6122 16.8532C26.7009 16.7645 26.7055 16.6992 26.7055 15.7798C26.7055 14.6924 26.6822 14.5804 26.4115 14.2911C26.1408 14.0064 25.9775 13.9644 25.1654 13.9597L24.442 13.955L24.6894 13.8617C25.0207 13.731 25.3614 13.3903 25.4874 13.0496C25.5714 12.8303 25.5854 12.6856 25.5854 12.0929C25.5854 11.2389 25.5154 11.0008 25.1654 10.6462C24.7501 10.2355 24.0687 10.1048 23.4946 10.3241ZM24.4654 11.1268C24.7547 11.3182 24.8154 11.4862 24.8154 12.0929C24.8154 12.5503 24.8014 12.6529 24.7174 12.793C24.4234 13.2923 23.7607 13.2923 23.4666 12.793C23.3826 12.6529 23.3686 12.5503 23.3686 12.0929C23.3686 11.6355 23.3826 11.5329 23.4666 11.3929C23.6067 11.1549 23.8307 11.0195 24.092 11.0195C24.2414 11.0195 24.3627 11.0522 24.4654 11.1268ZM25.6975 14.7717C25.9075 14.8604 25.9588 15.0284 25.9588 15.6678V16.1998H24.092H22.2252V15.6678C22.2252 15.0424 22.2766 14.8604 22.4772 14.7717C22.6919 14.6784 25.4734 14.6784 25.6975 14.7717Z" stroke-width="0.102857" mask="url(#path-4-outside-2_2562_53806)" fill="black"/>
</g>
<g id="Vector_3">
<mask id="path-5-outside-3_2562_53806" maskUnits="userSpaceOnUse" x="6.66406" y="14.9203" width="13" height="9" fill="black">
<rect fill="white" x="6.66406" y="14.9203" width="13" height="9"/>
<path d="M7.7574 15.5465C7.66406 15.6398 7.66406 15.7005 7.66406 19.1867C7.66406 22.6729 7.66406 22.7336 7.7574 22.8269C7.85074 22.9203 7.91141 22.9203 13.2644 22.9203C18.6174 22.9203 18.6781 22.9203 18.7714 22.8269C18.8648 22.7336 18.8648 22.6729 18.8648 19.1867C18.8648 15.7005 18.8648 15.6398 18.7714 15.5465C18.6781 15.4531 18.6174 15.4531 13.2644 15.4531C7.91141 15.4531 7.85074 15.4531 7.7574 15.5465ZM18.1181 19.1867V22.1736H13.2644H8.41078V19.1867V16.1998H13.2644H18.1181V19.1867Z"/>
</mask>
<path d="M7.7574 15.5465C7.66406 15.6398 7.66406 15.7005 7.66406 19.1867C7.66406 22.6729 7.66406 22.7336 7.7574 22.8269C7.85074 22.9203 7.91141 22.9203 13.2644 22.9203C18.6174 22.9203 18.6781 22.9203 18.7714 22.8269C18.8648 22.7336 18.8648 22.6729 18.8648 19.1867C18.8648 15.7005 18.8648 15.6398 18.7714 15.5465C18.6781 15.4531 18.6174 15.4531 13.2644 15.4531C7.91141 15.4531 7.85074 15.4531 7.7574 15.5465ZM18.1181 19.1867V22.1736H13.2644H8.41078V19.1867V16.1998H13.2644H18.1181V19.1867Z" fill="black"/>
<path d="M7.7574 15.5465C7.66406 15.6398 7.66406 15.7005 7.66406 19.1867C7.66406 22.6729 7.66406 22.7336 7.7574 22.8269C7.85074 22.9203 7.91141 22.9203 13.2644 22.9203C18.6174 22.9203 18.6781 22.9203 18.7714 22.8269C18.8648 22.7336 18.8648 22.6729 18.8648 19.1867C18.8648 15.7005 18.8648 15.6398 18.7714 15.5465C18.6781 15.4531 18.6174 15.4531 13.2644 15.4531C7.91141 15.4531 7.85074 15.4531 7.7574 15.5465ZM18.1181 19.1867V22.1736H13.2644H8.41078V19.1867V16.1998H13.2644H18.1181V19.1867Z" stroke-width="0.102857" mask="url(#path-5-outside-3_2562_53806)" fill="black"/>
</g>
<g id="Vector_4">
<mask id="path-6-outside-4_2562_53806" maskUnits="userSpaceOnUse" x="8.14355" y="16.4268" width="4" height="6" fill="black">
<rect fill="white" x="8.14355" y="16.4268" width="4" height="6"/>
<path d="M9.90427 17.1519C9.90427 17.3246 9.8856 17.3666 9.80626 17.3899C9.64292 17.4413 9.3349 17.7493 9.24623 17.95C9.12955 18.1973 9.12955 18.6827 9.24623 18.93C9.40957 19.294 9.73159 19.5041 10.245 19.5834C10.469 19.6207 10.6043 19.7514 10.6043 19.9334C10.6043 20.1108 10.455 20.2601 10.2776 20.2601C10.1283 20.2601 9.95094 20.1201 9.95094 20.0034C9.95094 19.9474 9.87627 19.9334 9.54958 19.9334H9.14355L9.17156 20.1481C9.19956 20.4235 9.39557 20.7081 9.68026 20.8901C9.8856 21.0208 9.8996 21.0442 9.8996 21.2262L9.90427 21.4268H10.2776H10.651V21.2262C10.651 21.0582 10.6697 21.0115 10.763 20.9695C10.959 20.8808 11.225 20.6148 11.309 20.4235C11.4257 20.1761 11.4257 19.6907 11.309 19.4434C11.1457 19.0794 10.8237 18.8694 10.3103 18.79C10.2123 18.776 10.0909 18.72 10.0396 18.6687C9.92294 18.552 9.92761 18.3233 10.0443 18.2066C10.217 18.034 10.6043 18.146 10.6043 18.37C10.6043 18.426 10.679 18.44 11.0057 18.44H11.4117L11.3837 18.2253C11.3557 17.95 11.1597 17.6653 10.875 17.4833C10.6697 17.3526 10.6557 17.3293 10.6557 17.1426L10.651 16.9466H10.2776H9.90427V17.1519Z"/>
</mask>
<path d="M9.90427 17.1519C9.90427 17.3246 9.8856 17.3666 9.80626 17.3899C9.64292 17.4413 9.3349 17.7493 9.24623 17.95C9.12955 18.1973 9.12955 18.6827 9.24623 18.93C9.40957 19.294 9.73159 19.5041 10.245 19.5834C10.469 19.6207 10.6043 19.7514 10.6043 19.9334C10.6043 20.1108 10.455 20.2601 10.2776 20.2601C10.1283 20.2601 9.95094 20.1201 9.95094 20.0034C9.95094 19.9474 9.87627 19.9334 9.54958 19.9334H9.14355L9.17156 20.1481C9.19956 20.4235 9.39557 20.7081 9.68026 20.8901C9.8856 21.0208 9.8996 21.0442 9.8996 21.2262L9.90427 21.4268H10.2776H10.651V21.2262C10.651 21.0582 10.6697 21.0115 10.763 20.9695C10.959 20.8808 11.225 20.6148 11.309 20.4235C11.4257 20.1761 11.4257 19.6907 11.309 19.4434C11.1457 19.0794 10.8237 18.8694 10.3103 18.79C10.2123 18.776 10.0909 18.72 10.0396 18.6687C9.92294 18.552 9.92761 18.3233 10.0443 18.2066C10.217 18.034 10.6043 18.146 10.6043 18.37C10.6043 18.426 10.679 18.44 11.0057 18.44H11.4117L11.3837 18.2253C11.3557 17.95 11.1597 17.6653 10.875 17.4833C10.6697 17.3526 10.6557 17.3293 10.6557 17.1426L10.651 16.9466H10.2776H9.90427V17.1519Z" fill="black"/>
<path d="M9.90427 17.1519C9.90427 17.3246 9.8856 17.3666 9.80626 17.3899C9.64292 17.4413 9.3349 17.7493 9.24623 17.95C9.12955 18.1973 9.12955 18.6827 9.24623 18.93C9.40957 19.294 9.73159 19.5041 10.245 19.5834C10.469 19.6207 10.6043 19.7514 10.6043 19.9334C10.6043 20.1108 10.455 20.2601 10.2776 20.2601C10.1283 20.2601 9.95094 20.1201 9.95094 20.0034C9.95094 19.9474 9.87627 19.9334 9.54958 19.9334H9.14355L9.17156 20.1481C9.19956 20.4235 9.39557 20.7081 9.68026 20.8901C9.8856 21.0208 9.8996 21.0442 9.8996 21.2262L9.90427 21.4268H10.2776H10.651V21.2262C10.651 21.0582 10.6697 21.0115 10.763 20.9695C10.959 20.8808 11.225 20.6148 11.309 20.4235C11.4257 20.1761 11.4257 19.6907 11.309 19.4434C11.1457 19.0794 10.8237 18.8694 10.3103 18.79C10.2123 18.776 10.0909 18.72 10.0396 18.6687C9.92294 18.552 9.92761 18.3233 10.0443 18.2066C10.217 18.034 10.6043 18.146 10.6043 18.37C10.6043 18.426 10.679 18.44 11.0057 18.44H11.4117L11.3837 18.2253C11.3557 17.95 11.1597 17.6653 10.875 17.4833C10.6697 17.3526 10.6557 17.3293 10.6557 17.1426L10.651 16.9466H10.2776H9.90427V17.1519Z" stroke-width="0.102857" mask="url(#path-6-outside-4_2562_53806)" fill="black"/>
</g>
<g id="Vector_5">
<mask id="path-7-outside-5_2562_53806" maskUnits="userSpaceOnUse" x="11.1309" y="16.4268" width="4" height="6" fill="black">
<rect fill="white" x="11.1309" y="16.4268" width="4" height="6"/>
<path d="M12.8916 17.1519C12.8916 17.3246 12.8729 17.3666 12.7936 17.3899C12.6302 17.4413 12.3222 17.7493 12.2335 17.95C12.1775 18.0713 12.1449 18.244 12.1449 18.44C12.1449 19.0934 12.5089 19.4714 13.2323 19.5834C13.3303 19.5974 13.4516 19.6534 13.5029 19.7047C13.6196 19.8214 13.615 20.0501 13.4983 20.1668C13.3256 20.3394 12.9382 20.2274 12.9382 20.0034C12.9382 19.9474 12.8636 19.9334 12.5369 19.9334H12.1309L12.1589 20.1481C12.1869 20.4235 12.3829 20.7081 12.6676 20.8901C12.8729 21.0208 12.8869 21.0442 12.8869 21.2262L12.8916 21.4268H13.2649H13.6383V21.2262C13.6383 21.0582 13.657 21.0115 13.7503 20.9695C13.9463 20.8808 14.2123 20.6148 14.2963 20.4235C14.413 20.1761 14.413 19.6907 14.2963 19.4434C14.133 19.0794 13.811 18.8694 13.2976 18.79C13.1996 18.776 13.0783 18.72 13.0269 18.6687C12.9102 18.552 12.9149 18.3233 13.0316 18.2066C13.2043 18.034 13.5916 18.146 13.5916 18.37C13.5916 18.426 13.6663 18.44 13.993 18.44H14.399L14.371 18.2253C14.343 17.95 14.147 17.6653 13.8623 17.4833C13.657 17.3526 13.643 17.3293 13.643 17.1426L13.6383 16.9466H13.2649H12.8916V17.1519Z"/>
</mask>
<path d="M12.8916 17.1519C12.8916 17.3246 12.8729 17.3666 12.7936 17.3899C12.6302 17.4413 12.3222 17.7493 12.2335 17.95C12.1775 18.0713 12.1449 18.244 12.1449 18.44C12.1449 19.0934 12.5089 19.4714 13.2323 19.5834C13.3303 19.5974 13.4516 19.6534 13.5029 19.7047C13.6196 19.8214 13.615 20.0501 13.4983 20.1668C13.3256 20.3394 12.9382 20.2274 12.9382 20.0034C12.9382 19.9474 12.8636 19.9334 12.5369 19.9334H12.1309L12.1589 20.1481C12.1869 20.4235 12.3829 20.7081 12.6676 20.8901C12.8729 21.0208 12.8869 21.0442 12.8869 21.2262L12.8916 21.4268H13.2649H13.6383V21.2262C13.6383 21.0582 13.657 21.0115 13.7503 20.9695C13.9463 20.8808 14.2123 20.6148 14.2963 20.4235C14.413 20.1761 14.413 19.6907 14.2963 19.4434C14.133 19.0794 13.811 18.8694 13.2976 18.79C13.1996 18.776 13.0783 18.72 13.0269 18.6687C12.9102 18.552 12.9149 18.3233 13.0316 18.2066C13.2043 18.034 13.5916 18.146 13.5916 18.37C13.5916 18.426 13.6663 18.44 13.993 18.44H14.399L14.371 18.2253C14.343 17.95 14.147 17.6653 13.8623 17.4833C13.657 17.3526 13.643 17.3293 13.643 17.1426L13.6383 16.9466H13.2649H12.8916V17.1519Z" fill="black"/>
<path d="M12.8916 17.1519C12.8916 17.3246 12.8729 17.3666 12.7936 17.3899C12.6302 17.4413 12.3222 17.7493 12.2335 17.95C12.1775 18.0713 12.1449 18.244 12.1449 18.44C12.1449 19.0934 12.5089 19.4714 13.2323 19.5834C13.3303 19.5974 13.4516 19.6534 13.5029 19.7047C13.6196 19.8214 13.615 20.0501 13.4983 20.1668C13.3256 20.3394 12.9382 20.2274 12.9382 20.0034C12.9382 19.9474 12.8636 19.9334 12.5369 19.9334H12.1309L12.1589 20.1481C12.1869 20.4235 12.3829 20.7081 12.6676 20.8901C12.8729 21.0208 12.8869 21.0442 12.8869 21.2262L12.8916 21.4268H13.2649H13.6383V21.2262C13.6383 21.0582 13.657 21.0115 13.7503 20.9695C13.9463 20.8808 14.2123 20.6148 14.2963 20.4235C14.413 20.1761 14.413 19.6907 14.2963 19.4434C14.133 19.0794 13.811 18.8694 13.2976 18.79C13.1996 18.776 13.0783 18.72 13.0269 18.6687C12.9102 18.552 12.9149 18.3233 13.0316 18.2066C13.2043 18.034 13.5916 18.146 13.5916 18.37C13.5916 18.426 13.6663 18.44 13.993 18.44H14.399L14.371 18.2253C14.343 17.95 14.147 17.6653 13.8623 17.4833C13.657 17.3526 13.643 17.3293 13.643 17.1426L13.6383 16.9466H13.2649H12.8916V17.1519Z" stroke-width="0.102857" mask="url(#path-7-outside-5_2562_53806)" fill="black"/>
</g>
<g id="Vector_6">
<mask id="path-8-outside-6_2562_53806" maskUnits="userSpaceOnUse" x="14.1172" y="16.4268" width="4" height="6" fill="black">
<rect fill="white" x="14.1172" y="16.4268" width="4" height="6"/>
<path d="M15.8779 17.1519C15.8779 17.3246 15.8592 17.3666 15.7799 17.3899C15.6166 17.4413 15.3085 17.7493 15.2199 17.95C15.1639 18.0713 15.1312 18.244 15.1312 18.44C15.1312 19.0934 15.4952 19.4714 16.2186 19.5834C16.3166 19.5974 16.4379 19.6534 16.4893 19.7047C16.6059 19.8214 16.6013 20.0501 16.4846 20.1668C16.3119 20.3394 15.9246 20.2274 15.9246 20.0034C15.9246 19.9474 15.8499 19.9334 15.5232 19.9334H15.1172L15.1452 20.1481C15.1732 20.4235 15.3692 20.7081 15.6539 20.8901C15.8592 21.0208 15.8732 21.0442 15.8732 21.2262L15.8779 21.4268H16.2513H16.6246V21.2262C16.6246 21.0582 16.6433 21.0115 16.7366 20.9695C16.9326 20.8808 17.1987 20.6148 17.2827 20.4235C17.3993 20.1761 17.3993 19.6907 17.2827 19.4434C17.1193 19.0794 16.7973 18.8694 16.2839 18.79C16.1859 18.776 16.0646 18.72 16.0132 18.6687C15.8966 18.552 15.9012 18.3233 16.0179 18.2066C16.1906 18.034 16.5779 18.146 16.5779 18.37C16.5779 18.426 16.6526 18.44 16.9793 18.44H17.3853L17.3573 18.2253C17.3293 17.95 17.1333 17.6653 16.8486 17.4833C16.6433 17.3526 16.6293 17.3293 16.6293 17.1426L16.6246 16.9466H16.2513H15.8779V17.1519Z"/>
</mask>
<path d="M15.8779 17.1519C15.8779 17.3246 15.8592 17.3666 15.7799 17.3899C15.6166 17.4413 15.3085 17.7493 15.2199 17.95C15.1639 18.0713 15.1312 18.244 15.1312 18.44C15.1312 19.0934 15.4952 19.4714 16.2186 19.5834C16.3166 19.5974 16.4379 19.6534 16.4893 19.7047C16.6059 19.8214 16.6013 20.0501 16.4846 20.1668C16.3119 20.3394 15.9246 20.2274 15.9246 20.0034C15.9246 19.9474 15.8499 19.9334 15.5232 19.9334H15.1172L15.1452 20.1481C15.1732 20.4235 15.3692 20.7081 15.6539 20.8901C15.8592 21.0208 15.8732 21.0442 15.8732 21.2262L15.8779 21.4268H16.2513H16.6246V21.2262C16.6246 21.0582 16.6433 21.0115 16.7366 20.9695C16.9326 20.8808 17.1987 20.6148 17.2827 20.4235C17.3993 20.1761 17.3993 19.6907 17.2827 19.4434C17.1193 19.0794 16.7973 18.8694 16.2839 18.79C16.1859 18.776 16.0646 18.72 16.0132 18.6687C15.8966 18.552 15.9012 18.3233 16.0179 18.2066C16.1906 18.034 16.5779 18.146 16.5779 18.37C16.5779 18.426 16.6526 18.44 16.9793 18.44H17.3853L17.3573 18.2253C17.3293 17.95 17.1333 17.6653 16.8486 17.4833C16.6433 17.3526 16.6293 17.3293 16.6293 17.1426L16.6246 16.9466H16.2513H15.8779V17.1519Z" fill="black"/>
<path d="M15.8779 17.1519C15.8779 17.3246 15.8592 17.3666 15.7799 17.3899C15.6166 17.4413 15.3085 17.7493 15.2199 17.95C15.1639 18.0713 15.1312 18.244 15.1312 18.44C15.1312 19.0934 15.4952 19.4714 16.2186 19.5834C16.3166 19.5974 16.4379 19.6534 16.4893 19.7047C16.6059 19.8214 16.6013 20.0501 16.4846 20.1668C16.3119 20.3394 15.9246 20.2274 15.9246 20.0034C15.9246 19.9474 15.8499 19.9334 15.5232 19.9334H15.1172L15.1452 20.1481C15.1732 20.4235 15.3692 20.7081 15.6539 20.8901C15.8592 21.0208 15.8732 21.0442 15.8732 21.2262L15.8779 21.4268H16.2513H16.6246V21.2262C16.6246 21.0582 16.6433 21.0115 16.7366 20.9695C16.9326 20.8808 17.1987 20.6148 17.2827 20.4235C17.3993 20.1761 17.3993 19.6907 17.2827 19.4434C17.1193 19.0794 16.7973 18.8694 16.2839 18.79C16.1859 18.776 16.0646 18.72 16.0132 18.6687C15.8966 18.552 15.9012 18.3233 16.0179 18.2066C16.1906 18.034 16.5779 18.146 16.5779 18.37C16.5779 18.426 16.6526 18.44 16.9793 18.44H17.3853L17.3573 18.2253C17.3293 17.95 17.1333 17.6653 16.8486 17.4833C16.6433 17.3526 16.6293 17.3293 16.6293 17.1426L16.6246 16.9466H16.2513H15.8779V17.1519Z" stroke-width="0.102857" mask="url(#path-8-outside-6_2562_53806)" fill="black"/>
</g>
<path id="Vector_7" d="M19.6113 21.0535C19.6113 21.2597 19.7785 21.4268 19.9847 21.4268H20.9181H21.8515C22.0577 21.4268 22.2248 21.2597 22.2248 21.0535C22.2248 20.8473 22.0577 20.6801 21.8515 20.6801H20.9181H19.9847C19.7785 20.6801 19.6113 20.8473 19.6113 21.0535Z" fill="black"/>
<path id="Vector_8" d="M22.9717 21.0535C22.9717 21.2597 23.1388 21.4268 23.345 21.4268H24.2784H25.2118C25.418 21.4268 25.5852 21.2597 25.5852 21.0535C25.5852 20.8473 25.418 20.6801 25.2118 20.6801H24.2784H23.345C23.1388 20.6801 22.9717 20.8473 22.9717 21.0535Z" fill="black"/>
<path id="Vector_9" d="M19.6113 22.5469C19.6113 22.7531 19.7785 22.9203 19.9847 22.9203H22.5982H25.2117C25.4179 22.9203 25.585 22.7531 25.585 22.5469C25.585 22.3407 25.4179 22.1736 25.2117 22.1736H22.5982H19.9847C19.7785 22.1736 19.6113 22.3407 19.6113 22.5469Z" fill="black"/>
</g>
</g>
</g>
</svg>