<?xml version="1.0" ?><svg xmlns="http://www.w3.org/2000/svg" fill="none" viewBox="6.17 6.69 23.27 22.76">
<path d="M25.6595 7.92041H7.90723V11.5753H25.6595V7.92041Z" fill="black"/>
<path fill-rule="evenodd" clip-rule="evenodd" d="M23.3096 21.757L23.8317 20.4517H25.3981L25.6591 21.4959L26.1813 21.757L26.9644 21.2349L28.0087 22.2791L27.4866 23.0623L27.7476 23.5844L28.7919 24.1066V25.1508L27.7476 25.6729L27.4866 26.1951L28.0087 26.9783L26.9644 28.0225L26.1813 27.5004L25.6591 27.7615L25.137 28.8057H24.0928L23.5706 27.7615L23.0485 27.5004L22.0042 28.0225L21.2211 27.2393L21.7432 25.934L21.4821 25.6729L20.1768 25.1508L20.4379 24.1066L21.7432 23.3234L21.2211 22.2791L22.0042 21.2349L23.3096 21.757ZM24.6149 25.673C25.1917 25.673 25.6592 25.2055 25.6592 24.6287C25.6592 24.052 25.1917 23.5845 24.6149 23.5845C24.0382 23.5845 23.5707 24.052 23.5707 24.6287C23.5707 25.2055 24.0382 25.673 24.6149 25.673Z" fill="black"/>
<path fill-rule="evenodd" clip-rule="evenodd" d="M19.0141 25.905H10.9736C8.85529 25.905 7.69329 24.7739 7.69329 22.6556V12.7015C6.71639 12.4341 6.17139 11.6217 6.17139 10.4803V8.98921C6.17139 7.59071 7.04545 6.68579 8.40283 6.68579H24.8353C26.2441 6.68579 27.0565 7.59071 27.0565 8.98921V10.4803C27.0565 11.6217 26.5114 12.4444 25.5448 12.7015V18.96C25.2422 18.9108 24.9317 18.8852 24.6151 18.8852C24.2294 18.8852 23.8526 18.9232 23.4882 18.9957V12.7837H9.73964V22.6041C9.73964 23.4782 10.2127 23.9409 11.0764 23.9409H18.9125C18.8856 24.1664 18.8717 24.3959 18.8717 24.6286C18.8717 25.0673 18.9209 25.4945 19.0141 25.905ZM8.1149 10.2129C8.1149 10.686 8.32056 10.9019 8.79359 10.9019H24.4548C24.9176 10.9019 25.1129 10.686 25.1129 10.2129V9.25658C25.1129 8.78355 24.9176 8.56761 24.4548 8.56761H8.79359C8.32056 8.56761 8.1149 8.78355 8.1149 9.25658V10.2129ZM19.9302 16.9895H13.3079C12.8143 16.9895 12.4647 16.6296 12.4647 16.1258V15.7967C12.4647 15.2928 12.8143 14.9535 13.3079 14.9535H19.9302C20.4238 14.9535 20.7735 15.2928 20.7735 15.7967V16.1258C20.7735 16.6296 20.4238 16.9895 19.9302 16.9895Z" fill="black"/>
<path d="M24.1766 29.3191H25.0537C25.4124 29.3191 25.6933 29.0944 25.7797 28.7487L25.9525 27.9925L26.0649 27.9493L26.726 28.3598C27.0285 28.5499 27.3871 28.4981 27.6421 28.2431L28.247 27.6382C28.5063 27.3789 28.5495 27.0246 28.3593 26.7264L27.9488 26.0653L27.9921 25.9616L28.7482 25.7844C29.0896 25.698 29.3143 25.4172 29.3143 25.0585V24.2073C29.3143 23.8486 29.0939 23.5677 28.7482 23.4813L27.9964 23.2998L27.9532 23.1875L28.3637 22.5307C28.5538 22.2325 28.5106 21.8782 28.2513 21.6146L27.6464 21.0097C27.3958 20.7547 27.0371 20.7072 26.7346 20.893L26.0735 21.2992L25.9525 21.256L25.7797 20.4955C25.6933 20.1498 25.4124 19.9294 25.0537 19.9294H24.1766C23.8136 19.9294 23.5327 20.1498 23.4506 20.4955L23.2778 21.256L23.1568 21.2992L22.4957 20.893C22.1889 20.7072 21.8346 20.7547 21.5839 21.0097L20.9747 21.6146C20.7197 21.8782 20.6722 22.2325 20.8623 22.5307L21.2728 23.1875L21.2296 23.2998L20.4821 23.4813C20.1364 23.5677 19.916 23.8486 19.916 24.2073V25.0585C19.916 25.4172 20.1407 25.698 20.4821 25.7844L21.2383 25.9616L21.2771 26.0653L20.8666 26.7264C20.6765 27.0246 20.7241 27.3789 20.979 27.6382L21.5883 28.2431C21.8389 28.4981 22.1975 28.5499 22.5 28.3598L23.1611 27.9493L23.2778 27.9925L23.4506 28.7487C23.5327 29.0944 23.8136 29.3191 24.1766 29.3191ZM24.2889 28.524C24.2155 28.524 24.1766 28.4937 24.1679 28.4289L23.9087 27.3659C23.6364 27.3011 23.3729 27.1888 23.1611 27.0548L22.2278 27.6295C22.1716 27.6641 22.1198 27.6598 22.0679 27.6079L21.6142 27.1542C21.5623 27.1067 21.5623 27.0548 21.5969 26.9987L22.1716 26.0653C22.0506 25.8579 21.9383 25.5986 21.8735 25.3264L20.8062 25.0715C20.7413 25.0628 20.7068 25.0239 20.7068 24.9505V24.311C20.7068 24.2332 20.737 24.2029 20.8062 24.1857L21.8691 23.935C21.9339 23.6455 22.0593 23.3776 22.1673 23.1832L21.5926 22.2585C21.558 22.198 21.558 22.1461 21.6055 22.0943L22.0636 21.6449C22.1154 21.5973 22.163 21.5887 22.2278 21.6276L23.1525 22.1937C23.3469 22.0727 23.6364 21.9517 23.913 21.8825L24.1679 20.8196C24.1766 20.7547 24.2155 20.7202 24.2889 20.7202H24.9414C25.0149 20.7202 25.0494 20.7504 25.0624 20.8196L25.3216 21.8869C25.6025 21.956 25.8575 22.0727 26.0735 22.1937L26.9982 21.6276C27.063 21.593 27.1106 21.5973 27.1624 21.6492L27.6204 22.0986C27.6723 22.1461 27.6723 22.198 27.6334 22.2585L27.063 23.1832C27.1667 23.3776 27.2964 23.6455 27.3612 23.935L28.4242 24.1857C28.4933 24.2029 28.5192 24.2332 28.5192 24.311V24.9505C28.5192 25.0239 28.489 25.0628 28.4242 25.0715L27.3569 25.3264C27.292 25.5986 27.1754 25.8622 27.0544 26.0653L27.6291 26.9943C27.6637 27.0548 27.6637 27.1024 27.6118 27.1499L27.1581 27.6079C27.1062 27.6598 27.0544 27.6641 26.9982 27.6295L26.0692 27.0548C25.8531 27.1888 25.6068 27.2968 25.3216 27.3659L25.0624 28.4289C25.0494 28.4937 25.0149 28.524 24.9414 28.524H24.2889ZM24.6173 26.2641C25.5161 26.2641 26.255 25.5252 26.255 24.6221C26.255 23.7276 25.5161 22.9887 24.6173 22.9887C23.7142 22.9887 22.971 23.7276 22.971 24.6221C22.971 25.5252 23.7142 26.2641 24.6173 26.2641ZM24.6173 25.5165C24.1247 25.5165 23.7229 25.1147 23.7229 24.6221C23.7229 24.1381 24.129 23.7363 24.6173 23.7363C25.097 23.7363 25.4988 24.1381 25.4988 24.6221C25.4988 25.1104 25.097 25.5165 24.6173 25.5165Z" fill="black" stroke-width="0.257143"/>
</svg>