<?xml version="1.0" ?><svg xmlns="http://www.w3.org/2000/svg" fill="none" viewBox="6.17 8.23 23.14 19.29">
<path d="M27.8672 9.51416H7.61719V13.3713H27.8672V9.51416Z" fill="black"/>
<path fill-rule="evenodd" clip-rule="evenodd" d="M8.22804 9.77162C7.94401 9.77162 7.71376 10.0019 7.71376 10.2859V12.6002C7.71376 12.8842 7.94401 13.1145 8.22804 13.1145H27.2566C27.5406 13.1145 27.7709 12.8842 27.7709 12.6002V10.2859C27.7709 10.0019 27.5406 9.77162 27.2566 9.77162H8.22804ZM6.1709 10.2859C6.1709 9.14977 7.09191 8.22876 8.22804 8.22876H27.2566C28.3927 8.22876 29.3138 9.14977 29.3138 10.2859V12.6002C29.3138 13.7363 28.3927 14.6573 27.2566 14.6573H8.22804C7.09191 14.6573 6.1709 13.7363 6.1709 12.6002V10.2859Z" fill="black"/>
<path d="M19.6068 17.2285H15.8782C15.3101 17.2285 14.8496 17.689 14.8496 18.2571V18.7714C14.8496 19.3394 15.3101 19.7999 15.8782 19.7999H19.6068C20.1748 19.7999 20.6353 19.3394 20.6353 18.7714V18.2571C20.6353 17.689 20.1748 17.2285 19.6068 17.2285Z" fill="black"/>
<path fill-rule="evenodd" clip-rule="evenodd" d="M9.67433 14.9142C9.3903 14.9142 9.16005 15.1444 9.16005 15.4285V25.4571C9.16005 25.7411 9.3903 25.9713 9.67433 25.9713H25.81C26.094 25.9713 26.3243 25.7411 26.3243 25.4571V15.4285C26.3243 15.1444 26.094 14.9142 25.81 14.9142H9.67433ZM7.61719 15.4285C7.61719 14.2924 8.5382 13.3713 9.67433 13.3713H25.81C26.9461 13.3713 27.8671 14.2924 27.8671 15.4285V25.4571C27.8671 26.5932 26.9461 27.5142 25.81 27.5142H9.67433C8.5382 27.5142 7.61719 26.5932 7.61719 25.4571V15.4285Z" fill="black"/>
</svg>