<?xml version="1.0" ?><svg xmlns="http://www.w3.org/2000/svg" fill="none" viewBox="9.8 8.77 16 19">
<mask id="mask0_4692_38255" style="mask-type:alpha" maskUnits="userSpaceOnUse" x="9" y="8" width="17" height="20">
<path d="M25.7998 8.77148H9.7998V27.7715H25.7998V8.77148Z" fill="white"/>
<path d="M24.8398 16.0458L23.5026 14.7086C23.3483 14.5543 23.1426 14.5543 22.9883 14.7086C22.8341 14.8629 22.8341 15.0686 22.9883 15.2229L23.7083 15.9429H20.7769V10.1315C20.7769 10.0286 20.7255 9.92577 20.6741 9.87434C20.6226 9.82291 20.5198 9.77148 20.4169 9.77148C20.2112 9.77148 11.3655 9.77148 11.1083 9.77148C10.9541 9.82291 10.7998 9.92579 10.7998 10.1315V22.4229C10.7998 22.5772 10.9026 22.6801 11.0055 22.7315L17.8969 26.5886C17.9998 26.6401 18.1541 26.6401 18.2569 26.5886C18.3598 26.5372 18.4112 26.4343 18.4112 26.2801V22.7829H20.4683C20.5712 22.7829 20.6741 22.7315 20.7255 22.6801C20.7769 22.6286 20.8283 22.5258 20.8283 22.4229V16.6629H23.7598L23.0398 17.3829C22.8855 17.5372 22.8855 17.7429 23.0398 17.8972C23.1941 18.0515 23.3998 18.0515 23.5541 17.8972L24.8912 16.5601C24.9426 16.4058 24.9426 16.1486 24.8398 16.0458ZM16.3026 18.4629C16.1483 18.7201 15.7883 18.8229 15.5312 18.6686C15.2741 18.5143 15.1712 18.1543 15.3255 17.8972C15.4798 17.6401 15.8398 17.5372 16.0969 17.6915C16.3541 17.8972 16.4569 18.2058 16.3026 18.4629ZM20.1083 22.0629H18.5141V13.9886C18.5141 13.8343 18.4626 13.7315 18.3083 13.6801L12.5998 10.4915H20.1083V22.0629Z" fill="black"/>
</mask>
<g mask="url(#mask0_4692_38255)">
<path d="M24.8398 16.0458L23.5026 14.7086C23.3483 14.5543 23.1426 14.5543 22.9883 14.7086C22.8341 14.8629 22.8341 15.0686 22.9883 15.2229L23.7083 15.9429H20.7769V10.1315C20.7769 10.0286 20.7255 9.92577 20.6741 9.87434C20.6226 9.82291 20.5198 9.77148 20.4169 9.77148C20.2112 9.77148 11.3655 9.77148 11.1083 9.77148C10.9541 9.82291 10.7998 9.92579 10.7998 10.1315V22.4229C10.7998 22.5772 10.9026 22.6801 11.0055 22.7315L17.8969 26.5886C17.9998 26.6401 18.1541 26.6401 18.2569 26.5886C18.3598 26.5372 18.4112 26.4343 18.4112 26.2801V22.7829H20.4683C20.5712 22.7829 20.6741 22.7315 20.7255 22.6801C20.7769 22.6286 20.8283 22.5258 20.8283 22.4229V16.6629H23.7598L23.0398 17.3829C22.8855 17.5372 22.8855 17.7429 23.0398 17.8972C23.1941 18.0515 23.3998 18.0515 23.5541 17.8972L24.8912 16.5601C24.9426 16.4058 24.9426 16.1486 24.8398 16.0458ZM16.3026 18.4629C16.1483 18.7201 15.7883 18.8229 15.5312 18.6686C15.2741 18.5143 15.1712 18.1543 15.3255 17.8972C15.4798 17.6401 15.8398 17.5372 16.0969 17.6915C16.3541 17.8972 16.4569 18.2058 16.3026 18.4629ZM20.1083 22.0629H18.5141V13.9886C18.5141 13.8343 18.4626 13.7315 18.3083 13.6801L12.5998 10.4915H20.1083V22.0629Z" fill="black"/>
<path d="M11.52 22.2687V10.7487L17.8457 14.1429V25.7144L11.52 22.2687ZM15.7885 16.9715C15.3771 16.9715 14.9657 17.2287 14.7085 17.5887C14.5542 17.8972 14.5028 18.2058 14.6057 18.5144C14.7085 18.8229 14.9142 19.0801 15.1714 19.2344C15.3771 19.3372 15.5828 19.3887 15.7885 19.3887C16.2 19.3887 16.6114 19.1315 16.8685 18.7715C17.0228 18.4629 17.0742 18.1544 16.9714 17.8458C16.8685 17.5372 16.6628 17.2801 16.4057 17.1258C16.2514 17.0229 15.9942 16.9715 15.7885 16.9715Z" fill="black"/>
</g>
</svg>