<?xml version="1.0" ?><svg xmlns="http://www.w3.org/2000/svg" fill="none" viewBox="6.17 6.17 23.14 23.48">
    <path fill-rule="evenodd" clip-rule="evenodd" d="M11.828 23.4L11.3137 22.1143L11.828 21.6L13.1137 22.3715L13.628 22.1143L13.8852 20.8286H14.9137L15.428 22.1143L16.7137 21.6L17.4852 22.1143V23.1429L17.228 23.6572L17.4852 24.1715H18.5137V25.4572L17.4852 25.7143L17.228 26.4858L17.7423 27.2572L16.9709 28.2858L15.9423 27.7715L15.428 28.0286L15.1709 29.0572H13.628L13.3709 28.0286L13.1137 27.7715L12.0852 28.2858L11.3137 27.5143L11.5709 26.2286L11.3137 25.7143L10.2852 25.4572V24.4286L11.828 23.4ZM14.3994 25.7143C14.9675 25.7143 15.428 25.2538 15.428 24.6858C15.428 24.1177 14.9675 23.6572 14.3994 23.6572C13.8314 23.6572 13.3709 24.1177 13.3709 24.6858C13.3709 25.2538 13.8314 25.7143 14.3994 25.7143Z" fill="black"/>
    <path fill-rule="evenodd" clip-rule="evenodd" d="M8.9034 10.3822L8.16412 8.53401L8.9034 7.79472L10.7516 8.90365L11.4909 8.53401L11.8605 6.68579H13.3391L14.0784 8.53401L15.9266 7.79472L17.0355 8.53401V10.0126L16.6659 10.7519L17.0355 11.4911H18.5141V13.3394L17.0355 13.709L16.6659 14.8179L17.4052 15.9269L16.2963 17.4054L14.8177 16.6661L14.0784 17.0358L13.7088 18.5144H11.4909L11.1213 17.0358L10.7516 16.6661L9.27305 17.4054L8.16412 16.2965L8.53376 14.4483L8.16412 13.709L6.68555 13.3394V11.8608L8.9034 10.3822ZM12.8571 14.4C13.7092 14.4 14.4 13.7092 14.4 12.8571C14.4 12.005 13.7092 11.3143 12.8571 11.3143C12.005 11.3143 11.3143 12.005 11.3143 12.8571C11.3143 13.7092 12.005 14.4 12.8571 14.4Z" fill="black"/>
    <path d="M14.0578 29.5249H14.9193C15.2716 29.5249 15.5475 29.304 15.6323 28.9642L15.8021 28.2208L15.9125 28.1783L16.5618 28.5819C16.8589 28.7688 17.2112 28.7178 17.4616 28.4672L18.0557 27.8725C18.3104 27.6176 18.3528 27.2692 18.1661 26.9761L17.7629 26.3262L17.8053 26.2242L18.5481 26.05C18.8834 25.9651 19.104 25.689 19.104 25.3364V24.4995C19.104 24.1469 18.8876 23.8708 18.5481 23.7858L17.8096 23.6074L17.7671 23.497L18.1703 22.8513C18.3571 22.5582 18.3146 22.2098 18.06 21.9507L17.4658 21.356C17.2196 21.1053 16.8674 21.0586 16.5703 21.2413L15.9209 21.6406L15.8021 21.5981L15.6323 20.8504C15.5475 20.5106 15.2716 20.2939 14.9193 20.2939H14.0578C13.7013 20.2939 13.4254 20.5106 13.3448 20.8504L13.175 21.5981L13.0562 21.6406L12.4068 21.2413C12.1055 21.0586 11.7574 21.1053 11.5113 21.356L10.9129 21.9507C10.6625 22.2098 10.6158 22.5582 10.8025 22.8513L11.2057 23.497L11.1633 23.6074L10.429 23.7858C10.0895 23.8708 9.87305 24.1469 9.87305 24.4995V25.3364C9.87305 25.689 10.0937 25.9651 10.429 26.05L11.1718 26.2242L11.21 26.3262L10.8068 26.9761C10.62 27.2692 10.6667 27.6176 10.9171 27.8725L11.5155 28.4672C11.7617 28.7178 12.114 28.7688 12.411 28.5819L13.0604 28.1783L13.175 28.2208L13.3448 28.9642C13.4254 29.304 13.7013 29.5249 14.0578 29.5249ZM14.1681 28.7433C14.096 28.7433 14.0578 28.7136 14.0493 28.6498L13.7946 27.6048C13.5272 27.5411 13.2684 27.4307 13.0604 27.299L12.1437 27.864C12.0885 27.8979 12.0376 27.8937 11.9866 27.8427L11.541 27.3967C11.4901 27.3499 11.4901 27.299 11.524 27.2437L12.0885 26.3262C11.9697 26.1223 11.8593 25.8674 11.7956 25.5998L10.7473 25.3491C10.6837 25.3406 10.6497 25.3024 10.6497 25.2302V24.6015C10.6497 24.525 10.6794 24.4953 10.7473 24.4783L11.7914 24.2319C11.8551 23.9473 11.9781 23.6839 12.0842 23.4927L11.5198 22.5836C11.4858 22.5242 11.4858 22.4732 11.5325 22.4222L11.9824 21.9804C12.0333 21.9337 12.08 21.9252 12.1437 21.9634L13.0519 22.5199C13.2429 22.401 13.5272 22.282 13.7989 22.2141L14.0493 21.169C14.0578 21.1053 14.096 21.0713 14.1681 21.0713H14.809C14.8811 21.0713 14.9151 21.1011 14.9278 21.169L15.1825 22.2183C15.4583 22.2863 15.7087 22.401 15.9209 22.5199L16.8292 21.9634C16.8929 21.9294 16.9395 21.9337 16.9905 21.9847L17.4403 22.4265C17.4913 22.4732 17.4913 22.5242 17.4531 22.5836L16.8929 23.4927C16.9947 23.6839 17.122 23.9473 17.1857 24.2319L18.2298 24.4783C18.2977 24.4953 18.3231 24.525 18.3231 24.6015V25.2302C18.3231 25.3024 18.2934 25.3406 18.2298 25.3491L17.1815 25.5998C17.1178 25.8674 17.0032 26.1265 16.8844 26.3262L17.4488 27.2395C17.4828 27.299 17.4828 27.3457 17.4319 27.3924L16.9862 27.8427C16.9353 27.8937 16.8844 27.8979 16.8292 27.864L15.9167 27.299C15.7045 27.4307 15.4626 27.5369 15.1825 27.6048L14.9278 28.6498C14.9151 28.7136 14.8811 28.7433 14.809 28.7433H14.1681ZM14.4907 26.5216C15.3734 26.5216 16.0992 25.7952 16.0992 24.9073C16.0992 24.028 15.3734 23.3016 14.4907 23.3016C13.6036 23.3016 12.8737 24.028 12.8737 24.9073C12.8737 25.7952 13.6036 26.5216 14.4907 26.5216ZM14.4907 25.7867C14.0068 25.7867 13.6121 25.3916 13.6121 24.9073C13.6121 24.4315 14.0111 24.0365 14.4907 24.0365C14.9618 24.0365 15.3565 24.4315 15.3565 24.9073C15.3565 25.3874 14.9618 25.7867 14.4907 25.7867Z" fill="black" stroke-width="0.257143"/>
    <path d="M12.1758 19.409H13.4036C13.9464 19.409 14.3974 19.0666 14.506 18.5488L14.7064 17.6718C14.7231 17.5633 14.7482 17.5215 14.7733 17.5048L15.692 18.0477C16.143 18.3149 16.6942 18.2565 17.07 17.8806L17.9135 17.0287C18.3144 16.6278 18.3729 16.085 18.0806 15.6423L17.4959 14.7153C17.4959 14.6986 17.5043 14.6902 17.5043 14.7236L18.5566 14.4647C19.0661 14.3395 19.4169 13.8968 19.4169 13.3539V12.2181C19.4169 11.6752 19.0744 11.2326 18.5566 11.1073L17.5043 10.8568C17.5043 10.8568 17.5043 10.8568 17.4959 10.8568L18.0806 9.93805C18.3729 9.4787 18.3144 8.94419 17.9135 8.55165L17.07 7.69142C16.6942 7.31558 16.143 7.25712 15.692 7.52438L14.7231 8.10065C14.7148 8.10065 14.7064 8.10065 14.7315 8.0923L14.506 7.02327C14.3974 6.50546 13.9548 6.17139 13.4036 6.17139H12.1758C11.633 6.17139 11.1903 6.50546 11.0734 7.02327L10.8396 8.0923C10.8479 8.0923 10.8479 8.0923 10.8479 8.10065L9.8958 7.52438C9.44481 7.25712 8.89359 7.31558 8.51776 7.69142L7.66587 8.55165C7.27334 8.94419 7.22323 9.48705 7.49884 9.93805L8.09181 10.8651C8.08346 10.8735 8.08346 10.8818 8.07511 10.8568L7.02278 11.1073C6.50497 11.2326 6.1709 11.6752 6.1709 12.2181V13.3539C6.1709 13.8968 6.50497 14.3395 7.02278 14.4647L8.07511 14.7236C8.08346 14.7153 8.08346 14.7153 8.08346 14.7153L7.49884 15.6423C7.21487 16.085 7.27334 16.6278 7.66587 17.0287L8.51776 17.8806C8.89359 18.2565 9.43645 18.3149 9.88745 18.0477L10.8145 17.5048C10.8312 17.5048 10.8646 17.5131 10.8813 17.6718L11.0734 18.5488C11.1903 19.0666 11.633 19.409 12.1758 19.409ZM12.3429 18.1228C12.2677 18.1228 12.2677 18.1145 12.251 18.0393L11.8835 16.5109C11.4492 16.4191 11.0734 16.227 10.7727 16.0599L9.44481 16.8701C9.36964 16.9035 9.36129 16.9118 9.30283 16.8533L8.67644 16.2437C8.61798 16.1852 8.62633 16.1852 8.66809 16.11L9.46986 14.7988C9.36964 14.5399 9.12744 14.1474 9.03557 13.6797L7.53224 13.3205C7.44872 13.3038 7.44872 13.3038 7.44872 13.2203V12.3517C7.44872 12.2682 7.44872 12.2682 7.53224 12.2515L9.03557 11.8924C9.12744 11.433 9.36964 11.0405 9.46986 10.7816L8.66809 9.462C8.62633 9.38683 8.61798 9.38683 8.67644 9.33672L9.30283 8.71869C9.36129 8.66022 9.36964 8.66858 9.44481 8.71034L10.7727 9.51211C11.0734 9.34507 11.4492 9.15298 11.8835 9.06111L12.251 7.54108C12.2677 7.45756 12.2677 7.45756 12.3429 7.45756H13.2365C13.32 7.45756 13.32 7.45756 13.3367 7.54108L13.7042 9.06111C14.1302 9.15298 14.5144 9.34507 14.815 9.51211L16.143 8.71034C16.2181 8.66858 16.2265 8.66022 16.2766 8.71869L16.9113 9.33672C16.9614 9.38683 16.9614 9.38683 16.9197 9.462L16.1179 10.7816C16.2098 11.0405 16.4603 11.433 16.5438 11.8924L18.0555 12.2515C18.1307 12.2682 18.139 12.2682 18.139 12.3517V13.2203C18.139 13.3038 18.1307 13.3038 18.0555 13.3205L16.5438 13.6797C16.4603 14.1474 16.2098 14.5399 16.1179 14.7988L16.9197 16.11C16.9614 16.1852 16.9614 16.1852 16.9113 16.2437L16.2766 16.8533C16.2265 16.9118 16.2181 16.9035 16.143 16.8701L14.815 16.0599C14.5144 16.227 14.1302 16.4191 13.7042 16.5109L13.3367 18.0393C13.32 18.1145 13.32 18.1228 13.2365 18.1228H12.3429ZM12.7939 15.3083C14.1636 15.3083 15.2911 14.1724 15.2911 12.786C15.2911 11.4163 14.1636 10.2888 12.7939 10.2888C11.3991 10.2888 10.28 11.408 10.28 12.786C10.28 14.1641 11.3991 15.3083 12.7939 15.3083ZM12.7939 13.9887C12.1341 13.9887 11.5912 13.4542 11.5912 12.786C11.5912 12.1346 12.1341 11.5917 12.7939 11.5917C13.4453 11.5917 13.9798 12.1346 13.9798 12.786C13.9798 13.4458 13.4453 13.9887 12.7939 13.9887ZM23.2503 24.5287H24.2108C24.7119 24.5287 25.1378 24.228 25.2214 23.7686L25.3801 22.9418C25.3801 22.9335 25.3801 22.9335 25.3801 22.9335L26.0983 23.3845C26.5075 23.635 27.0087 23.5849 27.3594 23.2258L28.0359 22.5326C28.3867 22.1734 28.4535 21.6723 28.1863 21.2715L27.7269 20.5699C27.7269 20.5615 27.7269 20.5532 27.7353 20.5783L28.5537 20.4112C29.0047 20.3193 29.3138 19.9018 29.3138 19.409V18.4652C29.3138 17.9725 29.0047 17.5549 28.5537 17.463L27.7353 17.296C27.7269 17.296 27.7269 17.296 27.7269 17.296L28.1863 16.6028C28.4535 16.2019 28.3867 15.7008 28.0359 15.3333L27.3594 14.6485C27.0087 14.2893 26.5075 14.2392 26.0983 14.4898L25.3717 14.9408C25.3634 14.9408 25.355 14.9408 25.3801 14.9324L25.2214 14.0973C25.1378 13.6463 24.7119 13.3456 24.2108 13.3456H23.2503C22.7492 13.3456 22.3233 13.6463 22.2398 14.0973L22.0811 14.9324V14.9408L21.3628 14.4898C20.9536 14.2392 20.4525 14.2893 20.1017 14.6485L19.4252 15.3333C19.0744 15.7008 19.0076 16.2019 19.2749 16.6028L19.7342 17.3043C19.7342 17.3127 19.7342 17.321 19.7259 17.296L18.9074 17.463C18.4481 17.5549 18.1474 17.9725 18.1474 18.4652V19.409C18.1474 19.9018 18.4481 20.3193 18.9074 20.4112L19.7259 20.5783H19.7342L19.2749 21.2715C19.0076 21.6723 19.0744 22.1734 19.4252 22.5326L20.1017 23.2258C20.4525 23.5849 20.9536 23.635 21.3628 23.3845L22.0894 22.9335C22.0978 22.9335 22.1061 22.9335 22.0811 22.9418L22.2398 23.7686C22.3233 24.228 22.7492 24.5287 23.2503 24.5287ZM23.4758 23.3093C23.384 23.3093 23.3673 23.2842 23.3506 23.2007L23.0415 21.9814C22.6991 21.9062 22.3818 21.7809 22.056 21.5638L20.9787 22.2319C20.9202 22.257 20.8784 22.2653 20.82 22.2152L20.4441 21.831C20.3857 21.7642 20.3857 21.7225 20.4191 21.6723L21.0622 20.6367C21.0121 20.4279 20.7532 20.0437 20.678 19.6094L19.4586 19.3255C19.3835 19.3088 19.3584 19.2837 19.3584 19.2086V18.6657C19.3584 18.5905 19.3835 18.5655 19.4586 18.5488L20.678 18.2648C20.7532 17.8305 21.0121 17.4463 21.0622 17.2375L20.4191 16.2019C20.3857 16.1518 20.3857 16.11 20.4441 16.0432L20.82 15.659C20.8784 15.6006 20.9202 15.6089 20.9787 15.6423L22.056 16.3105C22.3818 16.0933 22.6991 15.9681 23.0415 15.8929L23.3506 14.6735C23.3673 14.59 23.384 14.565 23.4758 14.565H23.9853C24.0772 14.565 24.0939 14.59 24.1106 14.6735L24.4112 15.8929C24.762 15.9681 25.0794 16.0933 25.4051 16.3105L26.4825 15.6423C26.5326 15.6089 26.5827 15.6006 26.6412 15.659L27.017 16.0432C27.0755 16.11 27.0755 16.1518 27.0421 16.2019L26.399 17.2375C26.4491 17.4463 26.708 17.8305 26.7832 18.2648L28.0025 18.5488C28.0777 18.5655 28.1027 18.5905 28.1027 18.6657V19.2086C28.1027 19.2837 28.0777 19.3088 28.0025 19.3255L26.7832 19.6094C26.708 20.0437 26.4491 20.4279 26.399 20.6367L27.0421 21.6723C27.0755 21.7225 27.0755 21.7642 27.017 21.831L26.6412 22.2152C26.5827 22.2653 26.5326 22.257 26.4825 22.2319L25.4051 21.5638C25.0794 21.7809 24.762 21.9062 24.4112 21.9814L24.1106 23.2007C24.0939 23.2842 24.0772 23.3093 23.9853 23.3093H23.4758ZM23.7264 20.8956C24.7954 20.8956 25.6807 20.0103 25.6807 18.9329C25.6807 17.8723 24.7954 16.987 23.7264 16.987C22.649 16.987 21.7637 17.8639 21.7637 18.9329C21.7637 20.002 22.649 20.8956 23.7264 20.8956ZM23.7932 19.8266C23.3255 19.8266 22.958 19.4591 22.958 18.9914C22.958 18.5404 23.3255 18.1813 23.7932 18.1813C24.2275 18.1813 24.595 18.5404 24.595 18.9914C24.595 19.4508 24.2275 19.8266 23.7932 19.8266Z" fill="black"/>
</svg>