<?xml version="1.0" ?><svg xmlns="http://www.w3.org/2000/svg" width="36" height="36" viewBox="0 0 36 36" fill="none">
  <rect x="2.479" y="8.418" width="13.38" height="7.433" fill="black" style=""/>
  <rect x="22.551" y="9.905" width="10.406" height="16.353" fill="black" style=""/>
  <path d="M 3.903 17.585 L 14.686 17.585 C 16.621 17.585 17.595 16.623 17.595 14.698 L 17.595 9.817 C 17.595 7.894 16.621 6.932 14.686 6.932 L 3.903 6.932 C 1.968 6.932 0.994 7.894 0.994 9.817 L 0.994 14.698 C 0.994 16.623 1.968 17.585 3.903 17.585 Z M 24.001 27.452 L 31.534 27.452 C 33.469 27.452 34.443 26.501 34.443 24.566 L 34.443 11.578 C 34.443 9.653 33.469 8.704 31.534 8.704 L 24.001 8.704 C 22.077 8.704 21.104 9.653 21.104 11.578 L 21.104 24.566 C 21.104 26.501 22.077 27.452 24.001 27.452 Z M 4.185 15.379 C 3.539 15.379 3.199 15.039 3.199 14.37 L 3.199 10.147 C 3.199 9.467 3.539 9.137 4.185 9.137 L 14.392 9.137 C 15.05 9.137 15.39 9.467 15.39 10.147 L 15.39 14.37 C 15.39 15.039 15.05 15.379 14.392 15.379 L 4.185 15.379 Z M 24.284 25.258 C 23.65 25.258 23.298 24.918 23.298 24.25 L 23.298 11.906 C 23.298 11.226 23.65 10.898 24.284 10.898 L 31.24 10.898 C 31.898 10.898 32.238 11.226 32.238 11.906 L 32.238 24.25 C 32.238 24.918 31.898 25.258 31.24 25.258 L 24.284 25.258 Z M 6.849 28.965 L 16 28.965 C 17.925 28.965 18.909 28.015 18.909 26.08 L 18.909 22.77 C 18.909 20.847 17.925 19.897 16 19.897 L 6.849 19.897 C 4.913 19.897 3.939 20.847 3.939 22.77 L 3.939 26.08 C 3.939 28.015 4.913 28.965 6.849 28.965 Z M 7.13 26.772 C 6.485 26.772 6.144 26.431 6.144 25.762 L 6.144 23.1 C 6.144 22.43 6.485 22.102 7.13 22.102 L 15.706 22.102 C 16.352 22.102 16.704 22.43 16.704 23.1 L 16.704 25.762 C 16.704 26.431 16.352 26.772 15.706 26.772 L 7.13 26.772 Z" fill="black" style=""/>
</svg>