<?xml version="1.0" ?><svg xmlns="http://www.w3.org/2000/svg" fill="none" viewBox="8.75 6.17 18.36 23.14">
<path d="M10.2876 9H12.859V10.2857H23.4019V9H25.459L25.9733 27.7714H10.2876V9Z" fill="black"/>
<path fill-rule="evenodd" clip-rule="evenodd" d="M10.0303 8.7428H13.116V10.0285H23.1446V8.7428H25.709L26.2374 28.0285H10.0303V8.7428ZM10.5446 9.25708V27.5142H25.7088L25.2086 9.25708H23.6589V10.5428H12.6017V9.25708H10.5446Z" fill="black"/>
<path d="M15.5768 6.19914C14.8762 6.31665 14.1439 6.66921 13.6603 7.12121L13.3258 7.43309H11.9698C10.4918 7.43309 10.2884 7.45569 9.8635 7.66812C9.35274 7.92576 8.92335 8.48172 8.80131 9.05123C8.72899 9.39023 8.72899 27.3525 8.80131 27.6915C8.87363 28.026 9.08155 28.4238 9.3211 28.6769C9.55614 28.9255 10.0217 29.1876 10.3698 29.26C10.7088 29.3323 25.1455 29.3323 25.4845 29.26C26.2529 29.0973 26.8902 28.4554 27.053 27.6915C27.1253 27.348 27.1253 9.39023 27.053 9.05123C26.8902 8.28736 26.2439 7.641 25.4845 7.48281C25.3399 7.45117 24.7071 7.43309 23.8845 7.43309H22.524L22.2211 7.14381C21.8776 6.82289 21.5341 6.60141 21.0731 6.42061C20.4809 6.18106 20.2821 6.1675 17.891 6.17202C16.6796 6.17654 15.6401 6.1901 15.5768 6.19914ZM20.273 7.59128C20.4312 7.63196 20.6889 7.72688 20.838 7.80372C21.29 8.04328 21.7962 8.61732 21.9273 9.04671L21.9544 9.15067H17.9272H13.8999L13.927 9.04671C14.0038 8.80716 14.2163 8.4772 14.4739 8.21504C14.7722 7.9122 15.2423 7.64552 15.6265 7.5732C15.735 7.55061 16.761 7.53253 17.9046 7.52801C19.6131 7.52349 20.0335 7.53705 20.273 7.59128ZM12.5168 9.09191C12.4806 9.26367 12.458 9.56199 12.467 9.76991C12.4806 10.1676 12.5529 10.2987 12.8286 10.4434C13.0094 10.5383 22.8449 10.5383 23.0257 10.4434C23.3014 10.2987 23.3737 10.1676 23.3873 9.76991C23.3963 9.56199 23.3737 9.26367 23.3376 9.09191L23.2743 8.78908H24.228C25.3218 8.78908 25.4665 8.82524 25.6473 9.14615L25.7467 9.32243V18.3714V27.4203L25.6518 27.5921C25.5975 27.687 25.48 27.8045 25.3851 27.8588L25.2133 27.9537H17.9272H10.641L10.4692 27.8588C10.3743 27.8045 10.2568 27.687 10.2025 27.5921L10.1076 27.4203V18.3714V9.32243L10.2071 9.14615C10.3879 8.82524 10.528 8.78908 11.6263 8.78908H12.58L12.5168 9.09191Z" fill="black"/>
<path fill-rule="evenodd" clip-rule="evenodd" d="M12.492 22.7792C12.6928 22.5783 13.0184 22.5783 13.2193 22.7792L13.627 23.1869L14.0347 22.7792C14.2356 22.5783 14.5612 22.5783 14.762 22.7792C14.9629 22.98 14.9629 23.3056 14.7621 23.5065L14.3543 23.9143L14.7621 24.3221C14.9629 24.5229 14.9629 24.8486 14.762 25.0494C14.5612 25.2502 14.2356 25.2502 14.0347 25.0494L13.627 24.6416L13.2193 25.0494C13.0184 25.2502 12.6928 25.2502 12.492 25.0494C12.2911 24.8486 12.2911 24.5229 12.4919 24.3221L12.8997 23.9143L12.4919 23.5065C12.2911 23.3056 12.2911 22.98 12.492 22.7792Z" fill="black"/>
<path d="M16.3 23.2106C16.0785 23.31 15.9429 23.536 15.9429 23.8118C15.9429 24.0649 16.0243 24.2186 16.2548 24.3858C16.3768 24.4807 16.422 24.4807 19.3329 24.4807C22.2438 24.4807 22.289 24.4807 22.411 24.3858C22.6415 24.2186 22.7229 24.0649 22.7229 23.8118C22.7229 23.5315 22.5873 23.3055 22.3568 23.2106C22.1398 23.1202 16.5079 23.1202 16.3 23.2106Z" fill="black"/>
<path fill-rule="evenodd" clip-rule="evenodd" d="M12.4919 18.665C12.6928 18.4642 13.0184 18.4642 13.2192 18.665L13.627 19.0728L14.0347 18.665C14.2356 18.4642 14.5612 18.4642 14.762 18.665C14.9629 18.8659 14.9629 19.1915 14.762 19.3923L14.3543 19.8001L14.762 20.2078C14.9629 20.4087 14.9629 20.7343 14.762 20.9351C14.5612 21.136 14.2356 21.136 14.0347 20.9351L13.627 20.5274L13.2192 20.9351C13.0184 21.136 12.6928 21.136 12.4919 20.9351C12.2911 20.7343 12.2911 20.4087 12.4919 20.2078L12.8997 19.8001L12.4919 19.3923C12.2911 19.1915 12.2911 18.8659 12.4919 18.665Z" fill="black"/>
<path d="M16.3 19.0964C16.0785 19.1959 15.9429 19.4219 15.9429 19.6976C15.9429 19.9507 16.0243 20.1044 16.2548 20.2716C16.3768 20.3666 16.422 20.3666 19.3329 20.3666C22.2438 20.3666 22.289 20.3666 22.411 20.2716C22.6415 20.1044 22.7229 19.9507 22.7229 19.6976C22.7229 19.4174 22.5873 19.1914 22.3568 19.0964C22.1398 19.006 16.5079 19.006 16.3 19.0964Z" fill="black"/>
<path fill-rule="evenodd" clip-rule="evenodd" d="M12.492 14.5506C12.6928 14.3498 13.0184 14.3498 13.2193 14.5507L13.627 14.9584L14.0347 14.5507C14.2356 14.3498 14.5612 14.3498 14.762 14.5506C14.9629 14.7515 14.9629 15.0771 14.7621 15.278L14.3543 15.6858L14.7621 16.0936C14.9629 16.2944 14.9629 16.62 14.762 16.8209C14.5612 17.0217 14.2356 17.0217 14.0347 16.8209L13.627 16.4131L13.2193 16.8209C13.0184 17.0217 12.6928 17.0217 12.492 16.8209C12.2911 16.62 12.2911 16.2944 12.4919 16.0936L12.8997 15.6858L12.4919 15.278C12.2911 15.0771 12.2911 14.7515 12.492 14.5506Z" fill="black"/>
<path d="M16.3 14.9821C16.0785 15.0815 15.9429 15.3075 15.9429 15.5832C15.9429 15.8364 16.0243 15.99 16.2548 16.1573C16.3768 16.2522 16.422 16.2522 19.3329 16.2522C22.2438 16.2522 22.289 16.2522 22.411 16.1573C22.6415 15.99 22.7229 15.8364 22.7229 15.5832C22.7229 15.303 22.5873 15.077 22.3568 14.9821C22.1398 14.8917 16.5079 14.8917 16.3 14.9821Z" fill="black"/>
</svg>