<?xml version="1.0" ?><svg xmlns="http://www.w3.org/2000/svg" fill="none" viewBox="6.17 10.29 23.14 15.43">
<g id="customer">
<path id="Vector 85" d="M15.9429 12.5441L15.212 16.2336L13.2632 16.9715L11.5579 15.9876C11.4767 15.4137 11.3143 14.1675 11.3143 13.774C11.3143 13.3804 11.6391 12.4622 11.8015 12.0522L14.2376 11.3143L15.9429 12.5441Z" fill="black"/>
<path id="Vector 86" d="M14.1121 19.5428L19.0493 22.2367L19.543 24.6857H7.94068L7.20011 23.4612L9.66868 21.0122L14.1121 19.5428Z" fill="black"/>
<path id="person.2" d="M13.4319 17.9877C11.4352 17.9877 9.81811 16.2407 9.81811 14.0916C9.81811 11.9754 11.427 10.2858 13.4319 10.2858C15.412 10.2858 17.0456 12.0001 17.0456 14.108C17.0374 16.2489 15.4202 17.9877 13.4319 17.9877ZM22.9943 18.1764C21.2534 18.1764 19.8508 16.6426 19.8508 14.7478C19.8508 12.9023 21.2534 11.4095 22.9943 11.4095C24.7186 11.4095 26.146 12.9269 26.1377 14.756C26.1377 16.6508 24.7269 18.1764 22.9943 18.1764ZM13.4319 16.5523C14.5704 16.5523 15.5358 15.486 15.5358 14.0998C15.5358 12.7629 14.5787 11.7212 13.4319 11.7212C12.2768 11.7212 11.328 12.7465 11.328 14.0916C11.328 15.4696 12.285 16.5523 13.4319 16.5523ZM22.9943 16.7574C23.9266 16.7574 24.7186 15.8715 24.7186 14.756C24.7186 13.6897 23.9348 12.8203 22.9943 12.8203C22.0372 12.8203 21.2617 13.6733 21.2617 14.7478C21.2617 15.8715 22.0537 16.7574 22.9943 16.7574ZM27.5321 25.7143H21.1214C21.5752 25.4519 21.8804 24.8531 21.8227 24.3117H27.6063C27.7631 24.3117 27.8291 24.2379 27.8291 24.0985C27.8291 22.2201 25.618 20.432 23.0025 20.432C22.0785 20.432 21.1544 20.6617 20.4448 21.0554C20.1643 20.6535 19.8178 20.309 19.364 20.0137C20.4118 19.3739 21.7154 19.0294 23.0025 19.0294C26.4925 19.0294 29.3142 21.5065 29.3142 24.2297C29.3142 25.214 28.7202 25.7143 27.5321 25.7143ZM18.572 25.7143H8.29175C6.8644 25.7143 6.17135 25.2632 6.17135 24.2953C6.17135 22.0397 9.00955 19.0376 13.4319 19.0376C17.8542 19.0376 20.6924 22.0397 20.6924 24.2953C20.6924 25.2632 19.9993 25.7143 18.572 25.7143ZM18.836 24.2789C19.0257 24.2789 19.1 24.2133 19.1 24.0657C19.1 22.8107 17.0621 20.4731 13.4319 20.4731C9.80161 20.4731 7.76371 22.8107 7.76371 24.0657C7.76371 24.2133 7.83797 24.2789 8.03598 24.2789H18.836Z" fill="black"/>
</g>
</svg>