<?xml version="1.0" ?><svg xmlns="http://www.w3.org/2000/svg" fill="none" viewBox="15 5 489.61 510">
<path d="M15.0122 259.819V74.8739C15.0122 56.9614 21.3467 41.416 33.7607 28.2726C46.1748 15.1293 61.526 7.83094 79.5864 5.59191C82.881 5.19067 86.1973 4.99305 89.5161 5.00019C203.082 5.00019 316.647 5.00019 430.213 5.00019C450.772 5.00019 468.724 11.753 483.449 25.7684C495.419 37.1623 502.366 51.1268 504.279 67.396C504.537 69.9677 504.646 72.5508 504.605 75.134C504.605 198.426 504.605 321.72 504.605 445.013C504.605 462.925 498.29 478.461 485.917 491.639C473.968 504.391 458.988 511.638 441.545 514.229C437.779 514.763 433.976 515.02 430.172 514.999C316.606 514.999 203.041 514.999 89.4753 514.999C71.1153 514.999 54.6208 509.572 40.5135 498.04C25.9625 486.142 17.5624 470.912 15.3131 452.485C15.0632 450.035 14.9628 447.572 15.0122 445.11C15.0122 383.346 15.0122 321.583 15.0122 259.819ZM455.439 260.115C455.439 198.819 455.439 137.526 455.439 76.2356C455.439 71.6456 454.658 67.2073 452.103 63.2446C446.962 55.2784 439.352 51.7134 429.845 51.7134H89.8527C89.3427 51.7134 88.8837 51.7134 88.3992 51.7134C74.5935 51.9786 64.2086 62.2297 64.2086 75.6491C64.2086 198.472 64.2086 321.297 64.2086 444.12C64.1946 445.942 64.3655 447.76 64.7186 449.548C67.0098 460.666 76.8936 468.275 89.052 468.275C202.87 468.275 316.684 468.275 430.498 468.275C432.31 468.275 434.118 468.094 435.894 467.734C447.671 465.378 455.418 456.101 455.418 444.334C455.439 382.934 455.445 321.528 455.439 260.115Z" fill="black"/>
<path d="M260.423 99.4651C288.148 99.4651 315.874 99.4651 343.603 99.4651C353.762 99.4651 361.786 106.126 363.433 115.873C363.562 116.804 363.615 117.744 363.591 118.683C363.591 127.205 363.647 135.727 363.591 144.246C363.53 152.472 359.511 158.342 351.906 161.785C350.161 162.575 349.738 163.513 349.743 165.239C349.784 197.386 349.794 229.53 349.774 261.668C349.774 273.7 341.318 281.896 328.914 281.896C283.125 281.896 237.334 281.896 191.544 281.896C181.232 281.896 173.209 275.439 171.48 265.743C171.298 264.463 171.228 263.17 171.271 261.877C171.271 229.681 171.283 197.479 171.307 165.274C171.307 163.422 170.741 162.55 168.961 161.764C161.483 158.459 157.531 152.584 157.352 144.689C157.148 135.411 156.924 126.119 157.5 116.847C158.01 108.303 164.757 101.276 173.469 99.8017C174.957 99.5569 176.464 99.4396 177.973 99.4498C205.453 99.4664 232.937 99.4715 260.423 99.4651ZM260.464 163.493H199.394C196.87 163.493 196.844 163.493 196.844 165.861V254.707C196.844 257.155 196.844 257.16 199.323 257.16H321.299C323.956 257.16 323.961 257.16 323.961 254.487C323.961 224.994 323.961 195.496 323.961 165.993C323.961 163.498 323.961 163.493 321.35 163.493H260.464ZM260.729 124.008C235.605 124.008 210.48 123.996 185.352 123.972C183.511 123.972 182.925 124.482 183.006 126.257C183.144 129.317 183.006 132.377 183.047 135.437C183.047 139.426 182.609 138.957 186.576 138.957C234.778 138.957 282.977 138.957 331.174 138.957C332.867 138.957 334.561 138.891 336.274 138.957C337.631 139.023 338.064 138.508 338.039 137.213C337.972 133.57 338.039 129.929 338.039 126.282C338.039 124.003 338.039 124.003 335.616 124.003L260.729 124.008Z" fill="black"/>
<path d="M259.733 370.387C219.205 370.387 178.674 370.443 138.142 370.351C127.81 370.326 119.782 365.95 115.162 356.77C108.326 343.167 117.018 326.984 132.502 324.087C134.821 323.68 137.171 323.485 139.524 323.505C219.741 323.505 299.955 323.505 380.164 323.505C387.56 323.505 394.256 325.28 399.657 330.514C412.409 342.887 407.394 363.512 390.248 369.041C387.308 369.969 384.241 370.429 381.158 370.402L259.733 370.387Z" fill="black"/>
<path d="M262.104 439.112H214.457C208.694 439.112 203.267 437.898 198.615 434.461C190.506 428.467 187.028 420.455 189.211 410.765C191.414 400.997 198.177 395.229 208.082 392.862C210.209 392.412 212.38 392.21 214.554 392.261C246.318 392.261 278.082 392.261 309.846 392.261C320.318 392.261 328.539 396.341 333.343 405.623C340.346 419.154 331.966 435.236 316.422 438.49C314.169 438.929 311.876 439.135 309.581 439.102L262.104 439.112Z" fill="black"/>
<path d="M260.18 222.708C251.121 222.708 242.062 222.708 233.001 222.708C221.453 222.708 212.947 214.426 212.941 203.237C212.941 199.065 212.941 194.892 212.941 190.72C212.967 180.438 221.514 171.85 232.098 171.804C250.938 171.705 269.783 171.705 288.634 171.804C298.926 171.85 307.2 179.388 307.949 189.685C308.352 195.172 308.459 200.733 307.786 206.225C306.608 215.543 298.335 222.637 288.624 222.698C279.147 222.78 269.666 222.708 260.18 222.708ZM260.42 198.167C267.05 198.167 273.68 198.167 280.311 198.167C280.995 198.167 282.127 198.565 282.122 197.356C282.122 196.335 281.102 196.539 280.423 196.539C267.04 196.539 253.655 196.539 240.268 196.539C239.585 196.539 238.601 196.376 238.636 197.418C238.672 198.458 239.687 198.172 240.335 198.172C247.031 198.177 253.703 198.167 260.42 198.167Z" fill="black"/>
</svg>