<?xml version="1.0" ?><svg xmlns="http://www.w3.org/2000/svg" fill="none" viewBox="5 12 510 496.17">
<path d="M423.901 118.334C438.978 118.334 451.222 130.246 451.222 144.896C451.222 159.566 438.978 171.516 423.901 171.516C408.842 171.516 396.56 159.566 396.56 144.896C396.56 130.246 408.842 118.334 423.901 118.334ZM423.901 82.8721C388.694 82.8721 360.155 110.677 360.155 144.896C360.155 179.135 388.694 206.921 423.901 206.921C459.049 206.921 487.646 179.135 487.646 144.896C487.646 110.677 459.049 82.8721 423.901 82.8721Z" fill="black"/>
<path d="M246.315 394.532L288.096 353.863C295.164 346.945 306.707 346.945 313.857 353.863C320.967 360.78 320.967 372.011 313.857 378.93L259.217 432.111C252.106 439.009 240.564 439.009 233.456 432.111L206.113 405.492C199.005 398.573 199.005 387.342 206.113 380.484C213.224 373.507 224.767 373.507 231.877 380.484L246.315 394.532Z" fill="black"/>
<path d="M392.519 198.85C388.984 201.26 385.769 204.076 382.933 207.205C376.264 214.57 364.761 215.23 357.251 208.76C349.702 202.327 348.963 191.097 355.633 183.733C364.001 174.522 374.326 166.983 385.95 161.795C392.558 158.842 400.309 159.987 405.74 164.711C410.533 168.888 416.923 171.49 423.933 171.49C430.923 171.49 437.293 168.888 442.148 164.711C447.537 159.987 455.268 158.842 461.879 161.795C493.211 175.803 515 206.642 515 242.356C515 252.15 506.831 260.077 496.787 260.077C486.702 260.077 478.553 252.15 478.553 242.356C478.553 224.383 469.406 208.487 455.328 198.888C446.042 204 435.356 206.894 423.933 206.894C412.49 206.894 401.765 204 392.519 198.85Z" fill="black"/>
<path d="M96.0538 118.334C111.113 118.334 123.394 130.246 123.394 144.896C123.394 159.566 111.113 171.516 96.0538 171.516C80.9756 171.516 68.7535 159.566 68.7535 144.896C68.7535 130.246 80.9756 118.334 96.0538 118.334ZM96.0538 82.8721C60.8651 82.8721 32.3076 110.677 32.3076 144.896C32.3076 179.135 60.8651 206.921 96.0538 206.921C131.262 206.921 159.8 179.135 159.8 144.896C159.8 110.677 131.262 82.8721 96.0538 82.8721Z" fill="black"/>
<path d="M64.6522 198.888C50.6332 208.487 41.4266 224.383 41.4266 242.356C41.4266 252.15 33.2386 260.077 23.1934 260.077C13.1479 260.077 5 252.15 5 242.356C5 206.642 26.768 175.803 58.1025 161.795C64.7121 158.842 72.4411 159.987 77.8331 164.711C82.6858 168.888 89.057 171.49 96.0478 171.49C103.056 171.49 109.447 168.888 114.239 164.711C119.672 159.987 127.419 158.842 134.03 161.795C145.654 166.983 155.978 174.522 164.366 183.733C171.017 191.097 170.277 202.327 162.729 208.76C155.219 215.23 143.717 214.57 137.047 207.205C134.211 204.076 130.996 201.26 127.461 198.85C118.173 204 107.491 206.894 96.0478 206.894C84.6238 206.894 73.9393 204 64.6522 198.888Z" fill="black"/>
<path d="M259.985 47.4613C293.896 47.4613 321.455 74.2379 321.455 107.231C321.455 140.226 293.896 167.058 259.985 167.058C226.054 167.058 198.496 140.226 198.496 107.231C198.496 74.2379 226.054 47.4613 259.985 47.4613ZM259.985 12C205.964 12 162.089 54.6897 162.089 107.231C162.089 159.83 205.964 202.519 259.985 202.519C313.986 202.519 357.861 159.83 357.861 107.231C357.861 54.6897 313.986 12 259.985 12Z" fill="black"/>
<path d="M204.903 186C172.471 204.437 150.702 238.675 150.702 277.791C150.702 287.624 142.555 295.55 132.509 295.55C122.443 295.55 114.297 287.624 114.297 277.791C114.297 220.663 149.124 171.327 199.271 148.906C205.881 145.99 213.63 147.098 219.022 151.8C229.887 161.283 244.286 167.052 260.001 167.052C275.699 167.052 290.058 161.283 300.961 151.8C306.353 147.098 314.103 145.99 320.714 148.906C370.859 171.327 405.688 220.663 405.688 277.791C405.688 287.624 397.539 295.55 387.495 295.55C377.429 295.55 369.28 287.624 369.28 277.791C369.28 238.675 347.454 204.437 315.081 186C299.384 196.394 280.413 202.515 260.001 202.515C239.572 202.515 220.599 196.394 204.903 186Z" fill="black"/>
<path d="M260.011 313.239C305.224 313.239 341.95 348.974 341.95 392.965C341.95 436.977 305.224 472.71 260.011 472.71C214.778 472.71 178.052 436.977 178.052 392.965C178.052 348.974 214.778 313.239 260.011 313.239ZM260.011 277.778C194.666 277.778 141.604 329.408 141.604 392.965C141.604 456.583 194.666 508.172 260.011 508.172C325.336 508.172 378.398 456.583 378.398 392.965C378.398 329.408 325.336 277.778 260.011 277.778Z" fill="black"/>
</svg>