<?xml version="1.0" ?><svg xmlns="http://www.w3.org/2000/svg" fill="none" viewBox="10 10 500 500">
<path d="M10 78.1819C10 60.0989 17.1835 42.7565 29.97 29.97C42.7565 17.1835 60.0989 10 78.1819 10H335.758C353.841 10 371.183 17.1835 383.969 29.97C396.756 42.7565 403.94 60.0989 403.94 78.1819V313.031H510V411.515C510 437.635 499.623 462.685 481.154 481.154C462.685 499.623 437.635 510 411.515 510H108.485C82.3651 510 57.3151 499.623 38.8456 481.154C20.376 462.685 10 437.635 10 411.515V78.1819ZM403.94 358.485V464.546H411.515C425.58 464.546 439.068 458.958 449.014 449.014C458.958 439.068 464.546 425.58 464.546 411.515V358.485H403.94ZM358.485 464.546V78.1819C358.485 72.1542 356.09 66.3733 351.828 62.1112C347.565 57.849 341.785 55.4546 335.758 55.4546H78.1819C72.1542 55.4546 66.3733 57.849 62.1112 62.1112C57.849 66.3733 55.4546 72.1542 55.4546 78.1819V411.515C55.4546 440.788 79.2121 464.546 108.485 464.546H358.485ZM142.884 390.752C142.884 384.725 145.279 378.943 149.541 374.681C153.804 370.42 159.584 368.025 165.611 368.025H241.369C247.396 368.025 253.178 370.42 257.439 374.681C261.702 378.943 264.096 384.725 264.096 390.752C264.096 396.779 261.702 402.56 257.439 406.822C253.178 411.085 247.396 413.479 241.369 413.479H165.611C159.584 413.479 153.804 411.085 149.541 406.822C145.279 402.56 142.884 396.779 142.884 390.752Z" fill="black"/>
<path d="M214.649 120.128V148.581H199.602V120.128H214.649ZM212.816 277.632V303.577H197.77V277.632H212.816ZM223.426 245.996C223.426 242.332 222.751 239.212 221.4 236.64C220.115 234.069 217.993 231.786 215.035 229.792C212.141 227.8 208.219 225.87 203.268 224.006C194.909 220.791 187.546 217.382 181.18 213.781C174.879 210.117 169.961 205.583 166.423 200.182C162.888 194.717 161.119 187.804 161.119 179.445C161.119 171.472 163.016 164.56 166.81 158.708C170.604 152.858 175.843 148.356 182.531 145.206C189.283 141.99 197.127 140.382 206.064 140.382C212.88 140.382 219.053 141.412 224.583 143.469C230.114 145.462 234.872 148.421 238.858 152.343C242.844 156.201 245.899 160.927 248.021 166.521C250.143 172.114 251.204 178.513 251.204 185.714H223.522C223.522 181.856 223.105 178.449 222.269 175.491C221.432 172.533 220.211 170.058 218.604 168.064C217.061 166.071 215.195 164.592 213.01 163.628C210.823 162.598 208.412 162.085 205.775 162.085C201.853 162.085 198.638 162.855 196.131 164.398C193.622 165.942 191.79 168.032 190.632 170.669C189.54 173.24 188.993 176.198 188.993 179.542C188.993 182.821 189.572 185.682 190.73 188.125C191.951 190.569 194.041 192.819 196.999 194.877C199.957 196.871 204.007 198.928 209.151 201.05C217.51 204.265 224.841 207.738 231.142 211.467C237.443 215.196 242.363 219.761 245.899 225.162C249.436 230.564 251.204 237.444 251.204 245.803C251.204 254.098 249.274 261.171 245.417 267.023C241.558 272.809 236.158 277.246 229.212 280.333C222.269 283.355 214.231 284.866 205.1 284.866C199.185 284.866 193.301 284.095 187.449 282.551C181.599 280.944 176.294 278.371 171.536 274.835C166.778 271.298 162.984 266.604 160.154 260.753C157.325 254.838 155.911 247.571 155.911 238.955H183.689C183.689 243.649 184.299 247.571 185.521 250.722C186.742 253.808 188.351 256.285 190.343 258.149C192.401 259.949 194.716 261.235 197.288 262.007C199.859 262.779 202.464 263.164 205.1 263.164C209.216 263.164 212.591 262.425 215.227 260.946C217.928 259.467 219.953 257.441 221.304 254.87C222.719 252.233 223.426 249.275 223.426 245.996Z" fill="black"/>
</svg>