<?xml version="1.0" ?><svg xmlns="http://www.w3.org/2000/svg" fill="none" viewBox="5 10 510 499.17">
<path d="M330.074 317.014H185.597C176.017 317.014 166.831 313.209 160.057 306.435C153.282 299.661 149.478 290.474 149.478 280.895V244.776C149.478 235.196 153.282 226.009 160.057 219.236C166.831 212.461 176.017 208.656 185.597 208.656H330.074C339.654 208.656 348.84 212.461 355.614 219.236C362.389 226.009 366.193 235.196 366.193 244.776V280.895C366.193 290.474 362.389 299.661 355.614 306.435C348.84 313.209 339.654 317.014 330.074 317.014ZM185.597 244.776V280.895H330.074V244.776H185.597Z" fill="black"/>
<path d="M474.551 10H41.1193C31.5399 10 22.3527 13.8054 15.5791 20.5791C8.8054 27.3527 5 36.5399 5 46.1193V118.358C5 127.937 8.8054 137.124 15.5791 143.898C22.3527 150.672 31.5399 154.477 41.1193 154.477V443.432C41.1193 453.011 44.9247 462.198 51.6984 468.972C58.472 475.746 67.6592 479.551 77.2386 479.551H430.531H438.432C448.011 479.551 457.198 475.746 463.972 468.972C470.746 462.198 501.641 453.011 501.641 443.432L480.195 387.56L415.857 338.46L430.531 309.677L474.551 289.36V154.477C484.131 154.477 493.317 150.672 500.091 143.898C506.865 137.124 510.67 127.937 510.67 118.358V46.1193C510.67 36.5399 506.865 27.3527 500.091 20.5791C493.317 13.8054 484.131 10 474.551 10ZM438.432 459.798L410.214 443.432H77.2386V154.477H438.432V289.36L397.233 338.46L459.878 387.56L480.195 415.778L474.551 449.075L438.432 459.798ZM474.551 118.358H41.1193V46.1193H474.551V118.358Z" fill="black"/>
<path d="M462.779 247.109V287.756H441.285V247.109H462.779ZM460.161 472.111V509.175H438.667V472.111H460.161ZM475.318 426.918C475.318 421.682 474.353 417.228 472.424 413.553C470.588 409.879 467.556 406.618 463.331 403.77C459.196 400.923 453.593 398.167 446.521 395.503C434.58 390.911 424.062 386.042 414.968 380.899C405.967 375.663 398.939 369.187 393.887 361.471C388.835 353.662 386.309 343.788 386.309 331.848C386.309 320.456 389.019 310.582 394.438 302.224C399.858 293.865 407.344 287.434 416.897 282.934C426.542 278.341 437.748 276.044 450.516 276.044C460.253 276.044 469.072 277.514 476.972 280.453C484.87 283.301 491.668 287.527 497.363 293.13C503.059 298.641 507.421 305.392 510.453 313.384C513.484 321.375 515 330.516 515 340.803H475.456C475.456 335.291 474.859 330.423 473.664 326.198C472.47 321.972 470.725 318.436 468.428 315.588C466.224 312.742 463.56 310.629 460.437 309.25C457.314 307.781 453.869 307.046 450.103 307.046C444.5 307.046 439.908 308.149 436.325 310.353C432.742 312.558 430.125 315.543 428.471 319.309C426.909 322.983 426.129 327.208 426.129 331.985C426.129 336.669 426.955 340.758 428.609 344.248C430.354 347.738 433.339 350.954 437.564 353.893C441.79 356.741 447.577 359.68 454.925 362.71C466.867 367.303 477.338 372.264 486.34 377.592C495.343 382.919 502.369 389.441 507.421 397.157C512.474 404.873 515 414.702 515 426.643C515 438.492 512.244 448.596 506.733 456.955C501.221 465.223 493.505 471.56 483.585 475.969C473.664 480.287 462.182 482.445 449.138 482.445C440.687 482.445 432.283 481.343 423.924 479.139C415.565 476.842 407.987 473.168 401.19 468.116C394.393 463.063 388.973 456.358 384.932 447.999C380.89 439.549 378.868 429.169 378.868 416.86H418.551C418.551 423.566 419.423 429.169 421.168 433.67C422.913 438.079 425.21 441.615 428.058 444.279C430.997 446.851 434.303 448.688 437.979 449.791C441.653 450.892 445.373 451.444 449.138 451.444C455.018 451.444 459.84 450.388 463.606 448.275C467.464 446.162 470.357 443.269 472.286 439.595C474.308 435.828 475.318 431.603 475.318 426.918Z" fill="black"/>
</svg>