<?xml version="1.0" ?><svg xmlns="http://www.w3.org/2000/svg" fill="none" viewBox="5 5 510 510">
<path d="M5.29115 259.816C5.29115 204.758 5.41355 149.696 5.22472 94.6375C5.16008 75.8173 5.08536 56.9983 5.00045 38.1815C4.96462 29.4805 7.07092 21.5851 12.681 15.0873C18.2909 8.58937 25.3493 5.10072 33.5909 5.08542C70.9378 5.00892 108.29 4.92235 145.637 5.12622C157.455 5.19252 166.323 11.3997 171.409 22.9775C177.155 36.0599 182.551 49.3258 188.508 62.301C190.721 67.1256 193.215 71.8036 195.476 76.5822C196.256 78.2499 197.312 78.7651 198.98 78.7294C203.471 78.6274 207.97 78.6937 212.463 78.6937C303.426 78.6937 394.391 78.6937 485.353 78.6937C496.874 78.6937 505.615 84.0894 511.363 94.9027C514.214 100.258 514.974 106.179 514.974 112.275C514.974 205.515 514.974 298.753 514.974 391.986C514.974 403.83 515.031 415.673 514.974 427.515C514.872 443.143 506.176 455.435 492.886 458.908C490.507 459.51 488.059 459.801 485.603 459.774C471.955 459.75 458.308 459.774 444.655 459.75C443.125 459.75 441.882 459.912 440.846 461.458C422.925 488.168 398.913 505.153 369.177 511.825C329.191 520.796 293.369 510.738 262.284 481.895C256.074 476.143 250.62 469.626 246.051 462.499C244.72 460.423 243.273 459.755 240.993 459.755C172.094 459.816 103.199 459.83 34.3049 459.796C21.1673 459.796 10.238 451.167 6.41302 437.863C5.59523 434.794 5.21248 431.626 5.27585 428.449C5.30288 372.237 5.30811 316.024 5.29115 259.816ZM260.066 116.145H43.3166C39.8792 116.145 39.8588 116.145 39.8588 119.45C39.8588 219.321 39.8451 319.193 39.818 419.065C39.818 421.554 40.4147 422.451 42.8321 422.415C52.8026 422.288 62.7727 422.364 72.7483 422.364H224.769C228.176 422.364 228.176 422.364 227.462 418.917C224.907 406.998 224.06 394.777 224.947 382.623C226.78 358.963 234.032 337.474 247.76 319.078C276.948 279.908 315.305 264.096 361.098 270.507C390.826 274.679 415.723 289.756 435.19 314.609C452.102 336.209 460.854 361.328 461.638 389.635C461.864 399.701 460.835 409.757 458.578 419.57C458.069 421.758 458.548 422.431 460.618 422.395C465.846 422.298 471.078 422.364 476.311 422.364C480.166 422.364 480.166 422.364 480.166 418.147V120.389C480.166 116.151 480.166 116.145 476.331 116.145H260.066ZM343.13 294.121C338.132 294.11 333.14 294.513 328.207 295.326C302.84 299.726 281.802 312.345 266.12 334.481C250.901 355.957 245.082 380.328 249.026 407.058C252.319 429.413 262.153 448.199 277.839 463.136C299.259 483.538 324.443 492.041 352.809 489.209C376.857 486.812 397.475 476.275 414.009 457.18C431.861 436.585 440.077 412.112 437.981 383.816C436.582 364.944 430.331 348.042 419.4 333.389C399.801 307.23 373.996 294.815 343.13 294.121ZM98.6614 78.7141C117.362 78.7141 136.062 78.7141 154.763 78.7141C156.293 78.7141 157.663 78.9129 156.465 76.3834C151.559 66.0087 147.091 55.4003 142.664 44.761C141.981 43.1084 141.109 42.3791 139.344 42.3842C107.081 42.4387 74.8214 42.4387 42.5618 42.3842C40.3841 42.3842 39.7517 43.1696 39.7721 45.4444C39.8588 55.3391 39.8078 65.2284 39.8129 75.1186C39.8129 78.6886 39.8129 78.6885 43.0361 78.6885L98.6614 78.7141Z" fill="black"/>
<path d="M141.114 287.265C156.553 287.265 171.992 287.265 187.432 287.265C194.394 287.265 200.091 290.051 203.63 296.716C210.398 309.467 202.549 323.946 188.478 324.871C187.83 324.91 187.172 324.901 186.52 324.901C156.379 324.901 126.234 324.901 96.0865 324.901C92.2207 324.901 88.4059 324.538 84.9991 322.254C78.0529 317.602 74.9521 309.299 77.0635 301.032C79.1545 292.839 85.9273 287.331 94.3014 287.291C109.907 287.209 125.508 287.265 141.114 287.265Z" fill="black"/>
<path d="M141.282 386.096C125.675 386.096 110.072 386.096 94.4682 386.096C84.1611 386.096 76.4397 378.067 76.4346 367.428C76.4295 356.79 84.1509 348.7 94.4733 348.688C125.685 348.658 156.893 348.658 188.1 348.688C195.341 348.688 200.931 352.097 204.189 359.15C207.249 365.78 206.714 372.412 202.659 378.429C199.288 383.459 194.591 386.08 188.808 386.08C172.971 386.119 157.129 386.122 141.282 386.096Z" fill="black"/>
<path d="M331.465 415.063C331.465 412.238 331.363 409.402 331.496 406.58C331.598 404.377 331.027 403.328 328.818 402.827C320.796 401.006 313.406 397.574 307.118 391.734C291.614 377.32 292.17 355.389 308.408 341.944C314.327 337.067 321.319 333.668 328.808 332.025C330.517 331.632 331.358 331.004 331.664 328.892C332.603 322.425 337.228 318.094 342.884 317.978C348.647 317.856 353.513 322.104 354.527 328.659C354.884 330.984 355.828 331.651 357.705 332.106C366.971 334.356 375.32 338.512 382.001 346.075C386.79 351.497 386.872 358.98 382.113 364.096C377.564 368.981 370.419 368.879 365.625 363.794C363.177 361.259 360.223 359.268 356.955 357.953C355.578 357.372 354.767 357.47 354.777 359.382C354.808 365.742 354.828 372.107 354.777 378.468C354.777 380.426 355.889 380.707 357.251 381.018C365.334 382.971 372.821 386.353 379.181 392.209C385.811 398.329 390.018 405.979 390.401 415.5C390.727 424.024 387.718 431.374 382.317 437.56C375.626 445.21 367.196 449.45 357.868 451.786C355.935 452.265 354.879 452.877 354.533 455.355C353.66 461.603 348.647 465.99 343.068 465.933C337.488 465.878 332.598 461.475 331.72 455.182C331.414 452.979 330.563 452.29 328.762 451.862C319.409 449.613 310.989 445.405 304.221 437.826C299.519 432.552 299.422 425.033 304.032 419.976C308.643 414.915 315.666 414.833 320.516 419.908C322.987 422.534 325.994 424.597 329.333 425.958C330.925 426.604 331.583 426.237 331.532 424.299C331.394 421.245 331.46 418.148 331.465 415.063ZM331.465 367.462C331.465 364.725 331.465 361.987 331.465 359.25C331.465 358.121 331.226 357.234 329.9 357.761C326.421 359.138 323.076 360.821 320.618 363.921C318.578 366.514 318.674 368.675 320.842 371.195C323.173 373.909 326.11 375.58 329.277 376.887C330.991 377.591 331.516 376.923 331.486 375.143C331.43 372.577 331.46 370.017 331.455 367.456L331.465 367.462ZM354.772 416.481C354.772 419.209 354.772 421.943 354.772 424.673C354.772 426.08 355.175 426.625 356.532 426.115C359.969 424.814 363.116 423.055 365.543 420.021C367.583 417.47 367.543 415.359 365.406 412.792C362.988 409.881 359.852 408.248 356.542 406.912C355.292 406.403 354.726 406.759 354.762 408.285C354.803 411.014 354.762 413.741 354.762 416.476L354.772 416.481Z" fill="black"/>
</svg>