<?xml version="1.0" ?><svg xmlns="http://www.w3.org/2000/svg" fill="none" viewBox="5 22 510 476.66">
<path d="M17.8328 498.157C17.0733 498.157 16.1874 498.03 15.4279 497.903C14.5419 497.65 13.656 497.397 12.8965 497.017C12.1371 496.638 11.3777 496.258 10.6183 495.625C9.85885 495.119 9.226 494.486 8.71972 493.853C8.21344 493.22 7.70716 492.461 7.32745 491.702C6.94774 490.942 6.56803 490.056 6.44146 489.17C6.18832 488.284 6.06175 487.398 6.06175 486.512C6.06175 486.386 6.06175 486.132 6.06175 486.006H5.30232V484.234C5.30232 482.462 5.30233 480.057 5.17576 477.146C4.79604 448.794 4.03662 373.358 15.1748 358.423C17.453 355.006 20.2376 351.842 23.4018 349.057C26.5661 346.273 29.9835 343.868 33.654 341.969C37.3245 340.071 41.2482 338.552 45.2985 337.539C49.3487 336.527 53.3989 336.02 57.7023 336.02C64.7903 335.894 72.511 335.894 82.1304 335.894C86.94 335.894 91.7497 335.894 96.5593 335.894C101.369 335.894 106.179 335.894 110.988 335.894C114.659 335.894 118.329 335.894 121.873 335.894C122.253 335.894 122.506 335.894 122.886 335.894C128.075 335.894 133.265 336.653 138.327 338.172C143.39 339.691 148.073 341.843 152.503 344.754C152.503 344.501 152.503 344.374 152.503 344.121C152.377 334.248 152.883 324.123 154.022 314.25V314.124C154.655 310.453 155.668 306.909 157.06 303.365C158.326 299.948 159.971 296.53 161.869 293.366C163.768 290.202 165.92 287.038 168.198 284.253C170.476 281.469 173.134 278.811 176.045 276.406C178.83 274.001 181.868 271.849 185.032 270.077C188.323 268.179 191.613 266.533 195.031 265.394C198.448 264.129 201.992 263.116 205.663 262.483C209.207 261.85 212.877 261.471 216.674 261.471C233.382 261.471 249.962 261.344 266.67 261.344C278.567 261.344 290.591 261.344 302.489 261.344C304.641 261.344 306.792 261.471 308.817 261.724C310.969 261.977 312.994 262.357 315.019 262.736C317.044 263.116 319.07 263.749 321.095 264.382C323.12 265.015 325.145 265.774 327.043 266.533C328.942 267.419 330.841 268.305 332.739 269.318C334.638 270.33 336.41 271.47 338.182 272.609C339.954 273.748 341.599 275.014 343.244 276.406C344.89 277.798 346.409 279.19 347.928 280.709C349.32 282.101 350.712 283.747 352.104 285.519C353.37 287.164 354.636 288.81 355.901 290.708C357.041 292.48 358.18 294.379 359.192 296.151C360.205 298.049 361.091 299.948 361.977 301.973C362.863 303.998 363.496 306.023 364.128 308.048C364.761 310.073 365.268 312.099 365.647 314.25C366.027 316.402 366.407 318.554 366.66 320.579C366.913 322.73 367.04 324.882 367.04 327.034V344.88C374.381 340.071 382.481 337.286 391.215 336.527C394.505 336.273 397.923 336.273 401.214 336.273H459.436C459.942 336.273 460.575 336.273 461.081 336.273C462.347 336.273 463.613 336.273 464.878 336.4C466.65 336.527 468.549 336.78 470.321 337.033C472.093 337.286 473.865 337.792 475.637 338.299C477.282 338.805 479.054 339.438 480.826 340.071C482.598 340.83 484.243 341.589 485.762 342.349C487.408 343.235 489.053 344.121 490.445 345.133C491.964 346.146 493.483 347.285 494.875 348.424C496.268 349.563 497.533 350.829 498.926 352.095C500.191 353.36 501.457 354.753 502.596 356.272C503.735 357.664 504.748 359.183 505.76 360.702C506.773 362.22 507.659 363.866 508.545 365.511C509.431 367.157 510.19 368.802 510.823 370.574C511.456 372.219 512.089 373.991 512.595 375.89C513.101 377.662 513.481 379.434 513.861 381.332C514.114 383.104 514.367 385.003 514.494 386.901C514.62 388.673 514.62 390.445 514.62 392.471V483.221C514.873 483.981 515 484.867 515 485.753C515 486.639 515 487.651 514.873 488.537C514.747 489.423 514.494 490.309 514.114 491.195C513.734 492.081 513.228 492.967 512.722 493.727C512.215 494.486 511.456 495.245 510.823 495.752C510.064 496.385 509.304 496.891 508.418 497.271C507.532 497.777 506.646 498.03 505.76 498.283C504.874 498.536 503.988 498.663 502.976 498.663L17.8328 498.157ZM489.686 473.222V450.06C489.686 425.126 489.686 394.116 489.686 390.319C489.686 388.294 489.559 386.395 489.18 384.497C488.8 382.598 488.294 380.7 487.534 378.928C486.775 377.156 485.889 375.384 484.876 373.738C483.864 372.093 482.598 370.574 481.332 369.308C479.94 367.916 478.548 366.65 476.902 365.638C475.384 364.625 473.612 363.613 471.84 362.98C470.068 362.22 468.296 361.714 466.397 361.334C464.752 360.955 462.98 360.828 461.208 360.828H460.701C448.551 360.701 436.02 360.702 423.616 360.702C414.503 360.702 405.264 360.702 396.151 360.702C395.898 360.702 395.644 360.702 395.391 360.702C393.746 360.702 391.974 360.828 390.328 361.208C388.43 361.587 386.531 362.094 384.759 362.853C382.987 363.613 381.215 364.499 379.57 365.638C377.925 366.65 376.406 367.916 375.14 369.435C373.748 370.827 372.482 372.346 371.47 373.991C370.33 375.637 369.444 377.409 368.812 379.181C368.052 381.079 367.546 382.978 367.293 384.876C366.913 386.775 366.786 388.8 366.913 390.825V473.222H489.686ZM342.105 473.222C342.105 464.109 342.105 450.946 342.105 436.011C342.105 395.761 342.105 345.64 342.105 327.54C342.105 325.135 341.979 322.73 341.599 320.452C341.219 318.174 340.713 315.896 339.954 313.617C339.194 311.339 338.308 309.187 337.169 307.162C336.03 305.137 334.764 303.112 333.372 301.34C331.98 299.568 330.461 297.796 328.689 296.277C327.043 294.758 325.145 293.366 323.246 292.101C321.348 290.835 319.196 289.822 317.171 288.936C315.019 288.05 312.868 287.417 310.589 286.911C306.539 286.152 302.362 285.899 298.185 285.899C297.553 285.899 296.92 285.899 296.287 285.899C283.25 285.899 270.213 285.899 257.177 285.899C244.14 285.899 231.103 285.899 218.067 285.899H217.687C215.156 285.899 212.498 286.152 210.093 286.658C207.435 287.164 204.903 287.924 202.372 288.936C199.841 289.949 197.562 291.215 195.284 292.733C193.006 294.252 190.981 296.024 189.082 297.923C187.184 299.821 185.412 301.973 184.019 304.251C182.5 306.53 181.235 308.934 180.222 311.466C179.21 313.997 178.45 316.529 177.944 319.313C177.438 321.971 177.184 324.756 177.184 327.414C177.184 346.652 177.184 401.963 177.184 442.339V473.222H342.105V473.222ZM58.082 360.955C56.4366 360.955 54.6647 361.081 52.8927 361.461C50.9941 361.841 49.2221 362.347 47.4502 363.106C45.6782 363.866 44.0328 364.752 42.3874 365.891C40.8685 367.03 39.3497 368.169 37.9574 369.561C36.5651 370.954 35.426 372.473 34.4134 374.118C33.4009 375.763 32.5149 377.535 31.7555 379.307C30.996 381.206 30.4898 383.104 30.2366 384.876C29.8569 386.775 29.7303 388.8 29.8569 390.699V473.222H152.63C152.63 466.261 152.63 456.642 152.63 446.516C152.63 421.961 152.63 394.116 152.63 389.813C152.63 387.914 152.377 386.016 151.997 384.117C151.617 382.218 150.984 380.446 150.352 378.674C149.592 376.902 148.706 375.257 147.694 373.738C146.555 372.093 145.415 370.701 144.15 369.308C142.884 368.043 141.365 366.777 139.846 365.764C138.327 364.752 136.682 363.866 134.91 363.106C133.138 362.347 131.366 361.841 129.594 361.461C127.822 361.081 126.05 360.955 124.152 360.955H113.267C103.647 360.955 94.0279 360.828 84.4086 360.828C74.9159 360.828 66.5622 360.828 58.8415 360.955H58.082ZM427.92 318.047C424.376 318.047 420.705 317.668 417.288 316.908C413.744 316.149 410.327 315.136 407.036 313.744C403.745 312.352 400.581 310.58 397.67 308.555C394.758 306.53 391.974 304.251 389.442 301.593C386.911 298.935 384.633 296.151 382.734 293.113C380.709 290.075 379.064 286.785 377.798 283.494C376.406 280.076 375.393 276.659 374.76 273.115C374.128 269.571 373.748 265.901 373.748 262.357C373.748 258.813 374.128 255.142 374.887 251.598C375.646 248.054 376.659 244.51 378.051 241.346C379.443 237.929 381.089 234.891 383.114 231.853C385.139 228.815 387.417 226.031 389.949 223.5C392.48 220.968 395.265 218.69 398.176 216.665C401.087 214.64 404.251 212.994 407.542 211.602C410.833 210.21 414.25 209.197 417.794 208.438C421.338 207.805 424.882 207.425 428.426 207.425C431.97 207.425 435.514 207.805 439.058 208.564C442.475 209.324 446.019 210.336 449.31 211.729C452.601 213.121 455.765 214.893 458.676 216.918C461.587 218.943 464.372 221.221 466.903 223.879C469.435 226.411 471.713 229.322 473.612 232.359C475.637 235.397 477.282 238.688 478.548 241.979C479.94 245.27 480.953 248.814 481.586 252.358C482.218 256.028 482.598 259.572 482.598 263.116C482.598 266.787 482.218 270.33 481.459 273.874C480.7 277.418 479.687 280.836 478.295 284.253C476.902 287.544 475.13 290.835 473.232 293.746C471.207 296.784 468.929 299.568 466.397 302.1C463.866 304.631 461.081 306.909 458.043 308.934C455.132 310.959 451.968 312.605 448.551 313.997C445.26 315.389 441.843 316.402 438.299 317.035C434.881 317.668 431.337 318.047 427.92 318.047V318.047ZM428.046 232.613C426.148 232.613 424.249 232.866 422.477 233.119C420.579 233.499 418.68 234.131 416.908 234.891C415.136 235.65 413.364 236.536 411.719 237.675C410.073 238.815 408.555 240.08 407.162 241.472C405.77 242.865 404.504 244.51 403.492 246.029C402.353 247.674 401.467 249.32 400.707 251.218C399.948 252.99 399.442 254.889 399.062 256.914C398.682 258.813 398.556 260.838 398.556 262.863C398.556 264.888 398.809 266.913 399.188 268.812C399.568 270.71 400.074 272.609 400.834 274.507C401.593 276.279 402.479 278.051 403.618 279.697C404.757 281.342 405.897 282.861 407.289 284.253C408.681 285.645 410.2 286.911 411.845 288.05C413.491 289.189 415.263 290.075 417.035 290.835C418.807 291.594 420.705 292.227 422.604 292.607C424.502 292.987 426.401 293.24 428.426 293.24C430.325 293.24 432.35 292.987 434.248 292.607C436.147 292.227 438.045 291.594 439.817 290.835C441.589 290.075 443.361 289.189 445.007 288.05C446.652 286.911 448.044 285.645 449.563 284.253C450.956 282.861 452.221 281.342 453.234 279.697C454.373 278.051 455.259 276.279 456.018 274.507C456.778 272.609 457.284 270.71 457.664 268.812C458.043 266.913 458.17 264.888 458.17 262.863C458.17 260.838 457.917 258.813 457.537 256.914C457.157 255.016 456.525 253.117 455.765 251.218C455.006 249.446 454.12 247.674 452.981 246.029C451.842 244.384 450.702 242.865 449.31 241.472C447.918 240.08 446.399 238.815 444.754 237.675C443.108 236.536 441.336 235.65 439.564 234.891C437.792 234.131 435.894 233.625 433.995 233.245C432.097 232.866 430.198 232.739 428.426 232.739H428.046V232.613ZM91.37 318.047C87.826 318.047 84.282 317.668 80.7381 317.035C77.1941 316.275 73.7767 315.263 70.4859 313.871C67.1951 312.478 64.0308 310.833 61.1197 308.808C58.2086 306.783 55.4241 304.504 52.8927 301.973C50.3613 299.442 48.083 296.657 46.0579 293.619C44.0328 290.708 42.3874 287.417 40.9951 284.127C39.6028 280.836 38.5903 277.418 37.8308 273.748C37.0714 270.204 36.6917 266.66 36.6917 262.989C36.6917 259.319 36.9448 255.775 37.7043 252.231C38.3371 248.687 39.3497 245.27 40.7419 241.852C42.1342 238.435 43.7796 235.271 45.6782 232.233C47.7033 229.195 49.9816 226.284 52.3864 223.753C54.9178 221.221 57.7023 218.816 60.6134 216.791C63.5246 214.766 66.6888 212.994 69.9796 211.602C73.2705 210.21 76.6878 209.071 80.2318 208.438C83.6492 207.678 87.3197 207.299 90.8637 207.299H91.1168C94.6608 207.299 98.2047 207.678 101.622 208.311C105.166 208.944 108.583 210.083 111.874 211.475C115.165 212.868 118.329 214.513 121.367 216.538C124.278 218.563 127.063 220.842 129.594 223.373C132.126 225.904 134.404 228.689 136.429 231.727C138.454 234.764 140.099 237.929 141.492 241.219C142.884 244.637 143.897 248.054 144.656 251.598C145.415 255.142 145.669 258.813 145.795 262.357C145.795 265.901 145.415 269.571 144.783 273.115C144.15 276.659 143.011 280.203 141.745 283.494C140.353 286.785 138.707 290.075 136.682 293.113C134.657 296.151 132.505 298.935 129.974 301.467C127.442 303.998 124.658 306.403 121.747 308.428C118.836 310.453 115.671 312.225 112.381 313.617C109.09 315.01 105.672 316.022 102.128 316.782C98.4579 317.668 94.9139 318.047 91.37 318.047ZM91.1168 232.613C89.2183 232.613 87.4463 232.739 85.6743 233.119C83.7758 233.499 81.8772 234.005 80.1052 234.764C78.3333 235.524 76.5613 236.41 74.9159 237.549C73.2705 238.561 71.7516 239.827 70.3593 241.219C68.9671 242.612 67.7014 244.13 66.5622 245.776C65.4231 247.421 64.5371 249.193 63.7777 250.965C63.0183 252.737 62.3854 254.636 62.0057 256.661C61.626 258.686 61.3729 260.585 61.3729 262.61C61.3729 264.635 61.4994 266.533 61.8791 268.558C62.2589 270.584 62.7651 272.482 63.5246 274.254C64.284 276.026 65.17 277.798 66.1825 279.57C67.1951 281.216 68.4608 282.734 69.8531 284.127C71.2453 285.519 72.7642 286.785 74.283 287.924C75.9284 289.063 77.5738 289.949 79.3458 290.708C81.1178 291.468 82.8898 292.101 84.9149 292.48C86.8134 292.86 88.712 293.113 90.7371 293.113H91.1168C92.8888 293.113 94.7874 292.987 96.5593 292.607C98.4579 292.227 100.356 291.721 102.128 290.961C103.9 290.202 105.672 289.316 107.318 288.177C108.963 287.038 110.482 285.899 111.874 284.506C113.267 283.114 114.532 281.595 115.671 279.95C116.684 278.431 117.697 276.659 118.456 274.76C119.215 272.862 119.848 270.963 120.228 269.065C120.608 267.166 120.861 265.141 120.861 263.116C120.861 261.217 120.734 259.192 120.355 257.167C119.975 255.269 119.469 253.37 118.709 251.472C117.95 249.7 117.064 247.928 116.051 246.282C114.912 244.637 113.773 243.118 112.381 241.599C110.988 240.207 109.596 238.941 107.951 237.802C106.305 236.663 104.66 235.777 102.888 234.891C101.116 234.131 99.2173 233.499 97.3188 233.119C95.6734 232.739 93.9014 232.486 92.256 232.486L91.1168 232.613ZM258.696 243.118C256.544 243.118 254.392 242.865 252.367 242.612C250.215 242.358 248.19 241.979 246.165 241.472C244.267 241.093 242.115 240.46 240.09 239.827C238.065 239.194 236.166 238.435 234.141 237.549C232.369 236.789 230.47 235.777 228.445 234.764C226.673 233.752 224.901 232.613 223.129 231.347C221.357 230.081 219.712 228.815 218.067 227.423C216.421 226.031 214.902 224.512 213.384 223.12C211.865 221.601 210.472 219.956 209.207 218.31C207.941 216.665 206.675 214.893 205.536 213.121C204.397 211.349 203.258 209.45 202.372 207.678C201.359 205.78 200.473 203.881 199.714 201.856C198.955 199.958 198.195 197.932 197.562 195.907C196.929 193.882 196.423 191.73 196.043 189.705C195.664 187.554 195.284 185.529 195.031 183.377C194.778 181.225 194.651 179.073 194.651 177.048C194.651 174.897 194.778 172.745 195.031 170.593C195.284 168.442 195.537 166.163 196.043 164.138C196.423 161.986 197.056 159.835 197.562 157.81C198.195 155.785 198.955 153.633 199.714 151.734C200.473 149.836 201.486 147.811 202.498 145.912C203.511 144.14 204.524 142.242 205.789 140.343C207.055 138.444 208.321 136.799 209.586 135.154C210.979 133.508 212.371 131.863 213.89 130.344C215.409 128.825 217.054 127.306 218.699 126.041C220.345 124.648 222.117 123.383 223.889 122.244C225.787 120.978 227.559 119.965 229.458 118.953C231.23 117.94 233.255 117.054 235.28 116.168C237.305 115.409 239.33 114.649 241.356 114.016C243.507 113.384 245.532 112.877 247.557 112.498C249.583 112.118 251.734 111.738 253.886 111.612C255.911 111.485 257.936 111.358 259.835 111.358H260.214C262.493 111.358 264.518 111.485 266.67 111.738C268.821 111.991 270.973 112.244 272.998 112.751C275.023 113.13 277.175 113.763 279.2 114.396C281.225 115.029 283.25 115.788 285.149 116.674C287.174 117.56 289.072 118.446 290.971 119.459C292.743 120.472 294.515 121.611 296.413 122.876C298.185 124.015 299.831 125.408 301.476 126.8C303.122 128.192 304.767 129.711 306.159 131.23C307.678 132.749 309.07 134.394 310.463 136.04C311.728 137.685 312.994 139.457 314.26 141.229C315.399 143.001 316.538 144.9 317.551 146.798C318.563 148.697 319.449 150.595 320.209 152.747C321.095 154.772 321.727 156.924 322.36 158.822C322.993 160.974 323.499 163.126 323.879 165.151C324.259 167.176 324.512 169.328 324.765 171.606C325.018 173.758 325.018 175.909 325.018 178.061C325.018 180.213 324.892 182.491 324.639 184.516C324.385 186.668 324.132 188.819 323.626 190.971C323.12 193.249 322.613 195.274 321.981 197.3C321.348 199.325 320.588 201.476 319.702 203.375C318.816 205.527 317.93 207.425 316.918 209.197C315.905 211.096 314.766 212.994 313.5 214.766C312.361 216.538 310.969 218.31 309.577 219.956C308.185 221.601 306.792 223.246 305.147 224.765C303.628 226.284 301.983 227.676 300.337 229.069C298.692 230.461 296.92 231.727 295.148 232.866C293.502 234.005 291.604 235.017 289.579 236.157C287.68 237.169 285.782 238.055 283.756 238.815C281.731 239.574 279.706 240.333 277.681 240.966C275.783 241.473 273.757 241.979 271.479 242.485C269.327 242.865 267.176 243.118 265.151 243.371C263.379 243.498 261.607 243.624 259.961 243.624C259.582 243.118 259.075 243.118 258.696 243.118ZM259.835 136.166C257.43 136.166 255.152 136.419 252.747 136.799C250.089 137.305 247.557 138.065 245.026 138.951C242.495 139.963 240.09 141.229 237.938 142.621C235.66 144.14 233.635 145.786 231.61 147.684C229.711 149.583 227.939 151.734 226.42 153.886C224.901 156.164 223.636 158.569 222.623 161.101C221.611 163.632 220.851 166.29 220.218 168.948C219.712 171.606 219.459 174.39 219.459 177.048C219.459 179.706 219.712 182.364 220.218 185.022C220.725 187.68 221.484 190.212 222.497 192.616C223.509 195.148 224.648 197.426 226.167 199.704C227.559 201.856 229.331 204.008 231.103 205.906C233.002 207.805 235.027 209.45 237.179 210.969C239.33 212.488 241.609 213.754 244.14 214.766C246.545 215.779 249.076 216.665 251.608 217.171C254.139 217.677 256.797 217.93 259.455 218.057H259.582C262.24 218.057 264.771 217.804 267.176 217.298C269.707 216.791 272.239 216.032 274.77 215.019C277.175 214.007 279.58 212.741 281.731 211.349C283.883 209.957 285.908 208.185 287.933 206.413C289.832 204.514 291.477 202.489 292.996 200.337C294.515 198.186 295.781 195.781 296.793 193.376C297.806 190.971 298.565 188.44 299.198 185.782C299.704 183.25 300.084 180.466 300.084 177.808C300.084 175.15 299.957 172.492 299.451 169.834C298.945 167.176 298.312 164.644 297.299 162.113C296.287 159.582 295.148 157.303 293.756 155.025C292.363 152.747 290.718 150.595 288.819 148.697C287.047 146.798 285.022 145.026 282.87 143.507C280.719 141.988 278.441 140.596 276.036 139.584C273.631 138.444 271.099 137.685 268.568 137.052C266.163 136.546 263.758 136.166 261.354 136.166H260.721C260.468 136.166 260.088 136.166 259.835 136.166ZM377.292 175.656C372.102 175.656 366.66 175.656 361.471 175.529C359.825 175.529 358.18 175.15 356.661 174.517C355.142 173.884 353.75 172.998 352.611 171.732C351.471 170.593 350.586 169.201 349.953 167.556C349.32 166.037 349.067 164.391 349.067 162.746C349.067 161.101 349.446 159.582 350.079 158.063C350.712 156.544 351.598 155.152 352.864 154.013C354.003 152.873 355.395 151.987 356.914 151.355C358.306 150.722 359.825 150.469 361.344 150.469H361.597C363.369 150.469 365.141 150.469 366.913 150.469C368.685 150.469 370.457 150.469 372.356 150.469C374.128 150.469 375.9 150.469 377.671 150.469H392.86C392.986 150.469 393.113 150.469 393.366 150.469C394.758 150.469 396.277 150.722 397.67 151.228C399.188 151.861 400.581 152.747 401.846 153.886C403.112 155.025 403.998 156.417 404.631 157.936C405.264 159.455 405.643 161.101 405.643 162.746C405.643 164.391 405.39 166.037 404.757 167.556C404.125 169.201 403.239 170.593 401.973 171.732C400.834 172.872 399.442 173.884 397.923 174.517C396.53 175.15 394.885 175.403 393.366 175.403H393.113C387.797 175.53 382.481 175.656 377.292 175.656ZM152.756 175.529C150.984 175.529 149.212 175.529 147.314 175.529C145.542 175.529 143.77 175.529 141.998 175.529C140.226 175.529 133.391 175.529 131.619 175.529C129.847 175.529 128.202 175.529 126.43 175.529C126.303 175.529 126.177 175.529 125.924 175.529C124.531 175.529 123.012 175.276 121.62 174.77C120.101 174.137 118.709 173.251 117.443 172.112C116.304 170.973 115.292 169.581 114.659 168.062C114.026 166.416 113.646 164.898 113.646 163.252C113.646 161.607 113.899 159.961 114.532 158.443C115.165 156.924 116.051 155.531 117.19 154.266C118.329 153.127 119.722 152.114 121.24 151.481C122.633 150.848 124.152 150.595 125.67 150.595H126.05C131.24 150.469 136.682 150.469 141.998 150.469C147.314 150.469 152.63 150.469 157.946 150.595C159.591 150.595 161.11 150.975 162.629 151.608C164.148 152.241 165.413 153.127 166.553 154.266C167.692 155.405 168.578 156.797 169.211 158.316C169.843 159.835 170.097 161.48 170.097 163.126C170.097 164.771 169.717 166.29 169.211 167.809C168.578 169.328 167.692 170.72 166.553 171.859C165.413 172.998 164.148 173.884 162.629 174.517C161.11 175.15 159.591 175.403 157.946 175.403C156.427 175.53 154.528 175.529 152.756 175.529ZM185.665 107.688C185.158 107.688 184.779 107.688 184.272 107.561C183.007 107.435 181.994 107.055 180.855 106.549C179.842 106.043 178.83 105.41 177.944 104.524C169.084 95.9169 161.11 87.8164 153.769 79.8425C152.63 78.5768 151.997 77.1846 151.491 75.7923C150.984 74.2734 150.858 72.7546 150.858 71.2358C150.984 69.7169 151.364 68.1981 151.997 66.8058C152.63 65.4135 153.516 64.1478 154.655 63.1353C155.668 62.1227 156.933 61.2367 158.452 60.6039C159.844 59.971 161.49 59.5913 163.009 59.5913H163.262C164.781 59.5913 166.173 59.8445 167.565 60.3507C169.084 60.857 170.35 61.743 171.489 62.8821C180.602 71.8686 188.069 79.5894 195.031 86.9304L195.157 87.057L195.284 87.1836C196.803 89.3353 197.942 91.7401 198.828 94.2715L198.955 94.6512V95.0309C198.828 97.4358 197.942 99.714 196.55 101.866C195.157 103.891 193.385 105.41 191.107 106.549C190.221 107.055 189.082 107.435 187.943 107.688C187.057 107.688 186.424 107.688 185.665 107.688ZM333.878 107.688C333.119 107.688 332.233 107.561 331.473 107.435C330.208 107.182 328.942 106.675 327.803 106.043C326.664 105.41 325.651 104.524 324.765 103.638C323.879 102.752 323.12 101.613 322.613 100.347C322.107 99.2077 321.728 98.0686 321.474 96.8029C321.221 95.5372 321.221 94.2715 321.474 93.0058C321.728 91.7401 322.107 90.601 322.613 89.4619C323.12 88.3227 323.879 87.3102 324.892 86.4242C328.689 82.3739 332.739 78.3237 336.663 74.4C338.182 72.8812 339.7 71.3623 341.219 69.8435L342.738 68.3246C344.384 66.6792 346.029 64.9073 347.801 63.2618C348.814 62.1227 350.206 61.2367 351.725 60.6039C353.243 59.971 354.762 59.5913 356.408 59.5913C358.053 59.5913 359.699 59.8445 361.091 60.4773C362.61 61.1102 363.875 61.9961 365.141 63.1353C366.28 64.2744 367.166 65.6667 367.799 67.1855C368.432 68.7044 368.812 70.2232 368.812 71.8686C368.812 73.514 368.558 75.1594 367.926 76.6783C367.293 78.1971 366.407 79.5894 365.268 80.7285C356.534 89.8416 349.193 97.3092 342.105 104.144L341.979 104.271L341.852 104.397C339.954 105.789 337.928 106.929 335.65 107.688H335.524H335.397C334.764 107.688 334.258 107.688 333.878 107.688ZM259.582 79.0831C257.936 79.0831 256.291 78.7034 254.899 78.0705C253.38 77.4377 252.114 76.5517 250.975 75.286C249.836 74.1469 248.95 72.7546 248.317 71.2358C247.684 69.7169 247.431 68.0715 247.431 66.4261V66.0464C247.431 62.629 247.431 59.2116 247.431 55.7942C247.431 54.0222 247.431 48.7063 247.431 48.7063C247.431 47.5672 247.431 46.3015 247.431 45.1623C247.431 41.6184 247.431 38.0744 247.431 34.4039C247.431 32.7585 247.684 31.2396 248.317 29.7208C248.95 28.2019 249.836 26.8097 250.975 25.6705C252.114 24.5314 253.506 23.6454 254.899 23.0126C256.417 22.3797 257.936 22 259.582 22C261.227 22 262.872 22.3797 264.265 23.0126C265.784 23.6454 267.049 24.5314 268.188 25.6705C269.327 26.8097 270.213 28.2019 270.846 29.7208C271.479 31.2396 271.732 32.885 271.732 34.5304C271.859 45.2889 271.859 56.1739 271.732 66.9324C271.732 68.5778 271.353 70.2232 270.72 71.742C270.087 73.2609 269.201 74.6531 268.062 75.7923C266.923 76.9314 265.53 77.8174 264.012 78.4502C262.619 79.0831 260.974 79.3362 259.455 79.3362L259.582 79.0831Z" fill="black"/>
<path d="M512.595 482.842V391.838C512.595 390.066 512.595 388.294 512.468 386.522C512.342 384.75 512.089 382.978 511.835 381.206C511.582 379.434 511.203 377.662 510.696 376.016C510.19 374.244 509.684 372.599 509.051 370.954C508.418 369.308 507.659 367.663 506.899 366.017C506.14 364.372 505.127 362.853 504.241 361.334C503.229 359.815 502.216 358.423 501.077 357.031C499.938 355.639 498.799 354.373 497.533 352.981C496.267 351.715 495.002 350.576 493.609 349.437C492.217 348.298 490.825 347.285 489.306 346.272C487.787 345.26 486.268 344.374 484.749 343.614C483.231 342.728 481.585 342.096 479.94 341.336C478.294 340.703 476.649 340.07 474.877 339.564C473.232 339.058 471.46 338.678 469.688 338.425C467.916 338.172 466.144 337.919 464.498 337.792C462.726 337.666 460.954 337.666 459.182 337.666C439.817 337.666 420.325 337.666 400.96 337.666C397.669 337.666 394.378 337.666 391.214 337.919C381.595 338.805 372.861 342.096 365.141 348.044C365.141 340.45 365.141 333.615 365.141 326.781C365.141 324.755 365.014 322.604 364.761 320.579C364.508 318.554 364.255 316.402 363.875 314.377C363.495 312.352 362.989 310.326 362.356 308.301C361.723 306.276 361.09 304.378 360.331 302.479C359.572 300.581 358.686 298.682 357.673 296.91C356.661 295.012 355.648 293.24 354.509 291.594C353.37 289.822 352.104 288.177 350.838 286.531C349.573 284.886 348.18 283.367 346.661 281.848C345.269 280.329 343.75 278.937 342.105 277.671C340.46 276.279 338.941 275.14 337.169 273.874C335.523 272.735 333.751 271.596 331.979 270.583C330.207 269.571 328.309 268.685 326.41 267.926C324.512 267.166 322.613 266.407 320.588 265.774C318.563 265.141 316.664 264.635 314.639 264.255C312.614 263.875 310.589 263.496 308.564 263.242C306.539 262.989 304.514 262.863 302.489 262.863C273.884 262.736 245.279 262.863 216.674 262.863C213.13 262.863 209.586 263.242 206.042 263.875C202.498 264.508 199.081 265.521 195.79 266.786C192.373 268.052 189.208 269.571 186.044 271.343C183.006 273.115 179.969 275.267 177.311 277.545C174.526 279.823 171.995 282.355 169.717 285.139C167.438 287.924 165.287 290.835 163.515 293.999C161.743 297.163 160.097 300.327 158.831 303.745C157.566 307.162 156.553 310.58 155.92 314.25C154.781 324.123 154.275 333.995 154.402 343.994C154.402 345.133 154.402 346.146 154.402 347.665C153.389 347.032 152.883 346.905 152.503 346.526C147.946 343.488 143.137 341.21 137.947 339.564C132.758 338.045 127.442 337.286 122 337.412C100.609 337.539 79.0923 337.286 57.702 337.539C53.6518 337.539 49.7281 338.045 45.8044 339.058C41.8807 340.07 38.0836 341.463 34.5397 343.361C30.9957 345.26 27.7049 347.538 24.6672 350.196C21.6295 352.854 18.9716 355.892 16.6933 359.309C4.66915 375.257 6.94741 465.628 7.07398 483.981H7.95997C7.8334 484.74 7.70683 485.499 7.8334 486.259C7.8334 487.018 7.95997 487.778 8.21311 488.537C8.33968 489.297 8.71939 489.929 8.97253 490.689C9.35224 491.322 9.73195 491.955 10.2382 492.587C10.7445 493.22 11.2508 493.727 11.8836 494.106C12.5165 494.613 13.1493 494.992 13.7822 495.245C14.415 495.625 15.1745 495.752 15.9339 496.005C16.6933 496.131 17.4527 496.258 18.0856 496.258H502.976C503.735 496.258 504.621 496.131 505.38 496.005C506.14 495.878 506.899 495.499 507.659 495.119C508.418 494.739 509.051 494.359 509.684 493.727C510.317 493.22 510.823 492.587 511.329 491.955C511.835 491.322 512.215 490.562 512.468 489.803C512.721 489.043 512.975 488.284 513.101 487.525C513.228 486.765 513.228 485.879 513.228 485.12C512.975 484.36 512.848 483.601 512.595 482.842ZM175.539 327.413C175.539 324.502 175.792 321.718 176.298 318.933C176.804 316.149 177.564 313.364 178.703 310.833C179.716 308.175 181.108 305.643 182.627 303.365C184.145 300.96 185.917 298.809 187.943 296.784C189.968 294.758 192.119 292.986 194.398 291.341C196.676 289.822 199.207 288.43 201.739 287.417C204.397 286.405 207.055 285.519 209.713 285.012C212.497 284.506 215.282 284.253 218.066 284.253C244.14 284.253 270.213 284.253 296.287 284.253C301.223 284.126 306.159 284.506 311.095 285.392C313.5 285.898 315.778 286.658 317.93 287.544C320.208 288.43 322.36 289.569 324.385 290.835C326.41 292.1 328.309 293.619 330.081 295.265C331.853 296.91 333.498 298.682 335.017 300.581C336.536 302.479 337.802 304.504 338.941 306.656C340.08 308.808 341.092 311.086 341.852 313.364C342.611 315.642 343.118 318.047 343.497 320.452C343.877 322.857 344.003 325.262 344.003 327.793C344.13 353.234 344.003 443.605 344.003 475.247H175.412C175.412 442.086 175.412 352.981 175.539 327.413ZM27.958 474.994C27.958 452.212 27.958 396.647 27.958 390.698C27.8315 388.673 28.0846 386.522 28.3377 384.497C28.7175 382.471 29.2237 380.446 29.9832 378.548C30.7426 376.649 31.6286 374.751 32.7677 372.979C33.9068 371.207 35.1725 369.688 36.5648 368.169C37.9571 366.65 39.6025 365.384 41.2479 364.245C42.8933 363.106 44.7919 362.094 46.6904 361.334C48.589 360.575 50.4875 359.942 52.5126 359.562C54.5378 359.183 56.5629 359.056 58.588 359.056C80.358 358.803 102.002 358.929 123.772 359.056C125.797 359.056 127.695 359.183 129.72 359.562C131.746 359.942 133.517 360.575 135.416 361.334C137.315 362.094 138.96 362.98 140.732 364.119C142.377 365.258 143.896 366.524 145.415 367.916C146.807 369.308 148.073 370.954 149.212 372.599C150.351 374.244 151.237 376.016 151.997 377.915C152.756 379.813 153.389 381.712 153.769 383.737C154.148 385.762 154.402 387.787 154.402 389.813C154.402 396.014 154.402 452.085 154.402 474.994H27.958ZM365.141 474.994C365.141 452.212 365.141 396.774 365.141 390.825C365.014 388.673 365.267 386.648 365.52 384.623C365.9 382.598 366.406 380.573 367.166 378.548C367.925 376.649 368.938 374.751 369.95 372.979C371.089 371.207 372.355 369.561 373.874 368.169C375.393 366.65 376.912 365.384 378.684 364.245C380.456 363.106 382.228 362.094 384.126 361.334C386.025 360.575 388.05 359.942 390.075 359.562C392.1 359.183 394.125 359.056 396.277 359.056C417.794 358.929 439.311 358.929 460.828 359.056C462.853 359.056 464.878 359.183 466.903 359.562C468.928 359.942 470.827 360.575 472.725 361.334C474.624 362.094 476.396 363.106 478.041 364.245C479.687 365.384 481.332 366.65 482.724 368.169C484.117 369.561 485.382 371.207 486.521 372.979C487.661 374.751 488.547 376.523 489.306 378.421C490.065 380.32 490.572 382.345 490.951 384.37C491.331 386.395 491.458 388.42 491.458 390.445C491.458 395.761 491.458 456.009 491.458 475.121H365.141V474.994ZM115.798 163.126C115.798 161.733 115.924 160.341 116.557 158.949C117.063 157.556 117.823 156.417 118.835 155.405C119.848 154.392 120.987 153.633 122.253 153.126C123.518 152.62 124.911 152.367 126.303 152.367C136.935 152.24 147.567 152.24 158.199 152.367C159.591 152.367 160.983 152.62 162.249 153.253C163.515 153.759 164.654 154.519 165.666 155.531C166.679 156.544 167.438 157.683 167.945 158.949C168.451 160.214 168.704 161.607 168.704 162.999C168.704 164.391 168.451 165.783 167.945 167.049C167.438 168.315 166.679 169.454 165.666 170.467C164.654 171.479 163.515 172.239 162.249 172.745C160.983 173.251 159.591 173.504 158.199 173.504C152.883 173.631 147.44 173.504 142.124 173.504C136.935 173.504 131.745 173.504 126.683 173.504C125.29 173.631 123.898 173.378 122.632 172.871C121.367 172.365 120.101 171.606 119.088 170.593C118.076 169.581 117.317 168.441 116.684 167.176C116.051 165.91 115.798 164.644 115.798 163.126ZM258.822 241.346C260.847 241.346 262.999 241.346 265.024 241.093C267.049 240.966 269.201 240.586 271.226 240.207C273.251 239.827 275.276 239.321 277.301 238.814C279.326 238.182 281.225 237.549 283.25 236.789C285.148 236.03 287.047 235.144 288.946 234.131C290.844 233.119 292.616 232.106 294.388 230.967C296.16 229.828 297.805 228.562 299.451 227.297C301.096 226.031 302.615 224.639 304.134 223.12C305.653 221.601 307.045 220.082 308.437 218.437C309.703 216.791 310.969 215.146 312.234 213.374C313.374 211.602 314.513 209.83 315.525 208.058C316.538 206.159 317.424 204.261 318.31 202.362C319.069 200.464 319.829 198.439 320.461 196.413C321.094 194.388 321.601 192.363 322.107 190.338C322.487 188.313 322.866 186.161 323.119 184.136C323.373 181.984 323.499 179.959 323.499 177.808C323.499 175.656 323.499 173.631 323.246 171.479C323.119 169.327 322.74 167.302 322.36 165.277C321.98 163.252 321.474 161.227 320.968 159.075C320.335 157.05 319.702 155.025 318.943 153.126C318.183 151.101 317.297 149.203 316.285 147.431C315.272 145.532 314.26 143.76 313.12 141.988C311.981 140.216 310.716 138.571 309.45 136.926C308.184 135.28 306.792 133.761 305.273 132.242C303.881 130.724 302.362 129.331 300.717 127.939C299.071 126.547 297.426 125.281 295.78 124.142C294.008 123.003 292.236 121.864 290.464 120.851C288.692 119.839 286.794 118.953 284.895 118.067C282.997 117.307 281.098 116.548 279.073 115.915C277.048 115.282 275.023 114.776 272.998 114.396C270.973 114.016 268.947 113.637 266.922 113.383C264.897 113.13 262.746 113.004 260.72 113.004C258.695 113.004 256.544 113.13 254.518 113.257C252.493 113.51 250.342 113.763 248.317 114.143C246.291 114.523 244.266 115.029 242.241 115.662C240.216 116.295 238.317 116.927 236.419 117.813C234.52 118.573 232.622 119.459 230.723 120.471C228.825 121.484 227.053 122.497 225.407 123.636C223.635 124.775 221.99 126.04 220.345 127.433C218.699 128.825 217.18 130.217 215.661 131.61C214.143 133.128 212.75 134.647 211.485 136.293C210.219 137.938 208.953 139.583 207.814 141.355C206.675 143.127 205.536 144.899 204.65 146.798C203.764 148.697 202.751 150.595 201.992 152.494C201.232 154.392 200.473 156.417 199.84 158.442C199.207 160.468 198.701 162.493 198.321 164.518C197.942 166.543 197.562 168.695 197.435 170.72C197.182 172.871 197.182 174.897 197.056 177.048C197.056 179.073 197.182 181.225 197.435 183.25C197.689 185.275 197.942 187.3 198.321 189.452C198.701 191.477 199.207 193.502 199.84 195.527C200.473 197.553 201.106 199.451 201.865 201.35C202.625 203.248 203.511 205.147 204.523 206.919C205.536 208.817 206.548 210.589 207.688 212.235C208.827 214.007 209.966 215.652 211.358 217.297C212.624 218.943 214.016 220.462 215.408 221.981C216.801 223.499 218.319 224.892 219.965 226.157C221.484 227.55 223.129 228.689 224.901 229.954C226.546 231.094 228.318 232.233 230.09 233.245C231.862 234.258 233.761 235.144 235.533 236.03C237.431 236.916 239.33 237.549 241.229 238.308C243.127 238.941 245.152 239.447 247.177 239.954C249.203 240.46 251.228 240.713 253.253 240.966C254.645 241.093 256.67 241.346 258.822 241.346ZM260.847 134.394C263.632 134.521 266.289 134.774 268.947 135.407C271.605 136.04 274.263 136.926 276.795 138.065C279.326 139.204 281.731 140.596 284.009 142.115C286.288 143.76 288.313 145.532 290.211 147.557C292.11 149.583 293.755 151.734 295.274 154.139C296.793 156.544 298.059 158.949 299.071 161.607C300.084 164.265 300.843 166.923 301.349 169.581C301.856 172.365 302.109 175.15 301.982 177.934C301.982 180.719 301.603 183.503 301.096 186.288C300.463 189.072 299.704 191.604 298.565 194.262C297.426 196.793 296.16 199.325 294.641 201.603C293.122 203.881 291.35 206.033 289.325 208.058C287.3 209.956 285.275 211.728 282.87 213.247C280.592 214.766 278.187 216.032 275.529 217.171C272.998 218.184 270.34 218.943 267.682 219.576C265.024 220.082 262.239 220.335 259.455 220.335C256.67 220.335 254.012 219.955 251.228 219.449C248.57 218.943 245.912 218.057 243.38 216.918C240.849 215.779 238.444 214.513 236.166 212.994C233.888 211.475 231.736 209.703 229.837 207.678C227.939 205.653 226.167 203.501 224.648 201.223C223.129 198.945 221.863 196.413 220.851 193.882C219.838 191.351 218.952 188.693 218.446 185.908C217.94 183.124 217.687 180.339 217.687 177.555C217.687 174.643 217.94 171.859 218.446 169.074C218.952 166.29 219.838 163.505 220.851 160.974C221.99 158.316 223.256 155.911 224.901 153.506C226.42 151.101 228.318 148.95 230.344 146.925C232.369 144.899 234.52 143.127 236.925 141.609C239.33 140.09 241.735 138.697 244.393 137.685C247.051 136.672 249.709 135.913 252.493 135.407C255.278 134.647 258.062 134.394 260.847 134.394ZM155.161 78.8298C154.275 77.8173 153.642 76.6782 153.262 75.4125C152.883 74.1468 152.63 72.8811 152.756 71.4888C152.883 70.0965 153.136 68.8308 153.769 67.6917C154.402 66.5525 155.161 65.4134 156.047 64.5274C156.933 63.5149 158.072 62.7555 159.338 62.2492C160.603 61.7429 161.869 61.4897 163.135 61.3632C164.527 61.3632 165.793 61.6163 167.059 61.996C168.324 62.5023 169.463 63.1352 170.349 64.1477C178.323 71.9951 186.171 79.969 193.765 88.0695C195.157 90.0946 196.296 92.3729 197.056 94.7777C196.929 96.9294 196.17 98.9545 195.031 100.726C193.765 102.498 192.246 103.891 190.347 104.777C189.461 105.283 188.575 105.536 187.563 105.789C186.55 105.916 185.664 106.042 184.652 105.916C183.639 105.789 182.753 105.536 181.867 105.03C180.981 104.524 180.222 104.017 179.462 103.384C171.109 95.284 163.008 87.1835 155.161 78.8298ZM91.3696 316.275C94.787 316.275 98.2044 315.896 101.622 315.263C105.039 314.63 108.33 313.617 111.494 312.225C114.659 310.833 117.696 309.187 120.607 307.289C123.518 305.39 126.176 303.112 128.581 300.581C130.986 298.049 133.138 295.391 135.163 292.48C137.061 289.569 138.707 286.405 139.973 283.241C141.238 279.95 142.251 276.659 143.01 273.115C143.643 269.698 144.023 266.154 144.023 262.61C144.023 259.066 143.643 255.648 143.01 252.231C142.377 248.813 141.365 245.396 139.973 242.232C138.58 238.941 137.061 235.903 135.036 232.992C133.138 230.081 130.86 227.423 128.455 224.892C126.05 222.36 123.265 220.209 120.481 218.31C117.57 216.412 114.532 214.766 111.368 213.374C108.203 211.982 104.913 211.096 101.495 210.336C98.0779 209.703 94.6605 209.324 91.2431 209.324C87.8257 209.324 84.4083 209.703 80.9909 210.463C77.5735 211.222 74.2827 212.235 71.1184 213.5C67.9542 214.893 64.9165 216.538 62.0054 218.437C59.0943 220.462 56.4363 222.613 54.0315 225.145C51.6266 227.676 49.4749 230.334 47.4498 233.245C45.5513 236.156 43.9059 239.321 42.6402 242.485C41.3745 245.776 40.3619 249.067 39.7291 252.611C39.0962 256.028 38.7165 259.572 38.7165 263.116C38.7165 266.66 39.0962 270.077 39.7291 273.495C40.4885 276.912 41.501 280.329 42.7667 283.494C44.0324 286.658 45.6779 289.822 47.703 292.733C49.6015 295.644 51.7532 298.302 54.2846 300.834C56.6894 303.365 59.3474 305.517 62.2585 307.415C65.1696 309.314 68.2073 310.959 71.3716 312.352C74.5358 313.744 77.8266 314.756 81.244 315.389C84.4083 316.022 87.9523 316.275 91.3696 316.275ZM91.4962 230.714C93.5213 230.714 95.673 230.967 97.6982 231.473C99.7233 231.853 101.748 232.486 103.647 233.372C105.545 234.258 107.317 235.27 109.089 236.41C110.861 237.549 112.38 238.941 113.773 240.46C115.165 241.979 116.557 243.624 117.696 245.396C118.835 247.168 119.721 249.067 120.607 250.965C121.367 252.864 122 254.889 122.379 257.04C122.759 259.066 122.886 261.217 122.886 263.242C122.886 265.394 122.632 267.419 122.253 269.444C121.873 271.469 121.24 273.495 120.354 275.393C119.595 277.292 118.582 279.19 117.317 280.962C116.177 282.734 114.785 284.253 113.393 285.772C111.874 287.291 110.355 288.556 108.583 289.696C106.811 290.835 105.039 291.847 103.141 292.607C101.242 293.366 99.217 293.999 97.1919 294.379C95.1667 294.758 93.1416 295.012 90.9899 294.885C88.9648 294.885 86.8131 294.632 84.788 294.252C82.7629 293.872 80.7378 293.24 78.8392 292.354C76.9407 291.594 75.1687 290.582 73.3967 289.316C71.6247 288.177 70.1059 286.784 68.587 285.266C67.1948 283.747 65.8025 282.101 64.6634 280.329C63.5242 278.557 62.6382 276.659 61.7522 274.76C60.9928 272.735 60.36 270.837 59.9803 268.685C59.6006 266.66 59.474 264.508 59.474 262.483C59.474 260.331 59.7271 258.306 60.1068 256.281C60.4865 254.256 61.1194 252.231 62.0054 250.332C62.7648 248.434 63.7774 246.535 64.9165 244.763C66.0556 242.991 67.4479 241.472 68.9667 239.954C70.4856 238.435 72.0044 237.169 73.7764 236.03C75.5484 234.891 77.3204 233.878 79.2189 233.119C81.1175 232.359 83.1426 231.726 85.1677 231.347C87.3194 230.84 89.4711 230.714 91.4962 230.714ZM375.646 262.356C375.646 265.9 375.899 269.318 376.532 272.862C377.165 276.279 378.177 279.697 379.443 282.987C380.709 286.278 382.354 289.316 384.253 292.227C386.151 295.138 388.303 297.923 390.708 300.454C393.113 302.985 395.771 305.137 398.682 307.162C401.593 309.187 404.631 310.833 407.795 312.225C410.959 313.617 414.25 314.63 417.667 315.389C421.085 316.149 424.502 316.402 427.919 316.528C431.337 316.528 434.754 316.275 438.172 315.516C441.589 314.883 444.88 313.87 448.044 312.478C451.208 311.086 454.246 309.567 457.157 307.542C460.068 305.643 462.726 303.365 465.131 300.96C467.536 298.429 469.814 295.771 471.713 292.86C473.611 289.949 475.257 286.911 476.649 283.62C478.041 280.329 479.054 277.039 479.687 273.621C480.446 270.204 480.699 266.66 480.699 263.242C480.699 259.698 480.446 256.281 479.687 252.737C479.054 249.32 478.041 245.902 476.775 242.612C475.51 239.321 473.864 236.283 471.966 233.372C470.067 230.461 467.916 227.676 465.511 225.271C463.106 222.74 460.448 220.588 457.537 218.563C454.626 216.538 451.588 214.893 448.424 213.627C445.26 212.235 441.969 211.222 438.551 210.589C435.134 209.956 431.717 209.577 428.299 209.577C424.882 209.577 421.464 209.956 418.047 210.589C414.63 211.222 411.339 212.235 408.175 213.627C405.01 215.019 401.973 216.538 399.061 218.563C396.15 220.462 393.492 222.74 391.088 225.145C388.683 227.676 386.404 230.334 384.506 233.245C382.607 236.156 380.962 239.194 379.57 242.485C378.177 245.649 377.165 249.067 376.532 252.484C376.026 255.395 375.646 258.812 375.646 262.356ZM428.173 230.841C430.198 230.841 432.349 230.967 434.375 231.473C436.4 231.853 438.425 232.486 440.323 233.245C442.222 234.005 444.12 235.017 445.766 236.156C447.538 237.296 449.057 238.688 450.576 240.08C452.094 241.599 453.36 243.244 454.499 244.89C455.638 246.662 456.651 248.434 457.41 250.459C458.17 252.357 458.803 254.383 459.182 256.408C459.562 258.433 459.815 260.584 459.815 262.61C459.815 264.761 459.562 266.786 459.182 268.812C458.803 270.837 458.17 272.862 457.41 274.887C456.651 276.785 455.638 278.684 454.499 280.456C453.36 282.228 452.094 283.873 450.576 285.266C449.057 286.784 447.538 288.05 445.766 289.316C443.994 290.455 442.222 291.468 440.323 292.227C438.425 292.986 436.4 293.619 434.375 293.999C432.349 294.379 430.324 294.632 428.173 294.632C426.147 294.632 423.996 294.379 421.971 293.999C419.946 293.619 417.92 292.986 416.022 292.227C414.123 291.468 412.225 290.455 410.579 289.316C408.807 288.177 407.289 286.784 405.77 285.392C404.251 283.873 402.985 282.228 401.846 280.583C400.707 278.811 399.694 277.039 398.935 275.013C398.175 272.988 397.543 271.09 397.163 268.938C396.783 266.913 396.53 264.761 396.53 262.736C396.53 260.584 396.657 258.559 397.163 256.534C397.543 254.509 398.175 252.484 398.935 250.459C399.694 248.56 400.707 246.662 401.846 244.89C402.985 243.118 404.251 241.472 405.77 240.08C407.289 238.561 408.807 237.296 410.579 236.03C412.351 234.891 414.123 233.878 416.022 233.119C417.92 232.359 419.946 231.726 421.971 231.347C424.122 230.967 426.147 230.841 428.173 230.841ZM361.47 152.367C366.786 152.24 372.229 152.367 377.545 152.367C382.607 152.367 387.67 152.367 392.733 152.367C394.125 152.24 395.518 152.494 396.91 153C398.302 153.506 399.441 154.266 400.454 155.278C401.466 156.291 402.352 157.43 402.859 158.696C403.491 160.088 403.745 161.354 403.745 162.872C403.745 164.265 403.491 165.657 402.985 167.049C402.479 168.441 401.719 169.581 400.707 170.593C399.694 171.606 398.555 172.365 397.163 172.871C395.897 173.378 394.505 173.631 392.986 173.631C382.481 173.757 371.849 173.757 361.344 173.631C359.951 173.631 358.559 173.378 357.293 172.871C356.028 172.365 354.889 171.479 353.876 170.467C352.863 169.454 352.104 168.315 351.598 166.923C351.091 165.53 350.838 164.265 350.838 162.746C350.838 161.354 351.091 159.961 351.724 158.696C352.231 157.43 352.99 156.291 354.003 155.278C355.015 154.266 356.154 153.506 357.42 153C358.686 152.62 360.078 152.367 361.47 152.367ZM249.329 66.5526C249.329 61.2366 249.329 55.7941 249.329 50.4782C249.329 45.1622 249.203 39.7197 249.329 34.4038C249.329 33.0115 249.582 31.6192 250.089 30.3535C250.595 29.0878 251.354 27.9487 252.367 26.9361C253.379 25.9236 254.518 25.1641 255.784 24.6579C257.05 24.1516 258.442 23.8984 259.834 23.8984C261.227 23.8984 262.619 24.1516 263.885 24.6579C265.15 25.1641 266.289 25.9236 267.302 26.9361C268.315 27.9487 269.074 29.0878 269.58 30.3535C270.087 31.6192 270.34 33.0115 270.34 34.4038C270.466 45.1622 270.466 56.0472 270.34 66.8057C270.34 68.198 270.087 69.5902 269.454 70.8559C268.947 72.1216 268.188 73.2608 267.175 74.2733C266.163 75.2859 265.024 76.0453 263.758 76.5516C262.492 77.0579 261.1 77.311 259.708 77.311C258.316 77.311 256.923 77.0579 255.658 76.425C254.392 75.9187 253.253 75.0327 252.24 74.0202C251.228 73.0076 250.468 71.8685 249.962 70.4762C249.456 69.3371 249.203 67.9448 249.329 66.5526ZM324.132 99.5873C323.626 98.5748 323.373 97.5622 323.119 96.5497C322.993 95.5371 322.993 94.398 323.119 93.3854C323.246 92.2463 323.626 91.3603 324.132 90.3477C324.638 89.3352 325.271 88.5757 326.031 87.8163C331.347 82.2472 336.916 76.6782 342.358 71.2356C344.51 69.084 346.661 66.8057 348.94 64.654C349.952 63.6414 351.091 62.882 352.357 62.3757C353.623 61.8695 355.015 61.4898 356.407 61.4898C357.8 61.4898 359.192 61.7429 360.458 62.2492C361.723 62.7555 362.862 63.5149 363.875 64.5274C364.888 65.54 365.647 66.6791 366.153 67.9448C366.66 69.2105 366.913 70.6028 367.039 71.9951C367.039 73.3873 366.786 74.7796 366.28 76.0453C365.774 77.311 365.014 78.4501 364.002 79.4627C356.407 87.4366 348.813 95.1574 340.966 102.878C339.194 104.144 337.422 105.156 335.27 105.916C334.131 106.042 332.992 106.042 331.979 105.789C330.84 105.536 329.828 105.156 328.815 104.65C327.803 104.144 326.917 103.384 326.157 102.498C325.145 101.612 324.638 100.6 324.132 99.5873Z" fill="black"/>
</svg>