<?xml version="1.0" ?><svg xmlns="http://www.w3.org/2000/svg" fill="none" viewBox="32.1 2.2 442.5 515.6">
<path fill-rule="evenodd" clip-rule="evenodd" d="M66.3996 438.4L61.1996 436.2C47.6996 430.2 39.1996 421.1 34.2996 407.5L32.0996 401.5V39.5002L34.2996 33.5002C37.2996 25.3002 40.3996 20.4002 46.0996 14.8002C51.1996 9.8002 58.1996 5.7002 65.1996 3.5002C68.0996 2.6002 82.9996 2.3002 176 2.3002L283.6 2.2002L338.4 57.1002C393 111.8 393 111.8 393.7 116.5V116.6C394 119 394.2 184.5 393.9 260.8C393.9 278.1 393.8 293.3 393.8 306.6C393.8 325.9 393.7 341.1 393.7 353.3V356.1H391C385 356.1 379 356.8 373.2 358.2L369.7 359.1L370 129.8H339.4C303.2 129.8 300.2 129.7 290 124.6C283.4 121.3 274 112 270.8 105.3C265.7 94.9002 265.7 92.0002 265.7 56.2002V25.6002L172.5 25.7002C117.4 25.8002 76.7996 26.2002 73.6996 26.5002C66.6996 28.1002 60.2996 33.6002 57.7996 40.2002C56.3996 43.8002 56.3996 53.8002 56.3996 220.5C56.3996 387.2 56.3996 397.2 57.7996 400.9C59.5996 405.6 64.7996 411 69.6996 413.3L73.4996 415H212.6C260.8 415 292.6 415 313.5 414.9H316.9L316.3 418.3C315.4 423.4 314.9 428.2 314.9 432.7V438.4H66.3996V438.4ZM289.9 62.7002C290 91.1002 290.2 91.5002 294 96.8002C296.3 100.1 301.7 103.9 305.6 105C305.9 105.1 308.5 105.6 326.1 105.6C328.4 105.6 330.8 105.6 333.3 105.6L351.8 105.4L289.9 43.5002V62.7002V62.7002Z" fill="black"/>
<path fill-rule="evenodd" clip-rule="evenodd" d="M48.1 16.8C52.7 12.3 59.4 8.3 66.1 6.2C68.8 5.3 92.5 5.1 176 5.1L282.4 5L336.4 59.1C389.1 111.9 390.4 113.3 390.9 117C391.1 119.1 391.3 183.8 391.1 260.9C391 303.1 391 332.7 390.9 353.4C384.5 353.4 378.3 354.2 372.5 355.6L372.8 127H339.3C302.9 127 300.5 126.8 291.2 122.1C285.1 119.1 276.3 110.3 273.3 104.1C268.6 94.5 268.4 92.5 268.4 56.2V22.8L172.3 22.9C119.4 23 74.7 23.3 72.9 23.8C65.1 25.6 57.8 31.7 54.9 39.3C53.4 43.4 53.4 48.4 53.4 220.6C53.4 393.2 53.4 397.8 54.9 402C57 407.5 62.8 413.5 68.3 416L72.7 418H212.4C260.8 418 292.5 418 313.3 417.9C312.4 422.8 311.9 427.7 311.9 432.8C311.9 433.8 311.9 434.8 311.9 435.7H67L62.4 433.7C49.7 428 41.6 419.4 37 406.6L35 401.1V40L37 34.5C39.7 26.9 42.6 22.2 48.1 16.8ZM304.9 107.8C306.8 108.4 318.4 108.6 333.4 108.5L358.7 108.3L287.2 36.8V62.9C287.3 91.1 287.4 92.4 291.8 98.7C294.4 102.4 300.3 106.6 304.9 107.8Z" fill="black"/>
<path d="M184.3 296.3C146.9 296.3 128.3 296.2 118.7 295.7C109.4 295.2 107 294.2 105.4 290.4C105.3 290.2 105.2 290 105.1 289.7C103.8 287 103.6 281.5 103.6 224.6C103.6 201.5 103.7 162.4 104.5 160.1C105.1 158.4 106.6 156.3 107.9 155.1L110.7 152.6H324.2L327 155.1C328.5 156.5 329.8 158.8 330.3 159.9V160V160.1C331.1 162.4 331.2 201.5 331.2 224.6C331.2 282.2 331.1 287 329.7 289.7C329.6 289.9 329.5 290.1 329.4 290.4C327.7 294.2 325.3 295.2 316.1 295.7C306.5 296.3 287.9 296.3 250.5 296.3H184.3ZM307.1 272.2V256H229.5V272.2H307.1ZM205.3 272.2V256H127.7V272.2H205.3ZM307.1 232.6V216.4H229.5V232.6H307.1ZM205.3 232.6V216.4H127.7V232.6H205.3ZM307.1 192.2V176H229.5V192.2H307.1ZM205.3 192.2V176H127.7V192.2H205.3Z" fill="black"/>
<path d="M109.8 157.3C108.8 158.2 107.6 160 107.1 161.2C106.7 162.4 106.3 188.5 106.3 224.7C106.3 277.9 106.5 286.4 107.5 288.5C110.3 293.9 103.5 293.6 217.4 293.6C331.3 293.6 324.5 293.9 327.3 288.5C328.4 286.4 328.5 277.9 328.5 224.7C328.5 188.5 328.2 162.4 327.7 161.2C327.1 160 326 158.2 325.1 157.3L323.1 155.5H217.4H111.7L109.8 157.3ZM208.1 184.1V195H166.5H124.9V184.1V173.2H166.5H208.1V184.1ZM309.9 184.1V195H268.3H226.7V184.1V173.2H268.3H309.9V184.1ZM208.1 224.5V235.4H166.5H124.9V224.5V213.6H166.5H208.1V224.5ZM309.9 224.5V235.4H268.3H226.7V224.5V213.6H268.3H309.9V224.5ZM208.1 264.1V275H166.5H124.9V264.1V253.2H166.5H208.1V264.1ZM309.9 264.1V275H268.3H226.7V264.1V253.2H268.3H309.9V264.1Z" fill="black"/>
<path d="M117.4 351C112.4 351 110.5 350.6 107.6 348C104.4 345.2 102.9 340.8 103.7 336.5C104.5 332.3 107.4 329.1 111.3 327.9C112.8 327.4 114.7 327.2 116.7 327.2C119.7 327.2 123.8 327.7 126.5 329.2L126.6 329.3L126.7 329.4C130.2 331.8 132.3 337.7 131.3 342.1C130.8 344.1 129.1 346.7 127.3 348.3C124.3 350.6 122.2 351 117.4 351Z" fill="black"/>
<path d="M112.1 330.6C105.8 332.6 104.2 341.3 109.4 345.8C111.6 347.8 112.7 348.1 117.4 348.1C121.9 348.1 123.3 347.8 125.3 346C126.7 344.8 128.1 342.7 128.4 341.4C129.2 338.1 127.5 333.5 125 331.7C122.2 330.2 115.8 329.5 112.1 330.6Z" fill="black"/>
<path d="M142.5 351.1L139.2 347.8L139.1 347.7C136.9 345.3 135.9 343.5 135.9 339.6C135.9 334.2 138.4 330.2 143 328.3C145.5 327.3 151.6 327 190.3 327C214.3 327 226.4 327 232.8 327.6C240 328.3 241.6 330 243.4 333.5C245 336.5 245.4 340.1 244.3 343.4C243.3 346.4 241.3 348.7 238.7 349.9C237.5 350.5 236.4 351 189.6 351H142.5V351.1Z" fill="black"/>
<path d="M144.2 330.9C140.6 332.4 138.8 335.3 138.8 339.6C138.8 342.6 139.4 343.7 141.2 345.8L143.6 348.2H189.5C220.7 348.2 236.1 348 237.4 347.3C241.7 345.3 243.4 339.3 240.8 334.7C238.3 329.7 238 329.7 190.2 329.7C155.6 329.8 146.3 330.1 144.2 330.9Z" fill="black"/>
<path d="M391.5 517.8C345.7 517.8 308.4 480.5 308.4 434.7C308.4 388.9 345.7 351.6 391.5 351.6C437.3 351.6 474.6 388.9 474.6 434.7C474.6 480.5 437.3 517.8 391.5 517.8ZM391.5 370.5C356.1 370.5 327.3 399.3 327.3 434.7C327.3 470.1 356.1 498.9 391.5 498.9C426.9 498.9 455.7 470.1 455.7 434.7C455.7 399.3 426.9 370.5 391.5 370.5Z" fill="black"/>
<path d="M391.5 515C347.2 515 311.2 479 311.2 434.7C311.2 390.4 347.2 354.4 391.5 354.4C435.8 354.4 471.8 390.4 471.8 434.7C471.8 479 435.8 515 391.5 515ZM391.5 367.7C354.5 367.7 324.5 397.7 324.5 434.7C324.5 471.7 354.5 501.7 391.5 501.7C428.5 501.7 458.5 471.7 458.5 434.7C458.5 397.7 428.5 367.7 391.5 367.7Z" fill="black"/>
<path d="M396.7 492.3C396.5 492.3 396.4 492.3 396.2 492.3C395.5 492.3 394.9 492.3 394.2 492.3C393.5 492.3 392.8 492.3 392.1 492.3C391.4 492.3 390.6 492.3 389.9 492.3C387.3 492.3 385.6 490.7 385.6 488V480.6C377.8 479.3 371.7 476.2 367.1 471.2C362.7 466.4 360.5 460.2 360.4 452.4C360.4 450.4 361.7 448.4 364.4 448.4H364.5H364.6C366.2 448.5 367.8 448.6 369.3 448.6C370.1 448.6 370.9 448.7 371.7 448.7H378.5C382.7 448.7 383.1 451.8 383.1 453.1C383.1 454.4 383.3 455.5 383.6 456.7C384.7 460.3 387.3 462.4 391.1 462.7C391.8 462.7 392.6 462.8 393.4 462.8C394.6 462.8 395.5 462.7 396.2 462.5C397.6 462.1 398.6 461.4 399.3 460.5L399.4 460.4C400.2 459.3 400.7 458.1 400.8 456.8C401.1 452.9 399.6 450.3 396.2 448.4C394.2 447.3 392 446.5 389.7 445.6C388.6 445.2 387.4 444.7 386.3 444.3C382.1 442.5 377.8 440.6 374 437.9C366.8 432.9 363.3 425.7 363.4 416.7C363.6 404.7 371.7 395.4 384.4 392.6L384.9 392.5C385.4 392.4 386 392.3 386.5 392.2V384.3C386.5 381.5 388.1 379.8 390.9 379.8H391C391.7 379.8 392.4 379.8 393 379.8C393.7 379.8 394.4 379.8 395.1 379.8C395.8 379.8 396.6 379.8 397.3 379.8C399.9 379.8 401.5 381.4 401.5 384V392.5C408.7 394 414.3 397.6 418.2 403C421.1 407 422.8 411.8 423.3 417.2C423.4 417.6 423.4 418.1 423.4 418.5C423.4 418.8 423.4 419.1 423.5 419.5C423.7 421.2 423.1 422.2 422.6 422.8C422.1 423.4 421.1 424.1 419.5 424.1H405C403 424.1 401 422.8 401 419.9C401 418.3 400.7 416.7 400.2 415.1C398.8 411.1 395.7 410.2 393.4 410.2C392 410.2 390.5 410.5 389.3 411.2C387.4 412.2 386.5 413.9 386.3 416.9C386.1 420.2 387.3 422.5 390.3 424.3C392.7 425.8 395.5 426.8 398.3 427.9C399 428.2 399.7 428.5 400.5 428.7C405.7 430.8 411 433.3 415.5 437.1C417.8 439.1 419.8 441.5 421.2 444C422.6 446.7 423.5 449.6 423.7 452.6C424.2 457.5 423.6 462.2 421.8 466.4C418.9 472.9 413.8 477.3 406.1 479.7C404.4 480.3 402.6 480.7 400.8 481C400.8 482.5 400.8 484 400.8 485.5C400.8 486.4 400.8 487.3 400.8 488.1C400.8 491.2 398.6 492.3 396.7 492.3Z" fill="black"/>
<path d="M371.8 451.7C374 451.7 376.3 451.7 378.6 451.7C379.8 451.7 380.4 451.9 380.4 453.2C380.4 454.7 380.6 456.2 381.1 457.6C382.5 462.3 386.2 465.2 391.1 465.5C393.1 465.6 395.2 465.7 397.2 465.2C399.1 464.6 400.7 463.7 401.8 462.1C403 460.6 403.7 458.8 403.8 456.9C404.1 451.9 402.1 448.3 397.7 445.9C394.5 444.1 391 443 387.5 441.6C383.4 439.8 379.3 438.1 375.7 435.5C369.1 430.9 366.2 424.6 366.3 416.6C366.5 405.3 374.2 397.6 385.1 395.2C386.1 395 387 394.8 388 394.6C389.1 394.5 389.4 394 389.4 393.1C389.4 390.1 389.4 387.1 389.4 384C389.4 382.8 389.7 382.3 390.9 382.3C393.1 382.4 395.2 382.3 397.4 382.3C398.4 382.3 398.7 382.6 398.7 383.6C398.7 386.7 398.7 389.9 398.7 393C398.7 394.1 399 394.5 400.1 394.8C406.5 396 412 398.9 415.9 404.3C418.7 408.2 420.1 412.6 420.5 417.2C420.6 418 420.6 418.7 420.7 419.5C420.8 420.4 420.5 420.8 419.5 420.8C414.6 420.8 409.8 420.8 404.8 420.8C403.8 420.8 403.6 420.2 403.6 419.5C403.6 417.5 403.3 415.6 402.6 413.8C400 406.3 392.2 406 387.7 408.3C384.5 410 383.4 412.9 383.2 416.4C382.9 420.8 384.7 424.1 388.6 426.4C391.9 428.4 395.6 429.6 399.2 431C404.3 433.1 409.2 435.4 413.4 438.9C415.4 440.6 417.2 442.7 418.4 445C419.6 447.3 420.4 449.9 420.6 452.5C421 456.8 420.6 461 418.9 465C416.1 471.2 411.2 474.7 405 476.7C403.1 477.4 401.1 477.7 399.1 478C398.1 478.1 397.7 478.6 397.7 479.5C397.8 482.3 397.7 485 397.7 487.7C397.7 488.8 397.4 489.4 396.2 489.2C394 489.1 391.9 489.2 389.7 489.2C388.7 489.2 388.3 488.9 388.3 487.8C388.3 485.2 388.3 482.4 388.3 479.7C388.3 478.4 388 477.9 386.6 477.7C379.9 476.7 373.8 474.3 369 469.1C364.7 464.4 363.1 458.5 363 452.2C363 451.3 363.4 451.1 364.2 451.1C367 451.6 369.4 451.6 371.8 451.7Z" fill="black"/>
</svg>