<?xml version="1.0" ?><svg xmlns="http://www.w3.org/2000/svg" fill="none" viewBox="5 41 510 437.19">
<path fill-rule="evenodd" clip-rule="evenodd" d="M37.3773 42.522H407.178C415.352 42.522 423.191 45.6809 428.969 51.3037C434.749 56.9264 437.996 64.5538 437.996 72.507V132.473C437.996 140.427 434.749 148.054 428.969 153.675C423.191 159.298 415.352 162.459 407.178 162.459V255.762H376.363V162.459H68.1935V402.329H272.658V432.312H68.1935C60.021 432.312 52.1827 429.155 46.4035 423.531C40.6242 417.908 37.3773 410.282 37.3773 402.329V162.459C29.2042 162.459 21.3659 159.298 15.5866 153.675C9.80742 148.054 6.56055 140.427 6.56055 132.473V72.507C6.56055 64.5538 9.80742 56.9264 15.5866 51.3037C21.3659 45.6809 29.2042 42.522 37.3773 42.522ZM37.3773 132.473H407.178V72.507H37.3773V132.473Z" fill="black"/>
<path d="M428.975 51.3049L430.083 50.2282L428.975 51.3049ZM428.975 153.677L430.083 154.755L428.975 153.677ZM407.184 162.46V160.937H405.618V162.46H407.184ZM407.184 255.764V257.288H408.749V255.764H407.184ZM376.368 255.764H374.803V257.288H376.368V255.764ZM376.368 162.46H377.934V160.937H376.368V162.46ZM68.1993 162.46V160.937H66.6338V162.46H68.1993ZM68.1993 402.33H66.6338V403.854H68.1993V402.33ZM272.664 402.33H274.229V400.807H272.664V402.33ZM272.664 432.315V433.838H274.229V432.315H272.664ZM46.4083 423.532L47.515 422.457L46.4083 423.532ZM37.3821 162.46H38.9475V160.937H37.3821V162.46ZM15.5913 153.677L16.698 152.6L15.5913 153.677ZM15.5913 51.3049L16.698 52.3816L15.5913 51.3049ZM407.184 132.475V133.999H408.749V132.475H407.184ZM37.3821 132.475H35.8166V133.999H37.3821V132.475ZM407.184 72.5082H408.749V70.9853H407.184V72.5082ZM37.3821 72.5082V70.9853H35.8166V72.5082H37.3821ZM407.184 41H37.3821V44.0459H407.184V41ZM430.083 50.2282C424.01 44.3193 415.772 41 407.184 41V44.0459C414.942 44.0459 422.383 47.0449 427.869 52.3816L430.083 50.2282ZM439.568 72.5082C439.568 64.1527 436.156 56.1372 430.083 50.2282L427.869 52.3816C433.355 57.7196 436.435 64.9602 436.435 72.5082H439.568ZM439.568 132.475V72.5082H436.435V132.475H439.568ZM430.083 154.755C436.156 148.847 439.568 140.832 439.568 132.475H436.435C436.435 140.024 433.355 147.263 427.869 152.6L430.083 154.755ZM407.184 163.983C415.772 163.983 424.01 160.664 430.083 154.755L427.869 152.6C422.383 157.937 414.942 160.937 407.184 160.937V163.983ZM408.749 255.764V162.46H405.618V255.764H408.749ZM376.368 257.288H407.184V254.243H376.368V257.288ZM374.803 162.46V255.764H377.934V162.46H374.803ZM68.1993 163.983H376.368V160.937H68.1993V163.983ZM69.7647 402.33V162.46H66.6338V402.33H69.7647ZM272.664 400.807H68.1993V403.854H272.664V400.807ZM274.229 432.315V402.33H271.101V432.315H274.229ZM68.1993 433.838H272.664V430.791H68.1993V433.838ZM45.3013 424.61C51.3741 430.519 59.6107 433.838 68.1993 433.838V430.791C60.441 430.791 53.0007 427.795 47.515 422.457L45.3013 424.61ZM35.8166 402.33C35.8166 410.687 39.2283 418.701 45.3013 424.61L47.515 422.457C42.0293 417.118 38.9475 409.878 38.9475 402.33H35.8166ZM35.8166 162.46V402.33H38.9475V162.46H35.8166ZM14.4844 154.755C20.5574 160.664 28.7938 163.983 37.3821 163.983V160.937C29.6241 160.937 22.184 157.937 16.698 152.6L14.4844 154.755ZM5 132.475C5 140.832 8.4115 148.847 14.4844 154.755L16.698 152.6C11.2124 147.263 8.13071 140.024 8.13071 132.475H5ZM5 72.5082V132.475H8.13071V72.5082H5ZM14.4844 50.2282C8.4115 56.1372 5 64.1527 5 72.5082H8.13071C8.13071 64.9602 11.2124 57.7196 16.698 52.3816L14.4844 50.2282ZM37.3821 41C28.7938 41 20.5574 44.3193 14.4844 50.2282L16.698 52.3816C22.184 47.0449 29.6241 44.0459 37.3821 44.0459V41ZM407.184 130.952H37.3821V133.999H407.184V130.952ZM405.618 72.5082V132.475H408.749V72.5082H405.618ZM37.3821 74.0312H407.184V70.9853H37.3821V74.0312ZM38.9475 132.475V72.5082H35.8166V132.475H38.9475Z" fill="black"/>
<path d="M288.335 371.614C288.904 367.691 289.359 363.753 290.068 359.848C293.14 342.857 300.302 327.739 311.313 314.495C326.273 296.515 345.217 284.967 368.143 280.179C372.609 279.242 377.177 278.796 381.721 278.306C384.934 277.965 387.613 280.153 388.243 283.375C388.436 284.372 388.427 285.432 388.427 286.456C388.436 315.545 388.47 344.635 388.392 373.723C388.383 376.857 389.398 379.159 391.595 381.348C412.263 401.919 432.878 422.552 453.441 443.228C454.675 444.472 455.735 446.161 456.217 447.825C456.872 450.109 455.787 452.105 453.958 453.68C440.224 465.473 424.475 473.202 406.695 476.493C352.816 486.455 301.142 451.466 290.296 397.77C289.412 393.384 288.982 388.893 288.335 384.456C288.335 380.183 288.335 375.904 288.335 371.614Z" fill="black"/>
<path d="M400.411 320.332C400.411 306.16 400.403 291.979 400.411 277.807C400.411 272.459 402.958 270.06 408.272 270.567C441.152 273.736 466.704 289.126 484.798 316.744C493.92 330.654 498.708 346.104 500.1 362.631C500.503 367.438 497.973 370.247 493.166 370.247C464.595 370.264 436.022 370.264 407.449 370.247C402.801 370.247 400.42 367.797 400.411 363.078C400.403 348.836 400.411 334.584 400.411 320.332Z" fill="black"/>
<path d="M469.713 383.403C482.187 383.403 494.66 383.403 507.136 383.403C513.447 383.403 515.477 385.889 514.909 392.192C513.78 404.676 510.488 416.519 504.964 427.759C501.139 435.551 496.281 442.667 490.626 449.233C488.236 452.008 484.56 452.166 481.749 449.767C481.468 449.531 481.198 449.277 480.934 449.013C462.815 430.903 444.703 412.799 426.591 394.678C426.171 394.259 425.759 393.838 425.409 393.365C422.504 389.479 424.823 384.06 429.628 383.499C430.504 383.394 431.398 383.403 432.282 383.403C444.755 383.403 457.238 383.403 469.713 383.403Z" fill="black"/>
</svg>