<?xml version="1.0" ?><svg xmlns="http://www.w3.org/2000/svg" fill="none" viewBox="5 14 510 491.73">
<path d="M157.479 16.443L177.54 21.1388C193.524 24.8937 207.595 34.3368 217.127 47.7052C226.659 61.0737 231.002 77.4541 229.342 93.7888L224.967 136.937C223.542 150.981 217.757 164.228 208.422 174.819C199.088 185.41 186.673 192.813 172.919 195.99L131.468 205.554C130.671 205.738 129.921 206.078 129.258 206.555C128.595 207.032 128.035 207.636 127.608 208.333C122.765 216.224 119.741 233.753 119.741 259.912C119.741 279.237 121.388 293.988 124.388 303.822C125.141 306.36 126.094 308.835 127.239 311.223L128.419 313.436L129.402 313.804L172.919 323.86C186.667 327.028 199.079 334.419 208.417 344.995C217.755 355.572 223.55 368.805 224.991 382.84L229.342 425.766C231.008 442.057 226.705 458.398 217.231 471.755C207.759 485.111 193.76 494.576 177.836 498.392L157.749 503.21C141.672 507.052 124.856 506.5 109.064 501.612C93.2721 496.725 79.0849 487.681 67.988 475.429C25.6272 428.716 5 356.681 5 259.912C5 162.973 25.7009 90.8878 68.1846 44.1508C78.6118 32.6901 91.7593 24.0421 106.412 19.006C121.066 13.9698 136.751 12.7078 152.021 15.3367L157.479 16.443ZM144.841 51.5018C135.808 50.1036 126.568 50.9661 117.949 54.0122C109.329 57.0583 101.599 62.1932 95.4499 68.9575C60.096 107.876 41.8782 171.357 41.8782 259.912C41.8782 348.372 60.0468 411.777 95.2778 450.695C101.938 458.04 110.448 463.461 119.921 466.388C129.392 469.317 139.478 469.646 149.12 467.34L169.231 462.522C176.469 460.791 182.833 456.493 187.142 450.425C191.452 444.357 193.412 436.931 192.661 429.527L188.284 386.602C187.628 380.227 184.997 374.216 180.756 369.411C176.515 364.605 170.877 361.246 164.633 359.804L119.888 349.403L116.544 348.346C92.0079 339.102 82.8621 309.232 82.8621 259.912C82.8621 227.509 86.8941 204.227 96.1383 189.106C102.161 179.248 111.922 172.217 123.182 169.61L164.609 160.047C177.443 157.096 186.957 146.279 188.284 133.2L192.661 90.0764C193.413 82.6513 191.439 75.206 187.104 69.1303C182.771 63.0545 176.373 58.7635 169.108 57.0582L149.047 52.3377L144.841 51.5018Z" fill="black"/>
<path d="M307.213 141.334C295.719 141.334 286.435 150.62 286.435 162.113C286.435 173.605 295.719 182.891 307.213 182.891H494.221C505.714 182.891 515 173.605 515 162.113C515 150.62 505.714 141.334 494.221 141.334H307.213ZM307.213 245.227C295.719 245.227 286.435 254.513 286.435 266.006C286.435 277.499 295.719 286.785 307.213 286.785H494.221C505.714 286.785 515 277.499 515 266.006C515 254.513 505.714 245.227 494.221 245.227H307.213ZM307.213 349.121C295.719 349.121 286.435 358.407 286.435 369.899C286.435 381.392 295.719 390.678 307.213 390.678H494.221C505.714 390.678 515 381.392 515 369.899C515 358.407 505.714 349.121 494.221 349.121H307.213Z" fill="black"/>
</svg>