<?xml version="1.0" ?><svg xmlns="http://www.w3.org/2000/svg" fill="none" viewBox="56 5 407.98 510">
<path d="M56.0459 260.178C56.0459 179.602 56.0306 99.0261 56 18.4494C56 15.8996 56.51 13.982 58.55 12.2889C60.6372 10.4297 62.6198 8.45458 64.4864 6.37315C64.8816 5.89719 65.3878 5.52489 65.9603 5.28851C66.5328 5.05212 67.1537 4.95879 67.7708 5.01668C68.0819 5.04205 68.393 5.01668 68.7041 5.01668C166.619 5.01668 264.535 5.01668 362.451 5.01668C364.226 5.01668 365.618 5.35825 366.97 6.65875C395.406 33.9171 423.475 61.522 451.493 89.1627C455.252 92.8704 458.953 96.6342 462.712 100.332C463.137 100.691 463.468 101.146 463.681 101.66C463.894 102.173 463.982 102.73 463.936 103.285C463.89 103.795 463.936 104.274 463.936 104.769C463.936 237.247 463.95 369.725 463.977 502.204C463.977 504.422 463.411 506.059 461.733 507.549C459.504 509.527 457.479 511.726 455.41 513.868C455.088 514.246 454.678 514.542 454.218 514.731C453.758 514.919 453.258 514.993 452.763 514.949C452.253 514.903 451.743 514.949 451.264 514.949C323.881 514.949 196.501 514.963 69.1223 514.99C68.1711 515.043 67.2213 514.89 66.3351 514.545C65.449 514.198 64.6483 513.663 63.9866 512.98C62.0588 511.052 59.9525 509.293 57.8666 507.559C56.561 506.483 55.8266 505.274 56.0612 503.56C56.0994 502.945 56.0994 502.326 56.0612 501.709L56.0459 260.178ZM88.0573 259.99C88.0573 333.696 88.0573 407.405 88.0573 481.117C88.0573 483.957 88.0573 483.962 90.8776 483.962H428.788C431.695 483.962 431.7 483.962 431.7 481.137V125.448C431.7 122.694 431.7 122.689 428.916 122.689C405.141 122.689 381.366 122.571 357.591 122.796C353.332 122.842 350.563 121.653 348.09 118.282C345.749 115.095 343.979 111.892 343.54 107.936C343.03 103.315 343.03 98.6793 343.03 94.0587C342.867 75.8377 342.923 57.6103 342.898 39.384C342.898 38.7669 342.898 38.1498 342.898 37.5278C342.922 37.3568 342.907 37.1826 342.853 37.0188C342.798 36.8549 342.707 36.7059 342.585 36.5834C342.464 36.4607 342.315 36.368 342.152 36.3124C341.989 36.2568 341.815 36.2399 341.643 36.263C341.021 36.263 340.399 36.263 339.772 36.263H91.1224C88.0624 36.263 88.0624 36.263 88.0624 39.2514C88.056 112.824 88.0535 186.409 88.0573 260.005V259.99ZM408.94 91.7127L408.338 92.0085C397.314 80.9287 386.292 69.8464 375.276 58.7629C375.22 58.963 375.185 59.1683 375.169 59.3749C375.169 69.5749 375.169 79.7749 375.098 89.9328C375.098 91.5087 375.863 91.7331 377.194 91.7331C387.108 91.6974 397.023 91.7331 406.936 91.7331L408.94 91.7127Z" fill="black"/>
<path d="M181.318 158.05C189.305 158.05 197.291 158.05 205.288 158.05C206.967 158.059 208.637 157.791 210.229 157.255C238.418 147.844 266.614 138.457 294.818 129.094C302.627 126.503 310.628 124.427 318.278 121.444C326.361 118.287 337.815 124.81 338.274 134.663C338.648 142.748 338.875 150.831 338.953 158.912C338.993 163.38 338.993 163.38 343.282 164.13C346.414 164.675 349.525 165.348 352.672 165.741C362.396 166.96 369.118 172.59 374.656 180.076C377.752 184.258 379.022 188.981 379.42 194.086C379.868 200.742 379.954 207.42 379.675 214.087C379.486 220.14 378.945 226.143 375.304 231.427C369.184 240.325 361.121 246.016 350.096 247.235C347.005 247.572 343.976 248.255 340.865 248.668C339.554 248.837 339.253 249.454 339.167 250.601C338.764 256.033 339.019 261.469 338.968 266.92C338.922 271.989 338.881 277.059 337.769 282.031C336.173 289.171 332.001 292.869 324.699 293.812C322.21 294.134 319.87 293.46 317.559 292.792C297.282 286.835 277.271 280.042 257.203 273.499C244.453 269.337 231.705 265.274 218.955 261.082C217.17 260.495 216.461 260.842 215.895 262.612C212.281 273.912 208.599 285.193 204.849 296.453C203.778 299.676 202.427 302.807 201.33 306.025C199.321 311.941 194.909 314.532 188.932 315.119C184.521 315.552 180.099 315.685 175.674 315.782C167.814 315.95 159.955 316.032 152.096 316.205C151.451 316.247 150.803 316.146 150.2 315.909C149.597 315.673 149.054 315.307 148.608 314.838C146.146 312.385 143.601 310.014 141.02 307.698C140.508 307.261 140.102 306.711 139.837 306.093C139.572 305.473 139.453 304.801 139.49 304.128C139.536 287.81 139.49 271.49 139.546 255.171C139.546 253.682 139.21 252.672 137.884 251.779C132.784 248.342 130.831 243.176 130.157 237.382C129.568 231.855 129.308 226.296 129.377 220.737C129.377 209.303 129.377 197.875 129.413 186.446C129.403 182.928 129.751 179.418 130.453 175.972C132.59 165.848 138.577 160.345 148.955 158.82C153.789 158.106 158.645 158.03 163.51 158.045C169.462 158.061 175.388 158.045 181.318 158.05ZM306.86 205.785C306.86 190.485 306.86 175.171 306.86 159.84C306.86 157.499 306.859 157.489 304.559 158.249C298.949 160.121 293.341 162.023 287.731 163.859C268.565 170.173 249.397 176.463 230.226 182.728C228.696 183.238 228.063 183.87 228.063 185.569C228.063 199.956 228.181 214.342 227.696 228.724C227.635 230.509 228.206 231.304 229.945 231.875C247.534 237.601 265.083 243.431 282.656 249.214C289.99 251.626 297.353 253.952 304.677 256.395C306.207 256.905 306.717 256.604 306.65 255.018C306.584 253.432 306.844 251.815 306.844 250.214C306.865 235.417 306.87 220.608 306.86 205.785ZM161.414 207.987C161.414 213.73 161.414 219.472 161.414 225.21C161.414 226.362 161.603 227.081 163.026 227.066C173.185 226.979 183.348 227.239 193.507 226.826C194.899 226.77 195.307 226.245 195.317 224.919C195.399 213.628 195.523 202.335 195.69 191.041C195.69 189.511 195.18 189.031 193.65 189.042C183.607 189.093 173.567 189.093 163.53 189.042C161.904 189.042 161.358 189.501 161.383 191.143C161.465 196.738 161.414 202.378 161.414 207.987ZM171.553 272.928C171.553 276.258 171.553 279.588 171.553 282.924C171.553 283.724 171.252 284.846 172.614 284.862C173.766 284.862 175.164 285.433 175.719 283.684C178.327 275.32 180.946 266.959 183.577 258.603C183.883 257.619 183.603 257.267 182.557 257.282C179.63 257.328 176.697 257.359 173.771 257.282C172.302 257.247 171.859 257.848 171.772 259.241C171.492 263.79 171.578 268.353 171.553 272.912V272.928ZM338.942 205.948C338.988 209.272 338.912 212.577 339.121 215.917C339.213 217.284 339.656 217.651 340.926 217.381C342.196 217.111 343.379 216.973 344.598 216.733C347.444 216.178 347.572 216.167 347.658 213.322C347.767 208.517 347.767 203.714 347.658 198.91C347.602 196.161 347.419 196.08 344.741 195.559C343.583 195.335 342.41 195.182 341.247 194.988C339.865 194.759 339.253 195.192 339.141 196.712C338.896 199.828 339.034 202.888 338.942 205.948Z" fill="black"/>
<path d="M204.398 349.459C224.431 349.459 244.463 349.378 264.494 349.51C269.523 349.546 274.602 349.47 279.595 350.408C287.113 351.816 292.079 358.007 291.691 365.489C291.293 373.236 285.955 378.849 278.198 379.594C268.926 380.481 259.629 380.344 250.338 380.339C216.516 380.339 182.689 380.339 148.852 380.206C142.635 380.18 136.394 380.073 130.207 379.033C121.328 377.544 116.652 370.033 119.033 360.863C120.716 354.386 125.22 350.663 131.967 350.107C144.481 349.031 157.027 349.449 169.561 349.378C181.169 349.317 192.777 349.378 204.383 349.378L204.398 349.459Z" fill="black"/>
<path d="M256.199 437.226C220.439 437.226 184.679 437.21 148.919 437.18C143.438 437.18 137.95 436.925 132.468 436.588C120.656 435.854 116.52 423.512 120.182 415.571C122.783 409.937 127.256 407.412 133.325 407.066C143.672 406.5 154.024 406.372 164.377 406.372C227.536 406.372 290.695 406.384 353.854 406.408C362.707 406.408 371.561 406.596 380.409 407.081C387.482 407.469 392.189 410.733 394.402 416.897C395.405 419.749 395.522 422.837 394.738 425.757C393.954 428.677 392.306 431.291 390.011 433.258C387.395 435.568 384.202 436.318 380.863 436.542C372.086 437.149 363.289 437.267 354.491 437.272C321.727 437.292 288.962 437.292 256.199 437.272V437.226Z" fill="black"/>
</svg>