<?xml version="1.0" ?><svg xmlns="http://www.w3.org/2000/svg" fill="none" viewBox="5 30 510 460.33">
<path d="M371.494 490.325C327.338 490.325 325.13 489.222 317.403 482.597L316.299 481.494C305.26 472.662 305.26 467.143 304.156 439.546V426.3L263.311 448.377C215.844 474.871 212.533 477.078 207.014 477.078C203.702 477.078 201.493 477.078 106.558 424.091C60.1948 397.597 12.7272 371.104 10.5195 370.001L5 366.689V254.091C5 142.598 5 142.598 9.41555 139.286C11.6234 137.079 103.247 86.2989 107.663 84.0905C203.702 30 205.909 30 208.117 30C213.637 30 404.611 138.182 405.715 139.286C410.13 142.598 410.13 143.701 410.13 179.026V205.52H420.065C434.417 205.52 438.831 205.52 443.247 207.727C449.871 211.039 455.39 216.558 457.597 222.078H469.741C486.299 222.078 487.403 222.078 495.13 225.39C502.858 229.805 508.377 234.221 511.689 241.949L515 248.572V357.857C515 464.936 515.001 464.936 511.689 469.352C508.377 475.975 500.65 482.597 495.13 485.909C489.611 488.118 489.611 488.118 411.235 489.221C411.235 490.325 380.325 490.325 371.494 490.325ZM352.727 249.675C335.066 249.675 333.961 251.884 331.754 255.195C330.65 258.507 330.65 278.377 330.65 352.338C330.65 436.235 330.65 452.793 331.754 455.001C332.857 458.312 335.066 461.624 339.481 461.624C341.689 461.624 356.039 462.728 382.533 462.728C391.364 462.728 401.3 462.728 412.338 462.728C467.534 462.728 480.779 462.727 482.988 461.624C486.299 460.52 487.404 458.312 488.507 455.001C489.611 446.17 489.611 266.234 488.507 256.299C487.404 254.091 486.299 251.884 482.988 249.675C481.884 248.572 479.676 248.572 468.637 248.572H458.702C456.494 254.091 449.871 259.61 444.352 262.922C438.831 265.131 435.52 265.131 410.13 265.131C384.741 265.131 381.429 265.131 375.909 262.922C370.39 260.715 363.767 254.091 361.559 248.572L352.727 249.675ZM221.364 355.65V441.754L303.052 395.39V324.74C303.052 248.572 303.052 248.572 306.365 243.052C310.779 235.325 315.195 230.909 322.922 227.598C330.65 224.286 331.754 224.286 347.208 224.286H359.351V223.182C363.767 214.351 372.597 208.832 380.325 206.623C380.325 206.623 380.325 176.818 380.325 172.403C347.208 191.169 231.299 256.299 219.156 262.922L221.364 355.65ZM193.767 440.65V354.545C193.767 305.974 193.767 271.754 193.767 261.819C183.832 256.299 150.715 237.533 110.974 215.455C72.3377 194.481 44.7403 179.026 32.5974 171.299C32.5974 183.441 32.5974 211.039 32.5974 257.403V350.131L193.767 440.65ZM411.235 232.014C399.091 232.014 390.26 232.014 388.053 232.014C386.948 232.014 385.844 233.117 385.844 234.221C385.844 235.325 385.844 236.429 385.844 237.533C386.949 238.637 389.156 239.74 409.026 239.74C420.065 239.74 427.793 239.74 430.001 239.74C432.208 239.74 433.312 237.533 433.312 236.429C433.312 235.325 433.312 233.117 430.001 233.117C428.896 232.014 423.377 232.014 411.235 232.014ZM139.675 201.104C146.299 205.52 157.338 211.039 170.585 217.663C195.974 232.014 204.805 236.429 208.117 237.533C225.78 227.598 335.066 166.883 368.183 148.117C361.559 144.805 351.624 138.182 338.377 131.558C320.715 121.623 306.365 113.897 300.844 110.585C280.974 121.623 171.688 182.338 139.675 201.104ZM46.948 149.221C53.5714 152.533 63.5065 158.052 75.6494 165.78C95.5195 176.818 107.663 183.441 110.974 184.546C125.324 176.818 237.922 113.897 269.936 95.1303C265.52 91.8182 255.585 86.2989 243.442 79.6748C223.572 68.6364 212.533 62.0131 207.014 59.8052C190.455 69.7403 78.9616 130.454 46.948 149.221Z" fill="black"/>
<path d="M109.871 89.6116C57.9881 118.313 13.8322 143.702 12.7282 143.702C10.5205 144.806 10.5205 151.43 10.5205 254.092V363.377L13.8322 365.586C14.9361 366.689 57.9881 390.975 109.871 419.676C175.002 456.105 203.703 471.559 207.014 471.559C210.326 471.559 216.949 468.247 260.001 443.962L309.677 416.364V440.651C310.78 468.247 310.78 470.456 319.612 477.079C328.443 484.806 324.027 483.703 410.131 483.703C484.093 483.703 487.404 483.703 490.716 481.494C496.235 479.287 501.754 472.663 505.066 468.247C507.275 464.937 507.275 461.625 507.275 357.858V251.884L506.17 246.365C502.859 238.637 499.547 235.325 491.819 232.014C485.196 228.702 485.196 228.702 469.742 228.702H453.183L452.079 225.39C449.871 220.975 445.457 215.455 439.936 213.248C435.52 211.04 433.313 211.04 418.963 211.04H402.403V177.923C402.403 147.014 402.405 144.806 400.196 142.598C396.884 140.39 209.222 36.624 207.014 36.624C205.91 36.624 162.858 60.9097 109.871 89.6116ZM246.755 74.1565C266.625 85.1959 283.183 95.1309 283.183 95.1309C282.079 96.2345 118.703 186.754 113.183 190.066C110.975 191.17 107.663 188.961 72.3387 170.196C51.3647 158.053 33.7024 149.221 33.7024 148.118C33.7024 147.014 204.807 52.0785 207.014 52.0785C209.222 53.1825 226.884 63.1176 246.755 74.1565ZM340.585 126.039C362.664 138.183 380.326 148.118 380.326 148.118C380.326 149.221 212.533 243.053 209.222 244.157C208.119 244.157 193.768 236.429 168.378 222.078C146.3 209.936 128.638 200.001 128.638 200.001C128.638 198.897 299.742 103.962 300.845 103.962C299.742 105.066 318.508 113.897 340.585 126.039ZM114.287 211.04C160.651 237.534 199.287 258.507 200.391 258.507C200.391 258.507 201.495 302.663 200.391 355.651V451.69L113.183 403.118L25.975 354.546V257.404C25.975 165.78 25.975 161.365 27.079 161.365C28.1828 163.572 67.9232 184.547 114.287 211.04ZM389.158 186.754V212.143H385.846C379.223 212.143 370.391 217.664 367.079 225.39L364.872 229.806H349.417C333.962 229.806 333.962 229.806 327.339 233.118C320.715 236.429 317.404 239.741 314.092 246.365C311.884 250.781 311.884 250.781 311.884 324.741V399.806L264.416 426.3L216.949 452.793V356.754V260.716L219.157 259.611C221.364 258.507 390.261 163.572 391.365 163.572C389.158 161.365 389.158 173.507 389.158 186.754ZM431.106 226.494C442.145 228.702 442.145 243.053 431.106 245.26C428.897 245.26 420.066 246.365 410.131 246.365C389.158 246.365 386.949 246.365 382.534 243.053C377.014 238.637 380.326 228.702 386.949 226.494C390.261 225.39 427.794 225.39 431.106 226.494ZM365.976 245.26C367.079 248.572 373.702 255.195 378.118 257.404C381.43 258.507 384.742 259.611 409.028 259.611C434.417 259.611 436.625 259.611 439.936 257.404C444.352 255.195 449.871 249.676 452.079 245.26L453.183 241.949H467.534C479.677 241.949 481.884 243.053 485.196 244.157C489.612 246.365 491.819 249.676 492.924 255.195C494.028 259.611 494.028 450.586 492.924 456.105C491.819 460.521 489.612 463.832 485.196 467.144C481.884 469.352 479.677 469.352 412.34 469.352C363.767 469.352 340.585 469.352 338.378 468.247C331.755 467.144 327.339 462.728 326.235 456.105C325.131 452.793 325.131 419.676 325.131 352.339C325.131 256.3 325.131 254.092 327.339 250.781C331.755 243.053 336.171 241.949 353.832 241.949H365.976V245.26Z" fill="black"/>
<path d="M409.028 328.052C363.768 328.052 362.664 328.052 357.145 325.844C353.833 324.74 350.521 320.324 350.521 315.909C350.521 311.493 353.833 308.182 357.145 305.974C361.56 303.767 363.768 303.767 407.923 303.767C463.118 303.767 465.326 303.767 465.326 315.909C466.43 328.052 465.326 328.052 409.028 328.052Z" fill="black"/>
<path d="M360.456 311.494C358.247 312.598 357.144 313.702 357.144 315.909C357.144 318.117 358.247 319.221 360.456 320.325C363.768 321.429 365.975 321.429 409.027 321.429C459.806 321.429 459.806 321.429 459.806 315.909C459.806 310.39 458.703 310.39 407.923 310.39C365.975 310.39 363.768 310.39 360.456 311.494Z" fill="black"/>
<path d="M409.028 383.247C363.768 383.247 362.664 383.247 357.145 381.039C353.833 379.936 350.521 375.52 350.521 371.104C350.521 366.689 353.833 363.377 357.145 361.169C361.56 358.961 363.768 358.961 407.923 358.961C463.118 358.961 465.326 358.961 465.326 371.104C466.43 383.247 465.326 383.247 409.028 383.247Z" fill="black"/>
<path d="M360.456 366.69C358.247 367.793 357.144 368.898 357.144 371.105C357.144 373.314 358.247 374.417 360.456 375.521C363.768 376.625 365.975 376.625 409.027 376.625C459.806 376.625 459.806 376.625 459.806 371.105C459.806 365.586 458.703 365.586 407.923 365.586C365.975 365.586 363.768 365.586 360.456 366.69Z" fill="black"/>
<path d="M409.028 438.441C363.768 438.441 362.664 438.441 357.145 436.234C353.833 435.13 350.521 430.714 350.521 426.299C350.521 421.883 353.833 418.571 357.145 416.364C361.56 414.155 363.768 414.155 407.923 414.155C463.118 414.155 465.326 414.155 465.326 426.299C466.43 438.441 465.326 438.441 409.028 438.441Z" fill="black"/>
<path d="M360.456 421.884C358.247 422.988 357.144 424.091 357.144 426.3C357.144 428.507 358.247 429.611 360.456 430.714C363.768 431.819 365.975 431.819 409.027 431.819C459.806 431.819 459.806 431.819 459.806 426.3C459.806 420.779 458.703 420.779 407.923 420.779C365.975 420.779 363.768 420.779 360.456 421.884Z" fill="black"/>
</svg>