<svg xmlns="http://www.w3.org/2000/svg" fill="none" viewBox="6.69 7.46 23.14 20.31">
<path d="M18.2574 26.7429C18.9675 26.7429 19.5431 26.2824 19.5431 25.7144C19.5431 25.1463 18.9675 24.6858 18.2574 24.6858C17.5473 24.6858 16.9717 25.1463 16.9717 25.7144C16.9717 26.2824 17.5473 26.7429 18.2574 26.7429Z" fill="#FFA600"/>
<path d="M14.1425 19.7999L13.371 20.8285L18.771 21.8571L22.6282 19.7999L23.6568 15.4285L20.571 11.3142H15.9425L12.5996 15.4285L14.1425 19.7999Z" fill="#FFA600"/>
<path d="M17.3083 7.48727C14.244 7.8624 11.6045 9.73354 10.3164 12.4453L10.1176 12.8657H9.33116C8.89727 12.8657 8.43627 12.8883 8.3052 12.9154C7.52782 13.0781 6.89959 13.7063 6.73688 14.4837C6.66909 14.8091 6.66909 17.7062 6.73688 18.0271C6.90411 18.8 7.53686 19.4327 8.3052 19.5954C8.5583 19.6497 11.478 19.6677 11.478 19.618C11.478 19.5999 11.3876 19.3016 11.2746 18.9536C11.1616 18.6011 11.0125 18.0587 10.9492 17.7469C10.8452 17.2497 10.8272 17.0735 10.8272 16.278C10.8226 15.5097 10.8407 15.2972 10.9266 14.8633C11.3966 12.5312 12.8881 10.5878 14.9807 9.56631C18.0676 8.05675 21.7873 8.84317 23.9703 11.4646C25.272 13.0239 25.8866 15.0351 25.6697 17.0011C25.3759 19.609 23.8437 21.8146 21.5342 22.94C20.5941 23.401 19.6721 23.636 18.506 23.7083C17.584 23.7625 17.1411 23.9388 16.7389 24.4043C15.6948 25.6156 16.3637 27.4732 17.9366 27.7443C18.7591 27.8845 19.6314 27.4641 20.0156 26.741C20.2325 26.3342 20.2551 26.2393 20.2868 25.5071L20.3139 24.8337L20.8291 24.68C23.1251 23.984 25.0867 22.3162 26.1533 20.1513L26.4019 19.6451H27.1883C28.047 19.6451 28.3227 19.6045 28.6933 19.4237C29.2176 19.1706 29.656 18.6056 29.778 18.0271C29.8458 17.7017 29.8458 14.8046 29.778 14.4837C29.6108 13.7018 28.9555 13.0555 28.1962 12.9109C28.0651 12.8837 27.6131 12.8657 27.1838 12.8657H26.4019L26.1533 12.3549C24.9239 9.85557 22.5285 8.06127 19.7489 7.57315C19.1524 7.46467 17.8552 7.424 17.3083 7.48727ZM9.65205 14.3255C9.39895 15.3379 9.39895 17.1458 9.65657 18.1853C9.67917 18.2892 9.67917 18.2892 9.12777 18.2892C8.63965 18.2892 8.55378 18.2757 8.39559 18.1898C8.04758 17.9955 8.04306 17.9548 8.04306 16.2464C8.04758 14.5515 8.0521 14.5334 8.38655 14.33C8.54474 14.2306 8.61254 14.2216 9.12326 14.2216C9.67917 14.2216 9.67917 14.2216 9.65205 14.3255ZM28.1103 14.3119C28.2278 14.3707 28.3227 14.4656 28.3815 14.5831C28.4673 14.7504 28.4719 14.8453 28.4719 16.2599C28.4719 17.7288 28.4719 17.7604 28.3724 17.9367C28.2097 18.226 28.0335 18.2892 27.3826 18.2892H26.8358L26.8629 18.1401C27.1115 16.9966 27.125 15.6181 26.9081 14.5696C26.8719 14.3978 26.8448 14.2532 26.8448 14.2396C26.8448 14.2306 27.0889 14.2216 27.3872 14.2216C27.8436 14.2216 27.9611 14.2351 28.1103 14.3119ZM18.836 26.0721C18.6462 26.4065 18.2665 26.5105 17.932 26.3252C17.6021 26.1399 17.4936 25.7557 17.6744 25.4303C17.8191 25.1727 17.9863 25.0958 18.4834 25.0687L18.9128 25.0461L18.9264 25.4664C18.9354 25.8325 18.9264 25.9094 18.836 26.0721Z" fill="black"/>
<path d="M17.624 10.1815C16.6207 10.308 15.658 10.6605 14.8219 11.2165C14.388 11.5057 13.5066 12.3871 13.2174 12.8209C12.7564 13.517 12.431 14.2943 12.2592 15.126C12.1462 15.6728 12.1462 16.857 12.2637 17.4084C12.44 18.249 12.7473 18.9857 13.2219 19.6953L13.4615 20.0479L13.3485 20.2738C13.1586 20.649 12.788 20.9111 12.3451 20.9834L12.1553 21.0151V21.6885V22.3619L15.6264 22.3438C19.459 22.3258 19.2782 22.3393 20.2319 22.0184C21.1268 21.7201 21.8047 21.2908 22.5324 20.5721C23.4454 19.6727 23.9877 18.6694 24.2544 17.3858C24.3628 16.8525 24.3628 15.6593 24.2544 15.126C23.9877 13.8424 23.468 12.8797 22.5505 11.9577C21.6556 11.0583 20.6432 10.5114 19.4274 10.2673C19.0929 10.1995 17.9269 10.1453 17.624 10.1815ZM19.3415 11.6368C20.2364 11.8718 20.9912 12.2967 21.6059 12.9068C22.216 13.517 22.6273 14.2491 22.8804 15.1712C23.0115 15.6638 23.0115 16.8479 22.8804 17.3406C22.442 18.9315 21.3844 20.1382 19.9607 20.6761C19.1743 20.9699 19.1788 20.9699 16.7292 20.9879L14.501 21.006L14.5959 20.8207C14.7179 20.5857 14.8671 20.0027 14.8671 19.7722C14.8671 19.6275 14.8264 19.5507 14.6501 19.3338C14.1665 18.7552 13.8366 18.1089 13.6422 17.3541C13.4886 16.7756 13.4886 15.7316 13.6422 15.1531C14.0987 13.3995 15.423 12.0707 17.1314 11.6549C17.6512 11.5238 17.7416 11.5148 18.415 11.5328C18.8082 11.5464 19.1155 11.578 19.3415 11.6368Z" fill="black"/>
<path d="M14.8672 16.2555V16.9335H15.5451H16.2231V16.2555V15.5776H15.5451H14.8672V16.2555Z" fill="black"/>
<path d="M17.5791 16.2555V16.9335H18.257H18.935V16.2555V15.5776H18.257H17.5791V16.2555Z" fill="black"/>
<path d="M20.2905 16.2555V16.9335H20.9685H21.6464V16.2555V15.5776H20.9685H20.2905V16.2555Z" fill="black"/>
</svg>