<svg xmlns="http://www.w3.org/2000/svg" fill="none" viewBox="6 4 60.54 64">
<g id="ap-ar-revaluation">
<rect id="Rectangle 34624826" x="12" y="21" width="30" height="28" fill="#CBEDDF"/>
<g id="Group">
<g id="Vector">
<path d="M32.048 34.9604H28.242C28.0937 34.9604 27.9502 34.9896 27.814 35.0479C27.6779 35.1038 27.5563 35.1865 27.4517 35.2911C27.3471 35.3957 27.2669 35.5173 27.2109 35.6559C27.1526 35.7921 27.1258 35.9356 27.1258 36.0839V39.795C27.1258 39.9433 27.1526 40.0868 27.2085 40.2254C27.2644 40.364 27.3447 40.4856 27.4493 40.5926C27.5538 40.6972 27.6754 40.7799 27.814 40.8382C27.9502 40.8942 28.0937 40.9234 28.242 40.9258H32.048C32.1987 40.9234 32.3398 40.8942 32.4784 40.8358C32.6146 40.7774 32.7362 40.6948 32.8407 40.5902C32.9453 40.4832 33.0256 40.3616 33.0815 40.2254C33.1374 40.0868 33.1666 39.9433 33.1666 39.795V36.0839C33.1666 35.9356 33.1374 35.7945 33.0791 35.6559C33.0231 35.5197 32.9429 35.3981 32.8383 35.2935C32.7337 35.189 32.6122 35.1063 32.476 35.0479C32.3398 34.9896 32.1963 34.9604 32.048 34.9604ZM30.9196 37.2026V38.6787H29.3631V37.2026H30.9196ZM49.3314 38.348C49.8299 38.8417 50.1339 39.435 50.2385 40.1281C50.2652 40.2862 50.2774 40.4443 50.275 40.6023C50.275 40.7507 50.2458 40.8942 50.1898 41.0328C50.1315 41.1714 50.0512 41.293 49.9467 41.3976C49.8396 41.5021 49.7181 41.5848 49.5819 41.6408C49.4432 41.6991 49.2998 41.7283 49.1514 41.7283C49.0006 41.7283 48.8572 41.6991 48.721 41.6408C48.5824 41.5848 48.4608 41.5021 48.3538 41.3976C48.2492 41.293 48.1689 41.1714 48.1106 41.0328C48.0546 40.8942 48.0255 40.7507 48.0255 40.6023C48.0279 40.4953 48.0084 40.3908 47.9671 40.2911C47.9209 40.1524 47.8455 40.0309 47.7434 39.9287C47.5585 39.7463 47.3372 39.6539 47.077 39.6539H45.8757C45.6179 39.6539 45.3942 39.7463 45.2118 39.9287C45.1558 39.9774 45.1096 40.0357 45.0731 40.0989C44.9588 40.2813 44.9126 40.4808 44.9321 40.6948C44.9516 40.9112 45.0367 41.096 45.1826 41.2565C45.3723 41.4511 45.6033 41.5508 45.8757 41.5581H47.077C47.7628 41.5581 48.3829 41.7551 48.9398 42.1539C49.0833 42.256 49.2195 42.3679 49.3411 42.4944L49.4068 42.5673C49.8032 42.9807 50.0634 43.4695 50.1898 44.0289C50.2506 44.2648 50.2798 44.5055 50.2774 44.7487C50.2774 45.3786 50.1047 45.9574 49.7618 46.4851C49.6402 46.6748 49.4992 46.8499 49.3411 47.0104C48.8572 47.4943 48.2759 47.791 47.5999 47.9029V48.5644C47.5999 48.7127 47.5731 48.8537 47.5148 48.9924C47.4588 49.1285 47.3786 49.2501 47.274 49.3547C47.1694 49.4593 47.0478 49.5395 46.9117 49.5955C46.773 49.6538 46.632 49.6806 46.4836 49.6806C46.3353 49.6806 46.1918 49.6538 46.0556 49.5955C45.9194 49.5395 45.7978 49.4593 45.6933 49.3547C45.5887 49.2501 45.5085 49.1285 45.4525 48.9924C45.3942 48.8537 45.3674 48.7127 45.3674 48.5644V47.9029C45.0196 47.8445 44.6913 47.7302 44.3801 47.5624C44.1028 47.4189 43.8523 47.2341 43.6335 47.0104C43.3319 46.7137 43.0985 46.3684 42.9355 45.9768C42.7701 45.5853 42.6899 45.1767 42.6899 44.7511C42.6996 44.6125 42.7385 44.4763 42.7993 44.3499C42.8626 44.2234 42.9452 44.1116 43.0498 44.0167C43.1544 43.9194 43.2711 43.8465 43.4049 43.7954C43.5362 43.7443 43.6724 43.7176 43.8134 43.7176C43.9545 43.7176 44.0931 43.7443 44.2244 43.7954C44.3557 43.8465 44.4725 43.9194 44.577 44.0167C44.6816 44.1116 44.7643 44.2234 44.8275 44.3499C44.8908 44.4763 44.9272 44.6125 44.9394 44.7511C44.937 45.0138 45.0269 45.24 45.2142 45.4248C45.399 45.6096 45.6228 45.7044 45.8854 45.7093H47.0795C47.2521 45.7093 47.4151 45.6655 47.5634 45.578C47.7117 45.4904 47.8309 45.3737 47.9136 45.2229C47.9987 45.0722 48.0401 44.9092 48.0352 44.7366C48.0328 44.5639 47.9841 44.4034 47.8941 44.255C47.8625 44.2064 47.826 44.1626 47.7871 44.1189C47.5974 43.9097 47.3616 43.8051 47.0795 43.8051H45.8854C45.3504 43.8027 44.847 43.6738 44.3728 43.4233C44.098 43.2701 43.8475 43.0829 43.6237 42.8567L43.5702 42.8032C43.3708 42.5916 43.2006 42.3582 43.0644 42.1028C42.9282 41.8475 42.8285 41.5775 42.7677 41.293C42.7045 41.0109 42.6802 40.7239 42.6948 40.4345C42.7118 40.1452 42.7653 39.8631 42.8577 39.5858C42.9501 39.311 43.0766 39.0532 43.2395 38.8149C43.4024 38.5742 43.5946 38.3601 43.8159 38.1705C44.0372 37.9832 44.2779 37.83 44.543 37.706C44.8056 37.5844 45.0804 37.5017 45.3674 37.4531V36.7964C45.3674 36.6481 45.3942 36.5046 45.4525 36.3684C45.5085 36.2298 45.5887 36.1107 45.6933 36.0061C45.7978 35.9015 45.9194 35.8188 46.0556 35.7629C46.1918 35.707 46.3353 35.6778 46.4836 35.6778C46.632 35.6778 46.773 35.707 46.9117 35.7629C47.0478 35.8188 47.1694 35.9015 47.274 36.0061C47.3786 36.1107 47.4588 36.2298 47.5148 36.3684C47.5731 36.5046 47.5999 36.6481 47.5999 36.7964V37.4555C48.2297 37.5601 48.7793 37.8324 49.2463 38.2677C49.2754 38.2921 49.3046 38.3188 49.3314 38.348ZM32.048 27.5309H28.242C28.0937 27.5309 27.9502 27.5601 27.814 27.6185C27.6779 27.6744 27.5563 27.7571 27.4517 27.8617C27.3471 27.9663 27.2669 28.0879 27.2109 28.2265C27.1526 28.3627 27.1258 28.5061 27.1258 28.6545V32.3655C27.1258 32.5139 27.1526 32.6574 27.2085 32.796C27.2644 32.9346 27.3447 33.0562 27.4493 33.1632C27.5538 33.2678 27.6754 33.3505 27.814 33.4088C27.9502 33.4648 28.0937 33.4939 28.242 33.4964H32.048C32.1987 33.4939 32.3398 33.4648 32.4784 33.4064C32.6146 33.348 32.7362 33.2653 32.8407 33.1608C32.9453 33.0538 33.0256 32.9322 33.0815 32.796C33.1374 32.6574 33.1666 32.5139 33.1666 32.3655V28.6545C33.1666 28.5061 33.1374 28.3627 33.0815 28.2265C33.0256 28.0879 32.9453 27.9663 32.8407 27.8617C32.7362 27.7571 32.6146 27.6744 32.4784 27.6185C32.3398 27.5601 32.1987 27.5309 32.048 27.5309ZM30.9196 29.7804V31.2493H29.3631V29.7804H30.9196ZM32.048 20.1015H28.242C28.0937 20.1015 27.9502 20.1307 27.814 20.1891C27.6779 20.245 27.5563 20.3277 27.4517 20.4323C27.3471 20.5368 27.2669 20.6584 27.2109 20.7971C27.1526 20.9332 27.1258 21.0767 27.1258 21.2251V24.958C27.1258 25.1039 27.155 25.2474 27.2134 25.3812C27.2693 25.5173 27.352 25.6365 27.4565 25.7411C27.5611 25.8432 27.6803 25.9235 27.8165 25.9794C27.9527 26.0353 28.0961 26.0621 28.242 26.0621H32.048C32.1987 26.0621 32.3422 26.0329 32.4784 25.9745C32.6146 25.9162 32.7362 25.8359 32.8407 25.7289C32.9453 25.6219 33.0256 25.5003 33.0839 25.3641C33.1399 25.2255 33.1666 25.082 33.1666 24.9337V21.2226C33.1715 20.9405 33.0791 20.6973 32.887 20.4906C32.6705 20.228 32.3909 20.0967 32.048 20.1015ZM30.9196 22.351V23.8199H29.3631V22.351H30.9196ZM39.65 27.5309H35.8441C35.6958 27.5309 35.5523 27.5601 35.4161 27.6185C35.2775 27.6744 35.1583 27.7571 35.0513 27.8617C34.9468 27.9663 34.8665 28.0879 34.8106 28.2265C34.7546 28.3627 34.7255 28.5061 34.7255 28.6545V32.3655C34.7255 32.5139 34.7522 32.6574 34.8106 32.796C34.8665 32.9346 34.9468 33.0562 35.0513 33.1632C35.1559 33.2678 35.2775 33.3505 35.4137 33.4088C35.5523 33.4648 35.6958 33.4939 35.8441 33.4964H39.65C39.7838 33.4964 39.9127 33.4745 40.0391 33.4283C40.1632 33.3821 40.2775 33.314 40.3772 33.2264C40.4793 33.1413 40.562 33.0392 40.6252 32.92C40.6909 32.8033 40.7322 32.6793 40.7492 32.5479C40.7638 32.4896 40.7687 32.4288 40.7663 32.3704V28.6593C40.7687 28.511 40.7395 28.3675 40.6836 28.2289C40.6277 28.0903 40.5474 27.9687 40.4428 27.8641C40.3383 27.7571 40.2167 27.6744 40.0805 27.6185C39.9419 27.5601 39.7984 27.5309 39.65 27.5309ZM38.5216 29.7804V31.2493H36.9677V29.7804H38.5216ZM24.441 27.5309H20.6327C20.4843 27.5309 20.3408 27.5601 20.2047 27.6185C20.0685 27.6744 19.9469 27.7571 19.8423 27.8617C19.7377 27.9663 19.6575 28.0879 19.6016 28.2265C19.5432 28.3627 19.5164 28.5061 19.5164 28.6545V32.3655C19.5164 32.5139 19.5432 32.6574 19.5991 32.796C19.6551 32.9346 19.7353 33.0562 19.8399 33.1632C19.9469 33.2678 20.066 33.3505 20.2047 33.4088C20.3408 33.4648 20.4843 33.4939 20.6327 33.4964H24.441C24.5894 33.4939 24.7328 33.4648 24.869 33.4088C25.0076 33.3505 25.1268 33.2678 25.2314 33.1632C25.3384 33.0562 25.4186 32.9346 25.4746 32.796C25.5305 32.6574 25.5572 32.5139 25.5572 32.3655V28.6545C25.5572 28.5061 25.5281 28.3627 25.4721 28.2265C25.4162 28.0879 25.3359 27.9663 25.2314 27.8617C25.1268 27.7571 25.0052 27.6744 24.869 27.6185C24.7304 27.5601 24.5894 27.5309 24.441 27.5309ZM23.315 29.7804V31.2493H21.7586V29.7804H23.315ZM24.441 34.9604H20.6327C20.4843 34.9604 20.3408 34.9896 20.2047 35.0479C20.0685 35.1038 19.9469 35.1865 19.8423 35.2911C19.7377 35.3957 19.6575 35.5173 19.6016 35.6559C19.5432 35.7921 19.5164 35.9356 19.5164 36.0839V39.795C19.5164 39.9433 19.5432 40.0868 19.5991 40.2254C19.6551 40.364 19.7353 40.4856 19.8399 40.5926C19.9469 40.6972 20.066 40.7799 20.2047 40.8382C20.3408 40.8942 20.4843 40.9234 20.6327 40.9258H24.441C24.5894 40.9234 24.7328 40.8942 24.869 40.8382C25.0076 40.7799 25.1268 40.6972 25.2314 40.5926C25.3384 40.4856 25.4186 40.364 25.4746 40.2254C25.5305 40.0868 25.5572 39.9433 25.5572 39.795V36.0839C25.5572 35.9356 25.5281 35.7921 25.4721 35.6559C25.4162 35.5173 25.3359 35.3957 25.2314 35.2911C25.1268 35.1865 25.0052 35.1038 24.869 35.0479C24.7304 34.9896 24.5894 34.9604 24.441 34.9604ZM23.315 37.2026V38.6787H21.7586V37.2026H23.315ZM24.441 20.1015H20.6327C20.4843 20.1015 20.3408 20.1307 20.2047 20.1891C20.0685 20.245 19.9469 20.3277 19.8423 20.4323C19.7377 20.5368 19.6575 20.6584 19.6016 20.7971C19.5432 20.9332 19.5164 21.0767 19.5164 21.2251V24.9361C19.5164 25.0845 19.5432 25.228 19.5991 25.3666C19.6551 25.5052 19.7353 25.6268 19.8399 25.7338C19.9469 25.8384 20.066 25.921 20.2047 25.9794C20.3408 26.0353 20.4843 26.0645 20.6327 26.067H24.441C24.7182 26.0645 24.9639 25.9745 25.1754 25.7946C25.4284 25.566 25.5548 25.2815 25.5572 24.941V21.2299C25.5572 21.0816 25.5305 20.9381 25.4746 20.7995C25.4186 20.6609 25.3384 20.5393 25.2314 20.4347C25.1268 20.3277 25.0076 20.245 24.869 20.1891C24.7328 20.1307 24.5894 20.1015 24.441 20.1015ZM23.315 22.351V23.8199H21.7586V22.351H23.315ZM24.441 42.3898H20.6327C20.4843 42.3898 20.3408 42.419 20.2047 42.4773C20.0685 42.5333 19.9469 42.616 19.8423 42.7205C19.7377 42.8251 19.6575 42.9467 19.6016 43.0853C19.5432 43.2215 19.5164 43.365 19.5164 43.5133V47.2244C19.5164 47.3727 19.5432 47.5162 19.6016 47.6548C19.6575 47.791 19.7377 47.9126 19.8423 48.0172C19.9469 48.1242 20.0685 48.2044 20.2047 48.2628C20.3408 48.3212 20.4843 48.3503 20.6327 48.3503H24.441C24.5894 48.3503 24.7304 48.3212 24.869 48.2628C25.0052 48.2044 25.1268 48.1242 25.2314 48.0172C25.3359 47.9126 25.4162 47.791 25.4721 47.6548C25.5281 47.5162 25.5572 47.3727 25.5572 47.2244V43.5133C25.5572 43.365 25.5281 43.2215 25.4721 43.0853C25.4162 42.9467 25.3359 42.8251 25.2314 42.7205C25.1268 42.616 25.0052 42.5333 24.869 42.4773C24.7304 42.419 24.5894 42.3898 24.441 42.3898ZM23.315 44.632V46.1081H21.7586V44.632H23.315ZM32.048 42.3898H28.242C28.0937 42.3898 27.9502 42.419 27.814 42.4773C27.6779 42.5333 27.5563 42.616 27.4517 42.7205C27.3471 42.8251 27.2669 42.9467 27.2109 43.0853C27.1526 43.2215 27.1258 43.365 27.1258 43.5133V47.2244C27.1258 47.3727 27.1526 47.5162 27.2109 47.6548C27.2669 47.791 27.3471 47.9126 27.4517 48.0172C27.5563 48.1242 27.6779 48.2044 27.814 48.2628C27.9502 48.3212 28.0937 48.3503 28.242 48.3503H32.048C32.1963 48.3479 32.3398 48.3187 32.476 48.2604C32.6122 48.2044 32.7337 48.1217 32.8383 48.0172C32.9429 47.9102 33.0231 47.791 33.0791 47.6524C33.1374 47.5162 33.1666 47.3727 33.1666 47.2244V43.5133C33.1666 43.365 33.1374 43.2239 33.0791 43.0853C33.0231 42.9491 32.9429 42.8275 32.8383 42.723C32.7337 42.616 32.6122 42.5357 32.476 42.4773C32.3398 42.419 32.1963 42.3898 32.048 42.3898ZM30.9196 44.632V46.1081H29.3631V44.632H30.9196ZM65.4013 14.9289H46.6855V8.2558C46.6855 7.97614 46.6587 7.6989 46.6028 7.42653C46.5469 7.15173 46.4666 6.88665 46.3596 6.62887C46.2526 6.37109 46.1213 6.12547 45.9656 5.89444C45.81 5.66098 45.6349 5.44697 45.4355 5.24999C45.2385 5.05301 45.0245 4.87548 44.7935 4.71984C44.56 4.56663 44.3168 4.43531 44.059 4.3283C43.8013 4.21887 43.5362 4.13862 43.2614 4.08268C42.989 4.02918 42.7118 4 42.4321 4H10.2461C9.96641 4 9.69161 4.02675 9.4168 4.08268C9.14443 4.13862 8.87692 4.21887 8.61914 4.32587C8.3638 4.43288 8.11817 4.5642 7.88715 4.71984C7.65368 4.87548 7.43968 5.05058 7.24269 5.24756C7.04571 5.44697 6.87062 5.66098 6.71498 5.89201C6.55933 6.12547 6.42801 6.37109 6.32344 6.62887C6.21644 6.88665 6.13619 7.15173 6.08025 7.42653C6.02675 7.6989 6 7.97614 6 8.2558V49.5955C6 49.8751 6.02675 50.1524 6.08268 50.4247C6.13619 50.6995 6.21644 50.9646 6.32344 51.2224C6.43044 51.4802 6.55933 51.7258 6.71498 51.9568C6.87062 52.1903 7.04571 52.4043 7.24269 52.6013C7.43968 52.8007 7.65368 52.9758 7.88715 53.1314C8.11817 53.2871 8.36379 53.4184 8.62158 53.5254C8.87936 53.6324 9.14443 53.7127 9.4168 53.7686C9.69161 53.8221 9.96641 53.8513 10.2461 53.8513H30.6545V54.5444H16.4231C16.2723 54.5468 16.1264 54.576 15.9853 54.6343C15.8467 54.6927 15.7227 54.7754 15.6157 54.8848C15.5087 54.9918 15.426 55.1159 15.3676 55.2569C15.3117 55.398 15.2825 55.5439 15.2825 55.6946V61.2758C15.2849 61.7184 15.3287 62.1537 15.4163 62.5866C15.5038 63.0195 15.6303 63.4378 15.8005 63.8463C15.9707 64.2525 16.1775 64.6391 16.4231 65.0063C16.6687 65.3736 16.9459 65.7116 17.2572 66.0229C17.5709 66.3366 17.909 66.6138 18.2762 66.8594C18.641 67.1051 19.0276 67.3118 19.4362 67.482C19.8423 67.6522 20.263 67.7811 20.6959 67.8662C21.1263 67.9538 21.5641 68 22.0043 68H59.8201C60.2603 68 60.698 67.9538 61.1309 67.8662C61.5613 67.7811 61.9821 67.6522 62.3882 67.482C62.7967 67.3118 63.1834 67.1051 63.5482 66.8594C63.9154 66.6138 64.2534 66.3366 64.5672 66.0253C64.8784 65.7116 65.1557 65.3736 65.4013 65.0063C65.6469 64.6391 65.8536 64.2525 66.0239 63.8463C66.1941 63.4402 66.323 63.0195 66.4081 62.5866C66.4956 62.1537 66.5394 61.7184 66.5419 61.2758V16.0719C66.5419 15.9211 66.5127 15.7752 66.4543 15.6342C66.3959 15.4955 66.3133 15.3715 66.2063 15.2645C66.0993 15.1575 65.9777 15.0748 65.8366 15.0165C65.698 14.9605 65.5521 14.9313 65.4013 14.9289ZM50.5546 65.7092H22.0043C21.7149 65.7092 21.4255 65.68 21.1409 65.6216C20.8564 65.5632 20.5792 65.4781 20.3117 65.3663C20.0417 65.2544 19.7864 65.1182 19.5456 64.9577C19.3049 64.7948 19.0811 64.6099 18.8744 64.4057C18.6701 64.199 18.4853 63.9752 18.3248 63.7345C18.1619 63.4913 18.0257 63.2359 17.9138 62.9684C17.802 62.6985 17.7193 62.4212 17.6609 62.1367C17.6025 61.8522 17.5734 61.5628 17.5734 61.2734V56.8352H48.8791V61.2734C48.8791 62.0905 49.0225 62.8809 49.3119 63.6445C49.5989 64.4081 50.0147 65.0963 50.5546 65.7092ZM50.022 54.5444H32.9453V53.8513H42.4321C42.7702 53.8513 43.1033 53.8099 43.4292 53.7224C43.6116 53.6786 43.7915 53.6227 43.9666 53.5522C44.8835 53.7662 45.8149 53.8634 46.7584 53.8391C47.702 53.8172 48.6286 53.6737 49.5357 53.4135C50.4403 53.1509 51.3012 52.7788 52.111 52.2973C52.9233 51.8158 53.6601 51.2394 54.3241 50.5658C55.0001 49.8897 55.5765 49.1383 56.0531 48.309H60.1654C60.3187 48.309 60.4646 48.2798 60.6032 48.2215C60.7442 48.1631 60.8683 48.0804 60.9753 47.9734C61.0823 47.8664 61.165 47.7424 61.2233 47.6013C61.2817 47.4603 61.3109 47.3144 61.3109 47.1636C61.3109 47.0104 61.2817 46.8645 61.2233 46.7234C61.165 46.5848 61.0823 46.4608 60.9753 46.3538C60.8683 46.2443 60.7442 46.1616 60.6032 46.1033C60.4646 46.0473 60.3187 46.0182 60.1654 46.0182H57.0697C57.4077 44.9287 57.5755 43.8149 57.5731 42.6743C57.5755 41.5873 57.4223 40.5245 57.1086 39.4861C57.0186 39.1602 56.9116 38.8417 56.7876 38.5255C56.4252 37.6257 55.9534 36.7867 55.3746 36.0061H60.1679C60.3211 36.0061 60.467 35.9769 60.6056 35.9185C60.7467 35.8602 60.8707 35.7775 60.9777 35.6705C61.0847 35.5635 61.1674 35.4395 61.2257 35.2984C61.2841 35.1598 61.3133 35.0139 61.3133 34.8607C61.3133 34.7099 61.2841 34.564 61.2257 34.4229C61.1674 34.2819 61.0847 34.1578 60.9777 34.0508C60.8707 33.9438 60.7467 33.8612 60.6056 33.8028C60.467 33.7444 60.3211 33.7152 60.1679 33.7152H53.1081C52.167 33.0076 51.1407 32.4653 50.0293 32.0859H56.0142C56.165 32.0859 56.3109 32.0567 56.452 31.9983C56.593 31.94 56.717 31.8573 56.824 31.7503C56.931 31.6433 57.0137 31.5192 57.0721 31.3782C57.1304 31.2396 57.1596 31.0937 57.1596 30.9405C57.1596 30.7897 57.1304 30.6438 57.0721 30.5027C57.0137 30.3617 56.931 30.2376 56.824 30.1306C56.717 30.0236 56.593 29.941 56.452 29.8826C56.3109 29.8242 56.165 29.795 56.0142 29.795H46.6855V28.1681H56.0142C56.165 28.1681 56.3109 28.1389 56.452 28.0806C56.593 28.0222 56.717 27.9395 56.824 27.8325C56.931 27.7255 57.0137 27.6015 57.0721 27.4604C57.1304 27.3194 57.1596 27.1735 57.1596 27.0227C57.1596 26.8695 57.1304 26.7236 57.0721 26.5825C57.0137 26.4439 56.931 26.3199 56.824 26.2129C56.717 26.1034 56.593 26.0207 56.452 25.9648C56.3109 25.9064 56.165 25.8773 56.0142 25.8773H46.6855V17.2197H64.251V61.2758C64.251 61.5677 64.2243 61.8571 64.1659 62.1416C64.11 62.4285 64.0248 62.7058 63.913 62.9757C63.8035 63.2432 63.6649 63.4986 63.5044 63.7418C63.3415 63.985 63.1591 64.2087 62.9524 64.413C62.7457 64.6197 62.5219 64.8045 62.2812 64.965C62.038 65.1279 61.7827 65.2641 61.5127 65.376C61.2452 65.4879 60.968 65.5705 60.681 65.6289C60.3965 65.6848 60.1071 65.714 59.8153 65.714H55.5984C55.3065 65.714 55.0196 65.6848 54.7326 65.6289C54.4481 65.5705 54.1708 65.4879 53.9009 65.376C53.631 65.2641 53.3756 65.1279 53.1349 64.965C52.8917 64.8045 52.6679 64.6197 52.4612 64.413C52.2569 64.2087 52.0721 63.985 51.9092 63.7418C51.7487 63.4986 51.6125 63.2432 51.5006 62.9757C51.3888 62.7058 51.3036 62.4285 51.2477 62.1416C51.1918 61.8571 51.1626 61.5677 51.1626 61.2758V55.6946C51.1626 55.5439 51.1334 55.398 51.075 55.2569C51.0167 55.1159 50.9364 54.9918 50.8294 54.8848C50.7224 54.7778 50.5984 54.6951 50.4573 54.6343C50.3187 54.576 50.1728 54.5468 50.022 54.5444ZM52.7336 36.3684C53.3926 37.0372 53.9349 37.7887 54.3581 38.6277C54.6232 39.1505 54.8347 39.6928 54.988 40.257C55.1898 40.9671 55.2992 41.6894 55.3163 42.4287C55.3236 42.5162 55.3236 42.5965 55.3236 42.684C55.326 43.9073 55.0901 45.0795 54.6134 46.2054C54.3703 46.7818 54.0687 47.3241 53.7088 47.8348C53.417 48.2458 53.0959 48.63 52.7409 48.9875C52.4247 49.3061 52.0867 49.6003 51.7268 49.8678C51.3644 50.1329 50.9875 50.3712 50.5887 50.5828C50.1923 50.792 49.7837 50.9695 49.3581 51.1154C48.935 51.2637 48.5021 51.3756 48.0595 51.4583C47.6193 51.5385 47.1743 51.5848 46.7244 51.5969C46.2769 51.6115 45.8295 51.5896 45.3844 51.5337C44.9394 51.4802 44.5017 51.3902 44.0688 51.2686C43.6383 51.147 43.2176 50.9914 42.8091 50.8065V50.6898H42.578L42.2473 50.5196C41.7463 50.2472 41.277 49.9262 40.8392 49.559L40.776 49.5055C40.7225 49.4569 40.6641 49.4106 40.6033 49.3717C40.5717 49.328 40.5352 49.2891 40.4939 49.255C40.4112 49.182 40.331 49.1091 40.2604 49.0313L40.2021 48.9802C39.9297 48.7054 39.6768 48.416 39.4433 48.1072L39.3801 48.005C39.2998 47.9004 39.2196 47.7959 39.1539 47.6913L39.0421 47.5259C39.0129 47.4797 38.9813 47.436 38.9521 47.3873L38.9059 47.2998C38.7673 47.0736 38.6408 46.8401 38.5265 46.6018L38.4535 46.4437C38.4171 46.3708 38.3782 46.2905 38.349 46.2176L38.242 45.9574C38.2225 45.9112 38.2031 45.865 38.1812 45.7969L38.0401 45.3834L37.9234 44.9846C37.9161 44.9408 37.9039 44.8971 37.8869 44.8557L37.8164 44.542C37.8042 44.3864 37.7775 44.2332 37.7337 44.0824L37.724 44.0435L37.6802 43.6763C37.6705 43.6203 37.6656 43.5644 37.6656 43.506C37.6559 43.4501 37.651 43.3942 37.6486 43.3382L37.6389 43.2045C37.6364 43.1704 37.634 43.1339 37.634 43.0999C37.6339 43.0977 37.6338 43.0954 37.6337 43.0932C37.6265 42.9545 37.6194 42.8179 37.6194 42.6719C37.6194 42.526 37.6267 42.3776 37.634 42.2293C37.6413 42.0809 37.6559 41.9107 37.668 41.7526C37.668 41.7162 37.6729 41.6797 37.6802 41.6408L37.921 40.3397C37.9429 40.2594 37.9672 40.1792 38.0036 40.0771L38.1374 39.6612C38.1496 39.615 38.169 39.5688 38.1885 39.525C38.2177 39.4448 38.2493 39.3645 38.2955 39.2527C38.3101 39.2064 38.3295 39.1627 38.349 39.1213C38.3782 39.0411 38.4122 38.9633 38.4535 38.8879L38.5192 38.7492C38.5557 38.669 38.5995 38.5839 38.6457 38.5012L38.6821 38.365L38.7162 38.3699C38.7429 38.3139 38.7794 38.2507 38.8499 38.1291C38.8743 38.0829 38.901 38.0367 38.9302 37.9929C38.9691 37.9297 39.0104 37.8665 39.025 37.8324C39.0518 37.7935 39.0785 37.7522 39.1053 37.7133L39.2925 37.4482C39.3339 37.3825 39.385 37.3193 39.4531 37.2293C39.4798 37.188 39.5138 37.1491 39.5844 37.0639C39.633 37.0032 39.6768 36.9472 39.7352 36.8791C39.9175 36.6748 40.1802 36.3903 40.2191 36.3465C41.2672 35.347 42.4783 34.6126 43.8475 34.1457C44.7813 33.8879 45.7298 33.7736 46.6976 33.8004C47.6631 33.8247 48.6042 33.99 49.5211 34.2965C50.1728 34.5445 50.7881 34.8607 51.3717 35.24C51.683 35.4516 51.9773 35.6802 52.2594 35.9283C52.4247 36.0669 52.5828 36.2152 52.7336 36.3684ZM44.436 31.7041H44.4263C43.7453 31.8281 43.0814 32.0202 42.437 32.278L42.3689 32.2999C42.2424 32.351 42.1062 32.4093 41.9871 32.4677C41.3134 32.7644 40.6812 33.1292 40.0878 33.562C40.044 33.5791 40.0075 33.6034 39.9735 33.6374C39.9005 33.6861 39.83 33.7396 39.7595 33.7979L39.5041 34.0022C39.4458 34.0435 39.3923 34.0898 39.3436 34.1433C39.2925 34.1749 39.2463 34.2113 39.205 34.2551C39.1199 34.3232 39.0396 34.3962 38.9618 34.474C38.9229 34.5056 38.8864 34.5372 38.8499 34.5737C38.7819 34.6418 38.7138 34.7099 38.6262 34.7901C38.5678 34.8485 38.5095 34.9069 38.4535 34.9701H35.8441C35.6958 34.9701 35.5523 34.9993 35.4161 35.0552C35.2799 35.1111 35.1583 35.1938 35.0538 35.2984C34.9492 35.403 34.8689 35.5221 34.813 35.6608C34.7546 35.7969 34.7279 35.938 34.7255 36.0863V39.8047C34.7279 40.0527 34.8033 40.2765 34.9516 40.4735C35.1 40.6729 35.2945 40.8042 35.5329 40.8723C35.5256 40.9234 35.5134 40.9817 35.5012 41.0547L35.4866 41.1763C35.4793 41.2346 35.4721 41.293 35.4696 41.3441L35.4113 41.9448C35.4088 42.0055 35.404 42.0688 35.3942 42.1296C35.3894 42.2414 35.3869 42.3582 35.3869 42.4968C35.1851 42.5868 35.0246 42.7254 34.9054 42.9102C34.7863 43.095 34.7255 43.2969 34.7255 43.5158V47.2365C34.7255 47.3849 34.7546 47.5284 34.8106 47.6646C34.8665 47.8007 34.9468 47.9223 35.0538 48.0269C35.1583 48.1315 35.2775 48.2117 35.4137 48.2677C35.5523 48.326 35.6934 48.3528 35.8417 48.3552H36.9239L37.3568 49.0361C37.3762 49.0678 37.3957 49.0945 37.4516 49.1748L37.634 49.4155L37.6899 49.4958C37.9793 49.88 38.2955 50.2424 38.6359 50.5828C39.0032 50.9549 39.3971 51.3002 39.8178 51.6164H10.5476L10.2461 51.6091C9.981 51.6066 9.72322 51.5556 9.4776 51.4534C9.23198 51.3513 9.01554 51.2054 8.82829 51.0157C8.64103 50.8284 8.49512 50.612 8.39298 50.3639C8.29327 50.1183 8.2422 49.863 8.2422 49.5955V8.2558C8.2422 7.70133 8.43675 7.22955 8.83072 6.83801C9.22225 6.44891 9.69404 6.25193 10.2461 6.2495H42.4321C42.6972 6.25193 42.9525 6.303 43.1982 6.40514C43.4438 6.50728 43.6602 6.65076 43.8475 6.83801C44.0347 7.0277 44.1806 7.24414 44.2828 7.48976C44.3849 7.73295 44.436 7.9883 44.436 8.2558V31.7041ZM39.65 20.1015H35.8441C35.6958 20.1015 35.5523 20.1307 35.4161 20.1891C35.2775 20.245 35.1583 20.3277 35.0513 20.4323C34.9468 20.5368 34.8665 20.6584 34.8106 20.7971C34.7546 20.9332 34.7255 21.0767 34.7255 21.2251V24.9361C34.7255 25.0845 34.7522 25.228 34.8106 25.3666C34.8665 25.5052 34.9468 25.6268 35.0513 25.7338C35.1559 25.8384 35.2775 25.921 35.4137 25.9794C35.5523 26.0353 35.6958 26.0645 35.8441 26.067H39.65C39.7984 26.0645 39.9419 26.0353 40.0805 25.9794C40.2167 25.921 40.3383 25.8384 40.4428 25.7338C40.5474 25.6268 40.6277 25.5052 40.6836 25.3666C40.7395 25.228 40.7687 25.0845 40.7663 24.9361V21.2251C40.7663 21.0767 40.7395 20.9332 40.6836 20.7971C40.6252 20.6584 40.545 20.5368 40.4404 20.4323C40.3358 20.3277 40.2167 20.245 40.078 20.1891C39.9419 20.1307 39.7984 20.1015 39.65 20.1015ZM38.5216 22.351V23.8199H36.9677V22.351H38.5216ZM16.8341 20.1015H13.0282C12.8798 20.1015 12.7363 20.1307 12.6001 20.1891C12.464 20.245 12.3424 20.3277 12.2378 20.4323C12.1332 20.5368 12.053 20.6584 11.9946 20.7971C11.9387 20.9332 11.9119 21.0767 11.9119 21.2251V24.9361C11.9095 25.0845 11.9387 25.228 11.9946 25.3666C12.0505 25.5052 12.1308 25.6268 12.2354 25.7338C12.3399 25.8384 12.4615 25.921 12.6001 25.9794C12.7363 26.0353 12.8798 26.0645 13.0282 26.067H16.8341C16.9848 26.0645 17.1283 26.0353 17.2669 25.9794C17.4031 25.921 17.5247 25.8408 17.6317 25.7338C17.7363 25.6268 17.8165 25.5052 17.8749 25.369C17.9308 25.2304 17.96 25.0869 17.96 24.9361V21.2251C17.96 21.0767 17.9308 20.9332 17.8725 20.7971C17.8165 20.6584 17.7339 20.5368 17.6293 20.4323C17.5247 20.3253 17.4031 20.245 17.2645 20.1866C17.1283 20.1307 16.9848 20.1015 16.8341 20.1015ZM15.7057 22.351V23.8199H14.1541V22.351H15.7057ZM16.8341 42.3898H13.0282C12.8798 42.3898 12.7363 42.419 12.6001 42.4773C12.464 42.5333 12.3424 42.616 12.2378 42.7205C12.1332 42.8251 12.053 42.9467 11.9946 43.0853C11.9387 43.2215 11.9119 43.365 11.9119 43.5133V47.2244C11.9119 47.3727 11.9387 47.5162 11.9946 47.6548C12.053 47.791 12.1332 47.9126 12.2378 48.0172C12.3424 48.1242 12.464 48.2044 12.6001 48.2628C12.7363 48.3212 12.8798 48.3503 13.0282 48.3503H16.8341C16.9848 48.3503 17.1283 48.3212 17.2645 48.2628C17.4031 48.2069 17.5247 48.1242 17.6293 48.0196C17.7339 47.915 17.8165 47.7934 17.8725 47.6548C17.9308 47.5162 17.96 47.3727 17.96 47.2244V43.5133C17.96 43.365 17.9308 43.2215 17.8725 43.0853C17.8165 42.9467 17.7339 42.8251 17.6293 42.7205C17.5247 42.6135 17.4031 42.5333 17.2645 42.4749C17.1283 42.419 16.9848 42.3898 16.8341 42.3898ZM15.7057 44.632V46.1081H14.1541V44.632H15.7057ZM39.65 9.50093H13.0282C12.8798 9.50093 12.7363 9.53011 12.6001 9.58848C12.464 9.64684 12.3424 9.7271 12.2378 9.8341C12.1332 9.93867 12.053 10.0603 11.9946 10.1965C11.9387 10.3351 11.9119 10.4785 11.9119 10.6269V16.4659C11.9095 16.6166 11.9387 16.7601 11.9946 16.8963C12.0505 17.0349 12.1308 17.1565 12.2354 17.2635C12.3399 17.3681 12.4615 17.4508 12.6001 17.5091C12.7363 17.5651 12.8798 17.5943 13.0282 17.5967H39.65C40.0562 17.5918 40.3699 17.4216 40.5912 17.0836C40.7079 16.8963 40.7663 16.692 40.7663 16.4707V10.6269C40.7663 10.4785 40.7395 10.3351 40.6836 10.1965C40.6252 10.0603 40.545 9.93867 40.4404 9.8341C40.3358 9.7271 40.2167 9.64684 40.078 9.58848C39.9419 9.53011 39.7984 9.50093 39.65 9.50093ZM38.5241 11.7431V15.3496H14.1541V11.7431H38.5241ZM16.8341 34.9604H13.0282C12.8798 34.9604 12.7363 34.9896 12.6001 35.0479C12.464 35.1038 12.3424 35.1865 12.2378 35.2911C12.1332 35.3957 12.053 35.5173 11.9946 35.6559C11.9387 35.7921 11.9119 35.9356 11.9119 36.0839V39.795C11.9095 39.9433 11.9387 40.0868 11.9946 40.2254C12.0505 40.364 12.1308 40.4856 12.2354 40.5926C12.3399 40.6972 12.4615 40.7799 12.6001 40.8382C12.7363 40.8942 12.8798 40.9234 13.0282 40.9258H16.8341C16.9848 40.9234 17.1283 40.8942 17.2669 40.8382C17.4031 40.7799 17.5247 40.6972 17.6317 40.5926C17.7363 40.4856 17.8165 40.364 17.8749 40.2278C17.9308 40.0892 17.96 39.9457 17.96 39.795V36.0839C17.96 35.9356 17.9308 35.7921 17.8725 35.6559C17.8165 35.5173 17.7339 35.3957 17.6293 35.2911C17.5247 35.1841 17.4031 35.1038 17.2645 35.0455C17.1283 34.9896 16.9848 34.9604 16.8341 34.9604ZM15.7057 37.2026V38.6787H14.1541V37.2026H15.7057ZM16.8341 27.5309H13.0282C12.8798 27.5309 12.7363 27.5601 12.6001 27.6185C12.464 27.6744 12.3424 27.7571 12.2378 27.8617C12.1332 27.9663 12.053 28.0879 11.9946 28.2265C11.9387 28.3627 11.9119 28.5061 11.9119 28.6545V32.3655C11.9095 32.5139 11.9387 32.6574 11.9946 32.796C12.0505 32.9346 12.1308 33.0562 12.2354 33.1632C12.3399 33.2678 12.4615 33.3505 12.6001 33.4088C12.7363 33.4648 12.8798 33.4939 13.0282 33.4964H16.8341C16.9848 33.4939 17.1283 33.4648 17.2669 33.4088C17.4031 33.3505 17.5247 33.2702 17.6317 33.1632C17.7363 33.0562 17.8165 32.9346 17.8749 32.7984C17.9308 32.6598 17.96 32.5163 17.96 32.3655V28.6545C17.96 28.5061 17.9308 28.3627 17.8725 28.2265C17.8165 28.0879 17.7339 27.9663 17.6293 27.8617C17.5247 27.7547 17.4031 27.6744 17.2645 27.6161C17.1283 27.5601 16.9848 27.5309 16.8341 27.5309ZM15.7057 29.7804V31.2493H14.1541V29.7804H15.7057Z" fill="#0B2D1F"/>
<path fill-rule="evenodd" clip-rule="evenodd" d="M44.436 31.7041H44.4263C43.7453 31.8281 43.0814 32.0202 42.437 32.278L42.3689 32.2999C42.2424 32.351 42.1062 32.4093 41.9871 32.4677C41.3134 32.7644 40.6812 33.1292 40.0878 33.562C40.044 33.5791 40.0075 33.6034 39.9735 33.6374C39.9005 33.6861 39.83 33.7396 39.7595 33.7979L39.5041 34.0022C39.4458 34.0435 39.3923 34.0898 39.3436 34.1433C39.2925 34.1749 39.2463 34.2113 39.205 34.2551C39.1199 34.3232 39.0396 34.3962 38.9618 34.474C38.9229 34.5056 38.8864 34.5372 38.8499 34.5737C38.7819 34.6418 38.7138 34.7099 38.6262 34.7901C38.5678 34.8485 38.5095 34.9069 38.4535 34.9701H35.8441C35.6958 34.9701 35.5523 34.9993 35.4161 35.0552C35.2799 35.1111 35.1583 35.1938 35.0538 35.2984C34.9492 35.403 34.8689 35.5221 34.813 35.6608C34.7546 35.7969 34.7279 35.938 34.7255 36.0863V39.8047C34.7279 40.0527 34.8033 40.2765 34.9516 40.4735C35.1 40.6729 35.2945 40.8042 35.5329 40.8723C35.5256 40.9234 35.5134 40.9817 35.5012 41.0547L35.4866 41.1763C35.4793 41.2346 35.4721 41.293 35.4696 41.3441L35.4113 41.9448C35.4088 42.0055 35.404 42.0688 35.3942 42.1296C35.3894 42.2414 35.3869 42.3582 35.3869 42.4968C35.1851 42.5868 35.0246 42.7254 34.9054 42.9102C34.7863 43.095 34.7255 43.2969 34.7255 43.5158V47.2365C34.7255 47.3849 34.7546 47.5284 34.8106 47.6646C34.8665 47.8007 34.9468 47.9223 35.0538 48.0269C35.1583 48.1315 35.2775 48.2117 35.4137 48.2677C35.5523 48.326 35.6934 48.3528 35.8417 48.3552H36.9239L37.3568 49.0361C37.3762 49.0678 37.3957 49.0945 37.4516 49.1748L37.634 49.4155L37.6899 49.4958C37.9793 49.88 38.2955 50.2424 38.6359 50.5828C39.0032 50.9549 39.3971 51.3002 39.8178 51.6164H10.5476L10.2461 51.6091C9.981 51.6066 9.72322 51.5556 9.4776 51.4534C9.23198 51.3513 9.01554 51.2054 8.82829 51.0157C8.64103 50.8284 8.49512 50.612 8.39298 50.3639C8.29327 50.1183 8.2422 49.863 8.2422 49.5955V8.2558C8.2422 7.70133 8.43675 7.22955 8.83072 6.83801C9.22225 6.44891 9.69404 6.25193 10.2461 6.2495H42.4321C42.6972 6.25193 42.9525 6.303 43.1982 6.40514C43.4438 6.50728 43.6602 6.65076 43.8475 6.83801C44.0347 7.0277 44.1806 7.24414 44.2828 7.48976C44.3849 7.73295 44.436 7.9883 44.436 8.2558V31.7041ZM28.242 34.9604H32.048C32.1963 34.9604 32.3398 34.9896 32.476 35.0479C32.6122 35.1063 32.7337 35.189 32.8383 35.2935C32.9429 35.3981 33.0231 35.5197 33.0791 35.6559C33.1374 35.7945 33.1666 35.9356 33.1666 36.0839V39.795C33.1666 39.9433 33.1374 40.0868 33.0815 40.2254C33.0256 40.3616 32.9453 40.4832 32.8407 40.5902C32.7362 40.6948 32.6146 40.7774 32.4784 40.8358C32.3398 40.8942 32.1987 40.9234 32.048 40.9258H28.242C28.0937 40.9234 27.9502 40.8942 27.814 40.8382C27.6754 40.7799 27.5538 40.6972 27.4493 40.5926C27.3447 40.4856 27.2644 40.364 27.2085 40.2254C27.1526 40.0868 27.1258 39.9433 27.1258 39.795V36.0839C27.1258 35.9356 27.1526 35.7921 27.2109 35.6559C27.2669 35.5173 27.3471 35.3957 27.4517 35.2911C27.5563 35.1865 27.6779 35.1038 27.814 35.0479C27.9502 34.9896 28.0937 34.9604 28.242 34.9604ZM28.242 27.5309H32.048C32.1987 27.5309 32.3398 27.5601 32.4784 27.6185C32.6146 27.6744 32.7362 27.7571 32.8407 27.8617C32.9453 27.9663 33.0256 28.0879 33.0815 28.2265C33.1374 28.3627 33.1666 28.5061 33.1666 28.6545V32.3655C33.1666 32.5139 33.1374 32.6574 33.0815 32.796C33.0256 32.9322 32.9453 33.0538 32.8407 33.1608C32.7362 33.2653 32.6146 33.348 32.4784 33.4064C32.3398 33.4648 32.1987 33.4939 32.048 33.4964H28.242C28.0937 33.4939 27.9502 33.4648 27.814 33.4088C27.6754 33.3505 27.5538 33.2678 27.4493 33.1632C27.3447 33.0562 27.2644 32.9346 27.2085 32.796C27.1526 32.6574 27.1258 32.5139 27.1258 32.3655V28.6545C27.1258 28.5061 27.1526 28.3627 27.2109 28.2265C27.2669 28.0879 27.3471 27.9663 27.4517 27.8617C27.5563 27.7571 27.6779 27.6744 27.814 27.6185C27.9502 27.5601 28.0937 27.5309 28.242 27.5309ZM28.242 20.1015H32.048C32.3909 20.0967 32.6705 20.228 32.887 20.4906C33.0791 20.6973 33.1715 20.9405 33.1666 21.2226V24.9337C33.1666 25.082 33.1399 25.2255 33.0839 25.3641C33.0256 25.5003 32.9453 25.6219 32.8407 25.7289C32.7362 25.8359 32.6146 25.9162 32.4784 25.9745C32.3422 26.0329 32.1987 26.0621 32.048 26.0621H28.242C28.0961 26.0621 27.9527 26.0353 27.8165 25.9794C27.6803 25.9235 27.5611 25.8432 27.4565 25.7411C27.352 25.6365 27.2693 25.5173 27.2134 25.3812C27.155 25.2474 27.1258 25.1039 27.1258 24.958V21.2251C27.1258 21.0767 27.1526 20.9332 27.2109 20.7971C27.2669 20.6584 27.3471 20.5368 27.4517 20.4323C27.5563 20.3277 27.6779 20.245 27.814 20.1891C27.9502 20.1307 28.0937 20.1015 28.242 20.1015ZM35.8441 27.5309H39.65C39.7984 27.5309 39.9419 27.5601 40.0805 27.6185C40.2167 27.6744 40.3383 27.7571 40.4428 27.8641C40.5474 27.9687 40.6277 28.0903 40.6836 28.2289C40.7395 28.3675 40.7687 28.511 40.7663 28.6593V32.3704C40.7687 32.4288 40.7638 32.4896 40.7492 32.5479C40.7322 32.6793 40.6909 32.8033 40.6252 32.92C40.562 33.0392 40.4793 33.1413 40.3772 33.2264C40.2775 33.314 40.1632 33.3821 40.0391 33.4283C39.9127 33.4745 39.7838 33.4964 39.65 33.4964H35.8441C35.6958 33.4939 35.5523 33.4648 35.4137 33.4088C35.2775 33.3505 35.1559 33.2678 35.0513 33.1632C34.9468 33.0562 34.8665 32.9346 34.8106 32.796C34.7522 32.6574 34.7255 32.5139 34.7255 32.3655V28.6545C34.7255 28.5061 34.7546 28.3627 34.8106 28.2265C34.8665 28.0879 34.9468 27.9663 35.0513 27.8617C35.1583 27.7571 35.2775 27.6744 35.4161 27.6185C35.5523 27.5601 35.6958 27.5309 35.8441 27.5309ZM20.6327 27.5309H24.441C24.5894 27.5309 24.7304 27.5601 24.869 27.6185C25.0052 27.6744 25.1268 27.7571 25.2314 27.8617C25.3359 27.9663 25.4162 28.0879 25.4721 28.2265C25.5281 28.3627 25.5572 28.5061 25.5572 28.6545V32.3655C25.5572 32.5139 25.5305 32.6574 25.4746 32.796C25.4186 32.9346 25.3384 33.0562 25.2314 33.1632C25.1268 33.2678 25.0076 33.3505 24.869 33.4088C24.7328 33.4648 24.5894 33.4939 24.441 33.4964H20.6327C20.4843 33.4939 20.3408 33.4648 20.2047 33.4088C20.066 33.3505 19.9469 33.2678 19.8399 33.1632C19.7353 33.0562 19.6551 32.9346 19.5991 32.796C19.5432 32.6574 19.5164 32.5139 19.5164 32.3655V28.6545C19.5164 28.5061 19.5432 28.3627 19.6016 28.2265C19.6575 28.0879 19.7377 27.9663 19.8423 27.8617C19.9469 27.7571 20.0685 27.6744 20.2047 27.6185C20.3408 27.5601 20.4843 27.5309 20.6327 27.5309ZM20.6327 34.9604H24.441C24.5894 34.9604 24.7304 34.9896 24.869 35.0479C25.0052 35.1038 25.1268 35.1865 25.2314 35.2911C25.3359 35.3957 25.4162 35.5173 25.4721 35.6559C25.5281 35.7921 25.5572 35.9356 25.5572 36.0839V39.795C25.5572 39.9433 25.5305 40.0868 25.4746 40.2254C25.4186 40.364 25.3384 40.4856 25.2314 40.5926C25.1268 40.6972 25.0076 40.7799 24.869 40.8382C24.7328 40.8942 24.5894 40.9234 24.441 40.9258H20.6327C20.4843 40.9234 20.3408 40.8942 20.2047 40.8382C20.066 40.7799 19.9469 40.6972 19.8399 40.5926C19.7353 40.4856 19.6551 40.364 19.5991 40.2254C19.5432 40.0868 19.5164 39.9433 19.5164 39.795V36.0839C19.5164 35.9356 19.5432 35.7921 19.6016 35.6559C19.6575 35.5173 19.7377 35.3957 19.8423 35.2911C19.9469 35.1865 20.0685 35.1038 20.2047 35.0479C20.3408 34.9896 20.4843 34.9604 20.6327 34.9604ZM20.6327 20.1015H24.441C24.5894 20.1015 24.7328 20.1307 24.869 20.1891C25.0076 20.245 25.1268 20.3277 25.2314 20.4347C25.3384 20.5393 25.4186 20.6609 25.4746 20.7995C25.5305 20.9381 25.5572 21.0816 25.5572 21.2299V24.941C25.5548 25.2815 25.4284 25.566 25.1754 25.7946C24.9639 25.9745 24.7182 26.0645 24.441 26.067H20.6327C20.4843 26.0645 20.3408 26.0353 20.2047 25.9794C20.066 25.921 19.9469 25.8384 19.8399 25.7338C19.7353 25.6268 19.6551 25.5052 19.5991 25.3666C19.5432 25.228 19.5164 25.0845 19.5164 24.9361V21.2251C19.5164 21.0767 19.5432 20.9332 19.6016 20.7971C19.6575 20.6584 19.7377 20.5368 19.8423 20.4323C19.9469 20.3277 20.0685 20.245 20.2047 20.1891C20.3408 20.1307 20.4843 20.1015 20.6327 20.1015ZM20.6327 42.3898H24.441C24.5894 42.3898 24.7304 42.419 24.869 42.4773C25.0052 42.5333 25.1268 42.616 25.2314 42.7205C25.3359 42.8251 25.4162 42.9467 25.4721 43.0853C25.5281 43.2215 25.5572 43.365 25.5572 43.5133V47.2244C25.5572 47.3727 25.5281 47.5162 25.4721 47.6548C25.4162 47.791 25.3359 47.9126 25.2314 48.0172C25.1268 48.1242 25.0052 48.2044 24.869 48.2628C24.7304 48.3212 24.5894 48.3503 24.441 48.3503H20.6327C20.4843 48.3503 20.3408 48.3212 20.2047 48.2628C20.0685 48.2044 19.9469 48.1242 19.8423 48.0172C19.7377 47.9126 19.6575 47.791 19.6016 47.6548C19.5432 47.5162 19.5164 47.3727 19.5164 47.2244V43.5133C19.5164 43.365 19.5432 43.2215 19.6016 43.0853C19.6575 42.9467 19.7377 42.8251 19.8423 42.7205C19.9469 42.616 20.0685 42.5333 20.2047 42.4773C20.3408 42.419 20.4843 42.3898 20.6327 42.3898ZM28.242 42.3898H32.048C32.1963 42.3898 32.3398 42.419 32.476 42.4773C32.6122 42.5357 32.7337 42.616 32.8383 42.723C32.9429 42.8275 33.0231 42.9491 33.0791 43.0853C33.1374 43.2239 33.1666 43.365 33.1666 43.5133V47.2244C33.1666 47.3727 33.1374 47.5162 33.0791 47.6524C33.0231 47.791 32.9429 47.9102 32.8383 48.0172C32.7337 48.1217 32.6122 48.2044 32.476 48.2604C32.3398 48.3187 32.1963 48.3479 32.048 48.3503H28.242C28.0937 48.3503 27.9502 48.3212 27.814 48.2628C27.6779 48.2044 27.5563 48.1242 27.4517 48.0172C27.3471 47.9126 27.2669 47.791 27.2109 47.6548C27.1526 47.5162 27.1258 47.3727 27.1258 47.2244V43.5133C27.1258 43.365 27.1526 43.2215 27.2109 43.0853C27.2669 42.9467 27.3471 42.8251 27.4517 42.7205C27.5563 42.616 27.6779 42.5333 27.814 42.4773C27.9502 42.419 28.0937 42.3898 28.242 42.3898ZM35.8441 20.1015H39.65C39.7984 20.1015 39.9419 20.1307 40.078 20.1891C40.2167 20.245 40.3358 20.3277 40.4404 20.4323C40.545 20.5368 40.6252 20.6584 40.6836 20.7971C40.7395 20.9332 40.7663 21.0767 40.7663 21.2251V24.9361C40.7687 25.0845 40.7395 25.228 40.6836 25.3666C40.6277 25.5052 40.5474 25.6268 40.4428 25.7338C40.3383 25.8384 40.2167 25.921 40.0805 25.9794C39.9419 26.0353 39.7984 26.0645 39.65 26.067H35.8441C35.6958 26.0645 35.5523 26.0353 35.4137 25.9794C35.2775 25.921 35.1559 25.8384 35.0513 25.7338C34.9468 25.6268 34.8665 25.5052 34.8106 25.3666C34.7522 25.228 34.7255 25.0845 34.7255 24.9361V21.2251C34.7255 21.0767 34.7546 20.9332 34.8106 20.7971C34.8665 20.6584 34.9468 20.5368 35.0513 20.4323C35.1583 20.3277 35.2775 20.245 35.4161 20.1891C35.5523 20.1307 35.6958 20.1015 35.8441 20.1015ZM13.0282 20.1015H16.8341C16.9848 20.1015 17.1283 20.1307 17.2645 20.1866C17.4031 20.245 17.5247 20.3253 17.6293 20.4323C17.7339 20.5368 17.8165 20.6584 17.8725 20.7971C17.9308 20.9332 17.96 21.0767 17.96 21.2251V24.9361C17.96 25.0869 17.9308 25.2304 17.8749 25.369C17.8165 25.5052 17.7363 25.6268 17.6317 25.7338C17.5247 25.8408 17.4031 25.921 17.2669 25.9794C17.1283 26.0353 16.9848 26.0645 16.8341 26.067H13.0282C12.8798 26.0645 12.7363 26.0353 12.6001 25.9794C12.4615 25.921 12.3399 25.8384 12.2354 25.7338C12.1308 25.6268 12.0505 25.5052 11.9946 25.3666C11.9387 25.228 11.9095 25.0845 11.9119 24.9361V21.2251C11.9119 21.0767 11.9387 20.9332 11.9946 20.7971C12.053 20.6584 12.1332 20.5368 12.2378 20.4323C12.3424 20.3277 12.464 20.245 12.6001 20.1891C12.7363 20.1307 12.8798 20.1015 13.0282 20.1015ZM13.0282 42.3898H16.8341C16.9848 42.3898 17.1283 42.419 17.2645 42.4749C17.4031 42.5333 17.5247 42.6135 17.6293 42.7205C17.7339 42.8251 17.8165 42.9467 17.8725 43.0853C17.9308 43.2215 17.96 43.365 17.96 43.5133V47.2244C17.96 47.3727 17.9308 47.5162 17.8725 47.6548C17.8165 47.7934 17.7339 47.915 17.6293 48.0196C17.5247 48.1242 17.4031 48.2069 17.2645 48.2628C17.1283 48.3212 16.9848 48.3503 16.8341 48.3503H13.0282C12.8798 48.3503 12.7363 48.3212 12.6001 48.2628C12.464 48.2044 12.3424 48.1242 12.2378 48.0172C12.1332 47.9126 12.053 47.791 11.9946 47.6548C11.9387 47.5162 11.9119 47.3727 11.9119 47.2244V43.5133C11.9119 43.365 11.9387 43.2215 11.9946 43.0853C12.053 42.9467 12.1332 42.8251 12.2378 42.7205C12.3424 42.616 12.464 42.5333 12.6001 42.4773C12.7363 42.419 12.8798 42.3898 13.0282 42.3898ZM13.0282 9.50093H39.65C39.7984 9.50093 39.9419 9.53011 40.078 9.58848C40.2167 9.64684 40.3358 9.7271 40.4404 9.8341C40.545 9.93867 40.6252 10.0603 40.6836 10.1965C40.7395 10.3351 40.7663 10.4785 40.7663 10.6269V16.4707C40.7663 16.692 40.7079 16.8963 40.5912 17.0836C40.3699 17.4216 40.0562 17.5918 39.65 17.5967H13.0282C12.8798 17.5943 12.7363 17.5651 12.6001 17.5091C12.4615 17.4508 12.3399 17.3681 12.2354 17.2635C12.1308 17.1565 12.0505 17.0349 11.9946 16.8963C11.9387 16.7601 11.9095 16.6166 11.9119 16.4659V10.6269C11.9119 10.4785 11.9387 10.3351 11.9946 10.1965C12.053 10.0603 12.1332 9.93867 12.2378 9.8341C12.3424 9.7271 12.464 9.64684 12.6001 9.58848C12.7363 9.53011 12.8798 9.50093 13.0282 9.50093ZM13.0282 34.9604H16.8341C16.9848 34.9604 17.1283 34.9896 17.2645 35.0455C17.4031 35.1038 17.5247 35.1841 17.6293 35.2911C17.7339 35.3957 17.8165 35.5173 17.8725 35.6559C17.9308 35.7921 17.96 35.9356 17.96 36.0839V39.795C17.96 39.9457 17.9308 40.0892 17.8749 40.2278C17.8165 40.364 17.7363 40.4856 17.6317 40.5926C17.5247 40.6972 17.4031 40.7799 17.2669 40.8382C17.1283 40.8942 16.9848 40.9234 16.8341 40.9258H13.0282C12.8798 40.9234 12.7363 40.8942 12.6001 40.8382C12.4615 40.7799 12.3399 40.6972 12.2354 40.5926C12.1308 40.4856 12.0505 40.364 11.9946 40.2254C11.9387 40.0868 11.9095 39.9433 11.9119 39.795V36.0839C11.9119 35.9356 11.9387 35.7921 11.9946 35.6559C12.053 35.5173 12.1332 35.3957 12.2378 35.2911C12.3424 35.1865 12.464 35.1038 12.6001 35.0479C12.7363 34.9896 12.8798 34.9604 13.0282 34.9604ZM13.0282 27.5309H16.8341C16.9848 27.5309 17.1283 27.5601 17.2645 27.6161C17.4031 27.6744 17.5247 27.7547 17.6293 27.8617C17.7339 27.9663 17.8165 28.0879 17.8725 28.2265C17.9308 28.3627 17.96 28.5061 17.96 28.6545V32.3655C17.96 32.5163 17.9308 32.6598 17.8749 32.7984C17.8165 32.9346 17.7363 33.0562 17.6317 33.1632C17.5247 33.2702 17.4031 33.3505 17.2669 33.4088C17.1283 33.4648 16.9848 33.4939 16.8341 33.4964H13.0282C12.8798 33.4939 12.7363 33.4648 12.6001 33.4088C12.4615 33.3505 12.3399 33.2678 12.2354 33.1632C12.1308 33.0562 12.0505 32.9346 11.9946 32.796C11.9387 32.6574 11.9095 32.5139 11.9119 32.3655V28.6545C11.9119 28.5061 11.9387 28.3627 11.9946 28.2265C12.053 28.0879 12.1332 27.9663 12.2378 27.8617C12.3424 27.7571 12.464 27.6744 12.6001 27.6185C12.7363 27.5601 12.8798 27.5309 13.0282 27.5309Z" fill="#22885E"/>
<path d="M50.5546 65.7092H22.0043C21.7149 65.7092 21.4255 65.68 21.1409 65.6216C20.8564 65.5632 20.5792 65.4781 20.3117 65.3663C20.0417 65.2544 19.7864 65.1182 19.5456 64.9577C19.3049 64.7948 19.0811 64.6099 18.8744 64.4057C18.6701 64.199 18.4853 63.9752 18.3248 63.7345C18.1619 63.4913 18.0257 63.2359 17.9138 62.9684C17.802 62.6985 17.7193 62.4212 17.6609 62.1367C17.6025 61.8522 17.5734 61.5628 17.5734 61.2734V56.8352H48.8791V61.2734C48.8791 62.0905 49.0225 62.8809 49.3119 63.6445C49.5989 64.4081 50.0147 65.0963 50.5546 65.7092Z" fill="#22885E"/>
<path fill-rule="evenodd" clip-rule="evenodd" d="M52.7336 36.3684C53.3926 37.0372 53.9349 37.7887 54.3581 38.6277C54.6232 39.1505 54.8347 39.6928 54.988 40.257C55.1898 40.9671 55.2992 41.6894 55.3163 42.4287C55.3236 42.5162 55.3236 42.5965 55.3236 42.684C55.326 43.9073 55.0901 45.0795 54.6134 46.2054C54.3703 46.7818 54.0687 47.3241 53.7088 47.8348C53.417 48.2458 53.0959 48.63 52.7409 48.9875C52.4247 49.3061 52.0867 49.6003 51.7268 49.8678C51.3644 50.1329 50.9875 50.3712 50.5887 50.5828C50.1923 50.792 49.7837 50.9695 49.3581 51.1154C48.935 51.2637 48.5021 51.3756 48.0595 51.4583C47.6193 51.5385 47.1743 51.5848 46.7244 51.5969C46.2769 51.6115 45.8295 51.5896 45.3844 51.5337C44.9394 51.4802 44.5017 51.3902 44.0688 51.2686C43.6383 51.147 43.2176 50.9914 42.8091 50.8065V50.6898H42.578L42.2473 50.5196C41.7463 50.2472 41.277 49.9262 40.8392 49.559L40.776 49.5055C40.7225 49.4569 40.6641 49.4106 40.6033 49.3717C40.5717 49.328 40.5352 49.2891 40.4939 49.255C40.4112 49.182 40.331 49.1091 40.2604 49.0313L40.2021 48.9802C39.9297 48.7054 39.6768 48.416 39.4433 48.1072L39.3801 48.005C39.2998 47.9004 39.2196 47.7959 39.1539 47.6913L39.0421 47.5259C39.0129 47.4797 38.9813 47.436 38.9521 47.3873L38.9059 47.2998C38.7673 47.0736 38.6408 46.8401 38.5265 46.6018L38.4535 46.4437C38.4171 46.3708 38.3782 46.2905 38.349 46.2176L38.242 45.9574C38.2225 45.9112 38.2031 45.865 38.1812 45.7969L38.0401 45.3834L37.9234 44.9846C37.9161 44.9408 37.9039 44.8971 37.8869 44.8557L37.8164 44.542C37.8042 44.3864 37.7775 44.2332 37.7337 44.0824L37.724 44.0435L37.6802 43.6763C37.6705 43.6203 37.6656 43.5644 37.6656 43.506C37.6559 43.4501 37.651 43.3942 37.6486 43.3382L37.6389 43.2045C37.6364 43.1704 37.634 43.1339 37.634 43.0999L37.6337 43.0932C37.6265 42.9545 37.6194 42.8179 37.6194 42.6719C37.6194 42.526 37.6267 42.3776 37.634 42.2293C37.6413 42.0809 37.6559 41.9107 37.668 41.7526C37.668 41.7162 37.6729 41.6797 37.6802 41.6408L37.921 40.3397C37.9429 40.2594 37.9672 40.1792 38.0036 40.0771L38.1374 39.6612C38.1496 39.615 38.169 39.5688 38.1885 39.525C38.2177 39.4448 38.2493 39.3645 38.2955 39.2527C38.3101 39.2064 38.3295 39.1627 38.349 39.1213C38.3782 39.0411 38.4122 38.9633 38.4535 38.8879L38.5192 38.7492C38.5557 38.669 38.5995 38.5839 38.6457 38.5012L38.6821 38.365L38.7162 38.3699C38.7429 38.3139 38.7794 38.2507 38.8499 38.1291C38.8743 38.0829 38.901 38.0367 38.9302 37.9929C38.9691 37.9297 39.0104 37.8665 39.025 37.8324C39.0518 37.7935 39.0785 37.7522 39.1053 37.7133L39.2925 37.4482C39.3339 37.3825 39.385 37.3193 39.4531 37.2293C39.4798 37.188 39.5138 37.1491 39.5844 37.0639C39.633 37.0032 39.6768 36.9472 39.7352 36.8791C39.9175 36.6748 40.1802 36.3903 40.2191 36.3465C41.2672 35.347 42.4783 34.6126 43.8475 34.1457C44.7813 33.8879 45.7298 33.7736 46.6976 33.8004C47.6631 33.8247 48.6042 33.99 49.5211 34.2965C50.1728 34.5445 50.7881 34.8607 51.3717 35.24C51.683 35.4516 51.9773 35.6802 52.2594 35.9283C52.4247 36.0669 52.5828 36.2152 52.7336 36.3684ZM50.2385 40.1281C50.1339 39.435 49.8299 38.8417 49.3314 38.348C49.3046 38.3188 49.2754 38.2921 49.2463 38.2677C48.7793 37.8324 48.2297 37.5601 47.5999 37.4555V36.7964C47.5999 36.6481 47.5731 36.5046 47.5148 36.3684C47.4588 36.2298 47.3786 36.1107 47.274 36.0061C47.1694 35.9015 47.0478 35.8188 46.9117 35.7629C46.773 35.707 46.632 35.6778 46.4836 35.6778C46.3353 35.6778 46.1918 35.707 46.0556 35.7629C45.9194 35.8188 45.7978 35.9015 45.6933 36.0061C45.5887 36.1107 45.5085 36.2298 45.4525 36.3684C45.3942 36.5046 45.3674 36.6481 45.3674 36.7964V37.4531C45.0804 37.5017 44.8056 37.5844 44.543 37.706C44.2779 37.83 44.0372 37.9832 43.8159 38.1705C43.5946 38.3601 43.4024 38.5742 43.2395 38.8149C43.0766 39.0532 42.9501 39.311 42.8577 39.5858C42.7653 39.8631 42.7118 40.1452 42.6948 40.4345C42.6802 40.7239 42.7045 41.0109 42.7677 41.293C42.8285 41.5775 42.9282 41.8475 43.0644 42.1028C43.2006 42.3582 43.3708 42.5916 43.5702 42.8032L43.6237 42.8567C43.8475 43.0829 44.098 43.2701 44.3728 43.4233C44.847 43.6738 45.3504 43.8027 45.8854 43.8051H47.0795C47.3616 43.8051 47.5974 43.9097 47.7871 44.1189C47.826 44.1626 47.8625 44.2064 47.8941 44.255C47.9841 44.4034 48.0328 44.5639 48.0352 44.7366C48.0401 44.9092 47.9987 45.0722 47.9136 45.2229C47.8309 45.3737 47.7117 45.4904 47.5634 45.578C47.4151 45.6655 47.2521 45.7093 47.0795 45.7093H45.8854C45.6228 45.7044 45.399 45.6096 45.2142 45.4248C45.0269 45.24 44.937 45.0138 44.9394 44.7511C44.9272 44.6125 44.8908 44.4763 44.8275 44.3499C44.7643 44.2234 44.6816 44.1116 44.577 44.0167C44.4725 43.9194 44.3557 43.8465 44.2244 43.7954C44.0931 43.7443 43.9545 43.7176 43.8134 43.7176C43.6724 43.7176 43.5362 43.7443 43.4049 43.7954C43.2711 43.8465 43.1544 43.9194 43.0498 44.0167C42.9452 44.1116 42.8626 44.2234 42.7993 44.3499C42.7385 44.4763 42.6996 44.6125 42.6899 44.7511C42.6899 45.1767 42.7701 45.5853 42.9355 45.9768C43.0985 46.3684 43.3319 46.7137 43.6335 47.0104C43.8523 47.2341 44.1028 47.4189 44.3801 47.5624C44.6913 47.7302 45.0196 47.8445 45.3674 47.9029V48.5644C45.3674 48.7127 45.3942 48.8537 45.4525 48.9924C45.5085 49.1285 45.5887 49.2501 45.6933 49.3547C45.7978 49.4593 45.9194 49.5395 46.0556 49.5955C46.1918 49.6538 46.3353 49.6806 46.4836 49.6806C46.632 49.6806 46.773 49.6538 46.9117 49.5955C47.0478 49.5395 47.1694 49.4593 47.274 49.3547C47.3786 49.2501 47.4588 49.1285 47.5148 48.9924C47.5731 48.8537 47.5999 48.7127 47.5999 48.5644V47.9029C48.2759 47.791 48.8572 47.4943 49.3411 47.0104C49.4992 46.8499 49.6402 46.6748 49.7618 46.4851C50.1047 45.9574 50.2774 45.3786 50.2774 44.7487C50.2798 44.5055 50.2506 44.2648 50.1898 44.0289C50.0634 43.4695 49.8032 42.9807 49.4068 42.5673L49.3411 42.4944C49.2195 42.3679 49.0833 42.256 48.9398 42.1539C48.3829 41.7551 47.7628 41.5581 47.077 41.5581H45.8757C45.6033 41.5508 45.3723 41.4511 45.1826 41.2565C45.0367 41.096 44.9516 40.9112 44.9321 40.6948C44.9126 40.4808 44.9588 40.2813 45.0731 40.0989C45.1096 40.0357 45.1558 39.9774 45.2118 39.9287C45.3942 39.7463 45.6179 39.6539 45.8757 39.6539H47.077C47.3372 39.6539 47.5585 39.7463 47.7434 39.9287C47.8455 40.0309 47.9209 40.1524 47.9671 40.2911C48.0084 40.3908 48.0279 40.4953 48.0255 40.6023C48.0255 40.7507 48.0546 40.8942 48.1106 41.0328C48.1689 41.1714 48.2492 41.293 48.3538 41.3976C48.4608 41.5021 48.5824 41.5848 48.721 41.6408C48.8572 41.6991 49.0006 41.7283 49.1514 41.7283C49.2998 41.7283 49.4432 41.6991 49.5819 41.6408C49.7181 41.5848 49.8396 41.5021 49.9467 41.3976C50.0512 41.293 50.1315 41.1714 50.1898 41.0328C50.2458 40.8942 50.275 40.7507 50.275 40.6023C50.2774 40.4443 50.2652 40.2862 50.2385 40.1281Z" fill="#CBEDDF"/>
<path d="M38.5241 11.7431V15.3496H14.1541V11.7431H38.5241Z" fill="#CBEDDF"/>
</g>
</g>
</g>
</svg>