<svg xmlns="http://www.w3.org/2000/svg" fill="none" viewBox="20 20 320.01 320">
<path d="M157.236 285.543C154.473 285.516 151.709 285.496 148.946 285.463C144.716 285.409 142.063 283.586 140.719 279.726C133.659 259.464 126.605 239.201 119.556 218.939C113.686 202.169 107.733 185.426 101.833 168.666C101.691 168.145 101.595 167.613 101.546 167.076C102.983 167.049 104.419 167.006 105.856 167.006C168.078 167.006 230.3 167.006 292.523 167.006C305.236 167.006 317.947 167.024 330.656 167.059C319.1 200.213 307.554 233.366 296.016 266.519C294.516 270.816 292.963 275.093 291.419 279.373C289.803 283.859 287.646 285.373 282.789 285.456C280.123 285.493 277.479 285.456 274.826 285.456C274.386 284.366 274.023 283.236 273.493 282.189C271.159 277.609 265.903 275.346 261.129 277.129C257.296 278.559 254.916 281.406 254.263 285.483L177.299 285.506C177.106 284.893 176.899 284.283 176.719 283.666C175.176 278.299 170.116 276.163 166.303 276.486C161.099 276.919 157.893 280.333 157.236 285.543ZM142.093 193.543C142.093 197.013 142.069 200.486 142.093 203.956C142.129 207.829 143.976 209.859 147.479 209.956C150.733 210.046 153.309 207.473 153.346 203.859C153.416 196.919 153.403 189.976 153.346 183.033C153.319 179.506 150.723 176.839 147.479 176.816C144.719 176.793 142.146 179.776 142.093 183.129C142.059 186.606 142.093 190.076 142.093 193.549V193.543ZM180.589 193.353C180.589 189.686 180.679 186.003 180.559 182.333C180.473 179.633 177.816 176.929 175.419 176.809C172.509 176.666 169.419 179.143 169.373 182.126C169.226 189.579 169.226 197.034 169.373 204.489C169.429 207.586 172.229 210.013 175.156 209.953C178.656 209.886 180.559 207.856 180.599 204.049C180.626 200.489 180.596 196.926 180.589 193.359V193.353ZM278.843 193.426C278.843 196.893 278.823 200.363 278.843 203.833C278.873 207.879 280.776 209.946 284.429 209.956C287.503 209.956 290.056 207.409 290.096 203.996C290.174 196.954 290.174 189.908 290.096 182.859C290.063 179.526 287.366 176.789 284.389 176.859C281.413 176.929 278.899 179.629 278.846 183.019C278.803 186.493 278.843 189.963 278.843 193.433V193.426ZM210.469 244.796C210.469 248.266 210.449 251.733 210.469 255.203C210.496 259.283 212.359 261.346 215.999 261.383C219.219 261.413 221.699 258.813 221.729 255.153C221.785 248.215 221.785 241.278 221.729 234.343C221.699 230.986 219.063 228.256 216.063 228.279C213.063 228.303 210.523 231.019 210.466 234.389C210.423 237.856 210.469 241.333 210.469 244.796ZM276.196 244.936C276.196 241.466 276.196 237.996 276.196 234.526C276.196 231.416 273.863 228.526 271.196 228.253C270.424 228.193 269.648 228.29 268.914 228.538C268.181 228.787 267.505 229.182 266.929 229.698C266.352 230.215 265.886 230.844 265.559 231.546C265.232 232.248 265.051 233.009 265.026 233.783C264.786 241.253 264.819 248.743 264.993 256.216C265.059 259.216 268.183 261.549 271.176 261.379C274.256 261.216 276.129 259.129 276.176 255.666C276.236 252.089 276.196 248.513 276.196 244.936V244.936ZM207.819 193.566C207.819 190.099 207.819 186.633 207.819 183.166C207.819 179.903 205.293 176.876 202.569 176.833C199.716 176.769 196.679 179.476 196.609 182.686C196.449 190.048 196.449 197.414 196.609 204.783C196.683 207.783 199.763 210.116 202.763 209.976C205.846 209.833 207.763 207.746 207.799 204.309C207.859 200.716 207.816 197.143 207.819 193.566ZM235.043 193.693V182.333C235.043 182.226 235.043 182.116 235.043 181.999C234.779 177.849 231.043 175.806 227.243 177.623C224.386 178.989 223.879 181.556 223.819 184.143C223.666 190.526 223.753 196.919 223.789 203.309C223.823 204.169 223.985 205.018 224.273 205.829C225.209 208.726 227.733 210.429 230.539 209.919C233.569 209.366 235.059 207.453 235.049 204.416C235.036 200.839 235.043 197.266 235.043 193.693ZM194.513 245.286C194.513 241.619 194.646 237.923 194.473 234.249C194.316 230.963 191.076 227.999 188.266 228.249C185.639 228.479 183.266 231.413 183.246 234.486C183.233 241.413 183.233 248.34 183.246 255.269C183.246 259.166 185.156 261.336 188.486 261.383C191.743 261.429 194.416 258.819 194.486 255.356C194.583 251.999 194.519 248.643 194.513 245.286ZM248.973 245.026C248.973 241.563 249.003 238.099 248.973 234.636C248.929 231.066 246.379 228.246 243.306 228.279C240.233 228.313 237.733 231.116 237.716 234.716C237.678 241.429 237.678 248.14 237.716 254.849C237.736 258.756 240.126 261.419 243.459 261.383C247.039 261.343 248.939 259.096 248.983 254.766C248.999 251.519 248.973 248.273 248.973 245.026ZM262.893 193.423V183.686C262.893 183.469 262.893 183.253 262.893 183.039C262.623 179.676 259.779 176.743 256.866 176.816C254.146 176.886 251.629 179.909 251.623 183.149C251.623 190.179 251.583 197.209 251.623 204.239C251.649 208.036 254.119 210.316 257.599 209.929C260.599 209.596 262.753 207.043 262.863 203.466C262.973 200.133 262.893 196.776 262.893 193.423ZM166.666 244.976C166.666 241.073 166.743 237.166 166.639 233.266C166.566 230.536 164.239 228.373 161.526 228.239C159.056 228.116 156.109 230.433 156.076 232.906C155.963 240.819 155.939 248.739 156.076 256.653C156.126 259.623 158.696 261.549 161.706 261.369C164.543 261.199 166.616 259.159 166.653 256.369C166.709 252.569 166.666 248.773 166.666 244.976Z" fill="#72B393"/>
<path d="M216.093 130.29C185.163 130.357 159.98 105.684 159.94 75.2902C159.896 44.7936 184.87 20.0902 215.813 20.0002C246.896 19.9102 272.206 44.6669 272.206 75.1536C272.206 105.474 247.016 130.224 216.093 130.29ZM196.253 83.7336C198.92 83.7336 201.586 83.8702 204.216 83.6902C206.486 83.5369 207.316 84.1769 207.233 86.5369C207.053 91.6302 207.2 96.7302 207.17 101.83C207.17 104.07 207.679 106.127 209.073 107.924C211.289 110.784 214.97 111.924 218.59 110.924C222.276 109.9 224.78 106.664 224.923 102.3C225.066 97.4202 225.15 92.5269 224.9 87.6602C224.743 84.6402 225.433 83.4336 228.81 83.6602C233.653 83.9736 238.539 83.7669 243.406 83.7302C249.093 83.6902 252.946 80.1802 252.95 75.1069C252.95 70.2269 249.173 66.6936 243.646 66.5936C238.34 66.5002 233.026 66.4802 227.719 66.5936C225.523 66.6469 224.863 65.9269 224.92 63.8036C225.06 58.6002 225.076 53.3869 224.92 48.1869C224.763 42.6802 220.836 38.7702 215.89 38.8969C210.943 39.0236 207.243 43.0269 207.199 48.4969C207.156 53.4969 207.063 58.4969 207.243 63.4636C207.326 65.8402 206.726 66.7102 204.15 66.6136C198.956 66.4136 193.749 66.4869 188.553 66.5769C182.813 66.6769 179.136 70.2002 179.219 75.3369C179.303 80.2902 183.066 83.6536 188.626 83.7169C191.166 83.7536 193.71 83.7302 196.253 83.7336Z" fill="#22885E"/>
<path d="M330.666 167.06C317.957 167.044 305.246 167.027 292.533 167.007C230.311 167.007 168.089 167.007 105.866 167.007C104.43 167.007 102.993 167.05 101.556 167.077C95.0275 166.41 91.9364 162.997 92.2831 156.837C92.5497 152.153 96.7997 148.783 102.516 148.783C178.136 148.783 253.756 148.783 329.376 148.783C337.02 148.783 341.88 154.753 339.323 161.117C337.82 164.847 334.886 166.957 330.666 167.06Z" fill="#22885E"/>
<path d="M150.907 309.493C144.383 309.467 137.859 309.439 131.337 309.41C125.384 309.393 124.267 308.647 122.41 303.26C104.417 250.964 86.4538 198.656 68.5204 146.333C67.4404 143.17 66.1871 141.417 62.6338 142.14C62.0801 142.2 61.5219 142.205 60.9671 142.157C55.9104 142.157 55.9271 142.157 55.7171 146.98C55.6738 147.947 56.1971 149.24 54.3238 149.313C52.8404 149.367 52.3404 148.787 52.4304 147.427C52.5371 145.787 51.5004 145.48 50.0971 145.483C42.0238 145.51 33.9504 145.51 25.8771 145.483C24.2471 145.483 23.3038 145.923 23.4671 147.68C23.5904 148.973 22.9271 149.317 21.6904 149.327C20.3571 149.327 19.9938 148.787 19.9971 147.58C20.0282 140.207 20.0282 132.833 19.9971 125.46C19.9971 124.46 20.1771 123.76 21.4104 123.77C22.4704 123.77 23.5604 123.77 23.4371 125.21C23.2371 127.543 24.7704 127.47 26.4071 127.463C34.1471 127.433 41.8904 127.417 49.6304 127.463C51.4038 127.463 52.7171 127.323 52.4804 125.09C52.3504 123.85 53.2971 123.783 54.2504 123.757C55.4271 123.73 55.6904 124.337 55.7604 125.373C55.8771 127.173 54.8838 129.503 56.3071 130.647C57.8904 131.913 60.3504 131.007 62.4204 131.09C64.7538 131.18 67.0671 131.09 69.3871 131.113C74.0538 131.133 75.4204 132.06 76.9071 136.373C82.0649 151.356 87.2071 166.334 92.3338 181.31C105.42 219.357 118.488 257.409 131.537 295.467C132.297 297.683 133.304 298.487 135.73 298.43C143.357 298.25 150.99 298.34 158.624 298.323C159.73 299.72 159.974 301.357 159.974 303.06C156.13 304.09 153.187 306.333 150.907 309.493Z" fill="#72B393"/>
<path d="M248.306 309.549C227.378 309.503 206.449 309.459 185.52 309.419C184.766 309.419 183.936 309.303 183.52 310.176C181.25 306.816 178.463 304.076 174.396 302.873C174.746 301.366 174.313 299.696 175.373 298.336H256.193C257.263 299.756 257.003 301.509 257.447 303.089C253.203 303.613 250.85 306.713 248.306 309.549Z" fill="#72B393"/>
<path d="M248.306 309.55C250.849 306.713 253.203 303.613 257.446 303.09C258.153 306.423 258.861 309.75 259.569 313.07C255.616 315.913 254.283 319.606 255.713 323.736C256.959 327.333 260.583 329.806 264.576 329.786C268.569 329.766 272.139 327.263 273.359 323.62C274.693 319.62 273.336 315.866 269.599 313.203C270.266 309.823 270.941 306.444 271.623 303.066C275.566 303.993 278.376 306.46 280.749 309.52C285.699 318.72 285.246 326.71 279.396 333.32C276.213 336.872 271.866 339.17 267.138 339.799C262.41 340.428 257.613 339.346 253.613 336.75C249.653 334.192 246.779 330.26 245.543 325.711C244.307 321.162 244.796 316.317 246.916 312.106C247.353 311.246 247.843 310.403 248.306 309.55Z" fill="#22885E"/>
<path d="M174.391 302.873C178.457 304.076 181.244 306.816 183.514 310.176C188.847 318.346 187.571 328.453 180.377 334.94C176.946 338.013 172.553 339.797 167.95 339.984C163.348 340.171 158.823 338.751 155.154 335.966C147.461 330.146 145.274 320.03 149.861 311.506C150.217 310.84 150.557 310.173 150.907 309.506C153.187 306.356 156.131 304.103 159.974 303.073C160.861 306.45 161.697 309.833 161.881 313.336C157.214 316.97 156.511 322.833 160.284 326.89C163.854 330.726 170.141 330.8 173.844 327.046C177.811 323.03 177.324 317.426 172.664 313.443C172.351 309.77 173.541 306.35 174.391 302.873Z" fill="#22885E"/>
<path d="M271.624 303.072C270.957 306.452 270.283 309.831 269.6 313.209C269.267 314.569 269.087 315.986 268.58 317.279C267.84 319.176 266.65 320.772 264.247 320.582C261.96 320.399 260.69 319.059 260.284 316.882C260.047 315.612 259.817 314.342 259.584 313.069C258.877 309.736 258.169 306.409 257.46 303.089C257.017 301.509 257.277 299.756 256.207 298.336C256.19 293.959 254.064 289.882 254.29 285.472C254.957 281.396 257.324 278.549 261.157 277.119C265.93 275.336 271.19 277.599 273.52 282.179C274.05 283.226 274.414 284.356 274.854 285.446C274.52 289.779 273.004 293.952 272.94 298.329C271.887 299.752 271.8 301.422 271.624 303.072Z" fill="#22885E"/>
<path d="M174.39 302.874C173.54 306.35 172.35 309.77 172.663 313.43C171.663 314.28 171.583 315.517 171.373 316.644C170.92 319.107 169.566 320.644 166.973 320.57C164.306 320.51 163.306 318.54 162.733 316.337C162.476 315.337 162.853 314.144 161.88 313.337C161.696 309.834 160.86 306.45 159.973 303.074C159.973 301.37 159.73 299.74 158.623 298.337C158.906 294.004 156.813 289.91 157.236 285.557C157.903 280.33 161.1 276.934 166.316 276.49C170.13 276.157 175.19 278.304 176.733 283.67C176.913 284.287 177.12 284.897 177.313 285.51C177.313 289.884 175.666 294.02 175.366 298.35C174.306 299.697 174.74 301.367 174.39 302.874Z" fill="#22885E"/>
<path d="M271.624 303.073C271.801 301.407 271.887 299.74 272.927 298.33C278.777 298.33 284.631 298.33 290.481 298.383C294.481 298.427 296.834 300.52 296.814 303.89C296.781 307.053 294.417 309.247 290.694 309.387C287.387 309.513 284.074 309.487 280.764 309.527C278.377 306.467 275.567 304 271.624 303.073Z" fill="#72B393"/>
<path d="M142.093 193.55C142.093 190.077 142.06 186.607 142.093 183.134C142.136 179.78 144.72 176.8 147.48 176.82C150.723 176.844 153.32 179.51 153.346 183.037C153.4 189.98 153.413 196.924 153.346 203.864C153.31 207.477 150.733 210.05 147.48 209.96C143.976 209.867 142.146 207.837 142.093 203.96C142.07 200.494 142.093 197.02 142.093 193.55Z" fill="#E4F0DD"/>
<path d="M180.594 193.36C180.594 196.927 180.627 200.49 180.594 204.057C180.554 207.863 178.651 209.893 175.151 209.96C172.224 210.02 169.424 207.593 169.367 204.497C169.238 197.043 169.238 189.589 169.367 182.133C169.424 179.133 172.504 176.673 175.414 176.817C177.81 176.937 180.467 179.64 180.554 182.34C180.667 186 180.591 189.687 180.594 193.36Z" fill="#E4F0DD"/>
<path d="M278.843 193.433C278.843 189.963 278.803 186.493 278.843 183.023C278.896 179.633 281.376 176.929 284.386 176.863C287.396 176.796 290.053 179.529 290.093 182.863C290.16 189.907 290.16 196.953 290.093 203.999C290.053 207.413 287.5 209.966 284.426 209.959C280.76 209.959 278.87 207.883 278.84 203.836C278.823 200.369 278.843 196.899 278.843 193.433Z" fill="#E4F0DD"/>
<path d="M210.47 244.796C210.47 241.326 210.423 237.856 210.47 234.389C210.527 231.019 213.073 228.303 216.067 228.279C219.06 228.256 221.687 230.986 221.733 234.343C221.793 241.281 221.793 248.217 221.733 255.153C221.703 258.819 219.223 261.413 216.003 261.383C212.363 261.346 210.5 259.283 210.473 255.203C210.45 251.733 210.47 248.266 210.47 244.796Z" fill="#E4F0DD"/>
<path d="M276.197 244.937C276.197 248.513 276.237 252.09 276.197 255.667C276.15 259.13 274.277 261.217 271.197 261.38C268.197 261.537 265.08 259.21 265.013 256.217C264.84 248.743 264.807 241.253 265.047 233.783C265.071 233.009 265.253 232.249 265.58 231.547C265.907 230.845 266.373 230.216 266.949 229.699C267.526 229.182 268.201 228.788 268.935 228.539C269.668 228.291 270.445 228.194 271.217 228.253C273.883 228.517 276.193 231.417 276.217 234.527C276.21 238 276.197 241.467 276.197 244.937Z" fill="#E4F0DD"/>
<path d="M207.82 193.567C207.82 197.144 207.86 200.717 207.82 204.294C207.77 207.731 205.867 209.817 202.783 209.961C199.783 210.097 196.703 207.767 196.63 204.767C196.457 197.405 196.457 190.04 196.63 182.671C196.7 179.461 199.737 176.754 202.59 176.817C205.313 176.877 207.827 179.904 207.84 183.151C207.83 186.634 207.82 190.101 207.82 193.567Z" fill="#E4F0DD"/>
<path d="M235.044 193.693C235.044 197.266 235.044 200.839 235.044 204.413C235.044 207.449 233.564 209.363 230.534 209.916C227.728 210.426 225.201 208.723 224.268 205.826C223.981 205.015 223.818 204.165 223.784 203.306C223.748 196.916 223.661 190.523 223.814 184.139C223.874 181.553 224.381 178.986 227.238 177.619C231.038 175.803 234.774 177.846 235.038 181.996C235.038 182.103 235.038 182.213 235.038 182.329L235.044 193.693Z" fill="#E4F0DD"/>
<path d="M194.516 245.287C194.516 248.643 194.583 252 194.516 255.353C194.433 258.817 191.759 261.427 188.516 261.38C185.183 261.333 183.289 259.163 183.276 255.267C183.249 248.34 183.249 241.412 183.276 234.483C183.276 231.41 185.669 228.483 188.296 228.247C191.106 228 194.346 230.963 194.503 234.247C194.646 237.923 194.513 241.61 194.516 245.287Z" fill="#E4F0DD"/>
<path d="M248.973 245.026C248.973 248.273 248.996 251.52 248.973 254.766C248.929 259.1 247.029 261.343 243.449 261.383C240.116 261.42 237.726 258.756 237.706 254.85C237.668 248.141 237.668 241.43 237.706 234.716C237.706 231.116 240.206 228.313 243.296 228.28C246.386 228.246 248.926 231.066 248.963 234.636C248.999 238.1 248.973 241.563 248.973 245.026Z" fill="#E4F0DD"/>
<path d="M262.894 193.423C262.894 196.777 262.974 200.133 262.87 203.483C262.76 207.06 260.594 209.613 257.607 209.947C254.127 210.333 251.657 208.053 251.63 204.257C251.577 197.227 251.604 190.197 251.63 183.167C251.63 179.91 254.154 176.887 256.874 176.833C259.787 176.76 262.63 179.693 262.9 183.057C262.917 183.27 262.9 183.487 262.9 183.703L262.894 193.423Z" fill="#E4F0DD"/>
<path d="M166.666 244.977C166.666 248.774 166.71 252.57 166.666 256.364C166.63 259.167 164.556 261.207 161.72 261.364C158.72 261.544 156.14 259.617 156.09 256.647C155.95 248.734 155.973 240.814 156.09 232.9C156.123 230.42 159.07 228.104 161.54 228.234C164.253 228.367 166.58 230.53 166.653 233.26C166.743 237.167 166.666 241.074 166.666 244.977Z" fill="#E4F0DD"/>
<path d="M196.253 83.7294C193.71 83.7294 191.167 83.7527 188.62 83.7294C183.06 83.6661 179.287 80.3027 179.213 75.3494C179.127 70.2127 182.803 66.6827 188.547 66.5894C193.743 66.4994 198.95 66.4261 204.143 66.6261C206.72 66.7227 207.32 65.8527 207.237 63.4761C207.057 58.4927 207.15 53.4994 207.193 48.5094C207.237 43.0394 210.893 39.0394 215.883 38.9094C220.873 38.7794 224.757 42.6927 224.913 48.1994C225.063 53.3994 225.047 58.6127 224.913 63.8161C224.857 65.9461 225.517 66.6594 227.713 66.6061C233.02 66.4794 238.333 66.4994 243.64 66.6061C249.167 66.7061 252.943 70.2394 252.943 75.1194C252.943 80.1927 249.087 83.7027 243.4 83.7427C238.533 83.7794 233.647 83.9861 228.803 83.6727C225.427 83.4527 224.737 84.6727 224.893 87.6727C225.143 92.5394 225.06 97.4327 224.917 102.313C224.79 106.676 222.287 109.913 218.583 110.936C214.963 111.936 211.283 110.796 209.067 107.936C207.673 106.139 207.153 104.083 207.163 101.843C207.193 96.7427 207.047 91.6427 207.227 86.5494C207.31 84.1894 206.48 83.5494 204.21 83.7027C201.573 83.8694 198.91 83.7327 196.253 83.7294Z" fill="#E4F0DD"/>
<path d="M259.57 313.07C259.803 314.344 260.033 315.614 260.27 316.884C260.677 319.06 261.937 320.4 264.233 320.584C266.65 320.774 267.84 319.177 268.567 317.28C269.073 315.987 269.257 314.57 269.587 313.21C273.323 315.877 274.68 319.637 273.347 323.627C272.127 327.27 268.56 329.774 264.563 329.794C260.567 329.814 256.947 327.34 255.7 323.744C254.283 319.607 255.617 315.914 259.57 313.07Z" fill="#E4F0DD"/>
<path d="M161.881 313.334C162.854 314.154 162.477 315.334 162.734 316.334C163.294 318.537 164.311 320.507 166.974 320.567C169.567 320.624 170.921 319.104 171.374 316.641C171.584 315.514 171.677 314.277 172.664 313.427C177.331 317.427 177.811 323.014 173.844 327.031C170.141 330.784 163.844 330.697 160.284 326.874C156.511 322.821 157.201 316.957 161.881 313.334Z" fill="#E4F0DD"/>
</svg>