<svg xmlns="http://www.w3.org/2000/svg" fill="none" viewBox="9 3 54 66">
<g id="employee-attendances">
<g id="Group">
<g id="Vector">
<mask id="path-1-outside-1_6230_46600" maskUnits="userSpaceOnUse" x="9" y="3" width="54" height="66" fill="black">
<rect fill="white" x="9" y="3" width="54" height="66"/>
<path d="M23.0578 4.22352C22.382 4.64903 10.1298 17.0389 10.0422 17.3768C10.0047 17.552 9.99218 27.5139 10.0047 39.5284L10.0422 61.367L10.3426 61.8426C10.5053 62.1054 10.8682 62.4684 11.1436 62.6561L11.6567 62.994L23.3207 63.0315L34.9846 63.0566L35.0347 64.1579C35.1223 65.91 35.7606 66.9863 37.1122 67.6496L37.8256 68H48.7762H59.7268L60.4402 67.6496C61.2411 67.2491 61.8293 66.6484 62.2173 65.8224C62.4801 65.2467 62.4801 65.1716 62.4801 54.2961V43.3454L62.1297 42.6321C61.4664 41.2805 60.3901 40.6422 58.638 40.5546L57.5367 40.5045L57.5117 23.0836L57.4741 5.66274L57.1362 5.14963C56.9485 4.8743 56.5856 4.51136 56.3227 4.34867L55.8472 4.04831L39.6402 4.01076C23.8964 3.98573 23.4208 3.98573 23.0578 4.22352ZM55.0337 23.5091V40.517L46.4359 40.5546C46.4107 40.5547 46.3856 40.5548 46.3605 40.5549C37.9872 40.5921 37.8114 40.5929 37.2499 40.8549C36.4239 41.2429 35.8232 41.8311 35.4227 42.6321L35.0723 43.3454L35.0347 51.9432L34.9972 60.5536H23.7462H12.4827V39.7787V19.0163L17.9017 18.9787L23.3207 18.9412L23.8338 18.6033C24.1091 18.4155 24.472 18.0526 24.6347 17.7898L24.9351 17.3142L24.9726 11.8952L25.0102 6.48874H40.0157H55.0337V23.5091ZM22.4947 12.4334V16.5007H18.4023H14.2973L18.3647 12.4334C20.6049 10.1932 22.4446 8.36599 22.4571 8.36599C22.4822 8.36599 22.4947 10.1932 22.4947 12.4334ZM59.3514 43.1827C60.0647 43.5081 60.0397 43.1452 60.0397 54.2836C60.0397 61.9803 60.0022 64.6335 59.8895 64.8712C59.5641 65.5846 59.9271 65.5596 48.7762 65.5596C37.6253 65.5596 37.9883 65.5846 37.6629 64.8712C37.4376 64.3706 37.4626 44.0838 37.6879 43.6708C38.0508 43.02 37.7004 43.0451 48.7386 43.0326C56.4604 43.0326 59.1136 43.0701 59.3514 43.1827Z"/>
<path d="M59.3514 43.1827C60.0647 43.5081 60.0397 43.1452 60.0397 54.2836C60.0397 61.9803 60.0022 64.6335 59.8895 64.8712C59.5641 65.5846 59.9271 65.5596 48.7762 65.5596C37.6253 65.5596 37.9883 65.5846 37.6629 64.8712C37.4376 64.3706 37.4626 44.0838 37.6879 43.6708C38.0508 43.02 37.7004 43.0451 48.7386 43.0326C56.4604 43.0326 59.1136 43.0701 59.3514 43.1827Z"/>
<path d="M22.4947 12.4334V16.5007H18.4023H14.2973L18.3647 12.4334C20.6049 10.1932 22.4446 8.36599 22.4571 8.36599C22.4822 8.36599 22.4947 10.1932 22.4947 12.4334Z"/>
</mask>
<path d="M23.0578 4.22352C22.382 4.64903 10.1298 17.0389 10.0422 17.3768C10.0047 17.552 9.99218 27.5139 10.0047 39.5284L10.0422 61.367L10.3426 61.8426C10.5053 62.1054 10.8682 62.4684 11.1436 62.6561L11.6567 62.994L23.3207 63.0315L34.9846 63.0566L35.0347 64.1579C35.1223 65.91 35.7606 66.9863 37.1122 67.6496L37.8256 68H48.7762H59.7268L60.4402 67.6496C61.2411 67.2491 61.8293 66.6484 62.2173 65.8224C62.4801 65.2467 62.4801 65.1716 62.4801 54.2961V43.3454L62.1297 42.6321C61.4664 41.2805 60.3901 40.6422 58.638 40.5546L57.5367 40.5045L57.5117 23.0836L57.4741 5.66274L57.1362 5.14963C56.9485 4.8743 56.5856 4.51136 56.3227 4.34867L55.8472 4.04831L39.6402 4.01076C23.8964 3.98573 23.4208 3.98573 23.0578 4.22352ZM55.0337 23.5091V40.517L46.4359 40.5546C46.4107 40.5547 46.3856 40.5548 46.3605 40.5549C37.9872 40.5921 37.8114 40.5929 37.2499 40.8549C36.4239 41.2429 35.8232 41.8311 35.4227 42.6321L35.0723 43.3454L35.0347 51.9432L34.9972 60.5536H23.7462H12.4827V39.7787V19.0163L17.9017 18.9787L23.3207 18.9412L23.8338 18.6033C24.1091 18.4155 24.472 18.0526 24.6347 17.7898L24.9351 17.3142L24.9726 11.8952L25.0102 6.48874H40.0157H55.0337V23.5091ZM22.4947 12.4334V16.5007H18.4023H14.2973L18.3647 12.4334C20.6049 10.1932 22.4446 8.36599 22.4571 8.36599C22.4822 8.36599 22.4947 10.1932 22.4947 12.4334ZM59.3514 43.1827C60.0647 43.5081 60.0397 43.1452 60.0397 54.2836C60.0397 61.9803 60.0022 64.6335 59.8895 64.8712C59.5641 65.5846 59.9271 65.5596 48.7762 65.5596C37.6253 65.5596 37.9883 65.5846 37.6629 64.8712C37.4376 64.3706 37.4626 44.0838 37.6879 43.6708C38.0508 43.02 37.7004 43.0451 48.7386 43.0326C56.4604 43.0326 59.1136 43.0701 59.3514 43.1827Z" fill="#0B2D1F"/>
<path d="M59.3514 43.1827C60.0647 43.5081 60.0397 43.1452 60.0397 54.2836C60.0397 61.9803 60.0022 64.6335 59.8895 64.8712C59.5641 65.5846 59.9271 65.5596 48.7762 65.5596C37.6253 65.5596 37.9883 65.5846 37.6629 64.8712C37.4376 64.3706 37.4626 44.0838 37.6879 43.6708C38.0508 43.02 37.7004 43.0451 48.7386 43.0326C56.4604 43.0326 59.1136 43.0701 59.3514 43.1827Z" fill="#22885E"/>
<path d="M22.4947 12.4334V16.5007H18.4023H14.2973L18.3647 12.4334C20.6049 10.1932 22.4446 8.36599 22.4571 8.36599C22.4822 8.36599 22.4947 10.1932 22.4947 12.4334Z" fill="#62C89E"/>
<path d="M22.4947 16.5007H22.6232V16.6293H22.4947V16.5007ZM14.2973 16.5007V16.6293H13.9869L14.2064 16.4098L14.2973 16.5007ZM18.3647 12.4334L18.2738 12.3424L18.3647 12.4334ZM59.3514 43.1827L59.298 43.2997L59.2963 43.2989L59.3514 43.1827ZM59.8895 64.8712L59.7725 64.8179L59.7733 64.8162L59.8895 64.8712ZM37.6629 64.8712L37.5459 64.9246L37.5456 64.924L37.6629 64.8712ZM37.6879 43.6708L37.575 43.6093L37.5756 43.6082L37.6879 43.6708ZM48.7386 43.0326L48.7385 42.904H48.7386V43.0326ZM22.6232 12.4334V16.5007H22.3661V12.4334H22.6232ZM22.4947 16.6293H18.4023V16.3722H22.4947V16.6293ZM18.4023 16.6293H14.2973V16.3722H18.4023V16.6293ZM14.2064 16.4098L18.2738 12.3424L18.4556 12.5243L14.3883 16.5917L14.2064 16.4098ZM18.2738 12.3424C19.394 11.2223 20.414 10.2053 21.1557 9.4684C21.5265 9.09995 21.8278 8.80141 22.0372 8.59493C22.1418 8.49173 22.2237 8.41135 22.2799 8.3567C22.308 8.32943 22.33 8.30823 22.3453 8.2937C22.3529 8.28654 22.3595 8.28038 22.3646 8.27574C22.367 8.27359 22.3703 8.27068 22.3737 8.26787C22.3752 8.26668 22.3787 8.26384 22.3832 8.26072C22.3852 8.25932 22.39 8.25603 22.3965 8.25258C22.3998 8.25087 22.4081 8.2471 22.4132 8.24515C22.4211 8.24255 22.4431 8.23818 22.4571 8.23742V8.49456C22.4711 8.49379 22.493 8.48944 22.5009 8.48686C22.5059 8.48494 22.5141 8.48122 22.5173 8.47956C22.5236 8.47622 22.5281 8.4731 22.5298 8.47192C22.5337 8.46925 22.5363 8.46707 22.5367 8.46677C22.538 8.46573 22.5382 8.46547 22.5367 8.46685C22.534 8.46926 22.5293 8.47363 22.5221 8.4804C22.508 8.49373 22.487 8.51398 22.4592 8.54105C22.4037 8.59507 22.3223 8.67494 22.2177 8.77804C22.0086 8.98417 21.7076 9.28244 21.3369 9.65081C20.5955 10.3875 19.5757 11.4043 18.4556 12.5243L18.2738 12.3424ZM22.4571 8.23742C22.5101 8.23742 22.5426 8.26805 22.5546 8.28179C22.5673 8.29631 22.5737 8.31028 22.5762 8.31612C22.5818 8.32884 22.5842 8.34008 22.5851 8.34428C22.5874 8.35472 22.5887 8.36553 22.5895 8.37359C22.5914 8.39113 22.5929 8.4147 22.5943 8.4424C22.5972 8.49857 22.5997 8.58014 22.6021 8.68356C22.6068 8.8908 22.6107 9.18994 22.6139 9.55851C22.6201 10.2959 22.6232 11.3131 22.6232 12.4334H22.3661C22.3661 11.3134 22.363 10.297 22.3567 9.5607C22.3536 9.19244 22.3497 8.89478 22.345 8.68941C22.3427 8.58653 22.3402 8.50785 22.3375 8.45534C22.3362 8.42871 22.3349 8.41084 22.3338 8.40052C22.3332 8.39465 22.333 8.39492 22.3337 8.39831C22.3339 8.39898 22.3356 8.40757 22.3404 8.41852C22.3425 8.42347 22.3486 8.43678 22.3608 8.45085C22.3724 8.46414 22.4045 8.49456 22.4571 8.49456V8.23742ZM59.4047 43.0658C59.569 43.1407 59.7508 43.1954 59.8736 43.4282C59.9863 43.642 60.0501 44.0026 60.0914 44.6704C60.1746 46.0178 60.1683 48.7178 60.1683 54.2836H59.9111C59.9111 48.711 59.9173 46.0233 59.8347 44.6862C59.7931 44.0117 59.7293 43.7059 59.6461 43.5482C59.573 43.4094 59.4904 43.3875 59.298 43.2997L59.4047 43.0658ZM60.1683 54.2836C60.1683 58.1319 60.1589 60.7202 60.1354 62.3763C60.1237 63.2042 60.1084 63.8004 60.0889 64.2051C60.0792 64.4073 60.0683 64.5634 60.0561 64.6774C60.0501 64.7343 60.0435 64.7825 60.0361 64.8215C60.0293 64.8577 60.0202 64.8957 60.0057 64.9263L59.7733 64.8162C59.7729 64.8171 59.7773 64.8065 59.7834 64.774C59.789 64.7442 59.7948 64.7035 59.8005 64.65C59.8119 64.5434 59.8224 64.3931 59.8321 64.1928C59.8513 63.7926 59.8666 63.1999 59.8783 62.3727C59.9017 60.7186 59.9111 58.132 59.9111 54.2836H60.1683ZM60.0065 64.9246C59.9315 65.0889 59.8768 65.2708 59.6438 65.3935C59.4298 65.5062 59.0689 65.57 58.4003 65.6112C57.0513 65.6945 54.3482 65.6881 48.7762 65.6881V65.431C54.355 65.431 57.0459 65.4372 58.3845 65.3546C59.0598 65.3129 59.366 65.2492 59.5239 65.166C59.6629 65.0928 59.6848 65.0102 59.7725 64.8179L60.0065 64.9246ZM48.7762 65.6881C43.2042 65.6881 40.501 65.6945 39.1521 65.6112C38.4835 65.57 38.1225 65.5062 37.9086 65.3935C37.6756 65.2708 37.6208 65.0889 37.5459 64.9246L37.7798 64.8179C37.8676 65.0102 37.8895 65.0928 38.0284 65.166C38.1864 65.2492 38.4926 65.3129 39.1679 65.3546C40.5065 65.4372 43.1973 65.431 48.7762 65.431V65.6881ZM37.5456 64.924C37.5357 64.902 37.53 64.8771 37.5263 64.8582C37.5221 64.8367 37.5183 64.8114 37.5149 64.7833C37.5079 64.7269 37.5014 64.6531 37.4953 64.564C37.483 64.3856 37.4718 64.1401 37.4615 63.8379C37.441 63.2331 37.4244 62.3969 37.4115 61.4072C37.3857 59.4277 37.3747 56.8313 37.3779 54.238C37.381 51.6447 37.3982 49.0538 37.4287 47.0852C37.444 46.101 37.4626 45.2717 37.4844 44.6751C37.4953 44.377 37.5071 44.1358 37.5198 43.9621C37.5261 43.8755 37.5328 43.8039 37.5399 43.7498C37.5434 43.7228 37.5473 43.6984 37.5517 43.6777C37.5553 43.6609 37.5618 43.6335 37.575 43.6093L37.8008 43.7324C37.8069 43.7211 37.8065 43.7162 37.8032 43.7315C37.8008 43.7428 37.7979 43.7598 37.7948 43.7833C37.7887 43.8302 37.7824 43.8961 37.7762 43.9808C37.7639 44.1499 37.7523 44.3874 37.7414 44.6845C37.7196 45.2784 37.7011 46.1056 37.6858 47.0892C37.6553 49.0562 37.6381 51.6457 37.635 54.2383C37.6319 56.8309 37.6428 59.426 37.6686 61.4039C37.6815 62.393 37.6981 63.2271 37.7185 63.8292C37.7287 64.1304 37.7398 64.3724 37.7518 64.5464C37.7578 64.6335 37.7639 64.7021 37.7701 64.7518C37.7732 64.7767 37.7761 64.7955 37.7787 64.8087C37.7817 64.8245 37.783 64.8249 37.7801 64.8185L37.5456 64.924ZM37.5756 43.6082C37.6604 43.4561 37.7254 43.2923 37.9609 43.1819C38.1772 43.0805 38.5367 43.0221 39.2027 42.984C40.5449 42.9071 43.2225 42.9102 48.7385 42.904L48.7388 43.1611C43.2165 43.1674 40.5502 43.1643 39.2174 43.2407C38.5458 43.2792 38.235 43.3374 38.07 43.4147C37.9242 43.4831 37.8968 43.5602 37.8002 43.7334L37.5756 43.6082ZM48.7386 42.904C52.5995 42.904 55.1941 42.9134 56.8533 42.9369C57.6828 42.9486 58.2798 42.9639 58.6849 42.9833C58.8872 42.9931 59.0434 43.0039 59.1575 43.0161C59.2144 43.0222 59.2626 43.0288 59.3016 43.0361C59.3378 43.0429 59.3758 43.052 59.4064 43.0665L59.2963 43.2989C59.2972 43.2993 59.2866 43.295 59.2541 43.2888C59.2243 43.2833 59.1836 43.2775 59.1301 43.2718C59.0234 43.2604 58.873 43.2498 58.6725 43.2402C58.2719 43.2209 57.6785 43.2057 56.8497 43.194C55.1925 43.1705 52.5996 43.1611 48.7386 43.1611V42.904ZM46.4365 40.6832L46.3611 40.6835L46.36 40.4264L46.4353 40.426L46.4365 40.6832ZM23.0578 4.22352L23.1988 4.43864L23.1949 4.44112L23.0578 4.22352ZM10.0422 17.3768L9.79058 17.3229L9.79332 17.3123L10.0422 17.3768ZM10.0047 39.5284L9.74755 39.5288L9.74755 39.5286L10.0047 39.5284ZM10.0422 61.367L9.82483 61.5044L9.78522 61.4417L9.7851 61.3675L10.0422 61.367ZM10.3426 61.8426L10.56 61.7053L10.5612 61.7073L10.3426 61.8426ZM11.1436 62.6561L11.0021 62.8709L10.9987 62.8685L11.1436 62.6561ZM11.6567 62.994L11.6558 63.2511L11.5792 63.2509L11.5152 63.2088L11.6567 62.994ZM23.3207 63.0315L23.3201 63.2887L23.3198 63.2887L23.3207 63.0315ZM34.9846 63.0566L34.9852 62.7994L35.2304 62.8L35.2415 63.0449L34.9846 63.0566ZM35.0347 64.1579L34.7779 64.1707L34.7778 64.1696L35.0347 64.1579ZM37.1122 67.6496L37.2255 67.4187L37.2256 67.4188L37.1122 67.6496ZM37.8256 68V68.2571H37.7658L37.7122 68.2308L37.8256 68ZM59.7268 68L59.8402 68.2308L59.7866 68.2571H59.7268V68ZM60.4402 67.6496L60.5552 67.8796L60.5536 67.8804L60.4402 67.6496ZM62.2173 65.8224L62.4512 65.9292L62.4501 65.9317L62.2173 65.8224ZM62.4801 43.3454L62.7109 43.2321L62.7373 43.2857V43.3454H62.4801ZM62.1297 42.6321L61.8989 42.7455L61.8989 42.7454L62.1297 42.6321ZM58.638 40.5546L58.6497 40.2977L58.6509 40.2978L58.638 40.5546ZM57.5367 40.5045L57.525 40.7614L57.2799 40.7503L57.2796 40.5049L57.5367 40.5045ZM57.5117 23.0836L57.7688 23.0831V23.0833L57.5117 23.0836ZM57.4741 5.66274L57.6889 5.52132L57.7311 5.58543L57.7313 5.66219L57.4741 5.66274ZM57.1362 5.14963L57.3487 5.00475L57.351 5.0082L57.1362 5.14963ZM56.3227 4.34867L56.1874 4.56731L56.1854 4.56608L56.3227 4.34867ZM55.8472 4.04831L55.8478 3.79116L55.9218 3.79134L55.9845 3.83089L55.8472 4.04831ZM39.6402 4.01076L39.6406 3.75362H39.6408L39.6402 4.01076ZM55.0337 40.517H55.2908V40.7731L55.0348 40.7742L55.0337 40.517ZM46.4359 40.5546L46.4347 40.2974H46.4348L46.4359 40.5546ZM37.2499 40.8549L37.1405 40.6222L37.1411 40.6219L37.2499 40.8549ZM35.4227 42.6321L35.1919 42.5187L35.1927 42.5171L35.4227 42.6321ZM35.0723 43.3454L34.8151 43.3443L34.8154 43.2852L34.8415 43.2321L35.0723 43.3454ZM35.0347 51.9432L34.7776 51.9421V51.9421L35.0347 51.9432ZM34.9972 60.5536L35.2543 60.5547L35.2532 60.8107H34.9972V60.5536ZM12.4827 60.5536V60.8107H12.2255V60.5536H12.4827ZM12.4827 19.0163H12.2255V18.7609L12.4809 18.7591L12.4827 19.0163ZM17.9017 18.9787L17.8999 18.7216L17.9017 18.9787ZM23.3207 18.9412L23.4621 19.1559L23.3985 19.1978L23.3224 19.1983L23.3207 18.9412ZM23.8338 18.6033L23.9787 18.8157L23.9752 18.818L23.8338 18.6033ZM24.6347 17.7898L24.4161 17.6544L24.4173 17.6525L24.6347 17.7898ZM24.9351 17.3142L25.1922 17.316L25.1917 17.3894L25.1525 17.4515L24.9351 17.3142ZM24.9726 11.8952L24.7155 11.8934V11.8934L24.9726 11.8952ZM25.0102 6.48874L24.7531 6.48695L24.7548 6.23159H25.0102V6.48874ZM55.0337 6.48874V6.23159H55.2908V6.48874H55.0337ZM46.3605 40.5549L46.3617 40.8121L46.3605 40.5549ZM23.1949 4.44112C23.1949 4.44108 23.1932 4.44217 23.1894 4.4449C23.1857 4.44756 23.1808 4.45118 23.1745 4.45597C23.162 4.46561 23.146 4.47851 23.1262 4.49506C23.0865 4.52817 23.0355 4.57274 22.9733 4.62877C22.8489 4.74069 22.6846 4.89394 22.4853 5.08337C22.0871 5.46198 21.554 5.98095 20.9318 6.59389C19.6878 7.81952 18.091 9.41787 16.5123 11.0138C14.9335 12.6098 13.3735 14.2027 12.203 15.4173C11.6176 16.0248 11.1306 16.5367 10.7875 16.9068C10.6158 17.0922 10.4817 17.2403 10.3898 17.3464C10.3436 17.3997 10.3103 17.44 10.2889 17.4677C10.278 17.4819 10.2725 17.4897 10.2706 17.4926C10.2628 17.5046 10.2808 17.4812 10.2912 17.4413L9.79332 17.3123C9.80641 17.2618 9.83314 17.2219 9.83975 17.2118C9.85227 17.1926 9.867 17.1726 9.88186 17.1533C9.91196 17.1144 9.9525 17.0658 10.001 17.0098C10.0986 16.897 10.2374 16.7439 10.4103 16.5573C10.7568 16.1835 11.2466 15.6687 11.8327 15.0604C13.0053 13.8436 14.567 12.2491 16.1467 10.6522C17.7264 9.05525 19.3248 7.45523 20.5709 6.22754C21.1938 5.61381 21.7295 5.09237 22.131 4.71065C22.3316 4.51991 22.4998 4.363 22.6292 4.24652C22.751 4.13688 22.8561 4.04671 22.9208 4.00592L23.1949 4.44112ZM10.2937 17.4307C10.298 17.4103 10.2972 17.3998 10.2957 17.4335C10.2947 17.4552 10.2936 17.4868 10.2926 17.5289C10.2904 17.6128 10.2884 17.7334 10.2865 17.8894C10.2826 18.2011 10.279 18.6508 10.2759 19.2238C10.2697 20.3696 10.265 22.0063 10.2618 24.0133C10.2556 28.0272 10.2556 33.521 10.2618 39.5281L9.74755 39.5286C9.74129 33.5213 9.74129 28.027 9.74755 24.0125C9.75068 22.0053 9.75537 20.3678 9.76163 19.221C9.76476 18.6476 9.76829 18.1965 9.77221 17.8829C9.77417 17.7263 9.77624 17.6031 9.77843 17.516C9.77952 17.4726 9.78068 17.4368 9.78192 17.4098C9.78261 17.3948 9.7841 17.3542 9.7908 17.3229L10.2937 17.4307ZM10.2618 39.5279L10.2994 61.3666L9.7851 61.3675L9.74755 39.5288L10.2618 39.5279ZM10.2596 61.2297L10.56 61.7053L10.1252 61.9799L9.82483 61.5044L10.2596 61.2297ZM10.5612 61.7073C10.702 61.9347 11.0378 62.2727 11.2884 62.4436L10.9987 62.8685C10.6987 62.664 10.3085 62.2761 10.124 61.978L10.5612 61.7073ZM11.285 62.4413L11.7981 62.7792L11.5152 63.2088L11.0021 62.8708L11.285 62.4413ZM11.6575 62.7369L23.3215 62.7744L23.3198 63.2887L11.6558 63.2511L11.6575 62.7369ZM23.3212 62.7744L34.9852 62.7994L34.9841 63.3137L23.3201 63.2887L23.3212 62.7744ZM35.2415 63.0449L35.2916 64.1462L34.7778 64.1696L34.7278 63.0682L35.2415 63.0449ZM35.2915 64.1451C35.334 64.9937 35.5088 65.6563 35.8205 66.1806C36.1305 66.702 36.5869 67.1054 37.2255 67.4187L36.9989 67.8804C36.2859 67.5305 35.7474 67.0641 35.3784 66.4434C35.0112 65.8258 34.8231 65.0742 34.7779 64.1707L35.2915 64.1451ZM37.2256 67.4188L37.9389 67.7692L37.7122 68.2308L36.9988 67.8804L37.2256 67.4188ZM37.8256 67.7429H48.7762V68.2571H37.8256V67.7429ZM48.7762 67.7429H59.7268V68.2571H48.7762V67.7429ZM59.6134 67.7692L60.3268 67.4188L60.5536 67.8804L59.8402 68.2308L59.6134 67.7692ZM60.3252 67.4196C61.0742 67.0451 61.621 66.487 61.9846 65.7131L62.4501 65.9317C62.0376 66.8098 61.4081 67.4531 60.5552 67.8796L60.3252 67.4196ZM61.9834 65.7156C62.0428 65.5854 62.0824 65.4972 62.1147 65.2714C62.1492 65.0304 62.1738 64.6411 62.1902 63.9158C62.223 62.4694 62.223 59.736 62.223 54.2961H62.7373C62.7373 59.7317 62.7373 62.4735 62.7043 63.9275C62.6879 64.6524 62.6632 65.0695 62.6238 65.3444C62.5822 65.6345 62.5232 65.7716 62.4512 65.9292L61.9834 65.7156ZM62.223 54.2961V43.3454H62.7373V54.2961H62.223ZM62.2493 43.4588L61.8989 42.7455L62.3605 42.5187L62.7109 43.2321L62.2493 43.4588ZM61.8989 42.7454C61.5855 42.1068 61.1821 41.6503 60.6608 41.3404C60.1364 41.0286 59.4738 40.8538 58.6252 40.8114L58.6509 40.2978C59.5543 40.3429 60.3059 40.5311 60.9236 40.8983C61.5442 41.2673 62.0106 41.8057 62.3605 42.5188L61.8989 42.7454ZM58.6263 40.8115L57.525 40.7614L57.5484 40.2476L58.6497 40.2977L58.6263 40.8115ZM57.2796 40.5049L57.2545 23.084L57.7688 23.0833L57.7938 40.5042L57.2796 40.5049ZM57.2545 23.0842L57.217 5.6633L57.7313 5.66219L57.7688 23.0831L57.2545 23.0842ZM57.2594 5.80417L56.9215 5.29105L57.351 5.0082L57.6889 5.52132L57.2594 5.80417ZM56.9238 5.29449C56.7529 5.04384 56.4148 4.70811 56.1874 4.56731L56.4581 4.13003C56.7563 4.31461 57.1441 4.70475 57.3487 5.00477L56.9238 5.29449ZM56.1854 4.56608L55.7099 4.26572L55.9845 3.83089L56.4601 4.13126L56.1854 4.56608ZM55.8466 4.30545L39.6396 4.2679L39.6408 3.75362L55.8478 3.79116L55.8466 4.30545ZM39.6398 4.2679C31.7666 4.25539 27.7143 4.24914 25.5844 4.27571C24.5171 4.28902 23.942 4.31053 23.6127 4.34239C23.2904 4.37357 23.2399 4.41168 23.1988 4.43861L22.9169 4.00843C23.0573 3.91647 23.2023 3.8654 23.5632 3.83049C23.9172 3.79625 24.5131 3.77474 25.578 3.76146C27.7126 3.73484 31.77 3.7411 39.6406 3.75362L39.6398 4.2679ZM55.2908 23.5091V40.517H54.7766V23.5091H55.2908ZM55.0348 40.7742L46.437 40.8117L46.4348 40.2974L55.0326 40.2599L55.0348 40.7742ZM37.3592 41.0877C36.5853 41.4512 36.0272 41.9981 35.6527 42.7471L35.1927 42.5171C35.6191 41.6642 36.2625 41.0346 37.1405 40.6222L37.3592 41.0877ZM35.6535 42.7455L35.3031 43.4588L34.8415 43.2321L35.1919 42.5187L35.6535 42.7455ZM35.3294 43.3466L35.2919 51.9444L34.7776 51.9421L34.8151 43.3443L35.3294 43.3466ZM35.2919 51.9444L35.2543 60.5547L34.74 60.5524L34.7776 51.9421L35.2919 51.9444ZM34.9972 60.8107H23.7462V60.2964H34.9972V60.8107ZM23.7462 60.8107H12.4827V60.2964H23.7462V60.8107ZM12.2255 60.5536V39.7787H12.7398V60.5536H12.2255ZM12.2255 39.7787V19.0163H12.7398V39.7787H12.2255ZM12.4809 18.7591L17.8999 18.7216L17.9034 19.2358L12.4844 19.2734L12.4809 18.7591ZM17.8999 18.7216L23.3189 18.684L23.3224 19.1983L17.9034 19.2358L17.8999 18.7216ZM23.1792 18.7264L23.6924 18.3885L23.9752 18.818L23.4621 19.1559L23.1792 18.7264ZM23.6889 18.3908C23.9396 18.2199 24.2753 17.8819 24.4161 17.6544L24.8534 17.9251C24.6688 18.2233 24.2787 18.6112 23.9786 18.8157L23.6889 18.3908ZM24.4173 17.6525L24.7177 17.1769L25.1525 17.4515L24.8521 17.9271L24.4173 17.6525ZM24.678 17.3124L24.7155 11.8934L25.2298 11.897L25.1922 17.316L24.678 17.3124ZM24.7155 11.8934L24.7531 6.48695L25.2673 6.49052L25.2298 11.897L24.7155 11.8934ZM25.0102 6.23159H40.0157V6.74588H25.0102V6.23159ZM40.0157 6.23159H55.0337V6.74588H40.0157V6.23159ZM55.2908 6.48874V23.5091H54.7766V6.48874H55.2908ZM46.3617 40.8121C42.1724 40.8307 40.0402 40.8402 38.8841 40.8776C38.3046 40.8964 37.983 40.9219 37.7748 40.9564C37.579 40.9889 37.4859 41.0286 37.3586 41.088L37.1411 40.6219C37.2946 40.5503 37.434 40.4916 37.6907 40.4491C37.9351 40.4086 38.2862 40.3824 38.8674 40.3636C40.0329 40.3259 42.1753 40.3164 46.3594 40.2978L46.3617 40.8121ZM46.437 40.8117C46.4121 40.8118 46.3864 40.812 46.3617 40.8121L46.3594 40.2978C46.3847 40.2977 46.4092 40.2976 46.4347 40.2974L46.437 40.8117Z" fill="#0B2D1F" mask="url(#path-1-outside-1_6230_46600)"/>
</g>
<path id="Vector_2" d="M18.1253 22.3077C17.2868 22.7708 17.3118 24.0974 18.1753 24.4853C18.4256 24.598 22.1926 24.6355 33.769 24.6355C46.7346 24.6355 49.0874 24.6105 49.3878 24.4603C50.2137 24.0223 50.2137 22.7457 49.3878 22.3077C48.8872 22.0574 18.5883 22.0449 18.1253 22.3077Z" fill="#0B2D1F"/>
<path id="Vector_3" d="M18.1274 27.9393C17.0386 28.54 17.5017 30.2671 18.7407 30.2671C19.3789 30.2671 19.9922 29.6539 19.9922 29.0281C19.9922 28.0895 18.9534 27.4762 18.1274 27.9393Z" fill="#0B2D1F"/>
<path id="Vector_4" d="M23.7581 27.9393C22.9196 28.4024 22.9446 29.7289 23.8081 30.1169C24.0459 30.2295 27.1997 30.2671 36.586 30.2671C47.1236 30.2671 49.0885 30.2421 49.3888 30.0919C50.2148 29.6539 50.2148 28.3773 49.3888 27.9393C48.8882 27.689 24.2211 27.689 23.7581 27.9393Z" fill="#0B2D1F"/>
<path id="Vector_5" d="M18.1253 33.5706C17.2868 34.0337 17.3118 35.3603 18.1753 35.7483C18.4256 35.8609 22.1926 35.8984 33.769 35.8984C46.7346 35.8984 49.0874 35.8734 49.3878 35.7232C50.2137 35.2852 50.2137 34.0087 49.3878 33.5706C48.8872 33.3203 18.5883 33.3078 18.1253 33.5706Z" fill="#0B2D1F"/>
<path id="Vector_6" d="M18.1253 39.2029C17.2868 39.6659 17.3118 40.9925 18.1753 41.3805C18.6384 41.5932 31.3536 41.5932 31.8167 41.3805C32.1796 41.2178 32.505 40.6921 32.505 40.2792C32.505 39.8662 32.1796 39.3405 31.8167 39.1778C31.3161 38.9526 18.5383 38.9776 18.1253 39.2029Z" fill="#0B2D1F"/>
<path id="Vector_7" d="M18.1263 44.8343C17.5381 45.1597 17.3378 45.8856 17.6632 46.5238C17.9886 47.1371 18.1889 47.1621 22.5065 47.1621C26.8493 47.1621 27.0495 47.1371 27.3499 46.4738C27.6377 45.8355 27.4375 45.1347 26.8618 44.8343C26.3737 44.584 18.5768 44.584 18.1263 44.8343Z" fill="#0B2D1F"/>
</g>
<g id="person.3">
<path d="M49.0699 53.6109C51.2891 53.6109 53.0865 51.6576 53.0865 49.255C53.0865 46.8891 51.2982 45 49.0699 45C46.869 45 45.0533 46.9166 45.0533 49.2734C45.0624 51.6668 46.8507 53.6109 49.0699 53.6109ZM49.0699 52.0061C47.8044 52.0061 46.7314 50.814 46.7314 49.2642C46.7314 47.7694 47.7952 46.6048 49.0699 46.6048C50.3537 46.6048 51.4083 47.7511 51.4083 49.255C51.4083 50.7956 50.3445 52.0061 49.0699 52.0061ZM43.3568 62.2493H54.783C56.3694 62.2493 57.1306 61.745 57.1306 60.6629C57.1306 58.141 53.9851 54.7847 49.0699 54.7847C44.1546 54.7847 41 58.141 41 60.6629C41 61.745 41.7703 62.2493 43.3568 62.2493ZM43.0633 60.6445C42.8524 60.6445 42.7699 60.5712 42.7699 60.4061C42.7699 59.0031 45.0349 56.3895 49.0699 56.3895C53.1048 56.3895 55.3699 59.0031 55.3699 60.4061C55.3699 60.5712 55.2873 60.6445 55.0672 60.6445H43.0633Z" fill="#0B2D1F"/>
<path d="M43.0633 60.6445C42.8524 60.6445 42.7699 60.5712 42.7699 60.4061C42.7699 59.0031 45.0349 56.3895 49.0699 56.3895C53.1048 56.3895 55.3699 59.0031 55.3699 60.4061C55.3699 60.5712 55.2873 60.6445 55.0672 60.6445H43.0633Z" fill="#22885E"/>
<path d="M49.0699 52.0061C47.8044 52.0061 46.7314 50.814 46.7314 49.2642C46.7314 47.7694 47.7952 46.6048 49.0699 46.6048C50.3537 46.6048 51.4083 47.7511 51.4083 49.255C51.4083 50.7956 50.3445 52.0061 49.0699 52.0061Z" fill="#62C89E"/>
<path d="M45.0533 49.2734H44.7535L44.7535 49.2745L45.0533 49.2734ZM49.0699 53.9107C51.4772 53.9107 53.3863 51.7997 53.3863 49.255H52.7867C52.7867 51.5156 51.1009 53.3111 49.0699 53.3111V53.9107ZM53.3863 49.255C53.3863 46.7398 51.4796 44.7002 49.0699 44.7002V45.2998C51.1169 45.2998 52.7867 47.0384 52.7867 49.255H53.3863ZM49.0699 44.7002C46.6869 44.7002 44.7535 46.7681 44.7535 49.2734H45.3531C45.3531 47.0651 47.0511 45.2998 49.0699 45.2998V44.7002ZM44.7535 49.2745C44.7632 51.8093 46.6627 53.9107 49.0699 53.9107V53.3111C47.0386 53.3111 45.3617 51.5243 45.3531 49.2722L44.7535 49.2745ZM49.0699 51.7063C48.0086 51.7063 47.0312 50.69 47.0312 49.2642H46.4316C46.4316 50.938 47.6001 52.3059 49.0699 52.3059V51.7063ZM47.0312 49.2642C47.0312 47.9011 47.9927 46.9046 49.0699 46.9046V46.305C47.5976 46.305 46.4316 47.6378 46.4316 49.2642H47.0312ZM49.0699 46.9046C50.1574 46.9046 51.1085 47.8841 51.1085 49.255H51.7081C51.7081 47.6181 50.5501 46.305 49.0699 46.305V46.9046ZM51.1085 49.255C51.1085 50.6745 50.1378 51.7063 49.0699 51.7063V52.3059C50.5513 52.3059 51.7081 50.9168 51.7081 49.255H51.1085ZM43.3568 62.5491H54.783V61.9496H43.3568V62.5491ZM54.783 62.5491C55.5973 62.5491 56.2565 62.4217 56.719 62.1107C57.2049 61.7838 57.4304 61.2848 57.4304 60.6629H56.8308C56.8308 61.123 56.6756 61.4172 56.3844 61.6131C56.0697 61.8248 55.5551 61.9496 54.783 61.9496V62.5491ZM57.4304 60.6629C57.4304 59.2852 56.5798 57.7381 55.1341 56.5468C53.6797 55.3482 51.5971 54.4849 49.0699 54.4849V55.0845C51.4579 55.0845 53.4057 55.8994 54.7528 57.0095C56.1086 58.1267 56.8308 59.5187 56.8308 60.6629H57.4304ZM49.0699 54.4849C46.5426 54.4849 44.4579 55.3482 43.0012 56.5466C41.5533 57.7378 40.7002 59.2849 40.7002 60.6629H41.2998C41.2998 59.519 42.024 58.127 43.3822 57.0096C44.7316 55.8994 46.6818 55.0845 49.0699 55.0845V54.4849ZM40.7002 60.6629C40.7002 61.2862 40.9289 61.7849 41.4168 62.1111C41.8813 62.4217 42.5423 62.5491 43.3568 62.5491V61.9496C42.5847 61.9496 42.0674 61.8248 41.7501 61.6127C41.4562 61.4162 41.2998 61.1217 41.2998 60.6629H40.7002ZM43.0633 60.3447C43.0265 60.3447 43.008 60.3414 43.002 60.3399C42.9969 60.3386 43.0103 60.3411 43.0289 60.3565C43.0381 60.3641 43.0466 60.3733 43.0537 60.3836C43.0607 60.3938 43.065 60.403 43.0675 60.4098C43.0721 60.4222 43.0697 60.4239 43.0697 60.4061H42.4701C42.4701 60.5355 42.5034 60.6997 42.6461 60.818C42.7747 60.9246 42.9355 60.9443 43.0633 60.9443V60.3447ZM43.0697 60.4061C43.0697 60.1299 43.1839 59.7585 43.4413 59.3451C43.6961 58.9358 44.0803 58.5035 44.5903 58.1087C45.6085 57.3205 47.119 56.6893 49.0699 56.6893V56.0897C46.9858 56.0897 45.3463 56.7653 44.2233 57.6346C43.6626 58.0686 43.2283 58.5527 42.9323 59.0281C42.6389 59.4994 42.4701 59.9808 42.4701 60.4061H43.0697ZM49.0699 56.6893C51.0207 56.6893 52.5312 57.3205 53.5495 58.1087C54.0595 58.5035 54.4436 58.9358 54.6984 59.3451C54.9558 59.7585 55.0701 60.1299 55.0701 60.4061H55.6697C55.6697 59.9808 55.5008 59.4994 55.2074 59.0281C54.9114 58.5527 54.4771 58.0686 53.9165 57.6346C52.7935 56.7653 51.154 56.0897 49.0699 56.0897V56.6893ZM55.0701 60.4061C55.0701 60.424 55.0676 60.4218 55.0725 60.4086C55.0752 60.4014 55.0797 60.3919 55.0871 60.3815C55.0945 60.3709 55.1032 60.3617 55.1125 60.3542C55.1309 60.3393 55.1434 60.3375 55.1362 60.3393C55.1281 60.3413 55.1072 60.3447 55.0672 60.3447V60.9443C55.1974 60.9443 55.3598 60.9254 55.4897 60.8202C55.6361 60.7018 55.6697 60.5358 55.6697 60.4061H55.0701ZM55.0672 60.3447H43.0633V60.9443H55.0672V60.3447Z" fill="#0B2D1F"/>
</g>
</g>
</svg>