<svg xmlns="http://www.w3.org/2000/svg" fill="none" viewBox="5.1 7.2 29.8 22.4">
<path d="M27.9001 9.5H7.6001V13.4H27.9001V9.5Z" fill="#FFA600"/>
<path d="M29.0001 8.20001H6.5001C6.3001 8.20001 6.1001 8.40001 6.1001 8.60001V14.3C6.1001 14.5 6.3001 14.7 6.5001 14.7H29.0001C29.2001 14.7 29.4001 14.5 29.4001 14.3V8.60001C29.3001 8.40001 29.2001 8.20001 29.0001 8.20001Z" fill="#FFA600"/>
<path d="M29.0001 15.7H6.5001C5.8001 15.7 5.1001 15.1 5.1001 14.3V8.60001C5.1001 7.90001 5.7001 7.20001 6.5001 7.20001H29.0001C29.7001 7.20001 30.4001 7.80001 30.4001 8.60001V14.3C30.3001 15 29.7001 15.7 29.0001 15.7ZM7.2001 13.7H28.3001V9.20001H7.2001V13.7Z" fill="black"/>
<path d="M20.4998 17.2H14.9998C14.8998 17.2 14.7998 17.3 14.7998 17.4V19.6C14.7998 19.7 14.8998 19.8 14.9998 19.8H20.3998C20.4998 19.8 20.5998 19.7 20.5998 19.6V17.4C20.5998 17.3 20.5998 17.2 20.4998 17.2Z" fill="black"/>
<path fill-rule="evenodd" clip-rule="evenodd" d="M9.2001 27V15.9H26.4001V16.4H27.9001V14.7C27.9001 14.5 27.7001 14.3 27.5001 14.3H8.0001C7.8001 14.3 7.6001 14.5 7.6001 14.7V28.1C7.6001 28.3 7.8001 28.5 8.0001 28.5H22.1001V27H9.2001Z" fill="black"/>
<path d="M31.8998 28.8H26.8998V25.5H26.0998V28.8H23.5998V25.5H22.7998V28.8C22.7998 29 22.8998 29.2 22.9998 29.4C23.0998 29.6 23.3998 29.6 23.5998 29.6H31.9998C32.1998 29.6 32.3998 29.5 32.5998 29.4C32.7998 29.2 32.7998 29 32.7998 28.8V25.5H31.9998V28.8H31.8998Z" fill="black"/>
<path d="M34.4002 21.8L32.7002 18.4C32.6002 18.3 32.5002 18.1 32.4002 18.1C32.3002 18.1 32.1002 18 32.0002 18H23.7002C23.5002 18 23.4002 18 23.3002 18.1C23.2002 18.2 23.1002 18.3 23.0002 18.4L21.3002 21.8C21.2002 21.9 21.2002 22 21.2002 22.2V23.5C21.2002 23.7 21.3002 23.9 21.4002 24C21.6002 24.2 21.8002 24.4 22.1002 24.5C22.4002 24.6 22.6002 24.7 22.9002 24.7C23.4002 24.7 23.8002 24.5 24.2002 24.3C24.6002 24.6 25.0002 24.7 25.5002 24.7C26.0002 24.7 26.4002 24.5 26.8002 24.3C27.2002 24.6 27.6002 24.7 28.1002 24.7C28.6002 24.7 29.0002 24.5 29.4002 24.3C29.8002 24.6 30.2002 24.7 30.7002 24.7C31.2002 24.7 31.6002 24.5 32.0002 24.3C32.4002 24.6 32.9002 24.8 33.4002 24.7C33.9002 24.7 34.4002 24.4 34.7002 24C34.8002 23.9 34.9002 23.7 34.9002 23.5V22.2C34.5002 22.1 34.4002 21.9 34.4002 21.8ZM26.5002 22.3V22.9L26.2002 23.4C26.1002 23.5 26.0002 23.7 25.8002 23.7C25.6002 23.8 25.5002 23.8 25.3002 23.8C25.1002 23.8 24.9002 23.8 24.8002 23.7C24.6002 23.6 24.5002 23.5 24.4002 23.4L24.0002 22.9V22.3L25.1002 18.8H26.9002L26.5002 22.3ZM31.5002 22.9L31.2002 23.4C31.1002 23.5 31.0002 23.7 30.8002 23.7C30.6002 23.8 30.5002 23.8 30.3002 23.8C30.1002 23.8 29.9002 23.8 29.8002 23.7C29.6002 23.6 29.5002 23.5 29.4002 23.4L29.0002 22.9V22.3L28.6002 18.8H30.5002L31.6002 22.3V22.9H31.5002Z" fill="#FFA600"/>
<path d="M30.3001 25.1C29.9001 25.1 29.4001 25 29.0001 24.8C28.2001 25.3 27.2001 25.3 26.5001 24.8C25.7001 25.3 24.7001 25.3 24.0001 24.8C23.6001 25 23.2001 25.1 22.7001 25.1C22.4001 25.1 22.0001 25 21.7001 24.9C21.4001 24.8 21.1001 24.5 20.9001 24.3C20.7001 24.1 20.6001 23.8 20.6001 23.5V22.2C20.6001 22 20.6001 21.8 20.7001 21.6L22.4001 18.2C22.5001 18 22.7001 17.8 22.9001 17.7C23.1001 17.6 23.3001 17.5 23.6001 17.5H31.9001C32.1001 17.5 32.4001 17.6 32.6001 17.7C32.8001 17.8 33.0001 18 33.1001 18.2L34.8001 21.6C34.9001 21.8 34.9001 22 34.9001 22.2V23.5C34.9001 23.8 34.8001 24.1 34.6001 24.3C34.2001 24.8 33.6001 25.1 33.0001 25.1C32.5001 25.1 32.0001 25 31.6001 24.8C31.2001 25 30.7001 25.1 30.3001 25.1ZM26.5001 23.7L26.8001 23.9C27.3001 24.3 28.2001 24.3 28.7001 23.9L29.0001 23.7L28.6001 23.1V22.3L28.1001 18.4H27.4001L27.0001 22.3V23.1L26.5001 23.7ZM31.5001 23.7L31.8001 23.9C32.1001 24.2 32.5001 24.3 32.9001 24.2C33.3001 24.2 33.7001 24 33.9001 23.7C34.0001 23.6 34.0001 23.6 34.0001 23.5V22.2C34.0001 22.1 34.0001 22.1 34.0001 22L32.3001 18.6C32.3001 18.5 32.2001 18.5 32.2001 18.4C32.1001 18.4 32.1001 18.3 32.0001 18.3H30.9001L32.1001 22.2V23L31.5001 23.7C31.5001 23.7 31.6001 23.6 31.5001 23.7ZM23.6001 18.4C23.5001 18.4 23.5001 18.4 23.4001 18.5C23.3001 18.5 23.3001 18.6 23.3001 18.7L21.6001 22C21.6001 22.1 21.6001 22.1 21.6001 22.2V23.5C21.6001 23.6 21.6001 23.7 21.7001 23.7C21.8001 23.9 22.0001 24 22.2001 24.1C22.4001 24.2 22.6001 24.2 22.8001 24.2C23.2001 24.2 23.5001 24.1 23.8001 23.9L24.1001 23.7L23.7001 23.1V22.2L24.9001 18.4H23.6001ZM29.5001 22.8L29.8001 23.2C29.9001 23.3 29.9001 23.4 30.0001 23.4C30.2001 23.5 30.4001 23.5 30.6001 23.4C30.7001 23.4 30.8001 23.3 30.8001 23.2L31.1001 22.9V22.5L30.2001 19.4H29.2001L29.6001 22.4L29.5001 22.8ZM24.5001 22.8L24.8001 23.1C24.9001 23.2 24.9001 23.3 25.0001 23.3C25.2001 23.4 25.4001 23.4 25.6001 23.3C25.7001 23.3 25.8001 23.2 25.8001 23.1L26.1001 22.8V22.3L26.5001 19.3H25.5001L24.5001 22.4V22.8Z" fill="black"/>
</svg>