<svg xmlns="http://www.w3.org/2000/svg" fill="none" viewBox="6.17 7.71 23.14 20.83">
<path d="M8.48549 24.7821L7.03906 23.3357V15.9392V15.8143V15.2357H13.4033V17.55L14.2712 19.575L15.4283 20.1536H19.7676V23.625L18.3212 24.4928H12.2462L8.48549 27.3857V24.7821Z" fill="#FFA600"/>
<path d="M14.752 7.76766C14.0331 7.95848 13.3595 8.58248 13.0611 9.32509C12.8395 9.87174 12.8124 10.1708 12.8124 12.079V13.8478H10.5744C9.13219 13.8478 8.25509 13.8684 8.10137 13.9045C7.23783 14.1057 6.49184 14.9153 6.23865 15.921C6.17084 16.1736 6.16632 16.6068 6.17536 19.6547C6.18892 23.0892 6.18892 23.1047 6.28839 23.4141C6.51444 24.0897 6.9756 24.6673 7.52718 24.9716L7.87983 25.1675L7.8934 26.5599C7.90696 27.8544 7.91148 27.9627 8.0019 28.1328C8.19179 28.5041 8.54896 28.6382 8.89709 28.4732C8.97847 28.4371 9.75611 27.7048 10.6287 26.8539L12.2066 25.3016L15.3262 25.2861C18.1745 25.2655 18.4639 25.2552 18.6899 25.1727C19.5851 24.8375 20.2497 24.0227 20.4351 23.0325C20.4758 22.8108 20.4984 22.3569 20.4984 21.7226V20.7583H21.5744L22.6459 20.7634L24.4227 22.6406C26.3442 24.6725 26.3623 24.6879 26.7331 24.5745C26.828 24.5487 26.9636 24.4713 27.0315 24.4094C27.2666 24.198 27.2801 24.1 27.2801 22.3363V20.717L27.4564 20.6809C28.0125 20.5726 28.754 19.9177 29.0343 19.2885C29.3282 18.6232 29.3146 18.8398 29.3146 14.2398C29.3146 9.70156 29.3192 9.82017 29.0615 9.21164C28.8942 8.83002 28.3697 8.2318 28.0171 8.02551C27.4338 7.69546 27.8181 7.71094 21.059 7.71609C17.6772 7.72125 14.8424 7.74188 14.752 7.76766ZM27.2846 9.42823C27.4836 9.54169 27.7141 9.78922 27.8136 10.0007C27.8814 10.1451 27.8905 10.5318 27.904 14.1572C27.9176 18.6336 27.9312 18.4015 27.5921 18.7934C27.3705 19.041 27.0857 19.1596 26.6969 19.1596C26.3578 19.1596 26.1408 19.2627 25.9916 19.4896C25.9102 19.6186 25.9012 19.7269 25.8786 20.7789L25.856 21.9289L24.6126 20.6139C23.9299 19.8919 23.306 19.2679 23.2246 19.2318C23.1026 19.1699 22.3701 19.1596 19.1104 19.1596C15.9139 19.1544 15.1092 19.1441 14.969 19.0874C14.7023 18.9739 14.4852 18.7573 14.3677 18.4685L14.2592 18.2055V14.2294V10.2585L14.3767 9.99035C14.5124 9.68093 14.7113 9.48496 14.9916 9.38697C15.1499 9.33025 16.2666 9.31993 21.1539 9.32509C26.7964 9.33541 27.1309 9.34056 27.2846 9.42823ZM12.8124 16.7977C12.8124 18.3345 12.8531 18.6593 13.1018 19.2369C13.3595 19.8351 13.8885 20.3715 14.4626 20.619C14.7294 20.7325 14.7791 20.7325 16.895 20.7479L19.0516 20.7634V21.7433C19.0516 22.8056 19.0245 22.9655 18.7894 23.2543C18.7216 23.3368 18.5678 23.4554 18.4413 23.5224L18.2152 23.6462H15.073C13.0792 23.6462 11.872 23.6668 11.7635 23.6978C11.6505 23.7339 11.2526 24.0949 10.4659 24.8581L9.33565 25.9617L9.32208 25.0644C9.30852 24.2547 9.29948 24.1568 9.21357 24.0278C9.05533 23.7803 8.90614 23.6926 8.58966 23.6462C8.19631 23.5895 7.91148 23.3987 7.72611 23.0583L7.59048 22.8056L7.57692 19.665C7.56787 17.5403 7.58144 16.4573 7.61309 16.318C7.69899 15.9622 8.05164 15.5909 8.40429 15.4929C8.48115 15.4723 9.50293 15.4568 10.6784 15.4517L12.8124 15.4465V16.7977Z" fill="black"/>
<path d="M16.8161 12.4272C16.5585 12.5402 16.3867 12.8114 16.3867 13.0917C16.3867 13.286 16.5494 13.5753 16.7167 13.6748C16.8568 13.7606 16.9698 13.7652 21.056 13.7652C24.8167 13.7652 25.2687 13.7561 25.4088 13.6928C25.7659 13.5211 25.8834 12.9832 25.6348 12.6577C25.3953 12.3504 25.6393 12.3639 21.0786 12.3639C17.7382 12.3685 16.9246 12.3775 16.8161 12.4272Z" fill="#FFA600"/>
<path d="M16.7348 15.311C16.5494 15.4195 16.3867 15.6998 16.3867 15.9122C16.3867 16.1292 16.5494 16.4049 16.7438 16.5134L16.9201 16.6128H21.0967H25.2777L25.4269 16.5089C25.6755 16.3416 25.7614 16.1879 25.7614 15.9122C25.7614 15.6365 25.6755 15.4828 25.4269 15.311L25.2777 15.2116H21.0921H16.9065L16.7348 15.311Z" fill="#FFA600"/>
</svg>