<svg xmlns="http://www.w3.org/2000/svg" fill="none" viewBox="4 6 64.46 59">
<g id="follow-ups-type-green">
<path id="Vector 456" d="M41 54H32L36.1538 58L41 54Z" fill="#62C89E"/>
<path id="Rectangle 34624586" d="M29.5 39L35.5 34H37.5L42.5 38.5L44.5 48L46 52.5H27V51.5L29 47.5L29.5 39Z" fill="#62C89E"/>
<path id="Rectangle 34624586_2" d="M7.5 25H65V14L7.5 13.5V25Z" fill="#22885E"/>
<g id="Group 1171274960">
<g id="Group 1171274959">
<g id="Vector">
<mask id="path-4-outside-1_6730_46379" maskUnits="userSpaceOnUse" x="34.4536" y="38.2695" width="4" height="8" fill="black">
<rect fill="white" x="34.4536" y="38.2695" width="4" height="8"/>
<path d="M36.4538 45.7752C35.9108 45.7752 35.4559 45.3239 35.4559 44.7862V40.2603C35.4559 39.7227 35.9108 39.2695 36.4538 39.2695C36.9969 39.2695 37.4536 39.7227 37.4536 40.2603V44.7862C37.4536 45.3526 36.9969 45.7752 36.4538 45.7752Z"/>
</mask>
<path d="M36.4538 45.7752C35.9108 45.7752 35.4559 45.3239 35.4559 44.7862V40.2603C35.4559 39.7227 35.9108 39.2695 36.4538 39.2695C36.9969 39.2695 37.4536 39.7227 37.4536 40.2603V44.7862C37.4536 45.3526 36.9969 45.7752 36.4538 45.7752Z" fill="#0B2D1F"/>
<path d="M36.4538 45.7752C35.9108 45.7752 35.4559 45.3239 35.4559 44.7862V40.2603C35.4559 39.7227 35.9108 39.2695 36.4538 39.2695C36.9969 39.2695 37.4536 39.7227 37.4536 40.2603V44.7862C37.4536 45.3526 36.9969 45.7752 36.4538 45.7752Z" stroke="#0B2D1F" stroke-width="0.222634" mask="url(#path-4-outside-1_6730_46379)"/>
</g>
<g id="Vector_2">
<mask id="path-5-outside-2_6730_46379" maskUnits="userSpaceOnUse" x="34.6841" y="45.7393" width="4" height="4" fill="black">
<rect fill="white" x="34.6841" y="45.7393" width="4" height="4"/>
<path d="M36.4542 46.7393C35.7763 46.7393 35.226 47.2823 35.226 47.953C35.226 48.6255 35.7763 49.1703 36.4542 49.1703C37.1339 49.1703 37.6841 48.6255 37.6841 47.953C37.6841 47.2823 37.1339 46.7393 36.4542 46.7393Z"/>
</mask>
<path d="M36.4542 46.7393C35.7763 46.7393 35.226 47.2823 35.226 47.953C35.226 48.6255 35.7763 49.1703 36.4542 49.1703C37.1339 49.1703 37.6841 48.6255 37.6841 47.953C37.6841 47.2823 37.1339 46.7393 36.4542 46.7393Z" fill="#0B2D1F"/>
<path d="M36.4542 46.7393C35.7763 46.7393 35.226 47.2823 35.226 47.953C35.226 48.6255 35.7763 49.1703 36.4542 49.1703C37.1339 49.1703 37.6841 48.6255 37.6841 47.953C37.6841 47.2823 37.1339 46.7393 36.4542 46.7393Z" stroke="#0B2D1F" stroke-width="0.222634" mask="url(#path-5-outside-2_6730_46379)"/>
</g>
<g id="Group">
<g id="Vector_3">
<mask id="path-6-outside-3_6730_46379" maskUnits="userSpaceOnUse" x="23.9448" y="31" width="25" height="29" fill="black">
<rect fill="white" x="23.9448" y="31" width="25" height="29"/>
<path d="M27.1756 51.9144C27.2313 51.9989 27.3464 52.1967 27.6305 52.1967H45.2774C45.5651 52.1967 45.7072 51.9989 45.736 51.9144C45.7917 51.8298 45.8492 51.6051 45.6784 51.3767L43.5926 48.6058C43.4505 48.435 43.393 48.2102 43.393 47.9818V43.1179C43.393 40.0341 41.282 37.3171 38.2809 36.4971C37.826 36.3857 37.5113 35.9595 37.5113 35.4794V34.717C37.5113 34.3484 37.2272 34.0661 36.855 34.0661H36.0278C35.6556 34.0661 35.3715 34.3484 35.3715 34.717V35.4524C35.3715 35.9325 35.055 36.3281 34.5983 36.4684C31.6008 37.3171 29.5168 40.061 29.5168 43.1179V47.9818C29.5168 48.2102 29.4287 48.435 29.3154 48.6058L27.2313 51.3767C27.0336 51.6051 27.1181 51.8298 27.1756 51.9144ZM36.454 56.7801C37.826 56.7801 38.9678 55.6779 38.9678 54.3203H33.942C33.942 55.6779 35.0838 56.7801 36.454 56.7801ZM25.5195 50.1324L27.404 47.642V43.1179C27.404 39.3831 29.7739 36.017 33.2857 34.717C33.2857 33.2173 34.5408 32 36.0566 32H36.8837C38.3978 32 39.6529 33.2173 39.6529 34.7458C43.1664 36.0458 45.5364 39.3831 45.5364 43.1466V47.6708L47.4208 50.1594C48.0196 50.9542 48.1059 51.9989 47.6762 52.9051C47.2212 53.779 46.3347 54.3472 45.3062 54.3472H41.1094C41.1094 56.8646 39.0253 58.9289 36.4828 58.9289C33.942 58.9289 31.8579 56.8916 31.8579 54.3472H27.6611C26.6613 54.3472 25.7461 53.779 25.2912 52.9051C24.8344 51.9719 24.9189 50.9236 25.5195 50.1324Z"/>
</mask>
<path d="M27.1756 51.9144C27.2313 51.9989 27.3464 52.1967 27.6305 52.1967H45.2774C45.5651 52.1967 45.7072 51.9989 45.736 51.9144C45.7917 51.8298 45.8492 51.6051 45.6784 51.3767L43.5926 48.6058C43.4505 48.435 43.393 48.2102 43.393 47.9818V43.1179C43.393 40.0341 41.282 37.3171 38.2809 36.4971C37.826 36.3857 37.5113 35.9595 37.5113 35.4794V34.717C37.5113 34.3484 37.2272 34.0661 36.855 34.0661H36.0278C35.6556 34.0661 35.3715 34.3484 35.3715 34.717V35.4524C35.3715 35.9325 35.055 36.3281 34.5983 36.4684C31.6008 37.3171 29.5168 40.061 29.5168 43.1179V47.9818C29.5168 48.2102 29.4287 48.435 29.3154 48.6058L27.2313 51.3767C27.0336 51.6051 27.1181 51.8298 27.1756 51.9144ZM36.454 56.7801C37.826 56.7801 38.9678 55.6779 38.9678 54.3203H33.942C33.942 55.6779 35.0838 56.7801 36.454 56.7801ZM25.5195 50.1324L27.404 47.642V43.1179C27.404 39.3831 29.7739 36.017 33.2857 34.717C33.2857 33.2173 34.5408 32 36.0566 32H36.8837C38.3978 32 39.6529 33.2173 39.6529 34.7458C43.1664 36.0458 45.5364 39.3831 45.5364 43.1466V47.6708L47.4208 50.1594C48.0196 50.9542 48.1059 51.9989 47.6762 52.9051C47.2212 53.779 46.3347 54.3472 45.3062 54.3472H41.1094C41.1094 56.8646 39.0253 58.9289 36.4828 58.9289C33.942 58.9289 31.8579 56.8916 31.8579 54.3472H27.6611C26.6613 54.3472 25.7461 53.779 25.2912 52.9051C24.8344 51.9719 24.9189 50.9236 25.5195 50.1324Z" fill="#0B2D1F"/>
<path d="M27.1756 51.9144C27.2313 51.9989 27.3464 52.1967 27.6305 52.1967H45.2774C45.5651 52.1967 45.7072 51.9989 45.736 51.9144C45.7917 51.8298 45.8492 51.6051 45.6784 51.3767L43.5926 48.6058C43.4505 48.435 43.393 48.2102 43.393 47.9818V43.1179C43.393 40.0341 41.282 37.3171 38.2809 36.4971C37.826 36.3857 37.5113 35.9595 37.5113 35.4794V34.717C37.5113 34.3484 37.2272 34.0661 36.855 34.0661H36.0278C35.6556 34.0661 35.3715 34.3484 35.3715 34.717V35.4524C35.3715 35.9325 35.055 36.3281 34.5983 36.4684C31.6008 37.3171 29.5168 40.061 29.5168 43.1179V47.9818C29.5168 48.2102 29.4287 48.435 29.3154 48.6058L27.2313 51.3767C27.0336 51.6051 27.1181 51.8298 27.1756 51.9144ZM36.454 56.7801C37.826 56.7801 38.9678 55.6779 38.9678 54.3203H33.942C33.942 55.6779 35.0838 56.7801 36.454 56.7801ZM25.5195 50.1324L27.404 47.642V43.1179C27.404 39.3831 29.7739 36.017 33.2857 34.717C33.2857 33.2173 34.5408 32 36.0566 32H36.8837C38.3978 32 39.6529 33.2173 39.6529 34.7458C43.1664 36.0458 45.5364 39.3831 45.5364 43.1466V47.6708L47.4208 50.1594C48.0196 50.9542 48.1059 51.9989 47.6762 52.9051C47.2212 53.779 46.3347 54.3472 45.3062 54.3472H41.1094C41.1094 56.8646 39.0253 58.9289 36.4828 58.9289C33.942 58.9289 31.8579 56.8916 31.8579 54.3472H27.6611C26.6613 54.3472 25.7461 53.779 25.2912 52.9051C24.8344 51.9719 24.9189 50.9236 25.5195 50.1324Z" stroke="#0B2D1F" stroke-width="0.222634" mask="url(#path-6-outside-3_6730_46379)"/>
</g>
</g>
</g>
<g id="Group 1171274958">
<g id="Group_2">
<path id="Vector_4" d="M68.4347 31.5538C68.4347 32.4316 68.4347 33.3121 68.4347 34.1926C68.4347 36.2784 68.4347 38.3641 68.4347 40.4526C68.4347 42.9208 68.4347 45.3863 68.4347 47.8517C68.4347 49.8714 68.4347 51.8856 68.4347 53.9026C68.4347 54.9537 68.4976 56.0296 68.3907 57.0807C68.1737 59.205 67.3592 61.2439 65.7491 62.8701C64.4817 64.1469 62.642 64.9834 60.6922 64.9972C60.0286 65.0027 59.3619 64.9972 58.6952 64.9972C57.019 64.9972 55.3428 64.9972 53.6666 64.9972C51.2892 64.9972 48.9148 64.9972 46.5405 64.9972C43.7887 64.9972 41.0339 64.9972 38.2853 64.9972C35.4487 64.9972 32.612 64.9972 29.7754 64.9972C27.1841 64.9972 24.5927 64.9972 22.0014 64.9972C19.951 64.9972 17.8974 64.9972 15.847 64.9972C14.6519 64.9972 13.4601 64.9972 12.2682 64.9972C12.0921 64.9972 11.9159 64.9972 11.7398 64.9972C9.71456 64.9834 7.80251 64.0781 6.53515 62.7133C4.98475 61.0431 4.19225 59.0124 4.02872 56.8743C3.99413 56.4588 4.00042 56.0433 4.00042 55.6279C4.00042 54.1117 4.00042 52.5983 4.00042 51.0822C4.00042 48.7323 4.00042 46.3824 4.00042 44.038C4.00042 41.6661 4.00042 39.2914 4.00042 36.9168C4.00042 35.3538 4.00042 33.7882 4.00042 32.2252C4.00042 32.0051 4.00042 31.7822 4.00042 31.5621C4.00042 30.7504 4.81807 29.9716 5.7741 30.0102C6.73327 30.0487 7.54778 30.6926 7.54778 31.5621C7.54778 32.4206 7.54778 33.2763 7.54778 34.1321C7.54778 36.1546 7.54778 38.1798 7.54778 40.2022C7.54778 42.6374 7.54778 45.0726 7.54778 47.505C7.54778 49.5357 7.54778 51.5637 7.54778 53.5944C7.54778 54.4612 7.54463 55.3307 7.54778 56.1974C7.55092 56.6487 7.58237 57.0945 7.65156 57.543C7.62955 57.4054 7.60753 57.2678 7.58866 57.1302C7.70502 57.8677 7.92516 58.5776 8.22706 59.2738C8.34028 59.5434 8.0541 58.9381 8.18303 59.1802C8.23021 59.271 8.27738 59.3618 8.3277 59.4526C8.41261 59.604 8.50381 59.7581 8.6013 59.9039C8.68935 60.0387 8.78055 60.1708 8.87804 60.3001C8.9315 60.3717 8.98182 60.4377 9.03843 60.5065C9.07931 60.5533 9.30574 60.8147 9.08874 60.5698C8.8749 60.3276 9.10132 60.5808 9.1485 60.6276C9.19881 60.6798 9.24913 60.7294 9.30259 60.7789C9.41895 60.8945 9.54789 61.0045 9.67368 61.1119C9.80262 61.2164 9.93785 61.3127 10.0668 61.4118C9.56361 61.0348 10.0385 61.3815 10.1831 61.4613C10.3247 61.5411 10.4693 61.6127 10.6171 61.6759C10.68 61.7062 10.7429 61.731 10.809 61.7585C11.07 61.8658 10.3215 61.5906 10.7083 61.7172C11.0165 61.8135 11.331 61.8796 11.6549 61.9208C11.4977 61.9016 11.3404 61.8851 11.1801 61.8658C11.7524 61.9291 12.3436 61.8961 12.9191 61.8961C14.0922 61.8961 15.2652 61.8961 16.4351 61.8961C18.193 61.8961 19.9478 61.8961 21.7058 61.8961C23.8694 61.8961 26.0362 61.8961 28.1998 61.8961C30.5805 61.8961 32.958 61.8961 35.3386 61.8961C37.7412 61.8961 40.1439 61.8961 42.5434 61.8961C44.7825 61.8961 47.0153 61.8961 49.2513 61.8961C51.1225 61.8961 52.9937 61.8961 54.8648 61.8961C56.1982 61.8961 57.5316 61.8961 58.865 61.8961C59.4626 61.8961 60.0569 61.8988 60.6544 61.8961C60.8557 61.8961 61.057 61.8878 61.2583 61.8658C61.101 61.8851 60.9438 61.9016 60.7865 61.9208C61.1073 61.8823 61.4249 61.8135 61.73 61.7172C62.1168 61.5906 61.3715 61.8658 61.6293 61.7585C61.6954 61.731 61.7583 61.7062 61.8212 61.6759C61.969 61.6127 62.1136 61.5411 62.2552 61.4613C62.4061 61.3788 62.8747 61.0348 62.3715 61.4118C62.5036 61.3127 62.6388 61.2164 62.7646 61.1119C62.8873 61.0155 63.0005 60.911 63.1137 60.8064C63.1766 60.7486 63.2332 60.6881 63.293 60.6276C63.337 60.5808 63.5666 60.3276 63.3527 60.5698C63.1357 60.8119 63.3653 60.5533 63.403 60.5065C63.4502 60.4487 63.4942 60.3882 63.5383 60.3331C63.6452 60.1928 63.7458 60.0497 63.8402 59.9039C63.9376 59.7581 64.0288 59.604 64.1138 59.4526C64.1578 59.3756 64.2018 59.2958 64.2427 59.216C64.4031 58.8995 64.098 59.5434 64.2144 59.2738C64.5163 58.5776 64.7333 57.8677 64.8528 57.1302C64.8339 57.2678 64.8119 57.4027 64.7899 57.543C64.9597 56.4286 64.8937 55.2756 64.8937 54.153C64.8937 52.2241 64.8937 50.2952 64.8937 48.3663C64.8937 45.9394 64.8937 43.5124 64.8937 41.0827C64.8937 38.9695 64.8937 36.8535 64.8937 34.7402C64.8937 33.6973 64.8717 32.6517 64.8937 31.6089C64.8937 31.5951 64.8937 31.5813 64.8937 31.5648C64.8937 30.7531 65.7113 29.9744 66.6674 30.0129C67.6202 30.0377 68.4347 30.6843 68.4347 31.5538Z" fill="#0B2D1F"/>
</g>
<g id="Group_3">
<path id="Vector_5" d="M4.00053 26.5135C4.00053 24.0228 4.00053 21.529 4.00053 19.0383C4.00053 18.076 4.00053 17.1199 4.26469 16.1796C4.65779 14.777 5.50061 13.4374 6.63275 12.5191C8.14226 11.2926 9.92852 10.6416 11.8783 10.6416C13.2495 10.6416 14.6206 10.6416 15.9917 10.6416C18.7812 10.6416 21.5707 10.6416 24.3601 10.6416C27.876 10.6416 31.3951 10.6416 34.911 10.6416C38.5244 10.6416 42.141 10.6416 45.7544 10.6416C48.7608 10.6416 51.7704 10.6416 54.78 10.6416C56.5443 10.6416 58.3117 10.6416 60.0822 10.6416C60.7426 10.6416 61.3716 10.6668 62.032 10.7674C64.9347 11.2014 67.5071 13.4719 68.2116 16.3369C68.5795 17.8212 68.4349 19.4282 68.4349 20.9503C68.4349 22.246 68.4349 23.548 68.4349 24.8468C68.4349 25.4034 68.4349 25.9569 68.4349 26.5135C68.4349 27.4413 67.6203 28.3312 66.6612 28.2872C65.702 28.2432 64.8875 27.5073 64.8875 26.5135C64.8875 24.2964 64.8875 22.0825 64.8875 19.8654C64.8875 19.0383 64.9441 18.1892 64.8403 17.3652C64.8592 17.5225 64.8812 17.6797 64.9001 17.8401C64.856 17.5445 64.7932 17.2552 64.7051 16.969C64.6705 16.8558 64.6328 16.5979 64.5447 16.5193C64.5762 16.5476 64.746 16.9627 64.6076 16.686C64.5793 16.6262 64.551 16.5665 64.5196 16.5098C64.3843 16.2488 64.2271 16.0067 64.0604 15.7645C63.8812 15.5066 64.3309 16.0916 64.1422 15.8714C64.0887 15.8117 64.0384 15.7488 63.9849 15.6859C63.8874 15.579 63.7868 15.4721 63.6799 15.3714C63.573 15.2676 63.466 15.1702 63.3528 15.0758C63.2962 15.0286 63.0887 14.8682 63.3434 15.0632C63.6107 15.2708 63.356 15.079 63.2962 15.0381C63.0509 14.8682 62.793 14.7142 62.5289 14.5821C62.466 14.5506 62.4031 14.5223 62.3433 14.494C62.0509 14.3494 62.771 14.6513 62.4628 14.5443C62.3182 14.494 62.1767 14.4406 62.032 14.3934C61.7207 14.2959 61.4062 14.2298 61.0854 14.1827C61.2426 14.2015 61.3999 14.2236 61.5603 14.2456C60.8967 14.1544 60.2174 14.1858 59.5507 14.1858C58.3871 14.1858 57.2236 14.1858 56.0568 14.1858C54.2926 14.1858 52.5252 14.1858 50.7578 14.1858C48.591 14.1858 46.4305 14.1858 44.2637 14.1858C41.8768 14.1858 39.4867 14.1858 37.0998 14.1858C34.6972 14.1858 32.2945 14.1858 29.895 14.1858C27.6528 14.1858 25.4074 14.1858 23.1651 14.1858C21.2876 14.1858 19.4133 14.1858 17.5359 14.1858C16.2025 14.1858 14.8722 14.1858 13.5388 14.1858C12.9507 14.1858 12.3626 14.1827 11.7745 14.1858C11.4726 14.1858 11.1739 14.2047 10.8751 14.2456C11.0324 14.2236 11.1896 14.2015 11.35 14.1827C11.0418 14.2267 10.7399 14.2927 10.4411 14.3808C10.2839 14.428 10.1266 14.4846 9.97255 14.5443C9.70524 14.6418 10.3216 14.3871 10.1298 14.4751C10.0669 14.5034 10.004 14.5318 9.94425 14.5601C9.67379 14.6921 9.41592 14.8399 9.16747 15.0098C9.10458 15.0538 9.03854 15.1073 8.9725 15.1513C9.41906 14.862 9.18949 14.9815 9.07627 15.0758C8.96621 15.1702 8.85614 15.2676 8.74921 15.3714C8.64229 15.4721 8.54165 15.579 8.44416 15.6859C8.40014 15.7362 8.35925 15.7865 8.31523 15.8369C8.08251 16.1105 8.50077 15.5758 8.39385 15.7268C8.23032 15.9721 8.06679 16.2079 7.92841 16.469C7.84979 16.6168 7.67683 17.1042 7.88753 16.513C7.83721 16.6514 7.78061 16.7866 7.73658 16.925C7.64223 17.2206 7.57305 17.5256 7.52902 17.8338C7.55103 17.6766 7.5699 17.5193 7.59192 17.3589C7.50072 18.0571 7.5416 18.7773 7.5416 19.4786C7.5416 19.9125 7.5416 20.3497 7.5416 20.7837C7.5416 22.1863 7.5416 23.5888 7.5416 24.9914C7.5416 25.4978 7.5416 26.0009 7.5416 26.5041C7.5416 27.4318 6.72709 28.3218 5.76792 28.2778C4.81504 28.2432 4.00053 27.5073 4.00053 26.5135Z" fill="#0B2D1F"/>
</g>
<g id="Group_4">
<path id="Vector_6" d="M66.0763 28.2869C65.5354 28.2869 64.9976 28.2869 64.4567 28.2869C63.0038 28.2869 61.5478 28.2869 60.0949 28.2869C57.9375 28.2869 55.7802 28.2869 53.6228 28.2869C50.9906 28.2869 48.3615 28.2869 45.7293 28.2869C42.8581 28.2869 39.9868 28.2869 37.1156 28.2869C34.1972 28.2869 31.2757 28.2869 28.3573 28.2869C25.6559 28.2869 22.9513 28.2869 20.2468 28.2869C17.9542 28.2869 15.6616 28.2869 13.369 28.2869C11.7211 28.2869 10.0733 28.2869 8.42851 28.2869C7.6486 28.2869 6.87182 28.2963 6.09191 28.2869C6.05417 28.2869 6.02272 28.2869 5.98813 28.2869C5.0604 28.2869 4.17042 27.4724 4.21445 26.5132C4.25847 25.5541 4.99436 24.7395 5.98813 24.7395C6.52904 24.7395 7.0668 24.7395 7.60771 24.7395C9.06062 24.7395 10.5167 24.7395 11.9696 24.7395C14.1269 24.7395 16.2843 24.7395 18.4385 24.7395C21.0739 24.7395 23.7029 24.7395 26.3351 24.7395C29.2064 24.7395 32.0776 24.7395 34.9488 24.7395C37.8672 24.7395 40.7856 24.7395 43.7072 24.7395C46.4086 24.7395 49.1131 24.7395 51.8145 24.7395C54.1071 24.7395 56.3997 24.7395 58.6923 24.7395C60.3433 24.7395 61.9912 24.7395 63.6359 24.7395C64.4158 24.7395 65.1926 24.7301 65.9725 24.7395C66.0103 24.7395 66.0417 24.7395 66.0763 24.7395C67.004 24.7395 67.894 25.5541 67.85 26.5132C67.806 27.4755 67.0701 28.2869 66.0763 28.2869Z" fill="#0B2D1F"/>
</g>
<g id="Group_5">
<path id="Vector_7" d="M54.4877 18.8403C55.7928 18.8403 56.8589 17.7711 56.8589 16.4691V8.3712C56.8589 7.0661 55.7896 6 54.4877 6C53.1794 6 52.1133 7.06924 52.1133 8.3712V16.4691C52.1102 17.7711 53.1794 18.8403 54.4877 18.8403Z" fill="#0B2D1F"/>
</g>
<g id="Group_6">
<path id="Vector_8" d="M42.3173 18.8403C43.6224 18.8403 44.6885 17.7711 44.6885 16.4691V8.3712C44.6885 7.0661 43.6192 6 42.3173 6C41.0122 6 39.9461 7.06924 39.9461 8.3712V16.4691C39.9429 17.7711 41.0122 18.8403 42.3173 18.8403Z" fill="#0B2D1F"/>
</g>
<g id="Group_7">
<path id="Vector_9" d="M30.1464 18.8403C31.4515 18.8403 32.5176 17.7711 32.5176 16.4691V8.3712C32.5176 7.0661 31.4483 6 30.1464 6C28.8381 6 27.772 7.06924 27.772 8.3712V16.4691C27.772 17.7711 28.8413 18.8403 30.1464 18.8403Z" fill="#0B2D1F"/>
</g>
<g id="Group_8">
<path id="Vector_10" d="M17.976 18.8403C19.2811 18.8403 20.3472 17.7711 20.3472 16.4691V8.3712C20.3472 7.0661 19.2779 6 17.976 6C16.6709 6 15.6048 7.06924 15.6048 8.3712V16.4691C15.6048 17.7711 16.6709 18.8403 17.976 18.8403Z" fill="#0B2D1F"/>
</g>
</g>
</g>
</g>
</svg>