<svg xmlns="http://www.w3.org/2000/svg" fill="none" viewBox="7.2 6.17 23.14 23.66">
<g id="purchase-request-analysis">
<g id="Group 1000001535">
<rect id="Rectangle 34624507" x="21.3564" y="22.9944" width="8.16761" height="5.78291" fill="#FFA600"/>
<g id="Group 159033">
<g id="Group 159029">
<path id="Vector" d="M20.6861 18.5971H10.6404C10.384 18.5971 10.1472 18.4651 10.019 18.2508C9.8908 18.0363 9.8908 17.7722 10.019 17.5579C10.1472 17.3436 10.384 17.2115 10.6404 17.2115H20.6861C20.9423 17.2115 21.1793 17.3436 21.3075 17.5579C21.4357 17.7722 21.4357 18.0363 21.3075 18.2508C21.1793 18.4651 20.9423 18.5971 20.6861 18.5971Z" fill="black"/>
<path id="Vector_2" d="M20.6861 14.9171H10.6404C10.384 14.9171 10.1472 14.785 10.019 14.5707C9.8908 14.3562 9.8908 14.0922 10.019 13.8779C10.1472 13.6636 10.384 13.5315 10.6404 13.5315H20.6861C20.9423 13.5315 21.1793 13.6636 21.3075 13.8779C21.4357 14.0922 21.4357 14.3562 21.3075 14.5707C21.1793 14.785 20.9423 14.9171 20.6861 14.9171Z" fill="black"/>
<path id="Vector_3" d="M20.6861 11.237H10.6404C10.384 11.237 10.1472 11.105 10.019 10.8907C9.8908 10.6762 9.8908 10.4121 10.019 10.1978C10.1472 9.9835 10.384 9.85147 10.6404 9.85147H20.6861C20.9423 9.85147 21.1793 9.9835 21.3075 10.1978C21.4357 10.4121 21.4357 10.6762 21.3075 10.8907C21.1793 11.105 20.9423 11.237 20.6861 11.237Z" fill="black"/>
<path id="Vector_4" d="M18.6009 21.943H10.5014C10.2946 21.943 10.1037 21.7925 10.0004 21.5486C9.89701 21.3047 9.89701 21.0041 10.0004 20.7602C10.1038 20.5161 10.2946 20.3658 10.5014 20.3658H18.6009C18.8075 20.3658 18.9986 20.5161 19.1019 20.7602C19.2053 21.0042 19.2053 21.3047 19.1019 21.5486C18.9986 21.7925 18.8075 21.943 18.6009 21.943Z" fill="black"/>
<path id="Vector_5" d="M18.382 25.3027H10.634C10.4362 25.3027 10.2536 25.1589 10.1547 24.9256C10.0558 24.6922 10.0558 24.4045 10.1547 24.1711C10.2536 23.9378 10.4362 23.794 10.634 23.794H18.382C18.5796 23.794 18.7623 23.9378 18.8612 24.1711C18.9601 24.4045 18.9601 24.6922 18.8612 24.9256C18.7623 25.1589 18.5796 25.3027 18.382 25.3027Z" fill="black"/>
</g>
<path id="Vector_6" d="M21.5914 29.8288H29.2482C29.8515 29.8288 30.342 29.3551 30.342 28.7727V22.9642C30.342 22.8242 30.2844 22.6899 30.1818 22.5908C30.0793 22.4918 29.9402 22.4362 29.7951 22.4362H28.1544V21.9081C28.1544 20.4523 26.9276 19.2679 25.4198 19.2679C23.912 19.2679 22.6852 20.4523 22.6852 21.9081V22.4362H21.0445C20.8994 22.4362 20.7603 22.4918 20.6577 22.5908C20.5552 22.6899 20.4976 22.8242 20.4976 22.9642V28.7727C20.4976 29.3551 20.9881 29.8288 21.5914 29.8288ZM23.7791 21.9081C23.7791 21.0348 24.5152 20.324 25.4198 20.324C26.3244 20.324 27.0605 21.0348 27.0605 21.9081V22.4362H23.7791V21.9081ZM21.5914 23.4923H22.6852V24.5484H23.7791V23.4923H27.0605V24.5484H28.1544V23.4923H29.2482L29.2493 28.7727H21.5914V23.4923Z" fill="black"/>
<path id="Subtract" fill-rule="evenodd" clip-rule="evenodd" d="M24.4205 18.3456V8.34901C24.4144 7.76657 24.1692 7.21015 23.7387 6.802C23.3082 6.39366 22.7276 6.16691 22.1242 6.17149H9.49524C8.89204 6.16694 8.31133 6.39367 7.88102 6.802C7.45055 7.21016 7.20528 7.76662 7.19922 8.34901V26.1635C7.20523 26.7459 7.45052 27.3024 7.88102 27.7105C8.31133 28.1187 8.89204 28.3454 9.49524 28.341H19.4559V26.9555H9.49524C9.27252 26.9604 9.0568 26.8798 8.89543 26.7313C8.73388 26.5828 8.64013 26.3787 8.63426 26.1637V8.3492C8.64013 8.13415 8.73388 7.9299 8.89543 7.7816C9.05679 7.63312 9.27251 7.55247 9.49524 7.55723L22.1242 7.55722C22.3472 7.55247 22.5629 7.63293 22.7244 7.78141C22.8858 7.9299 22.9796 8.13415 22.9854 8.3492V19.0638C23.3764 18.7207 23.8694 18.4684 24.4205 18.3456Z" fill="black"/>
</g>
</g>
</g>
</svg>