<svg xmlns="http://www.w3.org/2000/svg" fill="none" viewBox="6.17 7.2 21.12 20.59">
<g id="manage-travel">
<g id="Group 1171274793">
<path id="Rectangle 34624668" d="M10.112 8.07568H20.4013L20.6202 9.60813V11.1406H19.3067L18.431 9.38921L15.3661 8.95137L12.0823 9.17029L11.4255 11.1406H10.112V9.56884V8.07568Z" fill="#FFA600"/>
<path id="Rectangle 34624667" d="M22.1527 18.8027L24.2433 15.9568L25.2175 16.1757L25.6554 17.0514L24.3419 19.8974L26.3122 23.8379L26.0933 24.4947L23.0284 22.0866L21.4958 24.0569L22.5905 26.0272L22.3716 26.465L19.7444 26.0272L17.7741 23.8379L20.4012 23.4002L21.4958 21.1337L17.993 19.8974L18.431 19.2406L22.1527 18.8027Z" fill="#FFA600"/>
<g id="Group">
<path id="Vector" d="M8.72807 24.6027H16.8239C16.8297 24.6192 16.833 24.6365 16.8404 24.6522C16.9048 24.795 17.0311 24.8999 17.1838 24.9354L18.7094 25.2936C18.6029 25.8327 18.735 26.4139 19.2468 26.735C19.2748 26.7507 19.3021 26.7664 19.3302 26.7804C19.3623 26.801 19.397 26.82 19.4366 26.8398C19.5968 26.9191 19.7668 26.9587 19.9435 26.9587C20.3175 26.9587 20.6625 26.7754 20.9259 26.5294L22.0345 27.6422C22.1295 27.738 22.2574 27.79 22.3903 27.79C22.4118 27.79 22.4333 27.7892 22.4547 27.7859C22.6099 27.7661 22.7461 27.6744 22.8254 27.5399L23.4858 26.4007C23.5799 26.238 23.5766 26.0358 23.4759 25.8773L22.4721 24.2882L23.2208 23.1712L25.6123 25.5008C25.7229 25.6098 25.8765 25.6602 26.0325 25.6387C26.1869 25.6172 26.3214 25.5256 26.399 25.3902L27.2254 23.9406C27.3187 23.7755 27.3129 23.5724 27.2089 23.4139L25.1269 20.2308L26.21 18.2545C26.8737 17.0278 26.4164 15.9257 25.6131 15.4667C25.4406 15.3726 25.2524 15.3107 25.0584 15.2785V13.625C25.0584 12.2109 23.9109 11.0609 22.5001 11.0609H21.2528L21.2495 9.57749C21.2495 9.57749 21.2495 9.57749 21.2495 9.57667C21.2462 8.26658 20.1821 7.20001 18.8761 7.20001H11.9385C11.3061 7.20001 10.7101 7.44932 10.2602 7.90005C9.81197 8.35078 9.56596 8.9468 9.56679 9.57914C9.56679 9.57997 9.56679 9.57997 9.56679 9.5808L9.57009 11.0609H8.72807C7.31809 11.0609 6.17145 12.2117 6.17145 13.6258V22.0378C6.17145 23.4519 7.31809 24.6027 8.72807 24.6027ZM7.17692 22.0378V20.7335H17.0484C17.0699 20.7418 20.3497 21.5689 20.3497 21.5689L19.7974 22.7948L17.921 22.7766C17.7468 22.7799 17.5602 22.8782 17.4727 23.0441L17.1805 23.5939H8.72807C7.87283 23.5939 7.17692 22.8955 7.17692 22.0378ZM25.3275 17.7716L24.1 20.0103C24.01 20.1746 24.0182 20.3736 24.1198 20.5296L26.1984 23.7087L25.8468 24.3245L23.4899 22.0279C23.3834 21.9239 23.2357 21.8727 23.0871 21.8876C22.9393 21.9033 22.8056 21.9842 22.7222 22.108L21.4534 23.9984C21.3419 24.1643 21.3386 24.3806 21.4459 24.5499L22.463 26.1588L22.2847 26.4659L21.2396 25.4175C21.1446 25.3225 21.0167 25.2697 20.8838 25.2697C20.8673 25.2697 20.8516 25.2705 20.8351 25.2722C20.6856 25.2862 20.5503 25.3671 20.4661 25.4918L20.4223 25.557C20.4149 25.5677 20.4083 25.5784 20.4017 25.59C20.2927 25.7815 20.0781 25.9507 19.9435 25.9507C19.9212 25.9507 19.9022 25.9458 19.8692 25.9293C19.8453 25.9128 19.8197 25.8979 19.7933 25.8855C19.7792 25.8789 19.766 25.8715 19.7652 25.8715C19.6331 25.7889 19.6678 25.4604 19.7982 25.216L19.8312 25.1442C19.8948 25.0072 19.8932 24.8479 19.8271 24.7117C19.7611 24.5754 19.6364 24.4764 19.4895 24.4417L18.049 24.1032L18.2165 23.7887L20.116 23.8069C20.3175 23.8176 20.4966 23.6921 20.5792 23.5105L21.5136 21.4344C21.5747 21.2981 21.5731 21.1413 21.5079 21.0067C21.4426 20.8722 21.3213 20.7739 21.1777 20.7376L17.9879 19.9377L18.3255 19.3136L22.1146 19.4102C22.2946 19.4118 22.4737 19.3161 22.5653 19.1535L23.8152 16.9312C24.0628 16.497 24.3988 16.2584 24.762 16.2584C24.8916 16.2584 25.0196 16.2906 25.1228 16.3475C25.4934 16.5589 25.6998 17.0822 25.3275 17.7716ZM10.5764 12.0689H12.7855V12.7879H10.5764V12.0689ZM12.3843 11.0609V10.0852C12.3843 10.0026 12.4544 9.93164 12.5378 9.93164H18.2859C18.3693 9.93164 18.4394 10.0026 18.4394 10.0852V11.0609H12.3843ZM18.0382 12.0689H20.2473V12.7879H18.0382V12.0689ZM10.9718 8.61247C11.2319 8.35243 11.5753 8.20879 11.9385 8.20879H18.8761C19.629 8.20879 20.2415 8.8238 20.2423 9.57997C20.2423 9.5808 20.2423 9.5808 20.2423 9.58162L20.2465 11.0609H19.4449V10.0852C19.4449 9.44459 18.9248 8.92286 18.2859 8.92286H12.5378C11.8989 8.92286 11.3788 9.44459 11.3788 10.0852V11.0609H10.5756L10.5723 9.57749C10.5723 9.21509 10.7143 8.8725 10.9718 8.61247ZM8.72807 12.0689H9.57092V13.2923C9.57092 13.5713 9.79628 13.7967 10.0737 13.7967H13.2882C13.5664 13.7967 13.7918 13.5713 13.7918 13.2923V12.0689H17.0327V13.2923C17.0327 13.5713 17.2581 13.7967 17.5355 13.7967H20.7509C21.0282 13.7967 21.2536 13.5713 21.2536 13.2923V12.0689H22.5001C23.3562 12.0689 24.0521 12.7673 24.0521 13.625V15.3982C23.6121 15.5823 23.2249 15.9356 22.941 16.4326L21.8381 18.394L18.044 18.2966C17.8541 18.2883 17.6783 18.394 17.5891 18.5607L16.9601 19.7247H7.17692V13.625C7.17692 12.7673 7.87283 12.0689 8.72807 12.0689Z" fill="black"/>
</g>
</g>
</g>
</svg>