<svg xmlns="http://www.w3.org/2000/svg" fill="none" viewBox="6.17 7.2 23.27 22">
<path d="M15.3747 15.4069C17.0352 15.4069 18.3813 13.9385 18.3813 12.1271C18.3813 10.3156 17.0352 8.84717 15.3747 8.84717C13.7142 8.84717 12.3682 10.3156 12.3682 12.1271C12.3682 13.9385 13.7142 15.4069 15.3747 15.4069Z" fill="#FFA600"/>
<path d="M28.7676 20.8734H21.1145V28.5265H28.7676V20.8734Z" fill="#FFA600"/>
<path fill-rule="evenodd" clip-rule="evenodd" d="M19.6635 11.9396C19.6635 14.6217 17.6571 16.8124 15.1798 16.8124C12.7025 16.8124 10.7063 14.6319 10.696 11.9601C10.6858 9.32922 12.7127 7.19995 15.1798 7.19995C17.6571 7.19995 19.6635 9.29851 19.6635 11.9396ZM12.5694 11.9601C12.5694 13.6799 13.7671 15.0209 15.1798 15.0209C16.6027 15.0209 17.7902 13.6594 17.7902 11.9396C17.7902 10.2608 16.6129 8.9914 15.1798 8.9914C13.7569 8.9914 12.5591 10.2812 12.5694 11.9601ZM19.4745 26.3326H8.79202C7.02105 26.3326 6.17139 25.7696 6.17139 24.5617C6.17139 21.7465 9.69287 17.9998 15.1798 17.9998C17.2434 17.9998 19.0276 18.5298 20.4506 19.3409C19.8789 19.5668 19.4745 20.1243 19.4745 20.7763V20.8464C18.3573 20.2244 16.9152 19.7913 15.1798 19.7913C10.6653 19.7913 8.13686 22.7088 8.13686 24.275C8.13686 24.4593 8.229 24.5412 8.47468 24.5412H19.4745V26.3326Z" fill="#1C1C1E"/>
<path d="M24.3532 26.7844C24.5427 26.9739 24.8488 26.9739 25.0383 26.7844L26.7827 25.04C26.8278 24.995 26.8635 24.9416 26.8879 24.8828C26.9123 24.8241 26.9248 24.7611 26.9248 24.6974C26.9248 24.6338 26.9123 24.5708 26.8879 24.512C26.8635 24.4532 26.8278 24.3998 26.7827 24.3548L25.0383 22.6104C24.9474 22.5196 24.8242 22.4685 24.6957 22.4685C24.5672 22.4685 24.444 22.5196 24.3532 22.6104C24.2623 22.7013 24.2113 22.8245 24.2113 22.953C24.2113 23.0815 24.2623 23.2047 24.3532 23.2956L25.2667 24.2139H21.0538C20.7866 24.2139 20.5679 24.4326 20.5679 24.6998C20.5679 24.9671 20.7866 25.1858 21.0538 25.1858H25.2667L24.3532 26.0993C24.1637 26.2888 24.1685 26.5998 24.3532 26.7844ZM28.3425 20.3267H21.5398C21.282 20.3267 21.0348 20.429 20.8526 20.6113C20.6703 20.7936 20.5679 21.0407 20.5679 21.2985V22.7562C20.5679 23.0235 20.7866 23.2421 21.0538 23.2421C21.3211 23.2421 21.5398 23.0235 21.5398 22.7562V21.7844C21.5398 21.5171 21.7584 21.2985 22.0257 21.2985H27.8566C28.1238 21.2985 28.3425 21.5171 28.3425 21.7844V27.6153C28.3425 27.8826 28.1238 28.1012 27.8566 28.1012H22.0257C21.7584 28.1012 21.5398 27.8826 21.5398 27.6153V26.6435C21.5398 26.3762 21.3211 26.1576 21.0538 26.1576C20.7866 26.1576 20.5679 26.3762 20.5679 26.6435V28.1012C20.5679 28.6357 21.0053 29.073 21.5398 29.073H28.3425C28.877 29.073 29.3143 28.6357 29.3143 28.1012V21.2985C29.3143 20.764 28.877 20.3267 28.3425 20.3267Z" fill="#1C1C1E" stroke="#1C1C1E" stroke-width="0.257143"/>
</svg>