<svg xmlns="http://www.w3.org/2000/svg" fill="none" viewBox="6.17 6.17 23.14 23.14">
<path fill-rule="evenodd" clip-rule="evenodd" d="M17.7423 29.3142C24.1331 29.3142 29.3138 24.1335 29.3138 17.7428C29.3138 11.3521 24.1331 6.17139 17.7423 6.17139C11.3516 6.17139 6.1709 11.3521 6.1709 17.7428C6.1709 24.1335 11.3516 29.3142 17.7423 29.3142ZM10.9652 13.3416C10.7156 12.5827 11.1285 11.7653 11.8873 11.5157L14.1912 10.758C14.9501 10.5084 15.7676 10.9213 16.0171 11.6801L16.4979 13.1421C16.7475 13.9009 16.3346 14.7184 15.5758 14.968L15.338 15.0462C15.2623 15.7034 15.3289 16.3714 15.5358 17.0043C15.7997 17.8111 16.2815 18.5293 16.928 19.0795C17.5745 19.6296 18.3605 19.9903 19.1992 20.1217C19.5099 20.1704 19.8233 20.1869 20.1346 20.1718L20.2208 19.8601C20.4338 19.0902 21.2306 18.6387 22.0005 18.8517L23.4838 19.262C24.2537 19.475 24.7052 20.2718 24.4922 21.0418L23.8455 23.3793C23.6325 24.1492 22.8357 24.6007 22.0658 24.3877L20.5826 23.9774C20.296 23.8981 20.0536 23.738 19.8731 23.5285C19.4753 23.5265 19.0766 23.4948 18.6805 23.4327C17.2314 23.2057 15.8732 22.5824 14.756 21.6318C13.6389 20.6812 12.8064 19.4402 12.3504 18.046C12.0818 17.2245 11.95 16.3687 11.9566 15.5123C11.7253 15.3405 11.5428 15.0981 11.446 14.8035L10.9652 13.3416Z" fill="#FFA600"/>
<path d="M21.9701 16.0738H20.8578C20.8574 15.6313 20.6815 15.2071 20.3687 14.8942C20.0559 14.5813 19.6318 14.4053 19.1895 14.4049V13.2922C19.9267 13.2931 20.6334 13.5865 21.1547 14.1079C21.676 14.6294 21.9692 15.3364 21.9701 16.0738Z" fill="black"/>
<path d="M24.1943 16.0739H23.082C23.0808 15.0415 22.6703 14.0516 21.9405 13.3216C21.2107 12.5915 20.2212 12.1809 19.1891 12.1797V11.0671C20.5161 11.0685 21.7883 11.5965 22.7267 12.5352C23.665 13.4738 24.1928 14.7465 24.1943 16.0739ZM23.082 24.975H22.9875C12.0595 24.3464 10.5079 15.1226 10.291 12.3077C10.2571 11.8664 10.3999 11.4297 10.6878 11.0936C10.9758 10.7576 11.3854 10.5497 11.8265 10.5157C11.8706 10.5124 11.9149 10.5107 11.9594 10.5107H14.8902C15.113 10.5105 15.3307 10.5772 15.5151 10.7022C15.6995 10.8272 15.8422 11.0047 15.9246 11.2117L16.7699 13.2923C16.8513 13.4946 16.8715 13.7163 16.828 13.9299C16.7845 14.1436 16.6792 14.3397 16.5252 14.494L15.3407 15.6901C15.525 16.7422 16.0283 17.7123 16.7824 18.4686C17.5364 19.2249 18.5048 19.731 19.5561 19.9181L20.7629 18.722C20.9195 18.5697 21.1174 18.4668 21.332 18.4262C21.5466 18.3857 21.7684 18.4092 21.9697 18.4939L24.0663 19.334C24.2702 19.419 24.4441 19.5628 24.5659 19.7471C24.6877 19.9314 24.7519 20.1478 24.7504 20.3687V23.3061C24.7504 23.7487 24.5746 24.1732 24.2617 24.4862C23.9488 24.7992 23.5245 24.975 23.082 24.975ZM11.9594 11.6234C11.8864 11.6232 11.814 11.6373 11.7465 11.6651C11.6789 11.6928 11.6175 11.7336 11.5657 11.7851C11.5139 11.8366 11.4728 11.8979 11.4446 11.9653C11.4164 12.0327 11.4018 12.105 11.4016 12.178C11.4016 12.1936 11.4022 12.209 11.4033 12.2242C11.6591 15.5176 13.2997 23.3061 23.0486 23.8624C23.1958 23.8712 23.3405 23.8212 23.4508 23.7233C23.5612 23.6255 23.6281 23.4878 23.637 23.3406L23.6381 23.3061V20.3687L21.5415 19.5287L19.9454 21.1142L19.6785 21.0808C14.8402 20.4744 14.1839 15.6344 14.1839 15.5844L14.1506 15.3173L15.73 13.7207L14.8958 11.6234H11.9594Z" fill="black"/>
<path d="M29.3137 17.7428C29.3137 24.1335 24.133 29.3142 17.7423 29.3142C11.3516 29.3142 6.1709 24.1335 6.1709 17.7428C6.1709 11.3521 11.3516 6.17139 17.7423 6.17139C24.133 6.17139 29.3137 11.3521 29.3137 17.7428ZM7.1933 17.7428C7.1933 23.5689 11.9163 28.2918 17.7423 28.2918C23.5684 28.2918 28.2913 23.5689 28.2913 17.7428C28.2913 11.9167 23.5684 7.19379 17.7423 7.19379C11.9163 7.19379 7.1933 11.9167 7.1933 17.7428Z" fill="black"/>
</svg>