<svg width="520" height="520" viewBox="0 0 520 520" fill="none" xmlns="http://www.w3.org/2000/svg">
<path d="M128.8 391.2C124.2 391.2 119.4 391.2 114.5 391.2C51.5001 391.1 49.0001 390.8 41.1001 388.1L32.7001 385.1L15.0001 367.4L12.3001 359.1C9.80013 351.9 9.40013 347.1 9.20013 326.9C9.10013 315.1 9.20013 301.1 9.60013 298.2C10.7001 291.8 14.0001 288.4 20.0001 287.4C28.1001 286.1 32.8001 284.6 36.8001 282C44.5001 276.7 48.9001 267.3 48.1001 257.5C47.0001 244.4 36.4001 234.4 21.5001 232.7C14.5001 231.9 10.7001 228.2 9.70013 221.3C9.30013 218.7 9.10013 205.9 9.30013 192.6C9.40013 172.4 9.90013 167.6 12.4001 160.4L15.1001 152.1L32.8001 134.4L41.2001 131.4C49.3001 128.6 52.1001 128.5 114.7 128.3C121 128.3 127.2 128.3 133.1 128.3C156 128.3 181.9 128.5 184.4 128.8C189.6 129.6 190 130 199.4 139.4L207.9 147.9L216.1 139.7C222.7 133.1 226.4 130 228.7 129.1H228.8C231.2 128.4 273.2 128.2 308 128.2C373.5 128.2 470.5 128.8 474.5 129.9C477.5 130.7 482.1 132.3 484.8 133.6C488.5 135.4 491.4 137.8 497.3 143.9C504.4 151.5 504.9 152.3 507.7 160.4C510.2 167.8 510.5 171.2 510.6 196.7L510.7 225L507.2 228.5C504.5 231.2 502.5 232.1 497 232.9C488.2 234.1 483.8 236.3 478.8 242C472.1 249.4 470 259.4 473 268.6C476 277.5 483.3 284 492.6 285.8H492.7C495.9 286.4 499.5 287.2 501.1 287.5C504.5 288.2 508.9 290.6 510.2 298.1C510.6 300.8 510.8 313.9 510.7 326.7C510.4 347.6 510 351.8 507.6 359L504.7 367.4L487 385.1L478.6 388.1C470.9 390.7 467.3 390.9 436.1 391C435 391 433.6 391 432 391C406.2 391 318.1 390.1 317.2 390.1H317C316.6 390.1 276.1 390.6 250.3 390.6C230.1 390.6 229 390.3 228.5 390.1H228.4C226.1 389.2 222.4 386.2 215.8 379.5L207.6 371.3L199.1 379.8C189.5 389.2 189.2 389.6 184.1 390.4C181.6 390.9 156.4 391.2 128.8 391.2ZM398.7 368C403.1 367.1 434 367.1 435.4 367.1C460.1 367.1 470.8 366.3 472.5 365.6C477.3 363.8 483.6 357.2 485.3 352.3C486 350.5 486.7 341 486.7 328.2C486.7 318.5 486.7 313.2 486.4 310.5C486.2 308.7 486.1 308.6 485.2 308.5C480.5 307.5 474.2 304.3 468.7 300.3C449.1 285.4 442.9 258 454.2 236.6C460 225.6 472.1 215.3 483.7 211.6L486.7 210.7V191.3C486.7 178.7 486 169.2 485.3 167.3C483.8 162.6 477.4 155.9 472.6 153.9C468.3 152.5 381.2 152.5 352.6 152.5H236.1L211.9 175.7L207.6 175.6L203.4 175.7L190.9 163.7L179.2 152.4L115 152.5C61.8001 152.5 48.7001 153.3 47.2001 153.9C42.4001 155.9 36.2001 162.5 34.5001 167.3C33.8001 169.1 33.1001 178.7 33.1001 191.3V210.7L36.1001 211.6C47.1001 215.2 59.6001 225.4 65.1001 235.5C74.7001 253.2 73.2001 274.2 61.1001 290.2C54.2001 299.2 43.5001 306.5 34.6001 308.4C33.9001 308.6 33.7001 308.6 33.5001 310.5C33.2001 313.1 33.2001 318.1 33.1001 328.1C33.1001 340.9 33.8001 350.4 34.5001 352.3C36.0001 357 42.4001 363.7 47.2001 365.7C48.8001 366.3 61.8001 367.1 115 367.1L179.2 367.2L203.4 343.7L207.7 343.8L212 343.7L236 367L275.1 367.1C296.5 367.2 316.3 367.9 317.2 368H398.7Z" fill="black"/>
<path d="M484.2 135C481.6 133.8 477.1 132.1 474.1 131.4C468.2 129.8 234.3 129 229.2 130.5C227.2 131.2 223.8 134 217.1 140.7L207.9 149.9L198.4 140.4C189 131 188.9 130.9 184.2 130.2C181.7 129.8 150.4 129.6 114.7 129.7C52.4001 129.8 49.6001 130 41.7001 132.7L33.6001 135.6L25.0001 144.2L16.4001 152.8L13.8001 160.8C11.4001 167.7 10.9001 172 10.8001 192.6C10.6001 205.7 10.8001 218.5 11.2001 221C12.2001 227.4 15.6001 230.5 21.8001 231.2C37.4001 232.9 48.5001 243.4 49.6001 257.3C50.3001 267.7 45.9001 277.5 37.6001 283.1C33.6001 285.7 29.0001 287.3 20.3001 288.7C14.9001 289.6 12.1001 292.6 11.1001 298.3C10.7001 300.8 10.6001 313.6 10.7001 326.7C10.8001 347.3 11.3001 351.7 13.7001 358.5L16.3001 366.5L24.9001 375.1L33.5001 383.7L41.6001 386.6C49.3001 389.2 52.2001 389.5 114.6 389.6C150.2 389.7 181.5 389.4 184.1 389.1C188.7 388.4 188.8 388.2 198.3 378.9L207.8 369.4L217 378.6C223.7 385.3 227.1 388.1 229.1 388.8C232.6 389.8 317.2 388.7 317.2 388.7V369.2C317.2 369.2 297.1 368.5 275.2 368.3L235.5 368.2L223.5 356.6L211.4 344.9L207.7 345L204 344.9L191.9 356.6L179.8 368.3L115.1 368.2C70.8001 368.2 49.2001 367.7 46.7001 366.7C41.6001 364.6 34.8001 357.6 33.2001 352.5C32.3001 350.1 31.7001 339.5 31.7001 327.9C31.8001 307.9 31.8001 307.4 34.3001 306.8C43.0001 304.9 53.4001 297.7 60.0001 289.1C71.6001 273.8 73.2001 253.2 63.9001 236C58.5001 226.3 46.4001 216.3 35.7001 212.8L31.7001 211.6V191.1C31.7001 179.6 32.3001 168.9 33.2001 166.6C34.9001 161.5 41.6001 154.5 46.7001 152.4C49.2001 151.4 70.7001 150.9 115.1 150.9L179.8 150.8L191.9 162.5L204 174.1L207.7 174L211.4 174.1L223.5 162.5L235.6 150.9H352.7C434.8 150.9 470.6 151.4 473.2 152.4C478.3 154.5 485.1 161.5 486.7 166.6C487.6 169 488.2 179.6 488.2 191.1V211.6L484.2 212.8C472.8 216.4 461.1 226.4 455.5 237.1C444.4 258.1 450.4 284.4 469.6 299C474.8 302.9 481 306 485.6 307C488.2 307.5 488.2 308.1 488.2 328.1C488.2 339.8 487.6 350.4 486.7 352.7C485 357.8 478.3 364.8 473.1 366.8C470.7 367.8 457.5 368.4 435.4 368.4C416.6 368.4 400.1 368.8 398.8 369.3H317.3V388.8C317.3 388.8 417.5 389.8 436.2 389.7C467.3 389.6 470.8 389.3 478.2 386.8L486.3 383.9L494.9 375.3L503.5 366.7L506.2 358.6C508.6 351.6 508.9 347.5 509.2 326.8C509.3 313.8 509.1 301 508.7 298.5C507.8 293.1 505.1 289.9 500.7 289C499.1 288.6 495.3 287.9 492.2 287.3C471 283.1 462.9 257.5 477.6 241.1C482.8 235.1 487.6 232.7 496.7 231.5C501.8 230.8 503.6 230 506.1 227.5L509.2 224.4L509.1 196.7C509 171.7 508.7 168.1 506.2 160.9C503.5 153 503.1 152.4 496.1 144.9C490.4 139 487.7 136.7 484.2 135Z" fill="black"/>
<path fill-rule="evenodd" clip-rule="evenodd" d="M436.1 391.5C427 391.5 397 391.4 369.7 391.1C356.1 391 343 390.8 333.3 390.7L317.3 390.6H313.7C312.7 390.6 311.6 390.6 310.3 390.6C308.5 390.6 306.4 390.7 304.1 390.7C296.3 390.7 286.1 390.8 275.3 390.9H274.6C263.7 391 253 391 244.4 391C240.2 391 236.5 391 233.9 390.9C233.2 390.9 232.5 390.9 231.9 390.8C231.5 390.8 231.1 390.8 230.7 390.8H230.5L230.3 390.7C230.2 390.7 230.2 390.7 230.1 390.7H230C229.9 390.7 229.8 390.7 229.8 390.7C229.4 390.7 229.1 390.6 229 390.6C228.9 390.6 228.8 390.6 228.7 390.5V390.2L228.6 390.5C227.3 390 225.8 389 223.7 387.3C222.2 386 220.4 384.3 218.1 382.1C217.4 381.4 216.7 380.7 215.9 380L207.9 372L199.8 380.1C195.1 384.8 192.7 387.2 190.8 388.6C188.7 390.1 187.1 390.4 184.6 390.9C184.2 391 183.2 391 181 391.1C180 391.1 178.8 391.2 177.5 391.2C172.4 391.4 167.2 391.4 162 391.4C149.4 391.5 132.6 391.5 114.8 391.5C82.5 391.5 67.1 391.4 57.9 391C48.5 390.6 45.7 389.9 41.3 388.4L32.6 385.4L14.7 367.5L11.8 358.9C9.3 351.6 8.9 346.7 8.7 326.5C8.6 319.9 8.6 313.4 8.7 308.2C8.7 303.3 8.9 299.3 9.1 297.8V297.7C9.7 294.5 10.8 291.9 12.6 290C14.5 288.1 17.1 286.8 20.1 286.4C28.3 285.1 32.7 283.7 36.5 281.1C44.1 275.9 48.3 266.7 47.6 257.2C46.7 244.4 36.2 234.7 21.7 233.1C18.1 232.8 15.2 231.6 13.1 229.6C11.1 227.7 9.8 224.9 9.2 221.2C9.1 219.8 9 216.5 8.8 210.7C8.7 205.6 8.7 199.1 8.8 192.4C8.9 172.2 9.4 167.4 11.9 160L14.7 151.5L32.6 133.6L41.3 130.6C45.7 129.1 48.6 128.4 57.9 128C66 127.7 78.7 127.6 101.8 127.5H114.8C132.6 127.5 149.4 127.5 162 127.6C164.8 127.7 167.4 127.7 169.8 127.7C172.8 127.7 175.4 127.8 177.5 127.8C178.9 127.8 180 127.9 181 127.9C183 127.9 184.1 128 184.7 128.1C187.1 128.5 188.6 128.8 190.9 130.3C192.9 131.8 195.2 134.1 199.9 138.8L208 146.9L215.7 139.2C219.1 135.7 221.6 133.3 223.7 131.6C225.7 129.9 227.3 128.8 228.6 128.4L228.8 128.3H229H229.1C229.3 128.3 229.7 128.2 230.2 128.2C230.4 128.2 230.6 128.2 230.9 128.2C231.4 128.2 232 128.1 232.6 128.1C235.2 127.9 237.9 127.8 240.8 127.8C249.9 127.6 259.3 127.6 268.6 127.6C279.9 127.5 292.9 127.5 307.2 127.5C321.5 127.5 336.3 127.5 351.2 127.6C387.4 127.8 418.6 128.1 433.9 128.2C442 128.3 449.2 128.4 455 128.6C457.5 128.7 459.8 128.7 461.9 128.7C465.5 128.7 468.5 128.8 470.3 129C470.8 129 471.3 129 471.8 129.1C472.1 129.1 472.4 129.1 472.7 129.1C473.4 129.1 474 129.1 474.6 129.3C477.6 130.2 482.2 131.8 485 133.1C489 135 492.1 137.6 497.7 143.5C501 146.9 503.1 149.2 504.6 151.6C506 153.7 506.7 155.8 508 159.3L508.3 160.1C510.8 167.5 511.1 171.3 511.3 196.6L511.4 225.1L507.7 228.8C506.3 230.2 505.1 231.2 503.3 232C501.5 232.7 499.5 233.1 497.1 233.5C492.6 234.1 489.4 235 486.8 236.3C484.2 237.6 482 239.4 479.4 242.3C472.9 249.5 470.8 259.2 473.8 268.2C476.7 276.9 483.8 283.2 492.8 285H492.9C496.1 285.6 499.7 286.4 501.3 286.7C503.9 287.3 506.1 288.6 507.7 290.4C509.3 292.3 510.4 294.9 510.8 297.9C511 299.2 511.2 302.6 511.3 308.4C511.3 310 511.3 311.8 511.3 313.6C511.3 317.6 511.4 322.1 511.3 326.5C511 347.4 510.6 351.6 508.2 358.9L505.3 367.5L487.4 385.4L478.7 388.4C471.1 391.2 467.5 391.4 436.1 391.5ZM42 385.7C49.4 388.2 52.3 388.5 114.5 388.6C119.4 388.6 124.2 388.6 128.8 388.6C158.6 388.6 181.7 388.3 183.8 388.1C187.9 387.4 187.9 387.4 197.1 378.3L207.6 367.8L217.7 377.9C218.5 378.7 219.3 379.5 220 380.2C224.7 384.8 227.7 387.3 229.3 387.9H229.4C229.6 387.9 229.8 387.9 230.1 388H230.2C232.8 388.2 239.6 388.3 250.3 388.3C276.1 388.3 316.5 387.8 316.9 387.8C317.8 387.8 405.9 388.7 431.7 388.7C433.3 388.7 434.7 388.7 435.8 388.7C466.6 388.6 470.1 388.3 477.4 385.9L485.2 383.1L502.1 366.2L504.7 358.4C507 351.6 507.4 347.5 507.6 327C507.7 313.2 507.5 301.1 507.1 298.9C506.3 294.2 504 291.4 500.2 290.6C498.6 290.2 494.9 289.5 491.9 288.9H491.8C481.5 286.8 473.4 279.7 470.1 269.8C466.7 259.6 469.1 248.6 476.5 240.4C481.9 234.2 487 231.6 496.4 230.3C501.4 229.6 502.8 228.8 504.9 226.7L507.6 224L507.5 196.9C507.4 171.8 507.1 168.5 504.7 161.5C502 153.8 501.7 153.4 494.9 146C489.5 140.2 486.7 137.9 483.3 136.2C480.7 135 476.3 133.4 473.5 132.7C469.6 131.8 381.1 131.1 307.7 131.1C253 131.1 231.4 131.5 229.4 131.9C227.5 132.7 223.9 135.7 217.9 141.8L207.8 152L197.3 141.5C188.1 132.3 188.1 132.3 183.9 131.7C182.2 131.5 163.9 131.2 133.1 131.2C127.2 131.2 121 131.2 114.6 131.2C52.5 131.3 49.8 131.4 42.1 134.1L34.3 136.9L17.4 153.8L14.9 161.5C12.7 167.9 12.1 171.8 12 192.9C11.8 205.8 12 218.7 12.4 221.1C13.3 226.7 16.1 229.5 21.8 230.1C38 231.9 49.7 242.9 50.9 257.5C51.7 268.4 46.9 278.8 38.3 284.6C33.9 287.5 28.9 289.1 20.4 290.4C15.7 291.2 13.2 293.7 12.3 298.9C12 301.1 11.8 313.2 11.9 327.1C12 348.1 12.6 352.1 14.8 358.5L17.3 366.2L34.2 383.1L42 385.7ZM115 369.7C57.5 369.7 48 368.8 46.1 368.1C40.5 365.8 33.5 358.4 31.8 353C30.7 350.1 30.2 338 30.2 328C30.3 317.8 30.3 312.8 30.6 310C31 307.1 31.7 306.1 33.9 305.5C42.3 303.7 52.3 296.8 58.8 288.3C70.2 273.2 71.6 253.4 62.5 236.7C57.3 227.2 45.5 217.6 35.1 214.2L30.1 212.6V191.1C30.1 181 30.6 168.9 31.7 166.1C33.6 160.7 40.5 153.3 46 151.1C47.9 150.3 57.4 149.5 114.9 149.5H180.2L193.7 162.6L191.2 165.1L178.6 153.1L114.8 153.2C92.6 153.2 76.3 153.3 64.9 153.6C59.2 153.7 55 153.9 52 154.1L51.2 154.2C50.1 154.3 49.1 154.4 48.4 154.4C48.1 154.4 47.8 154.5 47.6 154.5C47.4 154.5 47.2 154.6 47 154.6C44.9 155.5 42.3 157.5 40 159.9C37.6 162.4 35.7 165.1 35 167.3C34.9 167.8 34.7 168.7 34.6 170C34.6 170.5 34.5 171.1 34.4 171.7C34.3 172.8 34.1 174.1 34.1 175.6C33.9 179.9 33.7 185.2 33.7 191.1V210L36.3 210.8C43 212.9 49.1 217.2 53.1 220.4C58.5 224.9 62.9 230 65.7 235C75.4 252.7 73.8 274.5 61.7 290.4C54.8 299.5 44 306.9 34.7 309C34.5 309 34.4 309.1 34.3 309.1C34.2 309.2 34.1 309.6 34 310.4C33.6 313 33.6 318.3 33.6 328C33.6 334 33.7 339.4 34 343.6C34.1 345.6 34.2 347.6 34.5 349.1V349.2C34.6 350.5 34.8 351.4 34.9 351.9C35.7 354.1 37.6 356.9 39.9 359.3C42.2 361.8 45 363.8 47.2 364.7C47.3 364.7 47.5 364.8 48.3 364.8H48.4H48.5C49.3 364.9 50.5 365 51.9 365C52.7 365 53.6 365.1 54.5 365.1C57.3 365.2 60.7 365.4 64.9 365.5C76.2 365.8 92.6 365.9 114.8 365.9L178.6 366L191.2 354L193.7 356.5L180.2 369.6L115 369.7Z" fill="black"/>
<path fill-rule="evenodd" clip-rule="evenodd" d="M484.2 135C481.6 133.8 477.1 132.1 474.1 131.4C468.2 129.8 234.3 129 229.2 130.5C227.2 131.2 223.8 134 217.1 140.7L207.9 149.9L198.4 140.4C189 131 188.9 130.9 184.2 130.2C181.7 129.8 150.4 129.6 114.7 129.7C52.3998 129.8 49.5998 129.9 41.6998 132.7L33.5998 135.6L16.1998 153L13.5998 161C11.1998 167.9 10.6998 172.2 10.5998 192.8C10.3998 205.9 10.5998 218.7 10.9998 221.2C11.9998 227.6 15.3998 230.7 21.5998 231.4C37.1998 233.1 48.2998 243.6 49.3998 257.5C50.0998 267.9 45.6998 277.7 37.3998 283.3C33.3998 285.9 28.7998 287.5 20.0998 288.9C14.6998 289.8 11.8998 292.8 10.8998 298.5C10.4998 301 10.3998 313.8 10.4998 326.9C10.5998 347.5 11.0998 351.9 13.4998 358.7L16.0998 366.7L33.3998 384L41.4998 386.9C49.1998 389.5 52.0998 389.8 114.5 389.9C150.1 390 181.4 389.7 184 389.4C188.6 388.7 188.7 388.5 198.2 379.2L207.7 369.7L216.9 378.9C223.6 385.6 227 388.4 229 389.1C232.5 390.1 317.1 389 317.1 389C317.1 389 417.3 390 436 389.9C467.1 389.8 470.6 389.5 478 387L486.1 384.1L503.4 366.8L506.1 358.7C508.5 351.7 508.8 347.6 509.1 326.9C509.2 313.9 509 301.1 508.6 298.6C507.7 293.2 505 290 500.6 289.1C499 288.7 495.2 288 492.1 287.4C470.9 283.2 462.8 257.6 477.5 241.2C482.7 235.2 487.5 232.8 496.6 231.6C501.7 230.9 503.5 230.1 506 227.6L509.1 224.5L509 196.8C508.9 171.8 508.6 168.2 506.1 161C503.4 153.1 503 152.5 496 145C490.4 139 487.7 136.7 484.2 135ZM501 288.3C499.4 287.9 495.6 287.2 492.5 286.6C471.9 282.5 463.9 257.5 478.3 241.6C480.9 238.6 483.3 236.6 486.2 235.2C489.1 233.7 492.4 232.8 496.9 232.2C499.5 231.8 501.3 231.5 502.8 230.8C504.3 230.2 505.4 229.3 506.8 227.9L510 224.7L509.9 196.8C509.8 171.8 509.5 168.1 507 160.7C505.6 156.8 504.9 154.6 503.5 152.5C502.1 150.4 500.3 148.3 496.8 144.6C491.1 138.5 488.2 136.2 484.6 134.5C482 133.3 477.4 131.6 474.4 130.8C474.2 130.7 473.7 130.7 473 130.7C472.4 130.7 471.5 130.6 470.5 130.6C468.5 130.5 465.6 130.4 462.1 130.4C455.1 130.3 445.5 130 434 129.9C411.2 129.6 381.2 129.4 351.3 129.3C321.4 129.2 291.4 129.2 268.7 129.3C257.3 129.3 247.7 129.4 240.9 129.5C237.4 129.5 234.7 129.6 232.7 129.8C231.7 129.8 230.8 129.9 230.3 129.9C229.7 129.9 229.3 130 229.1 130C228 130.4 226.5 131.4 224.6 133C222.6 134.6 220.1 137 216.7 140.5L208 149.2L198.9 140.1C194.3 135.5 191.9 133.1 190 131.7C188 130.3 186.8 130.1 184.4 129.7C183.7 129.6 181.3 129.6 177.4 129.4C173.5 129.3 168.3 129.3 161.9 129.2C149.3 129.1 132.6 129.1 114.7 129.1C83.4998 129.2 67.2998 129.2 57.7998 129.6C48.2998 130 45.5998 130.7 41.5998 132.1L33.1998 135L15.6998 152.5L12.9998 160.7C10.5998 167.7 10.0998 172.2 9.9998 192.6C9.8998 199.2 9.8998 205.7 9.9998 210.8C10.0998 215.9 10.1998 219.8 10.3998 221.2C10.8998 224.4 11.9998 227.1 13.8998 228.8C15.7998 230.7 18.3998 231.7 21.5998 231.9C36.8998 233.6 47.7998 243.9 48.7998 257.4C49.4998 267.5 45.0998 277.1 37.0998 282.6C33.1998 285.2 28.6998 286.7 20.0998 288.1C17.3998 288.5 15.0998 289.6 13.4998 291.2C11.8998 292.9 10.8998 295.3 10.3998 298.2C10.2998 299.6 9.9998 303.4 9.9998 308.6C9.8998 313.7 9.8998 320.2 9.9998 326.8C10.0998 347.4 10.5998 351.8 12.9998 358.7L15.6998 366.9L33.1998 384.4L41.5998 387.3C45.5998 388.7 48.2998 389.4 57.7998 389.8C67.2998 390.2 83.5998 390.3 114.7 390.3C132.5 390.3 149.3 390.3 161.9 390.2C168.1 390.2 173.5 390.1 177.4 390C181.3 389.9 183.8 389.9 184.4 389.7C186.8 389.3 188.1 389.1 190 387.7C191.9 386.3 194.2 384 198.9 379.3L208 370.2L216.7 378.9C220.1 382.3 222.7 384.8 224.6 386.4C226.6 388 228 389 229.1 389.4C229.2 389.4 229.5 389.5 229.8 389.5C230 389.5 230.4 389.5 230.8 389.6C231.7 389.6 232.7 389.7 234 389.7C236.6 389.8 240.2 389.8 244.5 389.8C253 389.8 263.8 389.8 274.7 389.7C285.6 389.6 296.2 389.5 304.1 389.5C308.1 389.5 311.5 389.4 313.7 389.4H317.3L333.3 389.5C343 389.6 356.1 389.7 369.7 389.9C397 390.1 426.8 390.3 436.1 390.3C467 390.2 470.8 389.9 478.3 387.4L486.7 384.5L504.2 367L506.9 358.8C509.3 351.7 509.6 347.4 509.9 326.9C510 320.4 509.9 313.9 509.9 308.8C509.8 303.7 509.7 299.8 509.4 298.4C509 295.7 508 293.3 506.7 291.7C505.3 289.9 503.3 288.8 501 288.3ZM179.8 151L191.9 162.7L191.4 163.2L179.4 151.7L115 151.8C92.7998 151.8 76.2998 151.9 65.0998 152.2C59.4998 152.3 55.1998 152.5 52.0998 152.7C50.5998 152.8 49.3998 153 48.4998 153C47.5998 153.1 47.0998 153.2 46.8998 153.2C44.3998 154.2 41.4998 156.4 39.1998 158.9C36.6998 161.5 34.6998 164.4 33.7998 166.9C33.6998 167.4 33.3998 168.4 33.2998 169.9C33.1998 171.4 32.8998 173.3 32.7998 175.5C32.5998 179.9 32.3998 185.4 32.3998 191.1V211.1L35.9998 212.2C41.4998 213.9 47.1998 217.4 52.2998 221.6C57.3998 225.8 61.7998 230.8 64.4998 235.8C73.9998 253.1 72.4998 274.1 60.5998 289.7C53.9998 298.4 43.3998 305.8 34.3998 307.8C33.7998 307.9 33.4998 308 33.2998 308.3C33.0998 308.5 32.7998 309.2 32.6998 310.4C32.2998 313 32.2998 318.1 32.2998 328.1C32.2998 334 32.3998 339.5 32.6998 343.8C32.7998 346 32.8998 347.9 33.1998 349.4C33.2998 350.9 33.5998 351.9 33.6998 352.4C34.5998 354.8 36.5998 357.8 39.0998 360.4C41.5998 363 44.4998 365.1 46.7998 366.1C46.9998 366.2 47.4998 366.4 48.3998 366.4C49.2998 366.5 50.4998 366.7 51.9998 366.7C54.9998 366.8 59.3998 367.1 64.9998 367.2C76.1998 367.4 92.6998 367.6 114.9 367.6L179.3 367.7L191.3 356.2L191.8 356.7L179.7 368.4L114.9 368.3C70.5998 368.3 48.9998 367.8 46.4998 366.8C41.3998 364.7 34.5998 357.7 32.9998 352.6C32.0998 350.2 31.4998 339.6 31.4998 328C31.5998 308 31.5998 307.5 34.0998 306.9C42.7998 305 53.1998 297.8 59.7998 289.2C71.3998 273.9 72.9998 253.3 63.6998 236.1C58.2998 226.4 46.1998 216.4 35.4998 212.9L31.4998 211.7V191.2C31.4998 179.7 32.0998 169 32.9998 166.7C34.6998 161.6 41.3998 154.6 46.4998 152.5C48.9998 151.5 70.4998 151 114.9 151H179.8V151Z" fill="black"/>
<path d="M313.4 327.2C309.8 327.2 306.5 325.5 304.3 322.6C302.1 319.7 301.5 316.2 302.4 312.9C303.5 309.6 361.6 206.8 363.4 205C365.3 203.2 369.8 201.9 372.5 201.9C373 201.9 373.5 201.9 373.8 202C375.3 202.3 377.8 204 379.3 205.8L379.8 206.2C385.7 211.9 385.7 211.9 356.2 264.2L353.6 268.8C339.5 293.7 323.2 321.9 321.2 323.9C318.8 326.4 316.9 327.2 313.4 327.2Z" fill="black"/>
<path d="M373.5 203.4C371.3 202.9 366.1 204.4 364.4 206C362.8 207.6 304.6 310.7 303.8 313.3C302.1 319.3 306.9 325.8 313.4 325.8C316.5 325.8 318 325.2 320.1 322.9C321.7 321.3 336.2 296.7 352.3 268.1C384.9 210.3 384 212.3 378.3 206.7C376.9 205.1 374.6 203.6 373.5 203.4Z" fill="black"/>
<path fill-rule="evenodd" clip-rule="evenodd" d="M313.5 328.7C309.5 328.7 305.6 326.7 303.2 323.4C300.8 320.2 300.1 316.3 301.1 312.7C301.1 312.6 301.1 312.5 301.1 312.5L300.8 311.7L301.4 311.1C301.4 311 301.5 310.9 301.6 310.8C301.7 310.7 301.7 310.5 301.8 310.4C302.3 309.4 302.9 308.1 303.8 306.6C305.5 303.5 307.9 299.3 310.6 294.3C313 290 315.8 285.2 318.7 280C322.6 273.1 326.9 265.5 331.1 258C334.5 252 338 246 341.2 240.2C345 233.5 348.6 227.2 351.7 221.8C354.6 216.8 356.9 212.7 358.7 209.7C359.2 208.9 359.6 208.2 360 207.6C360.3 207.1 360.6 206.6 360.8 206.3C361 205.9 361.3 205.5 361.4 205.4L361.5 205.2L361.6 205.1C361.6 205.1 361.6 205 361.7 205C361.8 204.7 362.1 204.4 362.2 204.3C363.9 202.6 366.6 201.8 367.8 201.4C368.9 201 369.9 200.9 370.7 200.7H371H371.1C371.3 200.7 371.5 200.7 371.7 200.7C371.9 200.7 372.2 200.7 372.4 200.7C372.8 200.7 373.4 200.7 374 200.9C375.2 201.1 376.3 201.9 377.2 202.5C378.2 203.3 379.3 204.1 380.2 205L380.4 205.2V205.3C380.5 205.4 380.6 205.5 380.7 205.6C380.9 205.8 381 205.9 381.2 206.1C381.6 206.4 382 206.8 382.3 207.2C383.1 208 383.7 209.1 384 210.3C384.6 212.6 384.1 215.4 382.3 219.4C379.4 226.4 372.4 238.8 358.4 263.5L357.3 265.5C356.6 267 355.7 268.5 354.8 270C347 283.8 339.3 297.2 333.2 307.6C330.1 313 327.5 317.2 325.9 319.7C325 321.2 324.3 322.4 323.7 323.3C323.4 323.9 323.1 324.3 322.7 324.7C322.6 324.8 322.6 324.9 322.5 324.9C322.4 325.1 322.2 325.2 322.1 325.4C320.7 326.8 319.5 327.7 318.2 328.2C316.8 328.6 315.1 328.7 313.5 328.7Z" fill="black"/>
<path fill-rule="evenodd" clip-rule="evenodd" d="M302.5 312.9C300.4 319.9 306.1 327.2 313.5 327.2C315.1 327.2 316.5 327.1 317.7 326.5C318.9 326 320.1 325.1 321.2 324C321.4 323.7 321.6 323.5 321.8 323.3C322 323.1 322.3 322.7 322.5 322.2C323.1 321.3 323.9 320.1 324.7 318.6C326.6 315.6 329.1 311.5 331.9 306.5C337.8 296.5 345.4 283.3 353.5 268.9L352.3 268.2L353.5 268.9C354.4 267.4 355.2 265.9 356 264.4C370.6 238.6 378 225.6 381 218.5C382.6 214.8 383.1 212.3 382.6 210.3C382.3 209.3 381.9 208.4 381.2 207.8C380.8 207.3 380.2 206.8 379.7 206.3C379.6 206.2 379.3 206 379.2 205.8C378.3 204.9 377.3 204.2 376.3 203.4C375.4 202.8 374.4 202.2 373.6 202C372.9 201.8 371.9 201.9 371 201.9C370.1 202 369.1 202.2 368.1 202.5C366.2 203 364.2 203.9 363.1 205C363 205.1 362.9 205.3 362.9 205.4C362.8 205.5 362.8 205.6 362.6 205.8C362.5 206 362.2 206.4 362 206.8C361.5 207.7 360.8 208.8 359.9 210.3C358.2 213.3 355.8 217.4 352.9 222.4C347.2 232.4 339.8 245.5 332.3 258.6C324.9 271.7 317.5 284.9 311.8 294.9C309.1 299.9 306.7 304.1 304.9 307.3C304 308.8 303.4 310 302.9 311C302.6 311.5 302.5 311.9 302.3 312.1C302.7 312.4 302.5 312.6 302.5 312.9Z" fill="black"/>
<path d="M396.3 336.5C395.6 336.5 394.9 336.5 394.2 336.4C381.9 335.6 370.6 326.7 366.7 314.7C364.4 307.8 364.3 303 366.6 295.5C368.7 289 379.7 277.8 385.7 276.1C389.6 274.9 392.9 274.4 396.2 274.4C399.3 274.4 402.4 274.9 405.6 276C411.7 277.9 412.7 278.7 418.2 284.6C425 292 427.6 298.4 427.2 306.7C426.8 315 424.2 320.7 417.8 327.2C411.6 333.4 404.6 336.5 396.3 336.5ZM395.9 298C394.6 298 392.6 298.4 390.9 300.1C388.7 302.3 388.1 305.2 389.2 308C390.4 310.9 393.1 312.8 396 312.8C397 312.8 398 312.6 399.1 312.2C401.5 311.2 402 310.9 402.9 308.4C403.6 306.7 403.8 304.6 403.6 304C402.6 300.4 399.4 298 395.9 298Z" fill="black"/>
<path d="M405.2 277.3C398.8 275.2 393.2 275.3 386.1 277.4C380.5 279 369.9 290 368 295.9C365.9 303 365.9 307.6 368.1 314.2C371.8 325.7 382.7 334.2 394.3 334.9C403 335.4 410.3 332.7 416.8 326.2C422.8 320.1 425.4 314.6 425.8 306.6C426.2 298.6 423.7 292.6 417.2 285.5C411.9 279.8 411.1 279.2 405.2 277.3ZM405 303.4C405.4 304.5 405 307 404.3 308.8C403.2 311.7 402.4 312.3 399.7 313.4C390.6 317.1 383.1 305.8 390 299.1C394.6 294.3 403 296.7 405 303.4Z" fill="black"/>
<path fill-rule="evenodd" clip-rule="evenodd" d="M396.1 337.9C395.4 337.9 394.7 337.9 394 337.8C381.2 336.9 369.4 327.6 365.3 315.1C364 311.3 363.5 308.3 363.5 305.2C363.5 302 364 298.8 365.2 295C365.8 292.8 367.3 290.5 368.4 289C369.7 287.1 371.4 285.1 373.5 283C375.5 281 377.5 279.3 379.4 277.9C381.7 276.2 383.5 275.2 385.2 274.7C389.2 273.5 392.6 272.9 395.9 272.9C399.2 272.9 402.4 273.5 405.8 274.7C408.8 275.7 410.8 276.4 412.8 277.7C414.5 278.9 416.1 280.6 418.4 283L418.9 283.6C422.5 287.5 424.9 291 426.4 294.6C427.9 298.2 428.5 302 428.4 306.7C428.1 311.2 427.3 314.8 425.8 318.2C424.2 321.6 421.9 324.9 418.6 328.1C412.3 334.8 404.9 337.9 396.1 337.9ZM396.1 277.4C393.1 277.4 390.1 277.9 386.4 279C381.2 280.4 371 290.8 369.3 296.4C367.2 303.3 367.3 307.5 369.4 313.9C373 324.8 383.2 332.9 394.3 333.7C394.9 333.7 395.6 333.8 396.2 333.8C403.8 333.8 410 331.1 415.7 325.4C421.5 319.5 423.9 314.2 424.3 306.7C424.7 299 422.4 293.4 416.1 286.6C411 281.1 410.3 280.7 404.7 278.9C401.7 277.8 398.9 277.4 396.1 277.4ZM396 315.6C391.9 315.6 388.2 313.1 386.6 309.2C385 305.3 385.9 301.2 388.9 298.1C390.8 296.2 393.3 295.2 395.9 295.2C400.7 295.2 405 298.4 406.3 303.1C406.8 304.6 406.3 307.5 405.5 309.4C404.2 312.7 403.1 313.5 400.1 314.8C398.8 315.3 397.4 315.6 396 315.6ZM396 299.3C394.9 299.3 393.3 299.6 391.9 301C390.1 302.8 389.6 305.2 390.5 307.5C391.5 309.8 393.6 311.3 396 311.3C396.8 311.3 397.7 311.1 398.5 310.8C399.7 310.4 400.1 310.1 400.5 309.8C400.8 309.4 401.1 308.9 401.6 307.7C401.8 307.2 401.9 306.7 402.1 306.1C402.2 305.8 402.2 305.6 402.3 305.3C402.4 304.7 402.4 304.3 402.4 304.2V304.1C401.3 300.9 398.4 299.3 396 299.3Z" fill="black"/>
<path fill-rule="evenodd" clip-rule="evenodd" d="M367.9 295.9C365.8 303 365.8 307.6 368 314.2C371.7 325.7 382.6 334.2 394.2 334.9C402.9 335.4 410.2 332.7 416.7 326.2C422.7 320.1 425.3 314.6 425.7 306.6C426.1 298.6 423.7 292.6 417.1 285.5C411.9 279.9 411 279.3 405.1 277.4C398.7 275.3 393.1 275.4 386 277.5C380.4 279.1 369.8 289.9 367.9 295.9ZM385.6 276.1C384 276.6 382.1 277.7 380.2 279.1C378.3 280.5 376.3 282.2 374.5 284.1C372.6 286 370.9 288 369.5 290C368.1 291.9 367 293.9 366.5 295.6C365.4 299.2 364.9 302.3 364.9 305.3C364.9 308.4 365.5 311.4 366.6 314.8C370.6 326.8 381.8 335.6 394 336.5C403.1 337 410.8 334.1 417.6 327.3C420.7 324.2 423 321.1 424.5 317.8C426 314.4 426.7 310.9 427 306.8C427.1 302.6 426.6 298.9 425.1 295.3C423.6 291.7 421.2 288.3 417.9 284.7C415.3 282 413.7 280.2 411.9 279C410.2 277.8 408.3 277.1 405.3 276.1C398.8 273.7 393 273.8 385.6 276.1ZM403 308.3C402.4 309.7 402 310.3 401.6 310.8C401.1 311.3 400.5 311.7 399.1 312.2C391.4 315.3 385.1 305.8 390.9 300.1C394.9 296.1 401.9 298 403.8 303.8C403.9 304.1 403.9 304.8 403.8 305.7C403.5 306.5 403.2 307.5 403 308.3ZM405 303.4C405.4 304.5 405 307 404.3 308.8C403.2 311.7 402.4 312.3 399.7 313.4C390.6 317.1 383.1 305.9 390 299.1C394.6 294.3 403 296.7 405 303.4Z" fill="black"/>
<path d="M301.7 242.2C292 242.2 282.7 237.5 276.8 229.6C270.9 221.8 269.2 211.8 272 202.4C274.1 195.4 280.3 187.6 286.3 184.2C290.8 181.6 296.1 180.2 301.5 180.2C306.2 180.2 310.9 181.3 315.1 183.3C321.7 186.5 328.5 194 330.8 200.7C332.9 207.1 332.9 215.6 330.7 222C328.2 229.3 319.7 237.8 312.1 240.5C308.7 241.6 305.2 242.2 301.7 242.2ZM301.3 203.6C298.6 203.6 296.2 205.1 295 207.6C293.7 210.2 294 213.2 295.8 215.8C297.3 217.8 297.9 218.1 301.2 218.3C301.3 218.3 301.5 218.3 301.7 218.3C304.1 218.3 306 217.6 307.3 216.3C308.5 215 309.1 213.1 308.9 210.7C308.6 206.5 307.4 204.9 303.6 204C302.8 203.8 302 203.6 301.3 203.6Z" fill="black"/>
<path d="M314.5 184.5C305.6 180.3 295.2 180.6 286.9 185.4C281.2 188.6 275.3 196.3 273.3 202.7C266.4 225.9 288.8 247 311.6 239C318.7 236.5 326.9 228.4 329.3 221.4C331.4 215.3 331.4 207.1 329.4 201.1C327.2 194.6 320.7 187.5 314.5 184.5ZM310.3 210.6C310.7 216.6 307.1 220 301.1 219.7C297.5 219.5 296.5 219.1 294.6 216.6C289.5 209.5 295.7 200.3 304 202.6C308.4 203.7 309.9 205.9 310.3 210.6Z" fill="black"/>
<path fill-rule="evenodd" clip-rule="evenodd" d="M301.8 243.6C291.6 243.6 281.9 238.7 275.7 230.4C269.6 222.2 267.8 211.8 270.7 201.9C271.7 198.6 273.7 194.8 276.5 191.1C279.2 187.7 282.5 184.8 285.5 183C290.2 180.2 295.7 178.7 301.4 178.7C306.3 178.7 311.2 179.8 315.7 181.9C319.7 183.7 323.3 187.1 325.7 189.6C328.6 192.7 330.9 196.5 332.2 200.1C334.5 206.9 334.4 215.8 332.1 222.4C330.7 226.3 327.8 230.5 324.3 233.9C320.7 237.5 316.6 240.3 312.7 241.7C309.1 243 305.5 243.6 301.8 243.6ZM301.4 182.9C296.5 182.9 291.7 184.2 287.7 186.6C282.3 189.6 276.7 196.9 274.7 203.1C272.2 211.7 273.7 220.7 279 227.9C284.4 235.1 292.8 239.3 301.6 239.3C304.8 239.3 308 238.7 311.1 237.7C317.9 235.2 325.8 227.4 327.9 221V220.9C329.9 215.1 329.9 207.4 328 201.6C325.9 195.4 319.7 188.7 313.8 185.8C310 183.9 305.7 182.9 301.4 182.9ZM301.6 221.1C301.4 221.1 301.2 221.1 300.9 221.1C296.9 220.8 295.5 220.1 293.4 217.4C290.9 214 290.6 209.8 292.4 206.2C294.1 202.8 297.5 200.7 301.3 200.7C302.3 200.7 303.3 200.8 304.3 201.1C309.2 202.3 311.2 204.8 311.7 210.3C311.9 213.5 311.1 216.2 309.3 218.1C307.5 220.1 304.9 221.1 301.6 221.1ZM301.4 204.9C299.2 204.9 297.3 206.1 296.3 208.1C295.2 210.2 295.5 212.7 296.9 214.7C297.7 215.8 298 216.1 298.3 216.2H298.4L298.5 216.3C298.9 216.5 299.8 216.6 301.2 216.7C301.4 216.7 301.6 216.7 301.7 216.7C303.6 216.7 305 216.2 305.9 215.3C306.9 214.3 307.4 212.7 307.3 210.6C307.2 208.4 306.8 207.6 306.3 206.9L306.2 206.8C305.8 206.2 304.9 205.7 303.1 205.2C302.6 205 302 204.9 301.4 204.9Z" fill="black"/>
<path fill-rule="evenodd" clip-rule="evenodd" d="M315.1 183.3C305.9 178.9 294.9 179.2 286.3 184.3C283.3 186 280.2 188.9 277.7 192C275.2 195.2 273.1 198.9 272.1 202.4C264.9 226.7 288.3 248.8 312.3 240.5C316 239.1 320 236.4 323.4 233C326.8 229.8 329.5 225.8 330.9 222C333.1 215.6 333.1 207 331 200.7C329.8 197.3 327.5 193.7 324.8 190.7C321.7 187.5 318.4 184.8 315.1 183.3ZM330.7 221.8L329.3 221.3L330.7 221.8ZM286.9 185.4C295.1 180.5 305.6 180.3 314.5 184.5C320.9 187.5 327.2 194.6 329.5 201.1C331.5 207.1 331.5 215.3 329.4 221.4C327 228.4 318.8 236.4 311.7 239C288.7 247 266.5 225.9 273.4 202.7C275.3 196.2 281.2 188.6 286.9 185.4ZM301.2 218.2C299.3 218.1 298.5 217.9 297.8 217.6C297.2 217.3 296.7 216.9 295.8 215.6C291.4 209.5 296.8 201.9 303.7 203.9C305.7 204.5 306.9 205.1 307.6 206.1C308.3 207.1 308.7 208.3 308.8 210.6C308.9 213.3 308.2 215.2 307.1 216.3C305.8 217.7 303.8 218.3 301.2 218.2ZM310.3 210.6C310.7 216.6 307.1 220 301.1 219.7C297.5 219.4 296.5 219 294.6 216.6C289.5 209.5 295.7 200.3 304 202.6C308.4 203.7 309.9 205.9 310.3 210.6Z" fill="black"/>
<path d="M207.6 223.1C204.9 223.1 202.2 222 200.1 220C196.3 216.2 195.5 213.8 195.9 206.7C196.2 202.1 196.7 200.3 199.7 197.3C202.5 194.5 204.2 193.8 207.8 193.8C211.3 193.8 213 194.6 215.7 197.2C218.7 200.2 219 201.8 219.1 208.4C219.1 215.2 218.6 216.7 215.8 219.5C213.5 221.8 210.6 223.1 207.6 223.1Z" fill="black"/>
<path d="M207.8 195.1C204.6 195.1 203.2 195.7 200.7 198.2C198.1 200.8 197.6 202.2 197.3 206.7C196.9 213.4 197.6 215.4 201 218.9C204.9 222.6 210.6 222.5 214.7 218.4C217.2 215.9 217.6 214.8 217.6 208.3C217.5 201.8 217.2 200.7 214.6 198.1C212.3 195.7 211 195.1 207.8 195.1Z" fill="black"/>
<path fill-rule="evenodd" clip-rule="evenodd" d="M207.4 224.4C204.3 224.4 201.4 223.2 199.1 220.9C196.9 218.8 195.6 217 195 214.8C194.3 212.6 194.2 210.1 194.4 206.4C194.5 204 194.7 202.3 195.4 200.6C196 198.8 197.3 197.4 198.6 196.1C200.1 194.6 201.3 193.6 202.7 193C204.3 192.2 205.9 192.1 207.8 192.1C209.7 192.1 211.2 192.4 212.7 193C214 193.5 215.3 194.4 216.8 195.9C218.3 197.4 219.3 198.7 219.9 200.8C220.5 202.6 220.6 205 220.6 208.2V209.6C220.5 212.2 220.4 214.1 220 215.6C219.4 217.7 218.2 219 216.9 220.3C214.2 223 210.8 224.4 207.4 224.4ZM207.7 196.5C204.9 196.5 203.8 197 201.6 199.2C199.2 201.7 198.9 202.6 198.6 206.8C198.2 213.4 199 214.9 202.1 217.9C203.6 219.4 205.5 220.2 207.5 220.2C209.7 220.2 212 219.2 213.8 217.4C215.9 215.4 216.1 214.8 216.3 208.3C216.2 202.1 216 201.4 213.7 199.1C211.6 197 210.5 196.5 207.7 196.5Z" fill="black"/>
<path fill-rule="evenodd" clip-rule="evenodd" d="M200.1 219.9C204.6 224.3 211.2 223.9 215.8 219.3C217 218.1 218 216.9 218.5 215.2C219 213.6 219 211.5 219.1 208.2C219.1 205 219 202.8 218.5 201.2C218 199.5 217.1 198.3 215.8 197C214.6 195.8 213.4 194.9 212.2 194.4C211 193.9 209.6 193.7 207.8 193.7C206.1 193.7 204.7 193.8 203.3 194.4C202.1 195 200.9 195.9 199.6 197.3C198.2 198.7 197.2 199.8 196.7 201.3C196.1 202.8 196 204.4 195.8 206.7C195.5 210.1 195.7 212.4 196.3 214.6C197 216.6 198.2 218.2 200.1 219.9ZM197.2 206.7C197.5 202.2 197.9 201 200.6 198.2C203.1 195.7 204.5 195.1 207.7 195.1C210.8 195.1 212.3 195.7 214.7 198.1C217.3 200.7 217.6 201.8 217.7 208.3C217.6 214.8 217.3 216 214.8 218.4C210.7 222.5 204.9 222.8 201.1 218.9C197.6 215.5 196.9 213.5 197.2 206.7Z" fill="black"/>
<path d="M207.7 275.8C206.1 275.8 204.5 275.4 202.7 274.5C197.6 272 195.5 267.3 195.8 258.8C196.1 252.7 196.4 251.3 199.6 248.1C202.5 245.2 204.2 244.4 207.8 244.4C211.2 244.4 213 245.1 215.6 247.7C218.6 250.7 218.9 252.5 219 259.6C219.1 267.2 219 268.3 215.6 271.7C213 274.5 210.5 275.8 207.7 275.8Z" fill="black"/>
<path d="M207.8 245.9C204.6 245.9 203.2 246.5 200.6 249.1C197.7 252 197.5 253 197.2 258.8C197 266.7 198.7 270.9 203.3 273.1C207.5 275.2 210.8 274.6 214.7 270.6C217.7 267.6 217.8 267 217.7 259.5C217.6 252.4 217.2 251.1 214.7 248.6C212.3 246.5 211 245.9 207.8 245.9Z" fill="black"/>
<path fill-rule="evenodd" clip-rule="evenodd" d="M207.7 277.1C205.9 277.1 204.1 276.6 202.1 275.6C199.2 274.2 197.1 272 195.8 269.2C194.6 266.5 194.2 263.2 194.3 258.7C194.4 255.7 194.6 253.6 195.3 251.7C196.1 249.6 197.4 248.2 198.6 246.9C199.9 245.4 201.2 244.4 202.8 243.7C204.4 243 206 242.8 207.9 242.8C209.8 242.8 211.3 243.1 212.8 243.7H212.9C214.2 244.4 215.5 245.3 216.8 246.6C218.1 248 219.3 249.4 219.9 251.6C220.4 253.2 220.4 255.2 220.5 258V259.4C220.5 260.1 220.5 260.7 220.5 261.2C220.5 263.9 220.5 265.8 220.1 267.4C219.5 269.6 218.3 271 216.7 272.5C214.3 274.9 212.1 276.2 209.8 276.8C209.1 277 208.4 277.1 207.7 277.1ZM207.8 247.3C204.9 247.3 204 247.7 201.6 250.1C199.1 252.5 198.8 253.1 198.6 258.9C198.4 266.2 199.9 270 203.9 271.9C205.2 272.6 206.4 272.9 207.5 272.9C209.4 272.9 211.4 271.9 213.6 269.7C216.2 267.1 216.3 267 216.2 259.6C216.1 252.7 215.7 251.8 213.6 249.7C211.7 247.8 210.6 247.3 207.8 247.3Z" fill="black"/>
<path fill-rule="evenodd" clip-rule="evenodd" d="M195.7 258.7C195.6 262.7 195.9 265.9 197.1 268.6C198.2 271.2 200.1 273.1 202.7 274.3C204.9 275.4 207.2 275.9 209.4 275.4C211.6 274.9 213.6 273.5 215.6 271.5C217.1 270 218.1 268.9 218.6 267C219.1 265.3 219 263 219 259.4C218.9 255.9 218.9 253.7 218.4 251.9C217.9 250 216.9 248.9 215.7 247.5C214.6 246.4 213.5 245.5 212.2 244.9C211 244.4 209.6 244.2 207.8 244.2C206.1 244.2 204.7 244.3 203.3 244.9C201.9 245.5 200.8 246.4 199.6 247.8C198.2 249.2 197.2 250.4 196.6 252C196 253.9 195.9 255.9 195.7 258.7ZM200.6 249.1C203.2 246.5 204.5 245.9 207.8 245.9C210.9 245.9 212.4 246.5 214.7 248.8C217.2 251.3 217.6 252.5 217.7 259.7C217.8 267.1 217.7 267.8 214.7 270.8C210.8 274.7 207.5 275.4 203.3 273.3C198.7 271.1 196.9 266.8 197.2 259C197.4 253 197.7 251.9 200.6 249.1Z" fill="black"/>
<path d="M105.9 228.5L102.4 225C99.7004 222.2 98.9004 220.3 98.9004 217.4C98.9004 212.4 101.7 208.2 106.3 206.4C109.1 205.3 124.2 205.2 130.6 205.2C131.8 205.2 159.1 205.2 162.2 206.9C166.2 209.1 168.3 212.5 168.6 217.3C168.7 220.9 167.8 222.5 165.2 225.1L161.7 228.6H105.9V228.5Z" fill="black"/>
<path d="M161.4 208C158.2 206.3 111.1 205.9 106.8 207.6C102.8 209.2 100.3 212.8 100.3 217.3C100.3 219.9 101 221.4 103.4 223.9L106.5 227H133.7H160.9L164 223.9C166.5 221.4 167.1 220.2 167 217.2C166.8 213 165 210 161.4 208Z" fill="black"/>
<path fill-rule="evenodd" clip-rule="evenodd" d="M105.3 229.9L101.4 226C100 224.6 99.1004 223.4 98.4004 222V221.9C97.8004 220.4 97.5004 219 97.5004 217.4C97.4004 211.7 100.5 207 105.8 205H105.9H106C106.5 204.9 107 204.7 107.7 204.6C108.1 204.5 108.5 204.5 109 204.4C109.3 204.4 109.7 204.3 110 204.3H110.1C111.7 204.2 113.8 204.1 116.6 203.9C121.8 203.6 128.2 203.6 134.5 203.6C140.8 203.7 147.2 203.8 152.3 204.1C154 204.2 155.5 204.3 156.8 204.4C157.4 204.5 158 204.5 158.5 204.5C159.5 204.5 160.2 204.6 160.8 204.8L161.1 204.9C161.6 205 162.3 205.2 162.8 205.5C165.2 206.9 166.9 208.5 167.8 210.4C169 212.2 169.6 214.4 169.7 217.1C169.9 219 169.6 220.5 169 221.9C168.4 223.3 167.4 224.5 166 225.9L162.1 229.8H105.3V229.9ZM160.3 225.8L163 223.1C165.3 220.8 165.7 219.9 165.6 217.4C165.4 213.6 163.9 211.1 160.7 209.3C159.3 208.6 147.6 207.9 131.3 207.9C116.7 207.9 108.6 208.5 107.3 209C103.7 210.4 101.6 213.5 101.7 217.4C101.7 219.6 102.1 220.8 104.4 223.1L107.1 225.8H160.3Z" fill="black"/>
<path fill-rule="evenodd" clip-rule="evenodd" d="M162.1 206.7C161.7 206.5 161.1 206.3 160.6 206.2C160 206.1 159.4 206 158.5 206C156.9 205.9 154.8 205.6 152.3 205.5C147.3 205.2 140.9 205.1 134.6 205C128.2 205 121.9 205 116.8 205.2C114.3 205.3 112.1 205.5 110.3 205.6C109.4 205.7 108.7 205.7 108.1 205.9C107.5 206 107 206.1 106.5 206.3C101.9 208 99.0002 212.3 99.1002 217.4C99.1002 218.9 99.3002 220.1 99.8002 221.4C100.4 222.6 101.3 223.8 102.5 225L106 228.5H161.5L165 225C166.2 223.8 167.2 222.6 167.7 221.4C168.3 220.2 168.4 218.8 168.3 217.3C168.2 214.9 167.7 212.9 166.6 211.2C165.7 209.2 164 207.8 162.1 206.7ZM100.3 217.5C100.2 213 102.7 209.4 106.8 207.8C111.3 206.1 158.2 206.3 161.4 208.2C165 210.2 166.8 213.2 167 217.4C167.1 220.4 166.5 221.6 164 224.1L160.9 227.2H106.5L103.4 224.1C100.9 221.6 100.3 220.1 100.3 217.5Z" fill="black"/>
<path d="M207.4 327.8C203.4 327.8 199.7 325.5 197.5 321.4C195.5 317.8 195.2 308.7 196.5 304.2C198.1 299 202.8 295.5 207.8 295.5C208.8 295.5 209.8 295.6 210.7 295.9C212.3 296.3 214.6 297.9 216.2 299.2L216.3 299.3C218.8 301.8 219 304.2 219.1 311.4C219.1 319.6 218.9 321 215.6 324.3C213.2 326.5 210.3 327.8 207.4 327.8Z" fill="black"/>
<path d="M210.3 297.2C205.2 295.7 199.6 299.1 197.8 304.6C196.6 309 196.9 317.6 198.7 320.7C202.3 327.2 209.4 328.3 214.5 323.2C217.4 320.3 217.6 319.5 217.6 311.3C217.5 303.9 217.2 302.2 215.2 300.2C213.8 298.9 211.7 297.5 210.3 297.2Z" fill="black"/>
<path fill-rule="evenodd" clip-rule="evenodd" d="M207.4 328.9C206.8 328.9 206.2 328.9 205.6 328.8C202.2 328.3 199.2 326.3 197 323.2L196.2 322.1C196 321.7 195.8 321.4 195.6 320.9L195.5 320.8C195.2 320 194.9 319.1 194.7 318C194.4 316.4 194.3 314.9 194.2 313.2C193.9 309.8 194.2 306.1 195 303.7C196.9 298 202.1 294.1 207.7 294.1C208.8 294.1 209.9 294.3 211 294.6C211.5 294.8 212.1 295 212.6 295.2C213 295.4 213.5 295.6 214 295.7L214.2 295.8L214.4 295.9C215.4 296.6 216.4 297.4 217.1 298L217.2 298.1L217.3 298.2C218.5 299.6 219.4 300.9 219.9 303.1C220.3 304.8 220.4 307.3 220.4 311.2C220.4 315.4 220.4 317.9 219.8 319.8C219.2 322.1 218 323.4 216.4 325C213.9 327.5 210.8 328.9 207.4 328.9ZM207.7 298.2C204.8 298.2 202 299.8 200.3 302.4L211.9 299.5C211.1 299 210.4 298.7 209.8 298.5C209.1 298.3 208.4 298.2 207.7 298.2Z" fill="black"/>
<path fill-rule="evenodd" clip-rule="evenodd" d="M210.7 295.8C204.7 294.1 198.5 298 196.5 304C195.8 306.4 195.5 309.9 195.8 313C195.9 314.6 196.1 316.1 196.3 317.6C196.6 319 196.9 320.2 197.5 321.2L198.7 320.5L197.5 321.1C199.5 324.6 202.5 326.8 205.9 327.3C209.3 327.8 212.8 326.7 215.6 323.8C217.1 322.3 218.1 321.2 218.6 319.2C219.1 317.5 219.1 315 219.1 311C219.1 307.4 219 304.9 218.6 303.1C218.2 301.2 217.5 300.1 216.4 298.9C215.7 298.3 214.7 297.5 213.8 296.9C212.6 296.5 211.6 296.1 210.7 295.8ZM215.2 300.2C213.8 299 211.6 297.6 210.2 297.2C205.1 295.7 199.5 299.1 197.7 304.6" fill="black"/>
<path d="M106.7 271.6L102.8 267.7C100.1 265 98.7002 262.3 98.7002 259.6C98.7002 256.9 100 254.3 102.8 251.5L106.7 247.6H160.8L164.7 251.5C170.1 256.9 170.1 262.2 164.7 267.6L160.8 271.5H106.7V271.6Z" fill="black"/>
<path d="M133.7 249.1H107.3L103.8 252.6C98.9 257.5 98.9 261.8 103.8 266.7L107.3 270.2H133.7H160.1L163.6 266.7C168.5 261.8 168.5 257.5 163.6 252.6L160.1 249.1H133.7Z" fill="black"/>
<path fill-rule="evenodd" clip-rule="evenodd" d="M106.1 273.1L101.8 268.8C98.7998 265.8 97.2998 262.8 97.2998 259.7C97.2998 256.6 98.7998 253.6 101.8 250.6L106.1 246.3H161.4L165.7 250.6C168.7 253.6 170.2 256.6 170.2 259.7C170.2 262.8 168.7 265.8 165.7 268.8L161.4 273.1H106.1ZM159.6 268.8L162.7 265.7C164.9 263.5 165.9 261.5 165.9 259.7C165.9 257.9 164.8 255.8 162.7 253.7L159.6 250.6H107.8L104.7 253.7C100.4 258 100.4 261.5 104.7 265.8L107.8 268.9H159.6V268.8Z" fill="black"/>
<path fill-rule="evenodd" clip-rule="evenodd" d="M106.7 247.8L102.8 251.7C100.2 254.3 98.7002 256.9 98.7002 259.8C98.7002 262.7 100.2 265.3 102.8 267.9L106.7 271.8H160.8L164.7 267.9C167.3 265.3 168.8 262.7 168.8 259.8C168.8 256.9 167.3 254.3 164.7 251.7L160.8 247.8H106.7ZM107.2 249.1H160.2L163.7 252.6C168.6 257.5 168.6 261.8 163.7 266.7L160.2 270.2H107.2L103.7 266.7C98.8002 261.8 98.8002 257.5 103.7 252.6L107.2 249.1Z" fill="black"/>
<path d="M134.3 314.5C130 314.5 108.4 314.4 105.3 312.8C101.6 310.7 99.4004 307.6 98.9004 304C98.5004 300.6 99.7004 297.3 102.4 294.5L105.9 291H133.7C137.5 291 140.8 291 143.7 291C160.4 291 161.7 291.4 164.7 294.3C167.5 297.1 168.8 300.6 168.3 304.1C167.8 307.6 165.6 310.8 162.2 312.7C159.3 314.4 140.1 314.5 134.3 314.5Z" fill="black"/>
<path d="M133.7 292.4H106.5L103.4 295.5C98.2997 300.6 99.3997 307.7 105.9 311.5C109.8 313.5 157.7 313.6 161.4 311.5C167.8 307.9 168.8 300.4 163.6 295.3C160.8 292.4 160.2 292.3 133.7 292.4Z" fill="black"/>
<path fill-rule="evenodd" clip-rule="evenodd" d="M133.7 315.7C127 315.7 120.5 315.6 115.5 315.3C112.9 315.2 110.7 315 108.9 314.8C108 314.7 107.2 314.5 106.6 314.4C105.8 314.2 105.2 314.1 104.6 313.8C100.6 311.6 97.9997 308.2 97.4997 304.4C96.7997 300.6 98.1997 296.6 101.4 293.5L104.5 290.4V289.4H133.7C147.2 289.4 154 289.4 157.9 289.8C159.9 290.1 161.4 290.3 162.7 290.9C164.1 291.5 164.8 292.3 165.6 293.1C168.8 296.3 170.2 300.2 169.6 304.2C169 308.2 166.6 311.7 162.8 313.8C162.1 314.2 161.5 314.3 160.8 314.5C160.2 314.6 159.4 314.8 158.5 314.9C156.7 315.2 154.4 315.3 151.9 315.4C146.9 315.6 140.5 315.7 133.7 315.7ZM161.3 310C163.7 308.5 165.2 306.3 165.5 303.9C165.9 301.3 164.8 298.5 162.7 296.4C160.8 294.4 160.3 293.9 143.7 293.9C140.9 293.9 137.6 293.9 133.7 293.9H114.9L161.3 310ZM102.5 299.1C101.7 300.6 101.4 302.1 101.7 303.7C101.9 305.4 102.7 306.9 104 308.3L102.5 299.1Z" fill="black"/>
<path fill-rule="evenodd" clip-rule="evenodd" d="M105.9 290.9L102.4 294.4C99.5005 297.3 98.3005 300.8 98.9005 304.1C99.4005 307.5 101.6 310.5 105.3 312.5C105.8 312.8 106.3 312.9 106.9 313C107.5 313.1 108.3 313.2 109.1 313.4C110.8 313.6 113.1 313.8 115.6 313.9C120.7 314.1 127.2 314.3 133.7 314.3C140.2 314.3 146.7 314.2 151.8 313.9C154.3 313.8 156.5 313.6 158.3 313.4C159.2 313.3 159.9 313.1 160.5 313C161.1 312.9 161.6 312.7 162.1 312.5C165.6 310.5 167.7 307.4 168.2 303.9C168.7 300.4 167.5 296.9 164.6 294C163.9 293.3 163.2 292.6 162.1 292.1C161 291.6 159.6 291.4 157.7 291.1C153.8 290.7 146.8 290.7 133.6 290.7H105.8V290.9H105.9ZM106.5 292.4H133.7C160.3 292.3 160.9 292.4 163.6 295.3C168.7 300.4 167.8 307.9 161.4 311.5M106.5 292.4L103.4 295.5L106.5 292.4ZM103.4 295.6C98.3005 300.7 99.4005 307.8 105.9 311.6L103.4 295.6Z" fill="black"/>
</svg>
