<svg xmlns="http://www.w3.org/2000/svg" fill="none" viewBox="8.74 6.17 18.36 23.14">
<g id="reporting">
<g id="Group">
<path id="Vector 59" d="M10.2859 9H12.8573V10.2857H23.4002V9H25.4573L25.9716 27.7714H10.2859V9Z" fill="#FFA600" stroke="#FFA600" stroke-width="0.514286"/>
<path id="Vector" d="M15.5726 6.19911C14.872 6.31662 14.1398 6.66918 13.6561 7.12118L13.3216 7.43306H11.9657C10.4876 7.43306 10.2842 7.45566 9.85935 7.66809C9.3486 7.92573 8.9192 8.48169 8.79716 9.0512C8.72484 9.3902 8.72484 27.3525 8.79716 27.6915C8.86948 28.026 9.0774 28.4238 9.31696 28.6769C9.55199 28.9255 10.0176 29.1876 10.3656 29.26C10.7046 29.3323 25.1414 29.3323 25.4804 29.26C26.2487 29.0973 26.8861 28.4554 27.0488 27.6915C27.1211 27.348 27.1211 9.3902 27.0488 9.0512C26.8861 8.28733 26.2397 7.64097 25.4804 7.48277C25.3357 7.45114 24.7029 7.43306 23.8803 7.43306H22.5198L22.2169 7.14378C21.8734 6.82286 21.5299 6.60138 21.0689 6.42058C20.4767 6.18103 20.2779 6.16747 17.8868 6.17199C16.6755 6.17651 15.6359 6.19007 15.5726 6.19911ZM20.2688 7.59126C20.427 7.63194 20.6847 7.72685 20.8338 7.80369C21.2858 8.04325 21.7921 8.61729 21.9231 9.04668L21.9503 9.15064H17.923H13.8957L13.9228 9.04668C13.9996 8.80713 14.2121 8.47717 14.4697 8.21501C14.768 7.91217 15.2381 7.64549 15.6223 7.57318C15.7308 7.55058 16.7568 7.5325 17.9004 7.52798C19.6089 7.52345 20.0293 7.53702 20.2688 7.59126ZM12.5126 9.09188C12.4764 9.26364 12.4538 9.56196 12.4629 9.76988C12.4764 10.1676 12.5487 10.2987 12.8244 10.4434C13.0052 10.5383 22.8407 10.5383 23.0215 10.4434C23.2972 10.2987 23.3695 10.1676 23.3831 9.76988C23.3921 9.56196 23.3695 9.26364 23.3334 9.09188L23.2701 8.78905H24.2238C25.3176 8.78905 25.4623 8.8252 25.6431 9.14612L25.7425 9.3224V18.3714V27.4203L25.6476 27.5921C25.5933 27.687 25.4758 27.8045 25.3809 27.8588L25.2092 27.9537H17.923H10.6368L10.465 27.8588C10.3701 27.8045 10.2526 27.687 10.1983 27.5921L10.1034 27.4203V18.3714V9.3224L10.2029 9.14612C10.3837 8.8252 10.5238 8.78905 11.6221 8.78905H12.5759L12.5126 9.09188Z" fill="black"/>
<path id="Vector_2" d="M20.0748 12.6761C19.7719 12.771 19.555 13.1371 19.6137 13.4581C19.668 13.7428 19.9392 13.9869 20.2058 13.9869C20.2691 13.9869 20.3188 14.0005 20.3188 14.0231C20.3188 14.0411 19.9618 14.4118 19.5278 14.8457L18.7368 15.6367L17.6385 14.5383C16.4497 13.3541 16.3819 13.3044 16.0384 13.3948C15.8983 13.4355 15.609 13.7021 14.5016 14.8095C13.3355 15.9802 13.1366 16.2017 13.1095 16.3463C13.0281 16.7893 13.3219 17.1509 13.7649 17.1509C13.8688 17.1509 13.9954 17.1283 14.0496 17.1012C14.1039 17.074 14.6101 16.5904 15.1796 16.0299L16.2057 15.0039L17.2814 16.0751C17.869 16.6627 18.3978 17.1644 18.4521 17.1916C18.5786 17.2548 18.895 17.2548 19.0216 17.1916C19.0758 17.1644 19.6092 16.6537 20.2103 16.057L21.2997 14.9723L21.3268 15.153C21.4307 15.7813 22.2986 15.9124 22.5924 15.3429C22.6647 15.2028 22.6692 15.0672 22.6602 14.1361C22.6466 12.9835 22.6421 12.9789 22.3347 12.7484C22.2172 12.658 22.1449 12.6535 21.2093 12.6445C20.6578 12.6399 20.1471 12.6535 20.0748 12.6761Z" fill="black"/>
<path id="Vector_3" d="M14.8043 19.5283C14.7185 19.5645 14.4066 19.8312 14.1173 20.1204L13.5885 20.6448L13.4032 20.4775C13.2992 20.3871 13.1681 20.2922 13.1048 20.2696C12.5489 20.0572 11.9929 20.6583 12.2551 21.1872C12.3545 21.386 13.0732 22.1092 13.2766 22.2177C13.489 22.3262 13.6789 22.3262 13.8913 22.2177C13.9817 22.168 14.4156 21.7702 14.8541 21.3228C15.4914 20.6809 15.6631 20.482 15.7038 20.3374C15.7987 19.9939 15.5863 19.5916 15.2654 19.5012C15.0484 19.4425 14.9942 19.447 14.8043 19.5283Z" fill="black"/>
<path id="Vector_4" d="M17.1051 20.3284C16.6938 20.6041 16.7028 21.1465 17.1277 21.4629C17.2498 21.5579 17.295 21.5579 20.2058 21.5579C23.1167 21.5579 23.1619 21.5579 23.2839 21.4629C23.7088 21.1465 23.7178 20.6041 23.3065 20.3284L23.1528 20.2245H20.2058H17.2588L17.1051 20.3284Z" fill="black"/>
<path id="Vector_5" d="M15.0079 23.3659C14.9853 23.3749 14.9039 23.393 14.8316 23.4111C14.7457 23.4292 14.5017 23.6326 14.1446 23.9851L13.5886 24.532L13.4214 24.3829C13.2361 24.2202 13.0056 24.1117 12.8519 24.1117C12.662 24.1117 12.3863 24.2834 12.2824 24.4688C12.0699 24.8484 12.1603 25.0699 12.7841 25.6846C13.2813 26.1728 13.4033 26.2361 13.7559 26.1683C13.896 26.1411 14.0542 26.0055 14.7503 25.3185C15.2068 24.8665 15.6136 24.4326 15.6497 24.3603C15.8079 24.062 15.6949 23.6326 15.4147 23.4744C15.2701 23.393 15.0802 23.3433 15.0079 23.3659Z" fill="black"/>
<path id="Vector_6" d="M17.1728 24.175C16.9513 24.2744 16.8157 24.5004 16.8157 24.7761C16.8157 25.0292 16.897 25.1829 17.1276 25.3501C17.2496 25.4451 17.2948 25.4451 20.2056 25.4451C23.1165 25.4451 23.1617 25.4451 23.2837 25.3501C23.5143 25.1829 23.5956 25.0292 23.5956 24.7761C23.5956 24.4959 23.46 24.2699 23.2295 24.175C23.0125 24.0846 17.3807 24.0846 17.1728 24.175Z" fill="black"/>
</g>
</g>
</svg>