<svg xmlns="http://www.w3.org/2000/svg" fill="none" viewBox="4 7 63.99 57.9">
<g id="purchase-report-by-purchase">
<g id="Group 1171275754">
<g id="person.3">
<path d="M25.0454 29.4563C30.8328 29.4563 35.5202 24.3624 35.5202 18.0966C35.5202 11.9265 30.8567 7 25.0454 7C19.3057 7 14.5705 11.9983 14.5705 18.1445C14.5944 24.3863 19.2579 29.4563 25.0454 29.4563ZM25.0454 25.2712C21.7451 25.2712 18.947 22.1622 18.947 18.1206C18.947 14.2224 21.7211 11.1852 25.0454 11.1852C28.3935 11.1852 31.1437 14.1746 31.1437 18.0966C31.1437 22.1144 28.3696 25.2712 25.0454 25.2712ZM10.1462 51.9844H39.9445C44.0818 51.9844 46.0668 50.6691 46.0668 47.8471C46.0668 41.2704 37.8639 32.5175 25.0454 32.5175C12.2268 32.5175 4 41.2704 4 47.8471C4 50.6691 6.00887 51.9844 10.1462 51.9844ZM9.38091 47.7993C8.83086 47.7993 8.61563 47.608 8.61563 47.1775C8.61563 43.5185 14.5227 36.7026 25.0454 36.7026C35.568 36.7026 41.4751 43.5185 41.4751 47.1775C41.4751 47.608 41.2598 47.7993 40.6859 47.7993H9.38091Z" fill="#4D0000"/>
<path d="M25.0454 25.2712C21.7451 25.2712 18.947 22.1622 18.947 18.1206C18.947 14.2224 21.7211 11.1852 25.0454 11.1852C28.3935 11.1852 31.1437 14.1746 31.1437 18.0966C31.1437 22.1144 28.3696 25.2712 25.0454 25.2712Z" fill="#FF3333"/>
</g>
<g id="Group 1171275753">
<g id="Group 120">
<g id="Vector">
<path d="M33.3583 27.4596C32.6606 27.6431 32.0879 27.9735 31.5738 28.4801C31.0598 29.0014 30.7367 29.5668 30.5531 30.2937C30.4136 30.8297 30.4062 31.1087 30.4062 35.4773C30.4062 39.9561 30.4136 40.1028 30.5531 40.3819C30.6486 40.5728 30.8028 40.727 30.9937 40.8224C31.2654 40.962 31.4196 40.9693 33.7107 40.9693H36.134V52.4966C36.134 63.9137 36.134 64.0312 36.2809 64.3175C36.4425 64.6406 36.8684 64.9049 37.2208 64.9049C37.3383 64.9049 38.0507 64.6773 38.807 64.391L40.1728 63.877L41.5387 64.391C42.2951 64.6773 43.0001 64.9049 43.1102 64.9049C43.2203 64.9049 43.9253 64.6773 44.6816 64.391L46.0475 63.877L47.4134 64.391C48.1697 64.6773 48.8747 64.9049 48.9848 64.9049C49.0949 64.9049 49.7999 64.6773 50.5563 64.391L51.9222 63.877L53.288 64.391C54.0443 64.6773 54.7493 64.9049 54.8595 64.9049C54.9696 64.9049 55.6746 64.6773 56.4309 64.391L57.7968 63.877L59.1627 64.391C59.919 64.6773 60.6313 64.9049 60.7488 64.9049C61.1013 64.9049 61.5272 64.6406 61.6887 64.3175C61.8283 64.0459 61.8356 63.8917 61.8356 61.4173V58.8109L62.4598 58.5246C63.4879 58.0473 64.2956 57.4672 65.1842 56.5789C66.3885 55.3748 67.1668 54.0972 67.6074 52.5847C68.9293 48.0325 66.7704 43.2747 62.4598 41.2556L61.8356 40.962V35.9105C61.8356 31.116 61.8283 30.8297 61.6887 30.2937C61.5051 29.5668 61.1894 29.0161 60.6606 28.4875C60.132 27.9588 59.5812 27.6431 58.8542 27.4596C58.2961 27.3127 58.0245 27.3127 46.0915 27.3201C34.2982 27.3201 33.8796 27.3274 33.3583 27.4596ZM34.915 29.6035C35.3189 29.721 35.9284 30.3304 36.0459 30.7342C36.112 30.9545 36.134 32.0851 36.134 34.9046V38.7666H34.3716H32.6092V34.9046C32.6092 32.0851 32.6313 30.9545 32.6974 30.7342C32.8075 30.3597 33.4244 29.7283 33.7842 29.6108C34.1366 29.5007 34.5552 29.5007 34.915 29.6035ZM58.4137 29.6035C58.8176 29.721 59.427 30.3304 59.5445 30.7342C59.6105 30.9618 59.6326 32.2614 59.6326 35.7416V40.4406L58.913 40.4039C55.7921 40.2277 52.7226 41.7182 50.806 44.3247L50.3654 44.9341H45.8859C41.5534 44.9341 41.4065 44.9414 41.1275 45.0809C40.7971 45.2498 40.54 45.6683 40.54 46.0354C40.54 46.4025 40.7971 46.8211 41.1275 46.9899C41.4065 47.1294 41.5534 47.1367 45.3939 47.1367H49.374L49.33 47.335C49.3005 47.4524 49.2345 47.7682 49.1758 48.0545C49.1097 48.3335 49.0583 48.664 49.0583 48.7887C49.0583 48.9062 49.0362 49.0824 49.0142 49.1706L48.9701 49.3394H45.1883C41.5534 49.3394 41.4065 49.3467 41.1275 49.4863C40.7971 49.6551 40.54 50.0737 40.54 50.4407C40.54 50.8078 40.7971 51.2264 41.1275 51.3952C41.4065 51.5347 41.5534 51.5421 45.2618 51.5421H49.117L49.2712 52.1661C49.4108 52.7095 49.5356 53.0913 49.7559 53.6125C49.8073 53.7374 49.5796 53.7447 45.6143 53.7447C41.5534 53.7447 41.4065 53.7521 41.1275 53.8916C40.7971 54.0604 40.54 54.479 40.54 54.8461C40.54 55.2132 40.7971 55.6317 41.1275 55.8006C41.4065 55.9401 41.5534 55.9474 46.0842 55.9474C49.1097 55.9474 50.806 55.918 50.8941 55.874C51.0116 55.8079 51.085 55.8519 51.3493 56.1456C52.5316 57.4379 53.9269 58.3777 55.4176 58.877C56.5484 59.2514 57.202 59.3542 58.4724 59.3615H59.6326V60.7712C59.6326 61.5495 59.618 62.1883 59.6032 62.1883C59.5886 62.1883 59.2288 62.0561 58.7955 61.8946C58.3696 61.7331 57.9217 61.6009 57.8041 61.6009C57.694 61.6009 56.9817 61.8286 56.2327 62.1149L54.8668 62.6289L53.5009 62.1149C52.7519 61.8286 52.0469 61.6009 51.9295 61.6009C51.8194 61.6009 51.1071 61.8286 50.3581 62.1149L48.9921 62.6289L47.6263 62.1149C46.8773 61.8286 46.1723 61.6009 46.0549 61.6009C45.9447 61.6009 45.2324 61.8286 44.4834 62.1149L43.1175 62.6289L41.7517 62.1149C41.0027 61.8286 40.2977 61.6009 40.1802 61.6009C40.07 61.6009 39.6221 61.7331 39.1888 61.8946C38.7629 62.0561 38.3958 62.1883 38.3737 62.1883C38.3517 62.1883 38.3297 55.0443 38.3223 46.307L38.3003 30.4332L38.1387 30.0293C38.0433 29.8091 37.9698 29.6035 37.9698 29.5668C37.9698 29.5374 42.5007 29.5154 48.0375 29.5154C55.7333 29.5154 58.1787 29.5374 58.4137 29.6035ZM60.2348 42.7975C61.5786 43.1425 62.658 43.7667 63.6421 44.7432C64.3838 45.4921 64.9418 46.3291 65.287 47.2322C65.6762 48.2307 65.7569 48.686 65.7569 49.8901C65.7569 51.0942 65.6762 51.5494 65.287 52.5479C64.5894 54.3615 62.9665 55.9841 61.1527 56.6817C60.176 57.0634 59.6914 57.1515 58.5311 57.1515C57.3636 57.1589 56.8128 57.0634 55.8215 56.6817C54.0224 55.9841 52.3994 54.3615 51.7018 52.5479C51.3127 51.5494 51.2319 51.0942 51.2319 49.8901C51.2319 48.686 51.3127 48.2307 51.7018 47.2322C52.3994 45.4187 54.0224 43.796 55.8215 43.0985C56.2987 42.915 56.8568 42.7681 57.5765 42.6286C58.0097 42.5478 59.684 42.6506 60.2348 42.7975Z" fill="#4D0000"/>
<path d="M34.915 29.6035C35.3189 29.721 35.9284 30.3304 36.0459 30.7342C36.112 30.9545 36.134 32.0851 36.134 34.9046V38.7666H34.3716H32.6092V34.9046C32.6092 32.0851 32.6313 30.9545 32.6974 30.7342C32.8075 30.3597 33.4244 29.7283 33.7842 29.6108C34.1366 29.5007 34.5552 29.5007 34.915 29.6035Z" fill="#FF3333"/>
<path d="M58.4137 29.6035C58.8176 29.721 59.427 30.3304 59.5445 30.7342C59.6105 30.9618 59.6326 32.2614 59.6326 35.7416V40.4406L58.913 40.4039C55.7921 40.2277 52.7226 41.7182 50.806 44.3247L50.3654 44.9341H45.8859C41.5534 44.9341 41.4065 44.9414 41.1275 45.0809C40.7971 45.2498 40.54 45.6683 40.54 46.0354C40.54 46.4025 40.7971 46.8211 41.1275 46.9899C41.4065 47.1294 41.5534 47.1367 45.3939 47.1367H49.374L49.33 47.335C49.3005 47.4524 49.2345 47.7682 49.1758 48.0545C49.1097 48.3335 49.0583 48.664 49.0583 48.7887C49.0583 48.9062 49.0362 49.0824 49.0142 49.1706L48.9701 49.3394H45.1883C41.5534 49.3394 41.4065 49.3467 41.1275 49.4863C40.7971 49.6551 40.54 50.0737 40.54 50.4407C40.54 50.8078 40.7971 51.2264 41.1275 51.3952C41.4065 51.5347 41.5534 51.5421 45.2618 51.5421H49.117L49.2712 52.1661C49.4108 52.7095 49.5356 53.0913 49.7559 53.6125C49.8073 53.7374 49.5796 53.7447 45.6143 53.7447C41.5534 53.7447 41.4065 53.7521 41.1275 53.8916C40.7971 54.0604 40.54 54.479 40.54 54.8461C40.54 55.2132 40.7971 55.6317 41.1275 55.8006C41.4065 55.9401 41.5534 55.9474 46.0842 55.9474C49.1097 55.9474 50.806 55.918 50.8941 55.874C51.0116 55.8079 51.085 55.8519 51.3493 56.1456C52.5316 57.4379 53.9269 58.3777 55.4176 58.877C56.5484 59.2514 57.202 59.3542 58.4724 59.3615H59.6326V60.7712C59.6326 61.5495 59.618 62.1883 59.6032 62.1883C59.5886 62.1883 59.2288 62.0561 58.7955 61.8946C58.3696 61.7331 57.9217 61.6009 57.8041 61.6009C57.694 61.6009 56.9817 61.8286 56.2327 62.1149L54.8668 62.6289L53.5009 62.1149C52.7519 61.8286 52.0469 61.6009 51.9295 61.6009C51.8194 61.6009 51.1071 61.8286 50.3581 62.1149L48.9921 62.6289L47.6263 62.1149C46.8773 61.8286 46.1723 61.6009 46.0549 61.6009C45.9447 61.6009 45.2324 61.8286 44.4834 62.1149L43.1175 62.6289L41.7517 62.1149C41.0027 61.8286 40.2977 61.6009 40.1802 61.6009C40.07 61.6009 39.6221 61.7331 39.1888 61.8946C38.7629 62.0561 38.3958 62.1883 38.3737 62.1883C38.3517 62.1883 38.3297 55.0443 38.3223 46.307L38.3003 30.4332L38.1387 30.0293C38.0433 29.8091 37.9698 29.6035 37.9698 29.5668C37.9698 29.5374 42.5007 29.5154 48.0375 29.5154C55.7333 29.5154 58.1787 29.5374 58.4137 29.6035Z" fill="#FF3333"/>
</g>
<path id="Vector_2" d="M41.3409 36.0157C40.9678 36.1828 40.6641 36.6309 40.6641 36.9954C40.6641 37.3751 40.9678 37.808 41.3582 37.9827C41.6879 38.1269 41.8615 38.1345 47.2152 38.1345C52.5689 38.1345 52.7425 38.1269 53.0722 37.9827C53.4626 37.808 53.7663 37.3751 53.7663 36.9954C53.7663 36.6156 53.4626 36.1828 53.0722 36.0081C52.7425 35.8638 52.5775 35.8562 47.1979 35.8562C41.8615 35.8638 41.6533 35.8714 41.3409 36.0157Z" fill="#4D0000"/>
<path id="Vector_3" d="M41.2526 40.5729C40.9281 40.7399 40.6641 41.188 40.6641 41.5525C40.6641 41.9322 40.9281 42.3651 41.2677 42.5398C41.5544 42.684 41.7053 42.6916 46.3607 42.6916C51.0161 42.6916 51.167 42.684 51.4537 42.5398C51.7933 42.3651 52.0573 41.9322 52.0573 41.5525C52.0573 41.1728 51.7933 40.7399 51.4537 40.5653C51.167 40.4209 51.0236 40.4133 46.3456 40.4133C41.7053 40.4209 41.5242 40.4286 41.2526 40.5729Z" fill="#4D0000"/>
</g>
<g id="Group 1171275752">
<g id="Group 1171275751">
<g id="Vector_4">
<path d="M56.1535 53.0916C56.3984 52.6944 56.6776 52.4776 57.0748 52.4528C57.5581 52.4219 57.9111 52.6326 58.134 53.0596C58.1826 53.1523 58.2206 53.2097 58.3426 53.208C58.8793 53.1997 59.4161 53.2014 59.9529 53.208C60.0588 53.208 60.1052 53.1705 60.1504 53.0778C60.386 52.594 60.8853 52.354 61.3823 52.4748C61.621 52.5313 61.8337 52.6665 61.986 52.8586C62.1384 53.0508 62.2215 53.2887 62.222 53.534C62.2226 53.7792 62.1404 54.0175 61.9888 54.2103C61.8373 54.4031 61.6252 54.5392 61.3867 54.5966C61.1437 54.6564 60.8874 54.6294 60.6622 54.5203C60.437 54.4112 60.2569 54.2269 60.1532 53.9991C60.1384 53.9551 60.1088 53.9175 60.0695 53.8928C60.0302 53.8681 59.9836 53.8577 59.9375 53.8634C59.4079 53.8695 58.8777 53.8634 58.3481 53.8717C58.3088 53.8764 58.2711 53.8897 58.2376 53.9105C58.204 53.9314 58.1755 53.9594 58.1539 53.9925C57.9216 54.4234 57.5713 54.6501 57.0809 54.6165C56.607 54.5845 56.3002 54.3169 56.1248 53.8816C56.0938 53.8094 56.0417 53.7482 55.9753 53.7062C55.5108 53.4276 55.2614 53.0243 55.2758 52.4798C55.2906 51.9254 55.5659 51.5259 56.0641 51.2937C56.1982 51.2313 56.2087 51.1657 56.1811 51.041C55.8228 49.4492 55.467 47.8572 55.1136 46.2651C55.0424 45.9451 55.0341 45.939 54.6992 45.8789C54.3953 45.8237 54.0924 45.7686 53.7873 45.7095C53.5495 45.6632 53.4326 45.5148 53.4668 45.3096C53.4982 45.1187 53.6555 45.015 53.8894 45.0552C54.2816 45.1236 54.6739 45.1954 55.0623 45.2842C55.4076 45.3631 55.6239 45.5898 55.7077 45.9363C55.7816 46.243 55.8512 46.5509 55.9284 46.8741H63.3816C63.4367 46.878 63.492 46.878 63.5471 46.8741C63.9609 46.8151 64.2092 47.0694 63.9515 47.5477C63.4456 48.4784 62.9756 49.429 62.4912 50.3713C62.2926 50.7574 62.0846 51.1381 61.9009 51.5298C61.7939 51.7576 61.6339 51.8338 61.3939 51.8332C59.8183 51.8281 58.2427 51.8281 56.6671 51.8332C56.1893 51.8332 55.871 52.1791 55.9499 52.6293C55.9747 52.7722 56.0691 52.9062 56.1535 53.0916ZM63.1814 47.5527H56.0718C56.3295 48.7035 56.5871 49.8367 56.8315 50.9731C56.8679 51.1387 56.9418 51.1718 57.0952 51.1712C58.4431 51.1649 59.7909 51.1649 61.1385 51.1712C61.2808 51.1712 61.3592 51.1309 61.4243 51.0007C61.9759 49.9095 62.5409 48.8216 63.1003 47.7326C63.1279 47.6785 63.1494 47.6228 63.1814 47.5527ZM57.1531 53.1115C57.0409 53.1131 56.9339 53.1592 56.8557 53.2397C56.7775 53.3202 56.7344 53.4285 56.7361 53.5407C56.7377 53.6529 56.7838 53.7599 56.8643 53.8381C56.9448 53.9163 57.053 53.9594 57.1653 53.9578C57.2208 53.957 57.2757 53.9452 57.3267 53.9232C57.3778 53.9012 57.424 53.8694 57.4627 53.8295C57.5014 53.7897 57.5319 53.7426 57.5525 53.6909C57.573 53.6393 57.5831 53.5841 57.5823 53.5285C57.5815 53.473 57.5698 53.4181 57.5478 53.3671C57.5258 53.316 57.494 53.2698 57.4541 53.2311C57.4143 53.1924 57.3672 53.1619 57.3155 53.1414C57.2639 53.1208 57.2087 53.1107 57.1531 53.1115ZM61.1374 53.9572C61.2496 53.9554 61.3565 53.909 61.4346 53.8284C61.5126 53.7477 61.5555 53.6394 61.5536 53.5272C61.5518 53.4149 61.5055 53.308 61.4248 53.23C61.3442 53.1519 61.2358 53.1091 61.1236 53.1109C61.068 53.1118 61.0132 53.1237 60.9622 53.1458C60.9112 53.1679 60.8651 53.1998 60.8264 53.2397C60.7878 53.2797 60.7573 53.3268 60.7369 53.3785C60.7165 53.4302 60.7064 53.4854 60.7073 53.541C60.7083 53.5965 60.7201 53.6514 60.7422 53.7024C60.7643 53.7534 60.7962 53.7995 60.8362 53.8381C60.8761 53.8768 60.9232 53.9072 60.9749 53.9276C61.0266 53.9481 61.0818 53.9581 61.1374 53.9572Z" fill="#4D0000"/>
<path d="M63.1814 47.5527H56.0718C56.3295 48.7035 56.5871 49.8367 56.8315 50.9731C56.8679 51.1387 56.9418 51.1718 57.0952 51.1712C58.4431 51.1649 59.7909 51.1649 61.1385 51.1712C61.2808 51.1712 61.3592 51.1309 61.4243 51.0007C61.9759 49.9095 62.5409 48.8216 63.1003 47.7326C63.1279 47.6785 63.1494 47.6228 63.1814 47.5527Z" fill="#FF3333"/>
</g>
<path id="Vector_5" d="M59.1014 49.4296L59.8737 48.3036C59.9642 48.1712 60.0944 48.0896 60.2423 48.1558C60.3473 48.2097 60.4296 48.2993 60.4745 48.4085C60.5027 48.478 60.4596 48.5999 60.4105 48.6738C60.0972 49.1494 59.777 49.6209 59.45 50.0883C59.3127 50.2853 59.1223 50.309 58.9359 50.1551C58.692 49.9543 58.453 49.7481 58.2187 49.5367C58.1505 49.4824 58.1064 49.4034 58.0961 49.3168C58.0858 49.2303 58.11 49.1431 58.1635 49.0743C58.2805 48.9287 58.478 48.9088 58.6407 49.0396C58.7919 49.1587 58.9337 49.2867 59.1014 49.4296Z" fill="#4D0000"/>
</g>
</g>
</g>
</g>
</g>
</svg>