<svg xmlns="http://www.w3.org/2000/svg" fill="none" viewBox="4 6 54.61 50.77">
<g id="purchase-pivot-analysis">
<g id="Group 1171275733">
<g id="Group 1171275732">
<g id="Group 1171274826">
<g id="Group">
<g id="Vector">
<path d="M47.146 53.3511C45.6868 53.3511 44.4124 52.1584 44.4124 50.7882C44.4124 49.4219 45.6868 48.2239 47.146 48.2239C48.6009 48.2239 49.8766 49.4219 49.8766 50.7882C49.8766 52.1584 48.6009 53.3511 47.146 53.3511ZM24.3876 53.3511C22.9326 53.3511 21.6583 52.1584 21.6583 50.7882C21.6583 49.4219 22.9326 48.2239 24.3876 48.2239C25.8468 48.2239 27.1168 49.4219 27.1168 50.7882C27.1168 52.1584 25.8468 53.3511 24.3876 53.3511ZM18.2009 16.9409H54.6084V38.9951H22.021L18.2009 16.9409ZM56.79 44.8048H14.9227V42.4102H56.2468C57.3376 42.4102 58.0658 41.7277 58.0658 40.7033V15.2288C58.0658 14.2044 57.3376 13.5206 56.2468 13.5206H17.6533L16.5625 7.36495C16.3776 6.51419 15.6508 6 14.7392 6H5.82329C4.72676 6 4 6.68247 4 7.70685C4 8.73524 4.72676 9.41905 5.82329 9.41905H13.1008L18.3801 38.9951H13.1008C12.01 38.9951 11.2818 39.6789 11.2818 40.7033V46.517C11.2818 47.5414 12.01 48.2239 13.1008 48.2239H18.565C18.2009 49.08 17.8368 49.9321 17.8368 50.7882C17.8368 54.0389 20.7467 56.7702 24.2084 56.7702C27.6658 56.7702 30.5785 54.0389 30.5785 50.7882C30.5785 49.9321 30.395 49.08 29.8517 48.2239H41.3191C40.955 49.08 40.5909 49.9321 40.5909 50.7882C40.5909 54.0389 43.5051 56.7702 46.9625 56.7702C50.4242 56.7702 53.3326 54.0389 53.3326 50.7882C53.3326 49.9321 53.1492 49.08 52.6059 48.2239H56.79C57.8852 48.2239 58.6133 47.5414 58.6133 46.517C58.6133 45.4886 57.8852 44.8048 56.79 44.8048Z" fill="#4D0000"/>
<path d="M18.2009 16.9409H54.6084V38.9951H22.021L18.2009 16.9409Z" fill="#FF3333"/>
</g>
</g>
</g>
</g>
</g>
<g id="Group 1171275748">
<rect id="Rectangle 34625006" x="34.9922" y="19.6804" width="7.49206" height="4.49523" fill="#E60000"/>
<rect id="Rectangle 34625007" x="30.5" y="19.6804" width="4.49523" height="11.9873" fill="#E60000"/>
<g id="Vector_2">
<path d="M45.6133 31.83C45.6133 31.0141 45.3234 30.3161 44.7434 29.7361C44.1634 29.1562 43.4655 28.8662 42.6496 28.8662C41.8336 28.8662 41.1357 29.1562 40.5557 29.7361C39.9758 30.3161 39.6858 31.0141 39.6858 31.83C39.6858 32.6459 39.9758 33.3439 40.5557 33.9238C41.1357 34.5038 41.8336 34.7938 42.6496 34.7938C43.4655 34.7938 44.1634 34.5038 44.7434 33.9238C45.3234 33.3439 45.6133 32.6459 45.6133 31.83ZM49.0005 37.3342C49.0005 37.5635 48.9167 37.762 48.7491 37.9296C48.5815 38.0972 48.3831 38.181 48.1537 38.181C47.9156 38.181 47.7171 38.0972 47.5583 37.9296L45.2892 35.667C44.4997 36.2139 43.6199 36.4874 42.6496 36.4874C42.0189 36.4874 41.4158 36.365 40.8402 36.1202C40.2646 35.8754 39.7685 35.5446 39.3517 35.1279C38.9349 34.7111 38.6041 34.2149 38.3594 33.6393C38.1146 33.0638 37.9922 32.4607 37.9922 31.83C37.9922 31.1993 38.1146 30.5962 38.3594 30.0206C38.6041 29.4451 38.9349 28.9489 39.3517 28.5321C39.7685 28.1153 40.2646 27.7845 40.8402 27.5398C41.4158 27.295 42.0189 27.1726 42.6496 27.1726C43.2803 27.1726 43.8834 27.295 44.4589 27.5398C45.0345 27.7845 45.5307 28.1153 45.9474 28.5321C46.3642 28.9489 46.695 29.4451 46.9398 30.0206C47.1846 30.5962 47.3069 31.1993 47.3069 31.83C47.3069 32.8003 47.0335 33.6801 46.4866 34.4696L48.7558 36.7388C48.9189 36.9019 49.0005 37.1004 49.0005 37.3342Z" fill="#4D0000"/>
<path d="M45.6133 31.83C45.6133 31.0141 45.3234 30.3161 44.7434 29.7361C44.1634 29.1562 43.4655 28.8662 42.6496 28.8662C41.8336 28.8662 41.1357 29.1562 40.5557 29.7361C39.9758 30.3161 39.6858 31.0141 39.6858 31.83C39.6858 32.6459 39.9758 33.3439 40.5557 33.9238C41.1357 34.5038 41.8336 34.7938 42.6496 34.7938C43.4655 34.7938 44.1634 34.5038 44.7434 33.9238C45.3234 33.3439 45.6133 32.6459 45.6133 31.83Z" fill="#FF3333"/>
</g>
<path id="Subtract" fill-rule="evenodd" clip-rule="evenodd" d="M29 30.1331V21.0333C29 20.2288 29.3196 19.4573 29.8884 18.8884C30.4573 18.3196 31.2288 18 32.0333 18H41.1331C41.9375 18 42.7091 18.3196 43.2779 18.8884C43.8468 19.4573 44.1663 20.2288 44.1663 21.0333V24.8283L44.1714 25.4921V26.2413V26.2719C43.444 25.89 42.6159 25.674 41.7373 25.674C38.8409 25.674 36.4929 28.022 36.4929 30.9184C36.4929 31.6519 36.6434 32.3502 36.9154 32.9841H36.6794H35.9302H35.8283H32.0333C31.2288 32.9841 30.4573 32.8468 29.8884 32.2779C29.3196 31.7091 29 30.9375 29 30.1331ZM32.8999 19.7333H32.0333C31.6885 19.7333 31.3578 19.8703 31.114 20.114C30.8703 20.3578 30.7333 20.6885 30.7333 21.0333V21.8999C30.7333 22.2447 30.8703 22.5753 31.114 22.8191C31.3578 23.0629 31.6885 23.1999 32.0333 23.1999H32.8999C33.2447 23.1999 33.5753 23.0629 33.8191 22.8191C34.0629 22.5753 34.1999 22.2447 34.1999 21.8999V21.0333C34.1999 20.6885 34.0629 20.3578 33.8191 20.114C33.5753 19.8703 33.2447 19.7333 32.8999 19.7333ZM36.3139 20.114C36.0701 20.3578 35.9332 20.6885 35.9332 21.0333V21.8999C35.9332 22.2447 36.0701 22.5753 36.3139 22.8191C36.5577 23.0629 36.8884 23.1999 37.2332 23.1999H41.1331C41.4778 23.1999 41.8085 23.0629 42.0523 22.8191C42.2961 22.5753 42.433 22.2447 42.433 21.8999V21.0333C42.433 20.6885 42.2961 20.3578 42.0523 20.114C41.8085 19.8703 41.4778 19.7333 41.1331 19.7333H37.2332C36.8884 19.7333 36.5577 19.8703 36.3139 20.114ZM33.8191 25.3139C33.5753 25.0701 33.2447 24.9332 32.8999 24.9332H32.0333C31.6885 24.9332 31.3578 25.0701 31.114 25.3139C30.8703 25.5577 30.7333 25.8884 30.7333 26.2332V30.1331C30.7333 30.4778 30.8703 30.8085 31.114 31.0523C31.3578 31.2961 31.6885 31.433 32.0333 31.433H32.8999C33.2447 31.433 33.5753 31.2961 33.8191 31.0523C34.0629 30.8085 34.1999 30.4778 34.1999 30.1331V26.2332C34.1999 25.8884 34.0629 25.5577 33.8191 25.3139Z" fill="#4D0000"/>
</g>
</g>
</svg>