<svg xmlns="http://www.w3.org/2000/svg" fill="none" viewBox="12 4 47.97 64">
<g id="vendor-bill">
<g id="Group 110">
<g id="Vector">
<path d="M14.9909 4.10292C14.4027 4.25308 13.3266 4.87879 12.9886 5.27924C12.8134 5.49199 12.5256 5.94249 12.3379 6.29289L12 6.93111V36.0264V65.1218L12.3379 65.76C12.8384 66.711 13.2139 67.099 14.0899 67.5746L14.8782 68H35.9645H57.0509L57.8392 67.5746C58.7152 67.099 59.0906 66.711 59.5912 65.76L59.9291 65.1218L59.9666 43.5349C59.979 31.659 59.9666 21.7478 59.9291 21.5101C59.8666 21.1346 58.6651 19.8832 51.507 12.7002C46.6891 7.86967 42.985 4.26561 42.7597 4.1655C42.4218 4.01532 40.1693 3.9903 28.869 4.00281C21.4482 4.01532 15.2037 4.05286 14.9909 4.10292ZM39.9941 14.5272L40.0317 21.072L40.4571 21.8605C40.9326 22.7365 41.3206 23.1118 42.2717 23.6125L42.9099 23.9502L49.4547 23.9878L55.987 24.0254V44.0355V64.0581H35.9645H15.9419V36.0264V7.99481H27.9555H39.9565L39.9941 14.5272ZM48.6038 15.4406L53.1715 20.0083H48.5662H43.9736V15.4406C43.9736 12.9254 43.9861 10.8731 44.011 10.8731C44.0237 10.8731 46.0885 12.9254 48.6038 15.4406Z" fill="#0B2D1F"/>
<path d="M48.6038 15.4406L53.1715 20.0083H48.5662H43.9736V15.4406C43.9736 12.9254 43.9861 10.8731 44.011 10.8731C44.0237 10.8731 46.0885 12.9254 48.6038 15.4406Z" fill="#62C89E"/>
</g>
<path id="Vector_2" d="M25.659 11.208C24.9993 11.5111 24.8121 11.9479 24.8121 13.1691V14.0963L24.3486 14.2479C22.9758 14.6936 21.5494 15.8347 21.0412 16.8955C20.123 18.8122 20.4529 20.6219 22.0039 22.1909C23.1094 23.3141 24.1791 23.7599 26.1314 23.9203C26.9071 23.9827 27.2548 24.0541 27.647 24.2323C29.5458 25.0971 29.5458 27.0138 27.647 27.8874C26.5951 28.3688 25.445 28.2707 24.3575 27.6199C23.4036 27.0405 22.7617 27.085 22.2001 27.7536C21.7098 28.3242 21.8079 29.1621 22.423 29.7327C22.7974 30.0803 23.8314 30.6152 24.4287 30.7757L24.7943 30.8738L24.83 31.9346C24.8567 33.0847 24.9279 33.2719 25.4718 33.673C25.8194 33.9315 26.6575 33.9315 27.0052 33.673C27.5489 33.2719 27.6202 33.0847 27.647 31.9435L27.6826 30.8915L28.1374 30.74C29.5369 30.2855 30.9186 29.18 31.4358 28.0923C32.354 26.1757 32.0241 24.3661 30.4729 22.7971C29.3586 21.6738 28.3066 21.228 26.3454 21.0677C25.5698 21.0053 25.2222 20.9339 24.83 20.7555C22.9311 19.8909 22.9311 17.9743 24.83 17.1007C25.8818 16.6192 27.0319 16.7173 28.1194 17.368C28.583 17.6533 28.8772 17.7691 29.1178 17.7691C30.4996 17.7781 31.0881 16.2091 30.0628 15.2642C29.6706 14.8987 28.797 14.444 28.1194 14.2389L27.6826 14.1141L27.647 13.0533C27.6202 11.9034 27.5489 11.7162 27.023 11.3239C26.7199 11.101 26.0156 11.0386 25.659 11.208Z" fill="#0B2D1F"/>
<path id="Vector_3" d="M41.1574 32.198C40.3189 32.5609 39.8433 33.5245 40.0185 34.4631C40.1312 35.0513 40.7569 35.7396 41.32 35.9021C41.6205 35.9898 43.3224 36.0273 46.2505 36.0023C50.5304 35.9647 50.7307 35.9522 51.056 35.702C51.7193 35.214 51.9195 34.8135 51.9195 34.025C51.9195 33.2367 51.7193 32.8362 51.056 32.3482C50.7307 32.0978 50.543 32.0853 46.1254 32.0604C42.4963 32.0353 41.4577 32.0604 41.1574 32.198Z" fill="#0B2D1F"/>
<path id="Vector_4" d="M21.1358 48.2155C20.2974 48.5785 19.8219 49.5421 19.9971 50.4806C20.1097 51.0688 20.7353 51.7571 21.2985 51.9198C21.6113 52.0198 26.3166 52.0449 36.2403 52.0198C50.6316 51.9824 50.7191 51.9824 51.0571 51.7195C51.7203 51.2315 51.9206 50.831 51.9206 50.0427C51.9206 49.2542 51.7203 48.8537 51.0571 48.3657C50.7191 48.103 50.6441 48.103 36.1151 48.0779C24.1642 48.0529 21.4361 48.0779 21.1358 48.2155Z" fill="#0B2D1F"/>
<path id="Vector_5" d="M21.708 39.7018C20.8696 40.0649 20.3941 41.0284 20.5693 41.9669C20.682 42.5551 21.3076 43.2434 21.8708 43.4061C22.1836 43.5061 26.8888 43.5313 36.8125 43.5061C51.2039 43.4687 51.2914 43.4687 51.6293 43.2058C52.2925 42.7178 52.4928 42.3173 52.4928 41.529C52.4928 40.7405 52.2925 40.3401 51.6293 39.8521C51.2914 39.5893 51.2164 39.5893 36.6874 39.5642C24.7365 39.5393 22.0084 39.5642 21.708 39.7018Z" fill="#0B2D1F"/>
<path id="Vector_6" d="M21.1358 56.2243C20.2974 56.5872 19.8219 57.5509 19.9971 58.4895C20.1097 59.0776 20.7353 59.7658 21.2985 59.9285C21.6113 60.0287 26.3166 60.0536 36.2403 60.0287C50.6316 59.9911 50.7191 59.9911 51.0571 59.7283C51.7203 59.2402 51.9206 58.8399 51.9206 58.0514C51.9206 57.2631 51.7203 56.8626 51.0571 56.3746C50.7191 56.1117 50.6441 56.1117 36.1151 56.0867C24.1642 56.0616 21.4361 56.0867 21.1358 56.2243Z" fill="#0B2D1F"/>
</g>
</g>
</svg>