<svg width="36" height="36" viewBox="0 0 36 36" fill="none" xmlns="http://www.w3.org/2000/svg">
<g id="all-pickings">
<g id="Group 1000001361">
<g id="Group 159056">
<g id="Vector">
<path d="M27.6577 10.7998H14.4332C13.9948 10.7998 13.5743 10.974 13.2643 11.284C12.9543 11.594 12.7802 12.0144 12.7802 12.4529V14.1059C12.7819 14.3944 12.8591 14.6774 13.0041 14.9268C13.1491 15.1762 13.3568 15.3833 13.6067 15.5276V24.0243C13.6067 24.4627 13.7808 24.8832 14.0909 25.1932C14.4009 25.5032 14.8213 25.6774 15.2597 25.6774H26.8312C27.2696 25.6774 27.6901 25.5032 28.0001 25.1932C28.3101 24.8832 28.4842 24.4627 28.4842 24.0243V15.5276C28.7341 15.3833 28.9418 15.1762 29.0868 14.9268C29.2318 14.6774 29.309 14.3944 29.3108 14.1059V12.4529C29.3108 12.0144 29.1366 11.594 28.8266 11.284C28.5166 10.974 28.0961 10.7998 27.6577 10.7998ZM14.4332 12.4529H21.0455H27.6577V14.1059H14.4332V12.4529ZM15.2597 24.0243V15.759H26.8312V24.0243H15.2597Z" fill="black"/>
<path d="M27.6577 12.4529V14.1059H14.4332V12.4529H21.0455H27.6577Z" fill="#FFA600"/>
</g>
<path id="Vector_2" d="M17.7404 17.4121H24.3526V19.0652H17.7404V17.4121Z" fill="black"/>
</g>
<rect id="Rectangle 34624546" x="8.65448" y="14.106" width="6.61224" height="1.65306" rx="0.826531" fill="black"/>
<rect id="Rectangle 34624549" x="6.17114" y="16.5854" width="4.13265" height="1.65306" rx="0.826531" fill="black"/>
<path id="Rectangle 34624547" d="M6.9989 19.8917C6.9989 19.4352 7.36895 19.0652 7.82543 19.0652H16.0907C16.5472 19.0652 16.9173 19.4352 16.9173 19.8917V19.8917C16.9173 20.3482 16.5472 20.7182 16.0907 20.7182H7.82543C7.36895 20.7182 6.9989 20.3482 6.9989 19.8917V19.8917Z" fill="black"/>
<path id="Rectangle 34624548" d="M10.3036 22.3712C10.3036 21.9147 10.6736 21.5447 11.1301 21.5447H13.6097C14.0662 21.5447 14.4362 21.9147 14.4362 22.3712V22.3712C14.4362 22.8277 14.0662 23.1977 13.6097 23.1977H11.1301C10.6736 23.1977 10.3036 22.8277 10.3036 22.3712V22.3712Z" fill="black"/>
</g>
</g>
</svg>
