<svg xmlns="http://www.w3.org/2000/svg" fill="none" viewBox="12 6 55.86 61.86">
<g id="project-progres-report">
<g id="Group 1171275639">
<g id="Group">
<g id="Vector">
<path d="M29.519 6.07135C27.7219 6.3728 25.8436 7.27716 24.603 8.43659L23.7451 9.2366H20.2668C16.4754 9.2366 15.9537 9.29457 14.8638 9.8395C13.5536 10.5004 12.4522 11.9265 12.1391 13.3874C11.9536 14.2569 11.9536 60.3328 12.1391 61.2024C12.3246 62.0604 12.858 63.0807 13.4725 63.7299C14.0754 64.3676 15.2696 65.0401 16.1624 65.2256C17.0319 65.4111 54.0642 65.4111 54.9338 65.2256C56.9048 64.8082 58.5396 63.1618 58.957 61.2024C59.1425 60.3212 59.1425 14.2569 58.957 13.3874C58.5396 11.4279 56.8816 9.76994 54.9338 9.36414C54.5628 9.28298 52.9396 9.2366 50.8294 9.2366H47.3395L46.5627 8.49456C45.6815 7.67137 44.8004 7.10324 43.6177 6.63947C42.0989 6.02497 41.5887 5.99019 35.4553 6.00178C32.348 6.01338 29.6814 6.04816 29.519 6.07135ZM41.5655 9.6424C41.9713 9.74675 42.6322 9.99023 43.0148 10.1873C44.1743 10.8018 45.4728 12.2743 45.8091 13.3758L45.8786 13.6424H35.5481H25.2175L25.2871 13.3758C25.4842 12.7613 26.0291 11.9149 26.69 11.2424C27.4552 10.4656 28.6611 9.78153 29.6466 9.59602C29.9248 9.53805 32.5567 9.49167 35.4901 9.48008C39.8728 9.46849 40.951 9.50327 41.5655 9.6424ZM21.6697 13.4917C21.5769 13.9323 21.5189 14.6975 21.5421 15.2309C21.5769 16.2512 21.7624 16.5874 22.4697 16.9584C22.9335 17.2019 48.1627 17.2019 48.6265 16.9584C49.3337 16.5874 49.5192 16.2512 49.554 15.2309C49.5772 14.6975 49.5192 13.9323 49.4265 13.4917L49.2642 12.7149H51.7106C54.5164 12.7149 54.8874 12.8077 55.3512 13.6309L55.6063 14.083V37.2949V60.5067L55.3628 60.9473C55.2237 61.1908 54.9222 61.4922 54.6787 61.6314L54.2381 61.8749H35.5481H16.858L16.4174 61.6314C16.174 61.4922 15.8725 61.1908 15.7334 60.9473L15.4899 60.5067V37.2949V14.083L15.745 13.6309C16.2087 12.8077 16.5682 12.7149 19.3856 12.7149H21.832L21.6697 13.4917Z" fill="#4D0000"/>
<path d="M21.6697 13.4917C21.5769 13.9323 21.5189 14.6975 21.5421 15.2309C21.5769 16.2512 21.7624 16.5874 22.4697 16.9584C22.9335 17.2019 48.1627 17.2019 48.6265 16.9584C49.3337 16.5874 49.5192 16.2512 49.554 15.2309C49.5772 14.6975 49.5192 13.9323 49.4265 13.4917L49.2642 12.7149H51.7106C54.5164 12.7149 54.8874 12.8077 55.3512 13.6309L55.6063 14.083V37.2949V60.5067L55.3628 60.9473C55.2237 61.1908 54.9222 61.4922 54.6787 61.6314L54.2381 61.8749H35.5481H16.858L16.4174 61.6314C16.174 61.4922 15.8725 61.1908 15.7334 60.9473L15.4899 60.5067V37.2949V14.083L15.745 13.6309C16.2087 12.8077 16.5682 12.7149 19.3856 12.7149H21.832L21.6697 13.4917Z" fill="#BE1A2E"/>
</g>
<path id="Vector_2" d="M23.1996 27.3119C21.5679 28.139 21.6037 29.7661 23.2892 30.7153C23.7733 31 23.9526 31 35.5 31C47.0474 31 47.2267 31 47.7108 30.7153C49.3963 29.7661 49.4321 28.139 47.8004 27.3119L47.1908 27H35.5H23.8092L23.1996 27.3119Z" fill="#4D0000"/>
<path id="Vector_3" d="M23.422 37.2027C22.54 37.5 22 38.1757 22 39C22 39.7568 22.324 40.2162 23.242 40.7162C23.728 41 23.908 41 35.5 41C47.092 41 47.272 41 47.758 40.7162C48.676 40.2162 49 39.7568 49 39C49 38.1622 48.46 37.4865 47.542 37.2027C46.678 36.9324 24.25 36.9324 23.422 37.2027Z" fill="#4D0000"/>
<path id="Vector_4" d="M23.1996 47.3119C21.5679 48.139 21.6037 49.7661 23.2892 50.7153C23.7733 51 23.9526 51 35.5 51C47.0474 51 47.2267 51 47.7108 50.7153C49.3963 49.7661 49.4321 48.139 47.8004 47.3119L47.1908 47H35.5H23.8092L23.1996 47.3119Z" fill="#4D0000"/>
</g>
<g id="Group 1171275092">
<g id="Group 1171275090">
<circle id="Ellipse 2542" cx="54.5" cy="54.5" r="11.9318" fill="#FF3333" stroke="#4D0000" stroke-width="2.86364"/>
</g>
</g>
<path id="Vector_5" d="M58.4001 50.0576C57.862 50.2262 57.4765 50.8768 57.5809 51.447C57.6773 51.9529 58.1591 52.3866 58.633 52.3866C58.7454 52.3866 58.8338 52.4107 58.8338 52.4509C58.8338 52.483 58.1993 53.1415 57.4283 53.9125L56.0229 55.318L54.0713 53.3664C51.9591 51.2622 51.8386 51.1739 51.2282 51.3345C50.9793 51.4068 50.4653 51.8806 48.4977 53.8483C46.4256 55.9284 46.0722 56.3219 46.0241 56.5789C45.8795 57.3659 46.4015 58.0084 47.1886 58.0084C47.3733 58.0084 47.5982 57.9683 47.6945 57.9201C47.7909 57.8719 48.6904 57.0126 49.7023 56.0167L51.5254 54.1936L53.4368 56.097C54.4809 57.1411 55.4205 58.0325 55.5169 58.0807C55.7418 58.1931 56.3039 58.1931 56.5288 58.0807C56.6252 58.0325 57.5729 57.125 58.641 56.0649L60.5765 54.1374L60.6247 54.4587C60.8094 55.575 62.3514 55.8079 62.8734 54.796C63.0019 54.547 63.01 54.3061 62.9939 52.6516C62.9698 50.6037 62.9618 50.5957 62.4157 50.1861C62.2069 50.0254 62.0784 50.0174 60.4159 50.0014C59.4361 49.9933 58.5286 50.0174 58.4001 50.0576Z" fill="#4D0000"/>
</g>
</g>
</svg>