<svg xmlns="http://www.w3.org/2000/svg" fill="none" viewBox="6.17 6.69 23.14 23.14">
<path d="M12.3427 23.9143H8.48555L8.22841 24.1714L7.97126 26.2286H6.68555V29.0572H28.5427V26.2286H27.5141V23.9143H23.3998V26.2286H12.3427V23.9143Z" fill="#FFA600"/>
<path d="M17.7426 7.45715L7.19971 12.0857V14.4H28.2854V12.0857L17.7426 7.45715Z" fill="#FFA600"/>
<path fill-rule="evenodd" clip-rule="evenodd" d="M17.7429 7.17627L28.5428 11.9177V14.6571H6.94287V11.9177L17.7429 7.17627ZM7.45716 12.2536V14.1428H28.0286V12.2536L17.7429 7.73793L7.45716 12.2536Z" fill="black"/>
<path d="M16.6575 7.04734C16.1964 7.2417 13.7284 8.26776 11.1656 9.32998C8.60723 10.3922 6.46923 11.2872 6.42402 11.3234C6.37882 11.355 6.30198 11.4409 6.25678 11.5087C6.17994 11.6262 6.1709 11.7528 6.1709 13.2399C6.1709 14.736 6.17542 14.8536 6.25678 14.9756C6.43758 15.2468 6.52799 15.2739 7.31448 15.2739H8.02414V19.116V22.9581H7.78909C7.52241 22.9581 7.3416 23.0485 7.206 23.2564C7.12916 23.3784 7.12012 23.4869 7.12012 24.5265V25.6701H6.86247C6.56867 25.6701 6.3969 25.756 6.25678 25.9685C6.17542 26.0905 6.1709 26.208 6.1709 27.7494C6.1709 29.2907 6.17542 29.4082 6.25678 29.5303C6.30198 29.5981 6.40142 29.6975 6.46923 29.7427C6.59579 29.8241 6.90315 29.8286 17.7423 29.8286C28.5815 29.8286 28.8888 29.8241 29.0154 29.7427C29.0832 29.6975 29.1826 29.5981 29.2278 29.5303C29.3092 29.4082 29.3137 29.2907 29.3137 27.7494C29.3137 26.208 29.3092 26.0905 29.2278 25.9685C29.0877 25.756 28.9159 25.6701 28.6267 25.6701H28.3645V24.5265C28.3645 23.4869 28.3555 23.3784 28.2786 23.2564C28.143 23.0485 27.9622 22.9581 27.7 22.9581H27.4605V19.116V15.2739H28.1747C28.9566 15.2739 29.047 15.2468 29.2278 14.9756C29.3092 14.8536 29.3137 14.736 29.3137 13.2444C29.3137 11.7166 29.3092 11.6398 29.2233 11.4951C29.1691 11.4138 29.0425 11.3053 28.9385 11.2556C28.8346 11.2058 26.3214 10.1572 23.3517 8.92316C18.5514 6.93432 17.9276 6.68573 17.7242 6.69025C17.5434 6.69025 17.3129 6.77161 16.6575 7.04734ZM22.9042 10.2702L27.9577 12.3585V13.1359V13.9179H17.7423H7.52693V13.1359L7.53145 12.3585L12.6255 10.2476C15.428 9.08589 17.7513 8.14571 17.7875 8.15475C17.8236 8.16832 20.1289 9.11754 22.9042 10.2702ZM10.7361 19.116V22.9581H10.0581H9.38016V19.116V15.2739H10.0581H10.7361V19.116ZM23.3924 19.116V22.9581H23.1574C22.8907 22.9581 22.7099 23.0485 22.5743 23.2564C22.4974 23.3784 22.4884 23.4869 22.4884 24.5265V25.6701H17.7423H12.9962V24.5265C12.9962 23.4869 12.9872 23.3784 12.9103 23.2564C12.7747 23.0485 12.5939 22.9581 12.3317 22.9581H12.0922V19.116V15.2739H17.7423H23.3924V19.116ZM26.1045 19.116V22.9581H25.4264H24.7484V19.116V15.2739H25.4264H26.1045V19.116ZM11.6402 24.9921V25.6701H10.0581H8.47615V24.9921V24.3141H10.0581H11.6402V24.9921ZM27.0085 24.9921V25.6701H25.4264H23.8444V24.9921V24.3141H25.4264H27.0085V24.9921ZM27.9577 27.7494V28.4726H17.7423H7.52693V27.7494V27.0262H17.7423H27.9577V27.7494Z" fill="black"/>
<path d="M13.2944 11.2916C13.0865 11.4318 12.9961 11.6035 12.9961 11.8838C12.9961 12.164 13.0865 12.3358 13.2944 12.4759C13.421 12.5573 13.5882 12.5618 17.7422 12.5618C21.8961 12.5618 22.0634 12.5573 22.1899 12.4759C22.3979 12.3358 22.4883 12.164 22.4883 11.8838C22.4883 11.6035 22.3979 11.4318 22.1899 11.2916C22.0634 11.2103 21.8961 11.2058 17.7422 11.2058C13.5882 11.2058 13.421 11.2103 13.2944 11.2916Z" fill="black"/>
<path d="M17.3623 16.2638C17.1453 16.4085 17.0639 16.5757 17.0639 16.8831V17.1633L16.8063 17.2899C16.4492 17.4616 16.074 17.8459 15.8842 18.2346C15.735 18.542 15.7305 18.5646 15.7305 19.116C15.7305 19.6584 15.735 19.6901 15.8752 19.9793C16.2187 20.6845 16.7656 21.0596 17.5792 21.1546C17.7736 21.1772 17.9951 21.2314 18.0674 21.2766C18.6189 21.6021 18.3838 22.4609 17.742 22.4609C17.3849 22.4609 17.1408 22.2213 17.0865 21.81C17.0278 21.367 16.7973 21.15 16.3859 21.15C16.1012 21.15 15.8932 21.263 15.7757 21.48C15.6446 21.7286 15.6944 22.3072 15.8887 22.7095C16.074 23.0982 16.4447 23.4779 16.8063 23.6542L17.0639 23.7807V24.061C17.0639 24.522 17.299 24.7661 17.742 24.7661C18.1849 24.7661 18.42 24.522 18.42 24.061V23.7807L18.6821 23.6542C19.0347 23.4824 19.4099 23.0982 19.5997 22.7095C19.7489 22.4021 19.7534 22.3795 19.7534 21.8281C19.7534 21.2766 19.7489 21.254 19.5997 20.9466C19.2788 20.2867 18.6821 19.8754 17.9363 19.7895C17.6968 19.7624 17.4888 19.7127 17.4075 19.6584C16.8651 19.3239 17.1046 18.4832 17.742 18.4832C18.099 18.4832 18.3431 18.7228 18.3974 19.1341C18.4607 19.5816 18.6867 19.794 19.098 19.794C19.3828 19.794 19.5907 19.681 19.7082 19.464C19.8393 19.2154 19.7896 18.6369 19.5952 18.2346C19.4099 17.8459 19.0392 17.4662 18.6821 17.2899L18.42 17.1633V16.8831C18.42 16.422 18.1849 16.1779 17.742 16.1779C17.5747 16.1779 17.4527 16.2051 17.3623 16.2638Z" fill="black"/>
</svg>