<svg xmlns="http://www.w3.org/2000/svg" fill="none" viewBox="8.74 6.69 18.37 23.14">
<g id="journals">
<g id="Group 159102">
<rect id="Rectangle 34624492" x="10.2854" y="8.22858" width="2.57143" height="14.9143" fill="#FFA600"/>
<rect id="Rectangle 34624491" x="10.7997" y="24.1714" width="12.8571" height="4.11429" fill="#FFA600"/>
<path id="text.book.closed" d="M12.2044 29.8286H26.105C26.6713 29.8286 27.1094 29.3905 27.1094 28.8242C27.1094 28.3434 26.7782 27.9908 26.3722 27.7985C25.0579 27.2109 24.8015 25.3945 26.1371 24.123C26.682 23.6422 27.0987 23.108 27.0987 22.0288V10.201C27.0987 7.89309 25.9127 6.68573 23.6155 6.68573H12.2257C9.93923 6.68573 8.74255 7.88241 8.74255 10.201V26.3454C8.74255 28.6319 9.93923 29.8286 12.2044 29.8286ZM23.4232 8.81197C24.4596 8.81197 24.9725 9.35688 24.9725 10.3399V21.6976C24.9725 22.2211 24.6733 22.5096 24.1391 22.5096H13.6468V8.81197H23.4232ZM10.8688 22.8836V10.3399C10.8688 9.45304 11.2855 8.9295 12.1296 8.83334V22.5203C11.6488 22.5631 11.2321 22.6913 10.8688 22.8836ZM15.5593 13.7055H23.0279C23.4446 13.7055 23.7865 13.3636 23.7865 12.9469C23.7865 12.5302 23.4446 12.1883 23.0279 12.1883H15.5593C15.1426 12.1883 14.8007 12.5302 14.8007 12.9469C14.8007 13.3636 15.1426 13.7055 15.5593 13.7055ZM15.5593 16.6865H21.2222C21.6389 16.6865 21.9808 16.3446 21.9808 15.9279C21.9808 15.5112 21.6389 15.1693 21.2222 15.1693H15.5593C15.1426 15.1693 14.8007 15.5112 14.8007 15.9279C14.8007 16.3446 15.1426 16.6865 15.5593 16.6865ZM12.4929 27.8199C11.3496 27.8199 10.7513 27.1681 10.7513 26.1638C10.7513 25.1915 11.4351 24.5183 12.5676 24.5183H23.2309C23.3484 24.5183 23.4659 24.5077 23.5728 24.4863C23.0386 25.6189 23.1027 26.8476 23.6796 27.8199H12.4929Z" fill="black"/>
</g>
</g>
</svg>