<svg xmlns="http://www.w3.org/2000/svg" fill="none" viewBox="7.2 6.17 21.32 23.14">
<g id="purchase-rental-order">
<path id="Exclude" fill-rule="evenodd" clip-rule="evenodd" d="M10.5431 6.68579H24.9431L22.6288 8.22865V28.2858H7.97168V9.00008L10.5431 6.68579ZM14.6569 14.9146C15.9351 14.9146 16.9712 13.8784 16.9712 12.6003C16.9712 11.3221 15.9351 10.286 14.6569 10.286C13.3788 10.286 12.3426 11.3221 12.3426 12.6003C12.3426 13.8784 13.3788 14.9146 14.6569 14.9146Z" fill="#FFA600"/>
<g id="Group">
<path id="Vector" d="M10.0498 6.21715C8.94765 6.35673 8.01395 7.03053 7.53747 8.01717C7.17651 8.77279 7.20057 7.95942 7.20057 18.9424C7.20057 29.8677 7.17651 29.0062 7.51341 29.218C7.66742 29.3142 7.7348 29.3142 15.2188 29.3142C22.6211 29.3142 22.7751 29.3142 22.9243 29.218C23.0109 29.1698 23.1168 29.0688 23.1649 28.9917C23.2467 28.8666 23.2516 28.5826 23.266 23.7938L23.2756 18.7259H25.6388C28.257 18.7259 28.2281 18.7307 28.4254 18.413C28.5217 18.2542 28.5217 18.2109 28.512 13.5183L28.4976 8.78723L28.3436 8.38776C27.8719 7.16048 26.8468 6.35673 25.5714 6.21234C25.0853 6.15458 10.483 6.1594 10.0498 6.21715ZM22.4574 7.58401C22.4574 7.59845 22.4093 7.6899 22.3467 7.79097C22.1927 8.03642 22.0387 8.41183 21.9521 8.74392C21.8895 8.98938 21.8799 10.2022 21.8799 18.4708V27.9185H15.2381H8.59631L8.60594 18.4708L8.62037 9.02788L8.77439 8.70542C9.05353 8.11343 9.59258 7.70433 10.2086 7.61289C10.5118 7.56957 22.4574 7.5407 22.4574 7.58401ZM25.9853 7.76209C26.3703 7.94017 26.7553 8.3252 26.9479 8.71023L27.1019 9.02788L27.1163 13.1766L27.1259 17.3301H25.2008H23.2756L23.2852 13.1766L23.2997 9.02788L23.4296 8.75354C23.6558 8.26744 24.1371 7.83909 24.6377 7.67546C24.9746 7.56476 25.6484 7.60808 25.9853 7.76209Z" fill="black"/>
<path id="Vector_2" d="M18.2413 9.14816C18.0392 9.19148 17.8851 9.3118 17.452 9.74496C17.2547 9.9471 17.0766 10.1107 17.0573 10.1107C17.0381 10.1107 16.9033 10.0241 16.7541 9.92304C16.0562 9.43212 15.0648 9.23479 14.16 9.40806C12.0904 9.80753 10.8679 11.9445 11.5562 13.9707C11.7246 14.4712 11.9412 14.8033 12.3984 15.2653C13.0819 15.9536 13.8519 16.2712 14.8241 16.2712C15.8445 16.2712 16.6579 15.9199 17.3365 15.198C17.8948 14.606 18.1643 14.0381 18.2702 13.2247C18.352 12.6231 18.2317 11.8241 17.9862 11.3765C17.9477 11.2947 18.0103 11.2129 18.4434 10.7797C19.0162 10.2166 19.0884 10.1059 19.0884 9.81234C19.0884 9.36474 18.6889 9.05191 18.2413 9.14816ZM15.3102 10.8086C15.4643 10.8519 15.6953 10.9434 15.8252 11.0108L16.0611 11.1407L15.4835 11.7182L14.906 12.2958L14.6461 12.0503C14.3236 11.7471 14.1022 11.6894 13.7797 11.8338C13.5198 11.9493 13.4043 12.1081 13.3755 12.3872C13.3418 12.6712 13.438 12.8396 13.9097 13.3306C14.5161 13.9611 14.8001 14.1006 15.1755 13.9611C15.2477 13.9322 15.6568 13.5616 16.0851 13.138L16.86 12.3632L16.8889 12.5942C16.9707 13.3209 16.576 14.1439 15.96 14.5386C15.007 15.1498 13.7509 14.8948 13.13 13.9611C12.8749 13.5856 12.7835 13.2728 12.7835 12.806C12.7835 11.4776 14.0445 10.4813 15.3102 10.8086Z" fill="black"/>
<path id="Vector_3" d="M10.2471 19.0148C9.66951 19.3661 9.86684 20.2325 10.5358 20.2998C11.0941 20.3576 11.4936 19.7127 11.1952 19.2314C11.0123 18.933 10.5503 18.8271 10.2471 19.0148Z" fill="black"/>
<path id="Vector_4" d="M12.9424 19.0147C12.5045 19.2794 12.5285 19.9869 12.9858 20.2228C13.159 20.3094 13.3179 20.3142 16.5666 20.3142C19.8634 20.3142 19.9789 20.3094 20.1714 20.218C20.4169 20.0976 20.5324 19.9051 20.5324 19.6163C20.5324 19.342 20.4313 19.1351 20.2292 19.0147C20.08 18.9233 19.9596 18.9185 16.5858 18.9185C13.212 18.9185 13.0916 18.9233 12.9424 19.0147Z" fill="black"/>
<path id="Vector_5" d="M10.2859 21.6999C9.64575 22.0224 9.87677 23.009 10.5891 23.009C11.0319 23.009 11.311 22.701 11.2773 22.2486C11.2388 21.7432 10.7383 21.4641 10.2859 21.6999Z" fill="black"/>
<path id="Vector_6" d="M12.9761 21.7047C12.5093 21.955 12.5093 22.6866 12.9761 22.9224C13.1301 23.0042 13.4045 23.009 16.5762 23.009C19.6853 23.009 20.027 22.9994 20.181 22.9272C20.412 22.8213 20.5324 22.6096 20.5324 22.3208C20.5324 22.0272 20.4168 21.8251 20.1858 21.7047C20.0126 21.6181 19.8537 21.6133 16.5762 21.6133C13.3178 21.6133 13.1349 21.6181 12.9761 21.7047Z" fill="black"/>
<path id="Vector_7" d="M10.2953 24.4001C9.96317 24.5541 9.81397 24.944 9.96317 25.2857C10.0739 25.5456 10.2471 25.6707 10.5359 25.6948C10.9931 25.7333 11.2915 25.4686 11.2915 25.0306C11.2915 24.4964 10.7814 24.1739 10.2953 24.4001Z" fill="black"/>
<path id="Vector_8" d="M13.096 24.362C12.788 24.4583 12.6292 24.6893 12.6292 25.031C12.6292 25.3102 12.7158 25.4738 12.942 25.6086C13.0912 25.7 13.2115 25.7048 16.5853 25.7048C19.9592 25.7048 20.0795 25.7 20.2287 25.6086C20.4308 25.4883 20.5319 25.2813 20.5319 24.9877C20.5319 24.7856 20.5079 24.7182 20.3827 24.5786C20.3009 24.4824 20.1565 24.3861 20.0603 24.3572C19.834 24.2947 13.2981 24.2995 13.096 24.362Z" fill="black"/>
</g>
</g>
</svg>