<svg xmlns="http://www.w3.org/2000/svg" fill="none" viewBox="0 -3.1 72 75.1">
<g id="floor" clip-path="url(#clip0_6206_46199)">
<g id="Group 1171275233">
<g id="Ellipse 2628">
<mask id="path-1-inside-1_6206_46199" fill="white">
<path d="M67 18C67 27.9411 58.9411 36 49 36C39.0589 36 31 27.9411 31 18C31 8.05887 39.0589 0 49 0C58.9411 0 67 8.05887 67 18Z"/>
</mask>
<path d="M67 18C67 27.9411 58.9411 36 49 36C39.0589 36 31 27.9411 31 18C31 8.05887 39.0589 0 49 0C58.9411 0 67 8.05887 67 18Z" fill="#2894B4" stroke="#0D313B" stroke-width="6.2" mask="url(#path-1-inside-1_6206_46199)"/>
</g>
<path id="Vector" d="M5 5.95049C6.8734 5.66108 8.7468 5.37425 10.7287 5.06934C12.5918 16.1599 14.0001 27.2814 15.1086 38.4262C20.6746 36.9714 26.2819 37.5192 31.8711 37.744C32.9176 37.7854 33.9822 38.0567 34.9874 38.3797C38.1657 39.4004 39.9745 41.7337 40.0262 45.2997C40.1296 52.2739 40.065 59.2481 40.0675 66.2223C40.0675 66.3102 40.0184 66.4006 39.9797 66.535C38.1166 66.535 36.2587 66.535 34.2845 66.535C34.2845 62.7004 34.2845 58.8786 34.2845 55.0104C28.2741 55.0104 22.3774 55.0104 16.3748 55.0104C16.473 58.8321 16.5686 62.6487 16.6668 66.5273C14.6823 66.5273 12.8244 66.5273 10.907 66.5273C10.8786 66.3955 10.8166 66.2482 10.8166 66.1009C10.7649 56.0827 10.1551 46.0904 9.01297 36.1471C7.89668 26.439 6.47288 16.7671 5.1783 7.0797C5.15246 6.89365 5.06202 6.71536 5 6.53448C5 6.33809 5 6.14429 5 5.95049ZM16.6668 49.0775C22.5557 49.0775 28.3775 49.0775 34.2639 49.0775C34.2639 48.2403 34.2639 47.4702 34.2639 46.7002C34.2613 44.0671 33.7083 43.4935 31.0468 43.3643C30.9512 43.3591 30.853 43.3565 30.7574 43.3565C27.2715 43.3565 23.7857 43.341 20.2973 43.3746C19.5635 43.3824 18.8244 43.5322 18.1035 43.6821C17.2482 43.8604 16.7262 44.4495 16.6849 45.3074C16.6203 46.5503 16.6668 47.801 16.6668 49.0775Z" fill="#0D313B"/>
<text id="2" fill="#0D313B" xml:space="preserve" style="white-space: pre" font-family="Inter" font-size="24" font-weight="800" letter-spacing="0em"><tspan x="42" y="26.2273">2</tspan></text>
</g>
</g>
<defs>
<clipPath id="clip0_6206_46199">
<rect width="72" height="72" fill="white"/>
</clipPath>
</defs>
</svg>