<svg xmlns="http://www.w3.org/2000/svg" fill="none" viewBox="10 4 51.2 64">
<g id="contracts">
<g id="Group 1171275150">
<g id="Vector">
<path d="M10.0037 38.8872C10.0037 30.369 10.0037 23.3157 10.0005 16.2625C9.99428 16.0532 10.048 15.8465 10.1554 15.6667C10.3749 15.3044 10.5637 14.9275 10.8254 14.5851C11.5108 13.6891 12.467 13.245 13.6138 13.1029C14.6077 12.98 15.6074 12.9749 16.6077 12.9666C17.5516 12.9608 18.4963 12.9992 19.4396 12.9397C19.5881 12.9301 19.6578 12.8802 19.7109 12.7445C20.3605 11.1029 21.5119 9.9209 23.3409 9.37947C23.9118 9.19889 24.5055 9.10063 25.1041 9.08764C25.2782 9.08764 25.3146 8.99484 25.3422 8.86748C25.5054 8.11678 25.7761 7.40448 26.2484 6.77026C27.2199 5.47045 28.5005 4.56808 30.1708 4.18025C30.5464 4.10092 30.9288 4.05805 31.3126 4.05225C32.8882 3.99678 34.4645 3.98548 36.0414 4.01833C36.8574 4.03689 37.6734 4.02601 38.4893 4.04521C39.3053 4.06441 40.1354 4.09321 40.9545 4.18345C42.0476 4.30376 42.9161 4.83495 43.7193 5.47877C44.8252 6.36515 45.4971 7.49088 45.8203 8.80668C45.9221 9.22203 45.8677 9.17084 46.317 9.17404C48.9793 9.19387 50.8698 10.9154 51.4803 12.7515C51.5354 12.916 51.6115 12.973 51.7959 12.9723C53.0528 12.9666 54.3097 12.9627 55.566 12.9762C56.3813 12.9851 57.196 13.0255 57.9979 13.1726C59.2229 13.3973 60.0702 14.0686 60.6897 15.0523C61.0564 15.634 61.1985 16.2311 61.1972 16.9114C61.1793 28.4512 61.1742 39.9909 61.1819 51.5307C61.1819 53.7028 61.194 55.8755 61.1601 58.0476C61.1364 59.5727 61.1678 61.0978 61.1185 62.6222C61.0923 63.4318 61.114 64.2433 61.0379 65.0542C60.9803 65.6705 60.6302 66.1562 60.2187 66.6106C59.5979 67.2954 58.7467 67.6455 57.8847 67.9738C57.792 67.9979 57.6958 68.0054 57.6005 67.9962C42.9193 67.9962 28.2385 67.9962 13.5581 67.9962C13.3991 67.997 13.2416 67.9643 13.0961 67.9002C12.5457 67.6602 11.9812 67.4522 11.5025 67.0855C11.0556 66.7457 10.6801 66.3212 10.3973 65.8362C10.1413 65.4004 10.1221 64.9242 10.1086 64.4487C10.0638 62.8648 10.0626 61.2808 10.0446 59.6962C9.96528 52.2724 10.0312 44.8473 10.0037 38.8872ZM57.5256 41.8452H57.5205C57.5205 36.5852 57.5295 31.3251 57.5167 26.0657C57.5096 23.0233 57.5608 19.9808 57.4156 16.9402C57.3919 16.4404 57.3516 16.3918 56.8236 16.3898C55.1423 16.3834 53.4611 16.3854 51.7805 16.377C51.5923 16.377 51.5117 16.441 51.4669 16.6062C51.2186 17.5233 50.6746 18.2772 49.922 18.8967C49.1284 19.5494 48.2363 20.0243 47.1425 20.0889C45.8626 20.1651 44.5826 20.1728 43.3026 20.2125C42.143 20.2489 40.9821 20.2393 39.8218 20.2483C36.8292 20.2713 33.836 20.2854 30.8422 20.2361C29.3145 20.2105 27.7856 20.2086 26.2573 20.176C25.7377 20.1651 25.2174 20.1587 24.699 20.1229C24.2299 20.0909 23.7473 20.1229 23.2961 19.9782C21.5042 19.4112 20.2748 18.3143 19.7212 16.6145C19.6572 16.4225 19.5644 16.3764 19.3698 16.3694C18.5219 16.3393 17.6732 16.347 16.8253 16.3406C15.937 16.3342 15.0493 16.3438 14.1617 16.3879C13.8545 16.4033 13.7853 16.4634 13.7777 16.7246C13.7642 17.081 13.7418 17.4375 13.7354 17.794C13.7137 19.0215 13.7034 20.2489 13.6938 21.4758C13.665 25.2549 13.6676 29.0346 13.6669 32.8137C13.6644 43.1998 13.6644 53.5859 13.6669 63.972C13.6669 64.0615 13.6669 64.1505 13.6669 64.2401C13.6662 64.2775 13.6746 64.3145 13.6913 64.3479C13.708 64.3814 13.7326 64.4103 13.7629 64.4321C13.9428 64.5716 14.122 64.6695 14.3824 64.6695C28.5269 64.6627 42.6706 64.6606 56.8133 64.6631C57.3061 64.6631 57.5231 64.4615 57.5231 64.0059L57.5256 41.8452ZM35.5825 16.8065V16.8193C37.4954 16.8193 39.4083 16.825 41.3206 16.8193C43.0332 16.8116 44.7452 16.8193 46.4571 16.7751C47.3435 16.7534 47.9368 16.0987 47.9515 15.5143C47.9668 14.9115 47.9764 14.3093 47.9515 13.707C47.9416 13.5183 47.8732 13.3373 47.7556 13.1893C47.4107 12.7304 46.9019 12.5973 46.3419 12.5493C45.6789 12.4898 45.0146 12.5007 44.3509 12.5077C43.229 12.5205 42.2915 11.5241 42.3152 10.6818C42.3279 10.2191 42.3312 9.7449 42.216 9.28283C41.9657 8.27422 40.7709 7.41472 39.5882 7.37184C38.5488 7.33408 37.5089 7.32256 36.4689 7.32C34.7646 7.31552 33.061 7.32704 31.3586 7.42048C30.8863 7.44672 30.4492 7.54848 30.0614 7.82303C29.4967 8.21137 29.1032 8.80219 28.9625 9.47291C28.8652 9.89465 28.8672 10.3265 28.8691 10.7528C28.8691 10.7554 28.8691 10.758 28.8691 10.7606C28.8729 11.6047 27.8631 12.4136 27.2083 12.4712C26.6324 12.5224 26.0564 12.4853 25.4804 12.5115C25.026 12.5314 24.5652 12.532 24.1307 12.6792C23.6417 12.845 23.3147 13.1669 23.2488 13.6488C23.1617 14.2837 23.1848 14.9249 23.2443 15.5636C23.3013 16.1755 23.7832 16.6644 24.4462 16.7342C24.9472 16.7843 25.4505 16.8089 25.954 16.8078C29.1641 16.8112 32.3737 16.8107 35.5825 16.8065Z" fill="#0B2D1F"/>
<path d="M35.5825 16.8065V16.8193C37.4954 16.8193 39.4083 16.825 41.3206 16.8193C43.0332 16.8116 44.7452 16.8193 46.4571 16.7751C47.3435 16.7534 47.9368 16.0987 47.9515 15.5143C47.9668 14.9115 47.9764 14.3093 47.9515 13.707C47.9416 13.5183 47.8732 13.3373 47.7556 13.1893C47.4107 12.7304 46.9019 12.5973 46.3419 12.5493C45.6789 12.4898 45.0146 12.5007 44.3509 12.5077C43.229 12.5205 42.2915 11.5241 42.3152 10.6818C42.3279 10.2191 42.3312 9.7449 42.216 9.28283C41.9657 8.27422 40.7709 7.41472 39.5882 7.37184C38.5488 7.33408 37.5089 7.32256 36.4689 7.32C34.7646 7.31552 33.061 7.32704 31.3586 7.42048C30.8863 7.44672 30.4492 7.54848 30.0614 7.82303C29.4967 8.21137 29.1032 8.80219 28.9625 9.47291C28.8652 9.89465 28.8672 10.3265 28.8691 10.7528L28.8691 10.7606C28.8729 11.6047 27.8631 12.4136 27.2083 12.4712C26.6324 12.5224 26.0564 12.4853 25.4804 12.5115C25.026 12.5314 24.5652 12.532 24.1307 12.6792C23.6417 12.845 23.3147 13.1669 23.2488 13.6488C23.1617 14.2837 23.1848 14.9249 23.2443 15.5636C23.3013 16.1755 23.7832 16.6644 24.4462 16.7342C24.9472 16.7843 25.4505 16.8089 25.954 16.8078C29.1641 16.8112 32.3737 16.8107 35.5825 16.8065Z" fill="#22885E"/>
</g>
<g id="Vector_2">
<path d="M35.5975 46.7783C33.6929 46.7783 31.7877 46.7911 29.8838 46.7725C28.9731 46.7635 28.0624 46.7303 27.153 46.6599C25.8583 46.5594 24.8618 45.6225 24.8228 44.585C24.785 43.5655 24.7165 42.548 24.9713 41.5464C25.4736 39.5733 26.7459 38.1129 28.5449 37.0268C29.4955 36.4477 30.5516 36.0631 31.652 35.8953C32.1986 35.8121 32.7515 35.8013 33.3019 35.7942C34.5582 35.7782 35.8151 35.7693 37.0708 35.7981C38.2125 35.8249 39.3677 35.8198 40.4755 36.1181C42.7628 36.7273 44.4511 38.0451 45.5704 39.9861C46.1918 41.0639 46.5304 42.2209 46.5304 43.4497C46.5279 43.9876 46.4378 44.5216 46.2635 45.0305C45.9192 46.0512 45.1442 46.5619 44.0178 46.6592C42.3103 46.8071 40.5984 46.7821 38.887 46.7872C37.7901 46.7917 36.6938 46.7872 35.5975 46.7872V46.7783ZM35.2436 43.458C37.2007 43.435 39.5853 43.5015 41.9692 43.4151C42.2009 43.4068 42.4319 43.3844 42.6623 43.3639C42.7858 43.3524 42.8812 43.3089 42.8543 43.1656C42.8526 43.1571 42.8509 43.1487 42.8492 43.1403C42.7261 42.5343 42.603 41.928 42.2514 41.389C41.4719 40.1935 40.3609 39.4242 38.8659 39.1919C38.3725 39.1157 37.8618 39.1183 37.3588 39.1164C35.8228 39.1119 34.2868 39.0991 32.7509 39.1465C30.4341 39.2169 28.4835 41.0107 28.4329 43.1611C28.4259 43.4574 28.4259 43.458 28.744 43.458H35.2436Z" fill="#0B2D1F"/>
<path d="M35.2436 43.458C37.2007 43.435 39.5853 43.5015 41.9692 43.4151C42.2009 43.4068 42.4319 43.3844 42.6623 43.3639C42.7858 43.3524 42.8812 43.3089 42.8543 43.1656L42.8492 43.1403C42.7261 42.5343 42.603 41.928 42.2514 41.389C41.4719 40.1935 40.3609 39.4242 38.8659 39.1919C38.3725 39.1157 37.8618 39.1183 37.3588 39.1164C35.8228 39.1119 34.2868 39.0991 32.7509 39.1465C30.4341 39.2169 28.4835 41.0107 28.4329 43.1611C28.4259 43.4574 28.4259 43.458 28.744 43.458H35.2436Z" fill="#22885E"/>
</g>
<g id="Vector_3">
<path d="M41.8239 29.4057C41.9359 31.1266 41.2083 32.4821 39.9993 33.6136C39.0394 34.5096 37.8035 34.9723 36.4628 35.1291C34.4289 35.3665 32.6229 34.8449 31.1042 33.5592C30.1346 32.756 29.512 31.6099 29.366 30.3593C29.1331 28.5411 29.6591 26.9264 30.9756 25.5543C31.8939 24.5943 33.0606 24.035 34.4142 23.8263C36.2394 23.5479 37.9277 23.8903 39.4553 24.8727C40.318 25.4282 40.8633 26.2128 41.3292 27.0672C41.7174 27.7822 41.8893 28.5947 41.8239 29.4057ZM35.545 27.0883C33.9265 27.0499 32.9678 28.3964 32.9346 29.43C32.8923 30.71 34.1505 31.8415 35.5655 31.8684C37.2858 31.901 38.2311 30.4527 38.2477 29.4799C38.2695 28.1897 37.0317 27.1024 35.545 27.0883Z" fill="#0B2D1F"/>
<path d="M35.545 27.0883C33.9265 27.0499 32.9678 28.3964 32.9346 29.43C32.8923 30.71 34.1505 31.8415 35.5655 31.8684C37.2858 31.901 38.2311 30.4527 38.2477 29.4799C38.2695 28.1897 37.0317 27.1024 35.545 27.0883Z" fill="#62C89E"/>
</g>
<path id="Vector_4" d="M35.5708 53.961C34.2109 53.961 32.8509 53.954 31.4909 53.9668C31.1671 53.9668 30.9194 53.9028 30.6814 53.6807C30.3518 53.3754 30.0516 53.0657 29.9467 52.6331C29.6971 51.6014 30.3646 50.7605 31.5005 50.701C33.2285 50.6107 34.9533 50.596 36.6806 50.6216C37.5516 50.6344 38.4226 50.6632 39.2936 50.6978C39.7557 50.7163 40.2107 50.749 40.6049 51.0421C41.4651 51.6821 41.5361 52.7425 40.7445 53.458C40.1877 53.961 40.1877 53.961 39.4107 53.961H35.5708Z" fill="#0B2D1F"/>
<path id="Vector_5" d="M35.5732 61.1179C34.1166 61.1179 32.6594 61.1115 31.2028 61.1236C30.9333 61.1236 30.7548 61.052 30.5999 60.8517C30.3644 60.5515 30.0956 60.2757 29.967 59.9115C29.8695 59.6499 29.8704 59.3617 29.9695 59.1007C30.2626 58.3084 30.95 57.8489 31.9112 57.8425C33.5841 57.8316 35.2571 57.8341 36.93 57.8335C37.9386 57.8335 38.9472 57.8412 39.9558 57.8335C40.1478 57.8335 40.2912 57.8821 40.4121 58.0255C40.6547 58.3103 40.9503 58.5548 41.1263 58.8895C41.3638 59.3407 41.342 59.7854 41.0911 60.2162C40.9158 60.5182 40.6534 60.7646 40.4243 61.0321C40.3347 61.1364 40.2073 61.1128 40.0902 61.1128C38.5841 61.117 37.0785 61.1187 35.5732 61.1179Z" fill="#0B2D1F"/>
<path id="Vector_6" d="M47.9951 53.9291C46.9468 53.9291 45.8985 53.9329 44.8508 53.9291C44.3715 53.926 43.8929 53.8899 43.4186 53.8209C42.6973 53.7166 42.3139 53.2929 42.1456 52.6689C41.9773 52.0449 42.1994 51.531 42.6832 51.0946C43.0973 50.7208 43.6304 50.6773 44.1552 50.6575C46.2978 50.5781 48.4431 50.5992 50.5864 50.6242C51.0715 50.6293 51.5617 50.6242 52.0443 50.7157C52.6842 50.8437 53.1322 51.179 53.3364 51.7563C53.5521 52.3624 53.4061 52.9083 52.9729 53.403C52.5665 53.8644 51.9969 53.915 51.426 53.922C50.2817 53.9367 49.1374 53.9265 47.9932 53.9265L47.9951 53.9291Z" fill="#0B2D1F"/>
<path id="Vector_7" d="M23.6967 53.9297C22.1332 53.9297 21.0612 53.9336 19.9893 53.9297C19.7175 53.9294 19.4462 53.9102 19.1771 53.8721C18.3228 53.7492 17.718 53.0581 17.7429 52.251C17.7679 51.4293 18.3938 50.7964 19.2943 50.6978C20.0028 50.6318 20.7145 50.6038 21.426 50.614C22.818 50.614 24.2106 50.6005 25.6019 50.6223C26.3193 50.6338 27.0444 50.6044 27.7529 50.7445C28.4498 50.8828 28.8665 51.3205 29.0425 51.9355C29.2146 52.5403 29.0086 53.0805 28.5362 53.5016C28.1721 53.826 27.6691 53.8555 27.1878 53.8856C25.863 53.9809 24.5344 53.9118 23.6967 53.9297Z" fill="#0B2D1F"/>
<path id="Vector_8" d="M23.1762 61.1094C22.2079 61.1094 21.2396 61.1158 20.272 61.1094C19.9052 61.1062 19.5385 61.0562 19.1718 61.0454C18.0666 61.0127 17.4151 59.8019 17.9104 58.8368C18.2509 58.1744 18.8563 57.9357 19.6 57.8838C21.0207 57.784 22.4441 57.752 23.8667 57.7725C25.0725 57.7891 26.2814 57.7808 27.4826 57.9248C28.3857 58.033 29.0448 58.5827 29.1146 59.4224C29.1786 60.2351 28.8042 60.758 28.0586 60.941C27.7079 61.0197 27.3504 61.0647 26.9911 61.0754C25.7201 61.1369 24.4478 61.1138 23.1762 61.1094Z" fill="#0B2D1F"/>
<path id="Vector_9" d="M48.016 61.1094C47.0394 61.1094 46.0628 61.1234 45.0868 61.1036C44.5371 61.0927 43.9829 61.0895 43.4376 60.998C42.6146 60.8591 42.2562 60.573 42.1071 59.9062C41.9541 59.2188 42.1979 58.6621 42.7912 58.2377C43.1202 58.0029 43.5086 57.9178 43.9118 57.8813C44.7969 57.8006 45.6846 57.7904 46.5722 57.791C47.7088 57.791 48.8454 57.791 49.9821 57.7974C50.6375 57.7933 51.2924 57.8361 51.9417 57.9254C52.59 58.024 53.1301 58.2717 53.3189 58.9097C53.5148 59.5708 53.4469 60.1967 52.8921 60.7081C52.5599 61.014 52.1209 61.0447 51.6876 61.0703C50.4646 61.1452 49.2397 61.1068 48.016 61.1094Z" fill="#0B2D1F"/>
</g>
</g>
</svg>