<svg xmlns="http://www.w3.org/2000/svg" fill="none" viewBox="4 5 64 62.98">
<g id="race">
<g id="Group">
<g id="Vector">
<path d="M66.6113 8.47425C66.1451 8.12665 65.627 7.90439 65.0538 7.80412C64.4823 7.70552 63.9191 7.74061 63.3626 7.9094C63.264 7.61193 63.1286 7.33452 62.9565 7.07214C62.7843 6.81144 62.5821 6.57748 62.3482 6.37025C62.1142 6.16303 61.8568 5.98923 61.5761 5.85052C61.297 5.71014 61.0046 5.60987 60.6971 5.54804C60.1757 5.4578 59.6576 5.47952 59.1445 5.61489C58.6315 5.75025 58.1703 5.98756 57.7608 6.32346C57.455 5.91403 57.074 5.59316 56.6194 5.36087C56.1632 5.12858 55.6785 5.00825 55.1672 5.00157C54.7093 5.00992 54.2731 5.10852 53.8553 5.29569C53.4392 5.48453 53.0765 5.74691 52.7674 6.08448C52.3162 5.7185 51.8048 5.49456 51.2316 5.40933C50.9023 5.37591 50.5765 5.38928 50.2523 5.44777C49.9264 5.50793 49.6172 5.61154 49.3231 5.76028C49.0273 5.90901 48.7599 6.09451 48.5176 6.32012C48.2753 6.54406 48.0697 6.79807 47.9009 7.08217C47.7539 7.33285 47.6452 7.60023 47.5751 7.88266C47.4497 8.46088 47.3645 9.04412 47.3194 9.63404C44.4433 9.62569 37.9826 9.61065 37.3676 9.62569C37.157 9.65243 36.9899 9.5789 36.8662 9.40509C35.7181 8.33388 34.4798 7.3763 33.1545 6.53236C32.3958 6.0661 31.5887 5.71014 30.733 5.45947C29.483 5.11855 28.2129 5.01995 26.9244 5.16534C26.0788 5.22383 25.1329 5.19709 23.8211 5.16534C22.9287 5.13192 21.8608 5.10017 20.5255 5.09181L17.4456 5.05839C15.4385 5.03666 13.4314 5.01828 11.4277 5.00157C10.8495 4.98486 10.2997 5.10184 9.77658 5.34917C9.25351 5.5965 8.81566 5.95079 8.46137 6.40869C8.11711 6.8716 7.89652 7.388 7.79792 7.95786C7.69932 8.52606 7.73442 9.0859 7.90153 9.63906V9.64574C7.60574 9.74601 7.32665 9.88138 7.06595 10.0552C6.80525 10.2273 6.57128 10.4312 6.36406 10.6652C6.15683 10.9008 5.98303 11.1565 5.84265 11.4372C5.70395 11.7163 5.60201 12.0104 5.54017 12.3163C5.44993 12.8393 5.47333 13.3557 5.61036 13.8688C5.74573 14.3802 5.98136 14.8414 6.31727 15.2508C5.90783 15.555 5.58697 15.9343 5.35467 16.3872C5.12238 16.8418 5.00206 17.3248 4.99537 17.8345C4.99872 18.2924 5.09397 18.7319 5.28114 19.1497C5.46664 19.5691 5.72902 19.9335 6.06826 20.2426C5.70896 20.6905 5.48503 21.2002 5.39812 21.7684C5.36136 22.0959 5.37139 22.4235 5.42821 22.7494C5.4867 23.0752 5.58864 23.3861 5.73737 23.6819C5.88611 23.9777 6.07328 24.2467 6.29888 24.4891C6.52449 24.7314 6.78018 24.9353 7.06595 25.1024C7.31662 25.2528 7.58401 25.3614 7.86978 25.4266C8.07701 25.4784 8.32935 25.5252 8.62348 25.5686V28.3077C8.62348 31.3576 8.61178 35.1511 8.62348 35.6057C8.6452 35.8146 8.57167 35.985 8.40623 36.1137C7.33167 37.2635 6.37409 38.5018 5.53182 39.8304C5.06389 40.5908 4.70292 41.3996 4.45057 42.2552C4.12637 43.4585 4.02443 44.6801 4.14308 45.9201L4.15143 46.0638C4.21494 46.9078 4.1882 47.8553 4.15143 49.1638C4.12637 50.0562 4.09628 51.1224 4.08292 52.4577V52.8705C4.04949 55.7633 4.02275 58.6561 4.00103 61.5489C3.98766 62.1271 4.10464 62.6769 4.35197 63.1983C4.59931 63.7214 4.95192 64.1592 5.40815 64.5135C5.87274 64.8578 6.3908 65.08 6.95899 65.1786C7.52886 65.2772 8.09038 65.2421 8.64353 65.0734C8.74213 65.3708 8.87917 65.6499 9.0513 65.9106C9.2251 66.1713 9.42898 66.4053 9.66294 66.6125C9.89858 66.8197 10.1559 66.9935 10.4367 67.1322C10.7175 67.2726 11.0116 67.3729 11.3174 67.4347C11.8405 67.5233 12.3569 67.4999 12.8682 67.3645C13.3813 67.2292 13.8409 66.9935 14.2503 66.6576C14.5545 67.0687 14.9338 67.3913 15.39 67.6252C15.8446 67.8575 16.3292 67.9778 16.8406 67.9829C17.2985 67.9745 17.7347 67.8759 18.1525 67.6887C18.5686 67.4999 18.9329 67.2375 19.2404 66.8999C19.6916 67.2643 20.203 67.4882 20.7762 67.5734C21.1054 67.6068 21.4313 67.5951 21.7555 67.535C22.0814 67.4748 22.3906 67.3712 22.6864 67.2225C22.9805 67.0754 23.2495 66.8882 23.4902 66.6643C23.7325 66.4387 23.9381 66.1847 24.1068 65.9006C24.2539 65.6499 24.3642 65.3825 24.4344 65.1001C24.5581 64.5185 24.6433 63.9319 24.6884 63.3387C27.4442 63.3587 34.0085 63.3755 34.6369 63.3571C34.8474 63.332 35.0146 63.4055 35.1382 63.5777C36.288 64.6506 37.5263 65.6081 38.8532 66.4521C39.6136 66.9167 40.4208 67.2743 41.2747 67.5233C42.5298 67.8659 43.8032 67.9645 45.095 67.8191C45.9323 67.7623 46.8765 67.789 48.1817 67.8191C49.0741 67.8442 50.1436 67.8726 51.4822 67.8843L54.4001 67.916C56.4606 67.9377 58.5229 67.9578 60.5884 67.9728H60.6068C60.7489 67.9778 60.8909 67.9728 61.0313 67.9595C61.1733 67.9478 61.3121 67.926 61.4508 67.896C61.5895 67.8675 61.7265 67.8291 61.8602 67.784C61.9939 67.7372 62.1259 67.6837 62.2529 67.6236C62.3816 67.5617 62.5053 67.4932 62.6239 67.4163C62.7442 67.3395 62.8579 67.2576 62.9682 67.1673C63.0785 67.0771 63.1821 66.9818 63.2807 66.8799C63.3776 66.7763 63.4695 66.6693 63.5548 66.5557C63.64 66.4437 63.7185 66.3251 63.7904 66.2031C63.8606 66.0794 63.9258 65.9541 63.9809 65.8237C64.0377 65.6934 64.0862 65.5597 64.1263 65.4243C64.1664 65.2889 64.1982 65.1502 64.2216 65.0115C64.2449 64.8711 64.2617 64.7308 64.2683 64.5887C64.275 64.4483 64.2734 64.3063 64.2633 64.1642C64.255 64.0239 64.2366 63.8835 64.2099 63.7448C64.1831 63.6044 64.148 63.4674 64.1046 63.332C64.402 63.2334 64.6795 63.0964 64.9418 62.9226C65.2025 62.7504 65.4365 62.5466 65.6437 62.3126C65.8509 62.0786 66.0231 61.8213 66.1634 61.5405C66.3038 61.2614 66.4041 60.9673 66.4676 60.6615C66.5595 60.1384 66.5378 59.6203 66.4008 59.1073C66.2654 58.5959 66.0281 58.1347 65.6888 57.7252C65.8844 57.5849 66.0598 57.4244 66.2186 57.2439C66.3774 57.0634 66.5127 56.8679 66.628 56.6574C66.7417 56.4468 66.8319 56.2262 66.8954 55.9939C66.9606 55.7633 66.999 55.5276 67.0107 55.2887C67.0241 55.0497 67.0091 54.8107 66.9673 54.5751C66.9255 54.3394 66.8587 54.1105 66.7667 53.8882C66.6732 53.6676 66.5578 53.4604 66.4175 53.2649C66.2788 53.0694 66.1183 52.8922 65.9395 52.7318C66.2988 52.2839 66.5211 51.7759 66.608 51.2077C66.6447 50.8785 66.6347 50.5509 66.5779 50.225C66.5194 49.8992 66.4175 49.5883 66.2687 49.2925C66.1217 48.9967 65.9345 48.7277 65.7089 48.487C65.4816 48.2447 65.2259 48.0408 64.9402 47.8737C64.6895 47.7233 64.4204 47.6147 64.1347 47.5478C63.9207 47.4977 63.6667 47.4509 63.3759 47.4074C63.3943 44.7586 63.4027 37.9988 63.3843 37.3721C63.3626 37.1632 63.4344 36.9927 63.6016 36.864C64.6778 35.7126 65.6404 34.4743 66.4893 33.1474C67.0542 32.2383 67.4536 31.2623 67.6909 30.2178C67.9265 29.175 67.985 28.1205 67.8664 27.0576L67.858 26.9189C67.8012 26.0767 67.8263 25.1325 67.858 23.8256C67.8831 22.9332 67.9115 21.8586 67.9232 20.5217V20.1089C67.9533 17.2161 67.9783 14.3233 67.9984 11.4305C68.0151 10.8557 67.9015 10.3075 67.6575 9.78779C67.4118 9.26639 67.0642 8.82854 66.6113 8.47425ZM63.8272 51.2344C63.7336 51.3848 63.6082 51.5001 63.4528 51.5837C63.2957 51.6656 63.1286 51.704 62.9531 51.6973C61.5978 51.6973 60.2425 51.6789 58.8889 51.6622L52.7423 51.6088C52.5869 51.5954 52.4348 51.6088 52.2844 51.6472C52.1323 51.6873 51.9936 51.7508 51.8649 51.8377C51.7346 51.9263 51.6243 52.0332 51.5324 52.1586C51.4405 52.2839 51.3719 52.4209 51.3268 52.5697C51.2834 52.7067 51.2617 52.8454 51.265 52.9875C51.2683 53.1312 51.2951 53.2682 51.3435 53.4019C51.3937 53.5373 51.4639 53.6593 51.5541 53.7696C51.6443 53.8782 51.7513 53.9718 51.8733 54.0453C52.1607 54.2108 52.4699 54.2927 52.8008 54.2876C54.836 54.3117 56.3035 54.2896 57.7031 54.2687C57.7642 54.2677 57.8252 54.2668 57.8862 54.2659C59.2849 54.2425 60.7338 54.2208 62.7559 54.2392C62.9197 54.2392 63.0668 54.2392 63.2189 54.2459C63.3392 54.2525 63.4545 54.281 63.5648 54.3311C63.6751 54.3812 63.7703 54.4514 63.8539 54.54C63.9358 54.6286 63.9993 54.7288 64.0427 54.8425C64.0862 54.9544 64.1062 55.0714 64.1046 55.1934C64.1129 55.3154 64.0962 55.4341 64.0544 55.5477C64.0143 55.663 63.9525 55.7649 63.8689 55.8552C63.7854 55.9438 63.6884 56.014 63.5765 56.0624C63.4645 56.1126 63.3475 56.1376 63.2255 56.1376C62.4702 56.1543 61.7148 56.1443 60.9628 56.1376L60.3779 56.1309C58.7247 56.1165 57.6507 56.1437 56.6302 56.1696C56.5892 56.1706 56.5483 56.1717 56.5074 56.1727C55.478 56.2011 54.4352 56.2295 52.7958 56.2195C52.3696 56.2011 51.997 56.3298 51.6744 56.6072C51.4004 56.9632 51.2733 57.3659 51.2951 57.8155C51.3068 57.9542 51.3402 58.0845 51.4004 58.2099C51.4588 58.3352 51.5374 58.4455 51.636 58.5424C51.7346 58.6377 51.8482 58.7129 51.9752 58.768C52.1022 58.8232 52.2343 58.8549 52.3713 58.8616C52.5969 58.8884 52.8208 58.9001 53.0465 58.9001L53.2938 58.9051C56.4439 58.9352 59.5841 58.9636 62.7359 58.9836C62.9414 58.9519 63.1386 58.9819 63.3258 59.0739C63.513 59.1641 63.6567 59.3011 63.757 59.4833C63.8355 59.622 63.8723 59.7691 63.8706 59.9278C63.8689 60.0866 63.8288 60.2337 63.7469 60.369C63.6467 60.5228 63.513 60.6431 63.3492 60.7266C63.1854 60.8119 63.0116 60.8503 62.8261 60.842C61.3004 60.8319 59.7729 60.8169 58.2455 60.7968H58.0148C56.2133 60.7768 54.4118 60.7567 52.6086 60.7567C52.2042 60.745 51.8583 60.8804 51.5675 61.1595C51.3151 61.4219 51.1948 61.736 51.2048 62.1003C51.2048 62.2792 51.2416 62.453 51.3118 62.6184C51.382 62.7855 51.4806 62.9309 51.6109 63.0563C51.7396 63.1816 51.8883 63.2769 52.0571 63.342C52.2242 63.4072 52.398 63.4373 52.5785 63.4323H52.8743C55.3009 63.4624 57.7341 63.4858 60.1706 63.5025H60.3979C60.9377 63.5125 61.5794 63.6813 61.5794 64.4166C61.5794 65.1519 60.9126 65.2889 60.3678 65.3023L55.097 65.2505C51.6677 65.2154 48.2368 65.182 44.8043 65.1519C44.0338 65.172 43.2701 65.1018 42.5148 64.943C41.7594 64.7826 41.0324 64.5369 40.3356 64.206C39.637 63.8751 38.9886 63.4674 38.387 62.9844C37.7854 62.4998 37.2489 61.9533 36.776 61.3416C36.6122 61.1277 36.41 60.9623 36.166 60.8453C35.9237 60.7283 35.668 60.6732 35.3989 60.6782H35.3538C34.5466 60.6865 27.8085 60.6698 24.8455 60.6498C24.8973 59.1307 24.909 57.6433 24.9107 56.7877C25.2065 56.8646 25.5073 56.908 25.8131 56.9197C26.393 56.9314 26.9478 56.8228 27.4793 56.5955C28.0107 56.3666 28.4703 56.039 28.8596 55.6095C29.0552 55.4173 29.2256 55.2034 29.366 54.9678C29.5081 54.7305 29.6167 54.4815 29.6936 54.2158C29.7688 53.9517 29.8105 53.6827 29.8172 53.4069C29.8239 53.1312 29.7955 52.8605 29.732 52.5931C29.6585 51.9614 29.5916 51.3397 29.5348 50.7113C31.973 50.7113 34.3812 50.7113 34.7405 50.7297C35.043 50.7531 35.3337 50.703 35.6112 50.5776C35.8886 50.4506 36.1192 50.2668 36.3014 50.0228C36.9915 49.087 37.8071 48.2748 38.7463 47.5863C39.6838 46.8994 40.7032 46.3663 41.8045 45.9886C42.3978 45.7931 43.0044 45.6611 43.6244 45.5959C45.2271 45.4572 46.8297 45.3218 48.4324 45.2015L51.9986 44.9375C52.2994 44.9157 52.5819 44.9776 52.8459 45.123C53.0147 45.2182 53.135 45.3553 53.2069 45.5357C53.2787 45.7146 53.2854 45.8967 53.2303 46.0822C53.2052 46.2777 53.125 46.4449 52.9896 46.5852C52.8526 46.7273 52.6888 46.8142 52.495 46.8459C52.1744 46.9203 51.8521 46.9718 51.5315 47.023C51.5279 47.0236 51.5243 47.0242 51.5207 47.0247L51.128 47.0883C50.6834 47.1367 50.3308 47.3406 50.0701 47.7016C49.8913 47.9489 49.8144 48.2246 49.8395 48.5288C49.8529 48.716 49.9013 48.8914 49.9882 49.0586C50.0734 49.224 50.1888 49.3661 50.3325 49.4864C50.4762 49.605 50.6383 49.6903 50.8171 49.7421C50.9976 49.7955 51.1798 49.8106 51.3653 49.7872H51.4856C55.2156 49.8273 58.9356 49.8657 62.6774 49.8958H62.8061C63.3358 49.8958 63.6233 50.0245 63.8021 50.3454C63.889 50.4807 63.9341 50.6278 63.9391 50.7865C63.9425 50.9453 63.9057 51.0957 63.8272 51.2344ZM19.4159 52.3023C19.2805 52.2538 19.1418 52.2321 18.9981 52.2321C18.856 52.2338 18.7173 52.2588 18.582 52.309C18.4483 52.3591 18.3263 52.4293 18.2177 52.5212C18.1074 52.6131 18.0171 52.7218 17.9453 52.8454C17.7798 53.1278 17.6979 53.4337 17.7013 53.7629C17.6779 55.8886 17.7013 57.3927 17.7247 58.8449C17.7464 60.247 17.7714 61.6976 17.7514 63.7247C17.7514 63.8835 17.7514 64.0339 17.7414 64.186C17.7313 64.3046 17.7013 64.4166 17.6478 64.5235C17.596 64.6288 17.5258 64.7224 17.4389 64.8026C17.3503 64.8845 17.2517 64.9447 17.1414 64.9881C17.0311 65.0316 16.9158 65.0533 16.7972 65.0533C16.6785 65.0533 16.5632 65.0316 16.4529 64.9881C16.3409 64.9447 16.2423 64.8845 16.1554 64.8026C16.0669 64.7224 15.9983 64.6288 15.9449 64.5235C15.8931 64.4166 15.8613 64.3046 15.8513 64.186C15.8296 63.4741 15.8413 62.7605 15.8513 62.0469L15.8613 61.3366C15.8763 59.5819 15.8479 58.5241 15.8145 57.4027C15.7878 56.3933 15.7577 55.3605 15.7627 53.7612C15.7811 53.3434 15.6558 52.9741 15.3867 52.6532C15.0608 52.3859 14.6881 52.2555 14.267 52.2588C14.2353 52.2588 14.2052 52.2588 14.1751 52.2588C14.0364 52.2705 13.906 52.3056 13.7807 52.3641C13.6554 52.4226 13.5434 52.5012 13.4465 52.5998C13.3495 52.6984 13.2727 52.812 13.2158 52.9373C13.1607 53.0643 13.1273 53.1964 13.1189 53.3351C13.0888 53.5958 13.0771 53.8582 13.0855 54.1222V54.2609L13.0805 54.7656C13.0537 57.7453 13.0287 60.7216 13.007 63.693C12.9986 64.2411 12.8532 64.5352 12.5073 64.7107C12.3686 64.7893 12.2182 64.8277 12.0577 64.826C11.8973 64.826 11.7486 64.7842 11.6099 64.7024C11.4578 64.6021 11.3408 64.4701 11.2589 64.3063C11.1754 64.1442 11.1386 63.9721 11.1469 63.7899C11.1469 62.5833 11.1637 61.3767 11.1804 60.1702L11.2355 53.5791C11.2455 53.3986 11.2188 53.2231 11.1586 53.0526C11.0968 52.8839 11.0049 52.7318 10.8829 52.5998C10.7609 52.4661 10.6172 52.3625 10.4534 52.2873C10.288 52.2137 10.1158 52.1736 9.93534 52.1686C9.75486 52.1636 9.57939 52.1937 9.41227 52.2605C9.24348 52.3257 9.09475 52.4209 8.9644 52.548C8.83572 52.6733 8.73545 52.8187 8.66526 52.9858C8.59507 53.1512 8.55997 53.3251 8.55997 53.5055C8.54995 53.6325 8.54493 53.7612 8.54828 53.8882C8.52822 56.2964 8.50817 58.7146 8.47976 61.1277V61.36C8.5065 61.726 8.40288 62.0485 8.16725 62.3293C8.00348 62.4814 7.80795 62.5516 7.58401 62.5399C7.35339 62.5516 7.15285 62.4797 6.98072 62.326C6.74843 62.0368 6.64983 61.706 6.68492 61.3366L6.72503 57.5397C6.76514 53.6192 6.79689 49.6986 6.82363 45.7781C6.80525 45.0076 6.87544 44.2456 7.03587 43.4902C7.19463 42.7365 7.44029 42.0112 7.76951 41.3144C8.1004 40.6175 8.5065 39.9691 8.98779 39.3675C9.47076 38.7658 10.0156 38.2277 10.6239 37.7548C10.8461 37.5893 11.0183 37.3821 11.1386 37.1314C11.2589 36.8808 11.3141 36.6167 11.304 36.3393C11.299 35.8129 11.304 32.8817 11.304 30.0607L11.3107 25.8026C13.134 25.9012 15.1277 25.9162 16.1838 25.9129C16.1036 26.2104 16.0602 26.5145 16.0535 26.822C16.0435 27.3869 16.1487 27.9283 16.366 28.448C16.5849 28.9678 16.8974 29.4207 17.3069 29.8084L17.3754 29.8752C17.5676 30.0691 17.7815 30.2362 18.0171 30.3749C18.2544 30.5136 18.5034 30.6206 18.7658 30.6958C19.0298 30.771 19.2989 30.8111 19.573 30.8161C19.8454 30.8211 20.1161 30.791 20.3818 30.7275L20.5422 30.7091C20.7829 30.6824 21.0202 30.6557 21.2608 30.6306C21.2608 33.0187 21.2608 35.37 21.2425 35.7293C21.2191 36.0318 21.2725 36.3209 21.3996 36.5967C21.5266 36.8724 21.7137 37.0997 21.9594 37.2785C22.8902 37.9754 23.7008 38.7942 24.3876 39.7334C25.0761 40.671 25.6109 41.6904 25.9936 42.7883C26.1925 43.3799 26.3178 43.9866 26.3713 44.6082C26.4899 45.8767 26.5969 47.1534 26.6955 48.4185L26.8442 50.3688C26.9127 51.2428 26.9712 52.1068 27.0297 52.9875C27.0514 53.2866 26.9879 53.5657 26.8425 53.8264C26.7456 53.9902 26.6086 54.1072 26.4331 54.1773C26.256 54.2492 26.0772 54.2592 25.8933 54.2091C25.6995 54.1824 25.5324 54.1021 25.3903 53.9684C25.2483 53.8348 25.1597 53.671 25.1212 53.4805C25.0661 53.2198 25.0243 52.9607 24.9809 52.7017C24.9491 52.5045 24.9157 52.3006 24.8823 52.1101C24.7586 51.3347 24.2923 50.8551 23.7024 50.8317C23.6155 50.8166 23.5303 50.8116 23.4434 50.815C23.2579 50.83 23.0824 50.8801 22.917 50.967C22.7515 51.0523 22.6095 51.1676 22.4925 51.3113C22.3738 51.455 22.2869 51.6154 22.2335 51.7943C22.18 51.9731 22.1649 52.1552 22.185 52.3407C22.1599 54.6102 22.1382 56.8813 22.1232 59.1524L22.0814 63.7682C22.0714 64.3163 21.9444 64.6004 21.6201 64.7792C21.4865 64.8611 21.3427 64.9029 21.1856 64.9046C21.0302 64.9062 20.8848 64.8678 20.7495 64.7893C20.6007 64.6957 20.4854 64.572 20.4035 64.4166C20.3217 64.2612 20.2832 64.0957 20.2899 63.9202C20.2899 62.839 20.3016 61.7477 20.3116 60.6631L20.33 58.524C20.3501 56.9197 20.3684 55.3154 20.3785 53.7077C20.3902 53.554 20.3751 53.4019 20.335 53.2532C20.2949 53.1028 20.2314 52.9641 20.1445 52.8371C20.0559 52.7084 19.9507 52.5981 19.8253 52.5062C19.7 52.4159 19.5629 52.3474 19.4159 52.3023ZM8.1873 21.7417C8.28089 21.5946 8.40456 21.4793 8.55997 21.3974C8.71539 21.3172 8.88084 21.2787 9.05464 21.2854C10.3999 21.2854 11.7435 21.3021 13.0905 21.3172L19.2688 21.374C19.4242 21.389 19.578 21.3773 19.7301 21.3389C19.8805 21.3005 20.0225 21.237 20.1512 21.1501C20.2799 21.0615 20.3918 20.9545 20.4821 20.8275C20.574 20.7005 20.6425 20.5618 20.6843 20.4114C20.7294 20.276 20.7495 20.1373 20.7461 19.9936C20.7445 19.8516 20.7177 19.7129 20.6676 19.5792C20.6191 19.4455 20.5489 19.3235 20.4587 19.2132C20.3668 19.1029 20.2615 19.011 20.1395 18.9358C19.8521 18.7686 19.5429 18.6884 19.212 18.6934C17.0879 18.6667 15.5839 18.6934 14.1316 18.7168C12.7295 18.7386 11.2773 18.7603 9.25518 18.7436C9.09976 18.7436 8.94601 18.7436 8.79394 18.7336C8.67361 18.7285 8.5583 18.7018 8.44801 18.65C8.33938 18.5999 8.24245 18.5313 8.16056 18.4428C8.07701 18.3559 8.0135 18.2539 7.97005 18.142C7.9266 18.03 7.90655 17.913 7.90822 17.7927C7.89986 17.6707 7.91657 17.552 7.95835 17.4367C7.99846 17.3214 8.06029 17.2195 8.14385 17.1292C8.22741 17.0407 8.32434 16.9705 8.43631 16.922C8.54827 16.8735 8.66526 16.8485 8.78725 16.8468C9.54429 16.8318 10.2997 16.8401 11.0517 16.8468L11.6366 16.8535C13.3413 16.87 14.4293 16.8407 15.4752 16.8126C15.4863 16.8123 15.4975 16.812 15.5087 16.8117C15.5312 16.8111 15.5537 16.8105 15.5762 16.8098C16.584 16.782 17.6167 16.7535 19.2187 16.7649C19.6432 16.785 20.0158 16.6546 20.3384 16.3772C20.6141 16.0212 20.7411 15.6185 20.7194 15.169C20.7077 15.0319 20.6726 14.9016 20.6141 14.7779C20.5556 14.6542 20.4771 14.5439 20.3785 14.4487C20.2815 14.3534 20.1696 14.2765 20.0442 14.2214C19.9189 14.1663 19.7869 14.1345 19.6498 14.1261C19.4259 14.1011 19.202 14.0877 18.9747 14.0894L18.2243 14.0793C15.238 14.0526 12.2683 14.0242 9.28192 14.0058C9.07636 14.0376 8.88084 14.0075 8.69367 13.9156C8.50817 13.8237 8.36612 13.685 8.26919 13.5028C8.18897 13.3658 8.15054 13.217 8.15054 13.0599C8.15054 12.9012 8.18897 12.7541 8.26919 12.6171C8.36946 12.4617 8.50148 12.343 8.66693 12.2594C8.8307 12.1742 9.0045 12.1358 9.18833 12.1441C10.7927 12.1542 12.3953 12.1725 13.9996 12.1926C15.8028 12.2127 17.606 12.2327 19.4075 12.2327C19.593 12.2427 19.7718 12.2177 19.9456 12.1525C20.1194 12.089 20.2749 11.9937 20.4086 11.8667C20.5422 11.738 20.6459 11.5893 20.7177 11.4189C20.7896 11.2467 20.8247 11.0696 20.8213 10.8841C20.818 10.7053 20.7812 10.5331 20.7094 10.3694C20.6375 10.2056 20.5356 10.0602 20.4069 9.93653C20.2782 9.81119 20.1295 9.7176 19.9623 9.65076C19.7969 9.58558 19.6231 9.5555 19.4443 9.55717H19.1585C16.7169 9.52876 14.2871 9.50871 11.8522 9.48865H11.6115C11.0717 9.47863 10.4317 9.30984 10.4317 8.57285C10.4317 7.83587 11.0968 7.67544 11.6433 7.68713L16.9141 7.74061C20.345 7.77403 23.776 7.80746 27.2052 7.83754C27.9773 7.81749 28.741 7.88767 29.4947 8.04644C30.2501 8.2052 30.977 8.45086 31.6739 8.78175C32.3708 9.11097 33.0209 9.51873 33.6208 10.0017C34.2224 10.4847 34.7589 11.0311 35.2318 11.6411C35.3989 11.8634 35.6061 12.0338 35.8585 12.1508C36.1092 12.2695 36.3732 12.3196 36.6506 12.3046C37.4494 12.2945 44.0756 12.3129 47.1589 12.323C47.1071 13.8437 47.0971 15.3361 47.0954 16.1967C46.798 16.1182 46.4972 16.0747 46.1913 16.063C45.6131 16.0497 45.0566 16.1583 44.5252 16.3872C43.9937 16.6145 43.5342 16.9437 43.1465 17.3732C42.9493 17.5654 42.7805 17.7793 42.6384 18.0149C42.498 18.2523 42.3877 18.5013 42.3125 18.767C42.2357 19.031 42.1939 19.3001 42.1872 19.5758C42.1805 19.8516 42.2089 20.1223 42.2741 20.3897C42.3476 21.0197 42.4128 21.6431 42.4696 22.2714C40.0314 22.2714 37.6232 22.2714 37.2639 22.2514C36.9598 22.228 36.669 22.2798 36.3933 22.4051C36.1159 22.5304 35.8852 22.7159 35.7031 22.9583C35.0112 23.8958 34.1974 24.7063 33.2582 25.3948C32.3206 26.0833 31.3012 26.6148 30.1999 26.9925C29.6067 27.1863 29 27.3167 28.38 27.3802C28.3559 27.3822 28.3317 27.3843 28.3076 27.3864C26.7275 27.5213 25.1506 27.656 23.5704 27.7729L20.0041 28.0386C19.7033 28.057 19.4209 27.9952 19.1568 27.8514C18.9897 27.7562 18.8694 27.6192 18.7975 27.4387C18.7257 27.2598 18.7173 27.0777 18.7741 26.8922C18.7992 26.6983 18.8811 26.5312 19.0165 26.3908C19.1518 26.2488 19.3173 26.1619 19.5095 26.1285C19.8303 26.0549 20.1512 26.0031 20.4737 25.953L20.8765 25.8878C21.321 25.8394 21.6736 25.6355 21.9343 25.2728C22.1131 25.0255 22.19 24.7498 22.1649 24.4456C22.1516 24.2584 22.1031 24.083 22.0179 23.9175C21.931 23.7504 21.8173 23.6083 21.672 23.4897C21.5282 23.371 21.3661 23.2841 21.1873 23.2323C21.0085 23.1789 20.8247 23.1655 20.6392 23.1872H20.5239C16.7938 23.1488 13.0721 23.1087 9.32704 23.0803H9.19836C8.6686 23.0803 8.38116 22.9499 8.20234 22.629C8.11879 22.4937 8.07701 22.3466 8.07366 22.1879C8.07032 22.0291 8.10876 21.8804 8.1873 21.7417ZM23.9615 35.238C23.9531 34.9723 23.9514 32.6978 23.9514 30.4L27.6046 30.1376C27.7466 30.1242 27.892 30.1159 28.0475 30.1092C28.3416 30.0941 28.6675 30.0758 29.0619 30.0189C29.8323 29.9203 30.5876 29.7499 31.3263 29.5092L31.4048 29.4374C32.5797 28.9812 33.6793 28.3845 34.7004 27.6476C35.7231 26.9089 36.6373 26.0549 37.4411 25.084C37.5313 25.0038 37.6366 24.962 37.7569 24.9536C37.9592 24.9403 39.3863 24.9419 41.0391 24.9436H42.6668L42.8874 27.9634C42.9025 28.2776 42.9192 28.6218 42.9777 29.0614C43.083 29.8301 43.2551 30.5821 43.4924 31.3191L43.5576 31.4027C44.0105 32.5792 44.6054 33.6788 45.344 34.6999C46.0827 35.721 46.94 36.6301 47.9143 37.4289C47.9895 37.5208 48.033 37.6244 48.0413 37.7431C48.0513 38.0088 48.0513 40.2833 48.0513 42.5811L44.3982 42.8435C44.2578 42.8569 44.1141 42.8635 43.9586 42.8719C43.6628 42.8869 43.337 42.9036 42.9409 42.9621C42.1722 43.0607 41.4168 43.2295 40.6781 43.4685L40.5929 43.542C39.4181 43.9999 38.3201 44.5965 37.299 45.3352C36.278 46.0722 35.3655 46.9261 34.5633 47.8971C34.4714 47.9756 34.3661 48.0191 34.2475 48.0275C34.0436 48.0408 32.5496 48.0391 30.9636 48.0358H29.3393L29.117 45.0177C29.102 44.7035 29.0853 44.3592 29.0268 43.918C28.9215 43.151 28.7493 42.399 28.5104 41.662L28.4469 41.5767C27.9923 40.4019 27.3974 39.3023 26.6587 38.2795C25.9201 37.2568 25.0644 36.3443 24.0901 35.5438C24.0133 35.4569 23.9698 35.355 23.9615 35.238ZM61.3822 35.228C61.1583 35.3934 60.9862 35.6006 60.8658 35.8513C60.7455 36.1003 60.6904 36.3644 60.7004 36.6418C60.7088 37.4373 60.7004 44.1921 60.6837 47.1802C58.9774 47.0899 57.1208 47.0682 56.0211 47.0682H55.8239C55.9025 46.7707 55.9443 46.4666 55.9493 46.1591C55.9593 45.5959 55.8557 45.0544 55.6368 44.5347C55.4195 44.015 55.1053 43.5621 54.6959 43.176L54.6291 43.1092C54.4319 42.912 54.2113 42.7432 53.9689 42.6045C53.7266 42.4641 53.4709 42.3572 53.2019 42.282C52.9311 42.2084 52.6571 42.17 52.378 42.1667C52.0972 42.1633 51.8215 42.1967 51.5508 42.2636C51.28 42.2953 51.0126 42.3254 50.7436 42.3522C50.7436 39.9657 50.7436 37.6127 50.762 37.2551C50.7854 36.9509 50.7336 36.6618 50.6049 36.3861C50.4779 36.1104 50.2907 35.8831 50.045 35.7043C49.1125 35.0074 48.3037 34.1902 47.6152 33.251C46.9283 32.3135 46.3935 31.294 46.0092 30.1961C45.8136 29.6045 45.6866 28.9979 45.6332 28.3779C45.5245 27.1094 45.4159 25.8327 45.3173 24.5592C45.2588 23.9142 45.2087 23.2674 45.1702 22.614L45.1502 22.3533C45.0867 21.5662 45.0265 20.7891 44.973 19.9919C44.953 19.6928 45.0165 19.4137 45.1619 19.153C45.2588 18.9909 45.3958 18.8739 45.5713 18.8037C45.7485 18.7336 45.9273 18.7219 46.1094 18.772C46.3033 18.7971 46.4721 18.8773 46.6141 19.011C46.7562 19.1447 46.8448 19.3084 46.8815 19.5006C46.9383 19.7596 46.9801 20.0187 47.0219 20.2777C47.0553 20.4749 47.0887 20.6788 47.1205 20.8676C47.1255 21.0281 47.1589 21.1835 47.2208 21.3305C47.2826 21.4793 47.3678 21.613 47.4765 21.73C47.5851 21.8469 47.7121 21.9422 47.8558 22.0141C47.9995 22.0859 48.1499 22.131 48.3104 22.1477C48.4123 22.1645 48.5176 22.1695 48.6212 22.1611C48.7248 22.1528 48.8268 22.1327 48.927 22.101C49.0273 22.0692 49.1209 22.0258 49.2111 21.9723C49.2997 21.9171 49.3816 21.8536 49.4551 21.7801C49.5303 21.7049 49.5938 21.6247 49.649 21.5344C49.7041 21.4459 49.7476 21.3523 49.7793 21.252C49.8127 21.1534 49.8328 21.0515 49.8395 20.9462C49.8478 20.8426 49.8445 20.739 49.8278 20.6353C49.8662 17.1994 49.8963 13.7685 49.9164 10.3409C49.9264 9.96326 49.9264 9.58558 49.9264 9.21458C49.9347 8.66644 50.0651 8.38067 50.3876 8.20185C50.5213 8.12164 50.665 8.07986 50.8221 8.07819C50.9776 8.07652 51.1229 8.11328 51.2583 8.19183C51.407 8.28541 51.5223 8.40908 51.6042 8.5645C51.6861 8.71992 51.7246 8.88536 51.7179 9.06083C51.7179 10.1438 51.7062 11.2334 51.6962 12.3196L51.6778 14.4604C51.6577 16.0647 51.6393 17.6673 51.6293 19.2733C51.6176 19.4288 51.631 19.5808 51.6728 19.7296C51.7129 19.88 51.7764 20.0187 51.8633 20.1457C51.9518 20.2744 52.0571 20.383 52.1825 20.4749C52.3078 20.5668 52.4448 20.6353 52.5919 20.6805C52.7256 20.7273 52.8643 20.7507 53.0063 20.749C53.1484 20.749 53.2871 20.7239 53.4191 20.6754C53.5528 20.627 53.6748 20.5568 53.7834 20.4666C53.8937 20.3763 53.984 20.2694 54.0575 20.1474C54.2313 19.8616 54.3149 19.5524 54.3065 19.2182C54.3316 17.0925 54.3065 15.5901 54.2831 14.1362C54.2614 12.7357 54.238 11.2835 54.2564 9.27976C54.2564 9.18951 54.2564 9.10094 54.2564 9.01237C54.2564 8.93884 54.2564 8.86364 54.2564 8.79512C54.2614 8.67479 54.2881 8.55948 54.3399 8.45086C54.3901 8.34056 54.4586 8.2453 54.5488 8.16342C54.6374 8.08153 54.7377 8.02137 54.8513 7.97959C54.965 7.93781 55.0803 7.91943 55.2023 7.92444C55.3226 7.91608 55.4412 7.93112 55.5565 7.97123C55.6719 8.01134 55.7738 8.0715 55.864 8.15506C55.9543 8.23695 56.0228 8.33388 56.0729 8.44584C56.1214 8.55781 56.1465 8.67479 56.1481 8.79679C56.1699 9.51038 56.1598 10.2223 56.1481 10.9359L56.1381 11.6445C56.1214 13.4009 56.1515 14.4587 56.1832 15.5801C56.2116 16.5878 56.2401 17.6222 56.2367 19.2199C56.2167 19.641 56.3437 20.0137 56.6177 20.3345C56.972 20.6119 57.3731 20.7406 57.8243 20.7206C57.9614 20.7089 58.0934 20.6738 58.2187 20.6153C58.3441 20.5568 58.456 20.4783 58.553 20.3797C58.6499 20.2811 58.7268 20.1674 58.7836 20.0421C58.8387 19.9151 58.8722 19.783 58.8805 19.6443C58.9089 19.3853 58.9206 19.1246 58.9139 18.8622V18.7219L59.0025 9.2831C59.0025 8.74164 59.1446 8.45086 59.4955 8.27371C59.6342 8.19517 59.7846 8.15506 59.945 8.15673C60.1055 8.1584 60.2542 8.20018 60.3929 8.2804C60.545 8.38234 60.662 8.51436 60.7439 8.67647C60.8274 8.84024 60.8642 9.01237 60.8558 9.19453C60.8558 10.1621 60.8458 11.1297 60.8358 12.0957L60.8207 14.0058C60.8023 15.8057 60.7823 17.6072 60.7723 19.412C60.7622 19.5925 60.789 19.7663 60.8491 19.9368C60.911 20.1073 61.0029 20.2593 61.1265 20.3914C61.2485 20.525 61.3923 20.6287 61.5577 20.7022C61.7215 20.7774 61.8953 20.8175 62.0758 20.8208C62.2563 20.8259 62.4301 20.7941 62.5989 20.7289C62.7676 20.6621 62.9164 20.5668 63.0451 20.4398C63.1754 20.3128 63.274 20.1657 63.3442 20.0003C63.4144 19.8332 63.4478 19.6594 63.4478 19.4789C63.4578 19.3519 63.4628 19.2249 63.4595 19.0979C63.4796 16.688 63.4979 14.2682 63.528 11.855V11.6227C63.5013 11.2567 63.6049 10.9342 63.8405 10.6518C64.006 10.5014 64.1998 10.4312 64.4238 10.4429C64.6527 10.4329 64.8533 10.5031 65.0237 10.6568C65.256 10.9442 65.3546 11.2735 65.3195 11.6411L65.2827 15.4347C65.2426 19.3552 65.2109 23.2758 65.1841 27.198C65.2025 27.9684 65.1323 28.7321 64.9736 29.4858C64.8131 30.2412 64.5675 30.9665 64.2383 31.665C63.9074 32.3619 63.5013 33.012 63.02 33.6136C62.537 34.2152 61.9905 34.7534 61.3822 35.228Z" fill="#0D313B"/>
<path d="M8.1873 21.7417C8.28089 21.5946 8.40456 21.4793 8.55997 21.3974C8.71539 21.3172 8.88084 21.2787 9.05464 21.2854C10.3999 21.2854 11.7435 21.3021 13.0905 21.3172L19.2688 21.374C19.4242 21.389 19.578 21.3773 19.7301 21.3389C19.8805 21.3005 20.0225 21.237 20.1512 21.1501C20.2799 21.0615 20.3918 20.9545 20.4821 20.8275C20.574 20.7005 20.6425 20.5618 20.6843 20.4114C20.7294 20.276 20.7495 20.1373 20.7461 19.9936C20.7445 19.8516 20.7177 19.7129 20.6676 19.5792C20.6191 19.4455 20.5489 19.3235 20.4587 19.2132C20.3668 19.1029 20.2615 19.011 20.1395 18.9358C19.8521 18.7686 19.5429 18.6884 19.212 18.6934C17.0879 18.6667 15.5839 18.6934 14.1316 18.7168C12.7295 18.7386 11.2773 18.7603 9.25518 18.7436C9.09976 18.7436 8.94601 18.7436 8.79394 18.7336C8.67361 18.7285 8.5583 18.7018 8.44801 18.65C8.33938 18.5999 8.24245 18.5313 8.16056 18.4428C8.07701 18.3559 8.0135 18.2539 7.97005 18.142C7.9266 18.03 7.90655 17.913 7.90822 17.7927C7.89986 17.6707 7.91657 17.552 7.95835 17.4367C7.99846 17.3214 8.06029 17.2195 8.14385 17.1292C8.22741 17.0407 8.32434 16.9705 8.43631 16.922C8.54827 16.8735 8.66526 16.8485 8.78725 16.8468C9.54429 16.8318 10.2997 16.8401 11.0517 16.8468L11.6366 16.8535C13.3413 16.87 14.4293 16.8407 15.4752 16.8126L15.5087 16.8117L15.5762 16.8098C16.584 16.782 17.6167 16.7535 19.2187 16.7649C19.6432 16.785 20.0158 16.6546 20.3384 16.3772C20.6141 16.0212 20.7411 15.6185 20.7194 15.169C20.7077 15.0319 20.6726 14.9016 20.6141 14.7779C20.5556 14.6542 20.4771 14.5439 20.3785 14.4487C20.2815 14.3534 20.1696 14.2765 20.0442 14.2214C19.9189 14.1663 19.7869 14.1345 19.6498 14.1261C19.4259 14.1011 19.202 14.0877 18.9747 14.0894L18.2243 14.0793C15.238 14.0526 12.2683 14.0242 9.28192 14.0058C9.07636 14.0376 8.88084 14.0075 8.69367 13.9156C8.50817 13.8237 8.36612 13.685 8.26919 13.5028C8.18897 13.3658 8.15054 13.217 8.15054 13.0599C8.15054 12.9012 8.18897 12.7541 8.26919 12.6171C8.36946 12.4617 8.50148 12.343 8.66693 12.2594C8.8307 12.1742 9.0045 12.1358 9.18833 12.1441C10.7927 12.1542 12.3953 12.1725 13.9996 12.1926C15.8028 12.2127 17.606 12.2327 19.4075 12.2327C19.593 12.2427 19.7718 12.2177 19.9456 12.1525C20.1194 12.089 20.2749 11.9937 20.4086 11.8667C20.5422 11.738 20.6459 11.5893 20.7177 11.4189C20.7896 11.2467 20.8247 11.0696 20.8213 10.8841C20.818 10.7053 20.7812 10.5331 20.7094 10.3694C20.6375 10.2056 20.5356 10.0602 20.4069 9.93653C20.2782 9.81119 20.1295 9.7176 19.9623 9.65076C19.7969 9.58558 19.6231 9.5555 19.4443 9.55717H19.1585C16.7169 9.52876 14.2871 9.50871 11.8522 9.48865H11.6115C11.0717 9.47863 10.4317 9.30984 10.4317 8.57285C10.4317 7.83587 11.0968 7.67544 11.6433 7.68713L16.9141 7.74061C20.345 7.77403 23.776 7.80746 27.2052 7.83754C27.9773 7.81749 28.741 7.88767 29.4947 8.04644C30.2501 8.2052 30.977 8.45086 31.6739 8.78175C32.3708 9.11097 33.0209 9.51873 33.6208 10.0017C34.2224 10.4847 34.7589 11.0311 35.2318 11.6411C35.3989 11.8634 35.6061 12.0338 35.8585 12.1508C36.1092 12.2695 36.3732 12.3196 36.6506 12.3046C37.4494 12.2945 44.0756 12.3129 47.1589 12.323C47.1071 13.8437 47.0971 15.3361 47.0954 16.1967C46.798 16.1182 46.4972 16.0747 46.1913 16.063C45.6131 16.0497 45.0566 16.1583 44.5252 16.3872C43.9937 16.6145 43.5342 16.9437 43.1465 17.3732C42.9493 17.5654 42.7805 17.7793 42.6384 18.0149C42.498 18.2523 42.3877 18.5013 42.3125 18.767C42.2357 19.031 42.1939 19.3001 42.1872 19.5758C42.1805 19.8516 42.2089 20.1223 42.2741 20.3897C42.3476 21.0197 42.4128 21.6431 42.4696 22.2714C40.0314 22.2714 37.6232 22.2714 37.2639 22.2514C36.9598 22.228 36.669 22.2798 36.3933 22.4051C36.1159 22.5304 35.8852 22.7159 35.7031 22.9583C35.0112 23.8958 34.1974 24.7063 33.2582 25.3948C32.3206 26.0833 31.3012 26.6148 30.1999 26.9925C29.6067 27.1863 29 27.3167 28.38 27.3802L28.3076 27.3864C26.7275 27.5213 25.1506 27.656 23.5704 27.7729L20.0041 28.0386C19.7033 28.057 19.4209 27.9952 19.1568 27.8514C18.9897 27.7562 18.8694 27.6192 18.7975 27.4387C18.7257 27.2598 18.7173 27.0777 18.7741 26.8922C18.7992 26.6983 18.8811 26.5312 19.0165 26.3908C19.1518 26.2488 19.3173 26.1619 19.5095 26.1285C19.8303 26.0549 20.1512 26.0031 20.4737 25.953L20.8765 25.8878C21.321 25.8394 21.6736 25.6355 21.9343 25.2728C22.1131 25.0255 22.19 24.7498 22.1649 24.4456C22.1516 24.2584 22.1031 24.083 22.0179 23.9175C21.931 23.7504 21.8173 23.6083 21.672 23.4897C21.5282 23.371 21.3661 23.2841 21.1873 23.2323C21.0085 23.1789 20.8247 23.1655 20.6392 23.1872H20.5239C16.7938 23.1488 13.0721 23.1087 9.32704 23.0803H9.19836C8.6686 23.0803 8.38116 22.9499 8.20234 22.629C8.11879 22.4937 8.07701 22.3466 8.07366 22.1879C8.07032 22.0291 8.10876 21.8804 8.1873 21.7417Z" fill="#2894B4"/>
<path d="M63.8272 51.2344C63.7336 51.3848 63.6082 51.5001 63.4528 51.5837C63.2957 51.6656 63.1286 51.704 62.9531 51.6973C61.5978 51.6973 60.2425 51.6789 58.8889 51.6622L52.7423 51.6088C52.5869 51.5954 52.4348 51.6088 52.2844 51.6472C52.1323 51.6873 51.9936 51.7508 51.8649 51.8377C51.7346 51.9263 51.6243 52.0332 51.5324 52.1586C51.4405 52.2839 51.3719 52.4209 51.3268 52.5697C51.2834 52.7067 51.2617 52.8454 51.265 52.9875C51.2683 53.1312 51.2951 53.2682 51.3435 53.4019C51.3937 53.5373 51.4639 53.6593 51.5541 53.7696C51.6443 53.8782 51.7513 53.9718 51.8733 54.0453C52.1607 54.2108 52.4699 54.2927 52.8008 54.2876C54.836 54.3117 56.3035 54.2896 57.7031 54.2687L57.8862 54.2659C59.2849 54.2425 60.7338 54.2208 62.7559 54.2392C62.9197 54.2392 63.0668 54.2392 63.2189 54.2459C63.3392 54.2525 63.4545 54.281 63.5648 54.3311C63.6751 54.3812 63.7703 54.4514 63.8539 54.54C63.9358 54.6286 63.9993 54.7288 64.0427 54.8425C64.0862 54.9544 64.1062 55.0714 64.1046 55.1934C64.1129 55.3154 64.0962 55.4341 64.0544 55.5477C64.0143 55.663 63.9525 55.7649 63.8689 55.8552C63.7854 55.9438 63.6884 56.014 63.5765 56.0624C63.4645 56.1126 63.3475 56.1376 63.2255 56.1376C62.4702 56.1543 61.7148 56.1443 60.9628 56.1376L60.3779 56.1309C58.7247 56.1165 57.6507 56.1437 56.6302 56.1696L56.5074 56.1727C55.478 56.2011 54.4352 56.2295 52.7958 56.2195C52.3696 56.2011 51.997 56.3298 51.6744 56.6072C51.4004 56.9632 51.2733 57.3659 51.2951 57.8155C51.3068 57.9542 51.3402 58.0845 51.4004 58.2099C51.4588 58.3352 51.5374 58.4455 51.636 58.5424C51.7346 58.6377 51.8482 58.7129 51.9752 58.768C52.1022 58.8232 52.2343 58.8549 52.3713 58.8616C52.5969 58.8884 52.8208 58.9001 53.0465 58.9001L53.2938 58.9051C56.4439 58.9352 59.5841 58.9636 62.7359 58.9836C62.9414 58.9519 63.1386 58.9819 63.3258 59.0739C63.513 59.1641 63.6567 59.3011 63.757 59.4833C63.8355 59.622 63.8723 59.7691 63.8706 59.9278C63.8689 60.0866 63.8288 60.2337 63.7469 60.369C63.6467 60.5228 63.513 60.6431 63.3492 60.7266C63.1854 60.8119 63.0116 60.8503 62.8261 60.842C61.3004 60.8319 59.7729 60.8169 58.2455 60.7968H58.0148C56.2133 60.7768 54.4118 60.7567 52.6086 60.7567C52.2042 60.745 51.8583 60.8804 51.5675 61.1595C51.3151 61.4219 51.1948 61.736 51.2048 62.1003C51.2048 62.2792 51.2416 62.453 51.3118 62.6184C51.382 62.7855 51.4806 62.9309 51.6109 63.0563C51.7396 63.1816 51.8883 63.2769 52.0571 63.342C52.2242 63.4072 52.398 63.4373 52.5785 63.4323H52.8743C55.3009 63.4624 57.7341 63.4858 60.1706 63.5025H60.3979C60.9377 63.5125 61.5794 63.6813 61.5794 64.4166C61.5794 65.1519 60.9126 65.2889 60.3678 65.3023L55.097 65.2505C51.6677 65.2154 48.2368 65.182 44.8043 65.1519C44.0338 65.172 43.2701 65.1018 42.5148 64.943C41.7594 64.7826 41.0324 64.5369 40.3356 64.206C39.637 63.8751 38.9886 63.4674 38.387 62.9844C37.7854 62.4998 37.2489 61.9533 36.776 61.3416C36.6122 61.1277 36.41 60.9623 36.166 60.8453C35.9237 60.7283 35.668 60.6732 35.3989 60.6782H35.3538C34.5466 60.6865 27.8085 60.6698 24.8455 60.6498C24.8973 59.1307 24.909 57.6433 24.9107 56.7877C25.2065 56.8646 25.5073 56.908 25.8131 56.9197C26.393 56.9314 26.9478 56.8228 27.4793 56.5955C28.0107 56.3666 28.4703 56.039 28.8596 55.6095C29.0552 55.4173 29.2256 55.2034 29.366 54.9678C29.5081 54.7305 29.6167 54.4815 29.6936 54.2158C29.7688 53.9517 29.8105 53.6827 29.8172 53.4069C29.8239 53.1312 29.7955 52.8605 29.732 52.5931C29.6585 51.9614 29.5916 51.3397 29.5348 50.7113C31.973 50.7113 34.3812 50.7113 34.7405 50.7297C35.043 50.7531 35.3337 50.703 35.6112 50.5776C35.8886 50.4506 36.1192 50.2668 36.3014 50.0228C36.9915 49.087 37.8071 48.2748 38.7463 47.5863C39.6838 46.8994 40.7032 46.3663 41.8045 45.9886C42.3978 45.7931 43.0044 45.6611 43.6244 45.5959C45.2271 45.4572 46.8297 45.3218 48.4324 45.2015L51.9986 44.9375C52.2994 44.9157 52.5819 44.9776 52.8459 45.123C53.0147 45.2182 53.135 45.3553 53.2069 45.5357C53.2787 45.7146 53.2854 45.8967 53.2303 46.0822C53.2052 46.2777 53.125 46.4449 52.9896 46.5852C52.8526 46.7273 52.6888 46.8142 52.495 46.8459C52.1744 46.9203 51.8521 46.9718 51.5315 47.023L51.5207 47.0247L51.128 47.0883C50.6834 47.1367 50.3308 47.3406 50.0701 47.7016C49.8913 47.9489 49.8144 48.2246 49.8395 48.5288C49.8529 48.716 49.9013 48.8914 49.9882 49.0586C50.0734 49.224 50.1888 49.3661 50.3325 49.4864C50.4762 49.605 50.6383 49.6903 50.8171 49.7421C50.9976 49.7955 51.1798 49.8106 51.3653 49.7872H51.4856C55.2156 49.8273 58.9356 49.8657 62.6774 49.8958H62.8061C63.3358 49.8958 63.6233 50.0245 63.8021 50.3454C63.889 50.4807 63.9341 50.6278 63.9391 50.7865C63.9425 50.9453 63.9057 51.0957 63.8272 51.2344Z" fill="#2894B4"/>
</g>
</g>
</g>
</svg>