<svg xmlns="http://www.w3.org/2000/svg" fill="none" viewBox="6.42 7 22.86 22">
<path d="M17.5999 20.3C16.1999 20.3 14.9999 19.3 14.9999 18C14.9999 16.7 16.1999 15.7 17.5999 15.7C18.9999 15.7 20.1999 16.7 20.1999 18C20.1999 19.3 18.9999 20.3 17.5999 20.3ZM16.1999 9.29995H14.2999L13.1999 8.89995V7.19995H10.6999L10.3999 8.39995L9.7999 9.19995L8.4999 8.69995L6.8999 10.3L8.2999 11.7V13.2L6.8999 14.1L8.4999 16L9.0999 15.7L10.9999 16.3L11.6999 14.7L10.1999 12.7L11.0999 10.9L12.6999 10.7L13.9999 11.8L16.6999 10.6L16.1999 9.29995ZM27.0999 24.7999V22.5L27.8999 21.7L27.0999 20.6L26.0999 21L24.3999 19.9L23.9999 21.2L25.0999 22.1L25.7999 23V23.9L25.2999 24.7999L24.3999 25.5L23.4999 25.7L22.2999 25.2L21.3999 24.2999L18.8999 25.2999L19.9999 26.7999L21.0999 26.2999L22.6999 27.2L22.9999 28.6L24.4999 28.2V27.4L26.0999 26.2999L27.1999 26.9L27.8999 25.4L27.0999 24.7999Z" fill="#FFA600"/>
<path d="M6.9001 10.5C6.9001 10.4 8.1001 8.6 8.2001 8.5C8.4001 8.3 8.7001 8.5 9.2001 8.7L9.5001 8.9L9.7001 8.8C9.9001 8.7 10.2001 8.5 10.4001 8.4L10.6001 8.3V7.9C10.6001 7.4 10.6001 7.3 10.7001 7.1C10.8001 7 10.8001 7 12.0001 7H12.3001C13.0001 7 13.3001 7 13.5001 7.2C13.6001 7.3 13.6001 7.5 13.6001 7.8V8.3C13.8001 8.4 14.3001 8.7 14.6001 8.8H14.7001L15.0001 8.7C15.5001 8.4 15.6001 8.4 15.6001 8.4C15.9001 8.4 16.0001 8.6 16.5001 9.4C17.0001 10.2 17.2001 10.4 16.8001 10.7C16.7001 10.8 16.6001 10.8 16.5001 10.8C16.3001 10.8 16.1001 10.5 15.8001 10C15.7001 9.8 15.6001 9.6 15.5001 9.5C15.4001 9.5 15.3001 9.6 15.2001 9.7C15.1001 9.8 14.8001 10 14.6001 10C14.5001 10 14.3001 9.9 14.2001 9.8C13.9001 9.6 13.5001 9.3 13.2001 9.2C13.0001 9.2 12.8001 9.1 12.7001 9C12.6001 8.9 12.6001 8.8 12.6001 8.3V8H11.5001V8.3C11.5001 8.9 11.5001 9 11.0001 9.2C10.7001 9.3 10.3001 9.5 10.0001 9.7C9.6001 10.1 9.4001 10 8.9001 9.7C8.8001 9.6 8.7001 9.6 8.6001 9.5C8.5001 9.8 8.2001 10.3 8.0001 10.5C8.1001 10.5 8.1001 10.6 8.3001 10.7C8.8001 11 8.8001 11.1 8.8001 11.1C8.8001 11.2 8.8001 11.5 8.8001 11.7C8.7001 12.1 8.7001 12.8 8.8001 13.2C8.9001 13.5 8.9001 13.7 8.8001 13.8C8.8001 13.8 8.8001 14 8.3001 14.3C8.2001 14.4 8.1001 14.4 8.1001 14.5C8.2001 14.7 8.5001 15.2 8.7001 15.4C8.8001 15.4 8.8001 15.3 8.9001 15.3C9.4001 15 9.5001 15 9.5001 15C9.6001 15 9.8001 15.1 10.0001 15.2C10.1001 15.3 10.4001 15.5 10.7001 15.6C11.2001 15.8 11.3001 15.9 11.3001 15.9C11.4001 16.1 11.4001 16.4 11.2001 16.5C11.1001 16.6 11.0001 16.6 10.9001 16.6H10.8001C10.5001 16.6 9.9001 16.2 9.6001 16L9.5001 15.9L9.2001 16.1C8.8001 16.3 8.4001 16.6 8.1001 16.2C8.0001 16.1 7.7001 15.7 7.5001 15.2C7.0001 14.5 6.9001 14.3 7.0001 14.1C7.0001 13.9 7.2001 13.8 7.6001 13.5L7.9001 13.3V13.2C7.9001 12.9 7.9001 11.7 7.9001 11.5L7.6001 11.3C7.1001 11.1 6.7001 10.8 6.9001 10.5ZM18.0001 8.7C18.7001 8.7 19.7001 8.9 20.5001 9.1C23.4001 9.9 25.8001 12.2 26.7001 15.1C26.9001 15.7 27.1001 16.6 27.1001 17.1V17.2C26.8001 16.9 26.7001 16.9 26.6001 16.9C26.3001 16.9 26.1001 17.1 26.1001 17.4C26.1001 17.6 26.2001 17.8 26.8001 18.3C27.3001 18.8 27.5001 19 27.7001 19C27.9001 19 28.0001 18.9 28.6001 18.3C29.2001 17.7 29.5001 17.4 29.1001 17.1C28.8001 16.8 28.4001 17.1 28.2001 17.3C28.0001 14.9 26.9001 12.6 25.2001 10.8C23.4001 9 20.9001 7.9 18.5001 7.8C17.8001 7.8 17.7001 7.8 17.6001 7.9C17.5001 8 17.5001 8.2 17.5001 8.2C17.5001 8.3 17.5001 8.5 17.6001 8.6C17.6001 8.6 17.8001 8.7 18.0001 8.7ZM11.4001 10.9C11.6001 10.8 11.6001 10.8 12.0001 10.8C12.4001 10.8 12.5001 10.8 12.6001 10.9C12.9001 11 13.2001 11.3 13.3001 11.5C13.4001 11.7 13.5001 11.8 13.8001 11.8C14.1001 11.8 14.3001 11.6 14.3001 11.3C14.3001 11 13.7001 10.3 13.3001 10.1C12.7001 9.8 11.9001 9.6 11.3001 9.8C10.0001 10.1 9.1001 11.5 9.4001 12.8C9.5001 13.3 9.7001 13.8 10.1001 14.2C10.5001 14.6 11.0001 14.9 11.4001 14.9C11.5001 14.9 11.6001 14.9 11.7001 14.8C11.8001 14.7 11.9001 14.6 11.9001 14.4C11.9001 14.3 11.8001 14.1 11.7001 14C11.6001 13.9 11.4001 13.9 11.3001 13.8C10.9001 13.6 10.6001 13.4 10.4001 12.9C10.3001 12.7 10.3001 12.7 10.3001 12.3C10.3001 11.9 10.3001 11.9 10.5001 11.6C10.8001 11.4 11.0001 11.1 11.4001 10.9ZM24.0001 19.5C23.7001 19.5 23.6001 19.6 23.5001 19.6L23.4001 19.8C23.3001 20 23.2001 20.4 23.1001 20.6L23.0001 20.9L23.3001 21.3C23.6001 21.7 23.7001 21.9 23.7001 22.1C23.7001 22.3 23.6001 22.5 22.9001 23.1C22.2001 23.8 22.1001 23.9 21.9001 23.9C21.8001 23.9 21.6001 23.8 21.1001 23.5L20.7001 23.2L20.4001 23.4C20.1001 23.5 19.8001 23.7 19.6001 23.7H19.4001V24C19.3001 24.7 19.2001 25 19.0001 25.1C19.0001 25.1 18.9001 25.2 17.8001 25.2C16.8001 25.2 16.7001 25.2 16.5001 25.1C16.4001 25 16.3001 24.8 16.3001 24.3L16.2001 23.8H16.0001C15.8001 23.7 15.5001 23.6 15.2001 23.5L15.0001 23.1L14.6001 23.4C14.2001 23.7 14.0001 23.8 13.8001 23.8C13.6001 23.8 13.5001 23.7 12.8001 23C12.1001 22.3 12.0001 22.2 12.0001 22C12.0001 21.9 12.1001 21.7 12.4001 21.2L12.7001 20.8L12.5001 20.5C12.4001 20.2 12.2001 19.9 12.2001 19.7V19.6V19.5C12.2001 19.5 12.0001 19.5 11.8001 19.4H11.6001C11.2001 19.3 11.0001 19.3 10.9001 19.2C10.8001 19.1 10.8001 18.9 10.8001 17.9C10.8001 16.9 10.8001 16.8 10.9001 16.6C11.0001 16.5 11.2001 16.4 11.8001 16.3C12.0001 16.3 12.2001 16.2 12.3001 16.2C12.4001 15.9 12.6001 15.5 12.7001 15.2L12.8001 14.9L12.5001 14.5C12.1001 14 12.1001 13.9 12.1001 13.7C12.1001 13.5 12.2001 13.4 12.9001 12.7C13.6001 12 13.7001 11.9 13.9001 11.9C14.0001 11.9 14.2001 12 14.7001 12.3L15.1001 12.6L15.3001 12.5C15.5001 12.4 15.8001 12.3 16.1001 12.2L16.4001 12.1L16.5001 11.7C16.6001 11 16.7001 10.8 16.8001 10.7C16.8001 10.7 16.9001 10.6 18.0001 10.6C19.0001 10.6 19.1001 10.6 19.2001 10.7C19.3001 10.8 19.4001 11 19.5001 11.6C19.5001 11.8 19.6001 12 19.6001 12.1C19.9001 12.2 20.4001 12.4 20.6001 12.5L20.8001 12.6L21.2001 12.3C21.7001 11.9 21.8001 11.9 22.0001 11.9C22.2001 11.9 22.4001 12 23.0001 12.7C23.7001 13.4 23.8001 13.5 23.8001 13.7C23.8001 13.9 23.7001 14 23.4001 14.5L23.0001 15.1L23.1001 15.3C23.2001 15.5 23.4001 16 23.5001 16.3C23.6001 16.3 23.8001 16.3 24.0001 16.4C24.6001 16.5 24.7001 16.5 24.9001 16.7C25.0001 16.9 25.0001 17.1 25.0001 18C25.0001 18.5 25.0001 19.1 25.0001 19.2C24.9001 19.4 24.6001 19.4 24.0001 19.5ZM22.8001 18.8C22.8001 18.8 22.9001 18.7 23.6001 18.6L24.0001 18.5V17.5L23.6001 17.4C22.9001 17.3 22.8001 17.2 22.8001 17.2C22.7001 17.1 22.7001 17 22.6001 16.7C22.6001 16.5 22.4001 16.1 22.2001 15.8C22.1001 15.5 21.9001 15.2 21.9001 15.1C21.9001 15.1 21.9001 14.9 22.3001 14.4C22.4001 14.2 22.5001 14.1 22.6001 14C22.6001 13.9 22.5001 13.8 22.3001 13.6C22.1001 13.4 22.0001 13.3 21.9001 13.2C21.8001 13.3 21.7001 13.4 21.5001 13.5C20.9001 14 20.8001 14 20.8001 14C20.7001 14 20.5001 13.9 20.1001 13.7C19.8001 13.5 19.4001 13.4 19.2001 13.3C18.9001 13.2 18.7001 13.1 18.7001 13.1C18.7001 13.1 18.6001 13 18.5001 12.3L18.4001 11.9H17.9001C17.8001 11.9 17.5001 11.9 17.4001 11.9C17.4001 12 17.4001 12.2 17.3001 12.4C17.3001 12.5 17.2001 13 17.1001 13.1C17.0001 13.2 16.8001 13.3 16.6001 13.4C16.4001 13.5 16.0001 13.6 15.7001 13.8C15.4001 13.8 15.0001 14 14.9001 14C14.9001 14 14.7001 14 14.2001 13.6C14.0001 13.5 13.9001 13.4 13.8001 13.3C13.7001 13.4 13.6001 13.5 13.4001 13.7L13.3001 13.8C13.2001 13.9 13.1001 14 13.1001 14C13.1001 14 13.2001 14.2 13.3001 14.3L13.4001 14.5C13.8001 15 13.8001 15.1 13.8001 15.2C13.8001 15.3 13.7001 15.6 13.6001 15.7C13.4001 16 13.3001 16.4 13.1001 16.8C13.0001 17.3 12.9001 17.3 12.8001 17.3C12.7001 17.4 12.3001 17.4 12.1001 17.5L11.7001 17.6V18.6L12.2001 18.7C12.9001 18.8 13.0001 18.8 13.2001 19.3C13.3001 19.6 13.5001 20.1 13.7001 20.5C13.7001 20.6 13.9001 20.9 13.9001 21C13.9001 21 13.9001 21.2 13.5001 21.7L13.4001 21.9C13.3001 22 13.2001 22.1 13.2001 22.2C13.2001 22.2 13.3001 22.3 13.4001 22.4L13.5001 22.5C13.7001 22.7 13.8001 22.8 13.9001 22.9C14.0001 22.8 14.1001 22.8 14.3001 22.6C14.8001 22 14.9001 22 15.0001 22C15.2001 22 15.4001 22.2 15.5001 22.2C15.8001 22.4 16.1001 22.5 16.6001 22.7C17.1001 22.8 17.1001 22.9 17.1001 23C17.1001 23.1 17.2001 23.5 17.3001 23.7L17.4001 24.1H18.4001L18.5001 23.7C18.5001 23.5 18.6001 23 18.7001 23C18.7001 23 18.8001 22.9 19.2001 22.7C19.7001 22.5 20.0001 22.4 20.3001 22.2C20.4001 22.1 20.6001 22 20.8001 22C20.8001 22 21.0001 22 21.5001 22.4L21.7001 22.5C21.8001 22.6 21.9001 22.7 22.0001 22.7C22.0001 22.7 22.1001 22.6 22.2001 22.5L22.3001 22.4C22.5001 22.2 22.6001 22.1 22.7001 22C22.6001 21.9 22.5001 21.8 22.4001 21.6C22.0001 21.1 22.0001 20.9 22.0001 20.9C22.0001 20.8 22.2001 20.4 22.3001 20.2C22.5001 19.9 22.6001 19.5 22.7001 19.3C22.7001 18.9 22.7001 18.8 22.8001 18.8ZM20.6001 16.7C20.8001 17.2 20.9001 17.5 20.9001 18.1C20.9001 18.7 20.8001 19 20.6001 19.4C20.2001 20.2 19.4001 20.8 18.6001 21C18.4001 21 18.2001 21.1 17.9001 21.1C17.6001 21.1 17.4001 21.1 17.2001 21C16.4001 20.8 15.5001 20.2 15.2001 19.4C15.0001 18.9 14.9001 18.6 14.9001 18.1C14.9001 17.3 15.2001 16.6 15.8001 16C16.3001 15.5 16.9001 15.2 17.6001 15.1C18.5001 15 19.4001 15.3 20.1001 16C20.3001 16.2 20.4001 16.3 20.6001 16.7ZM18.3001 16C18.2001 16 18.0001 16 17.9001 16C17.5001 16 17.1001 16.1 16.8001 16.3C16.3001 16.6 16.0001 17.1 15.9001 17.7C15.8001 18.3 16.0001 19 16.5001 19.4C17.0001 19.8 17.6001 20.1 18.2001 20C19.1001 19.9 19.8001 19.2 19.9001 18.3C20.0001 17.3 19.3001 16.3 18.3001 16ZM17.4001 27.3C14.0001 27.1 11.0001 25.2 9.5001 22C9.0001 21.1 8.7001 19.9 8.6001 19V18.9C8.9001 19.2 9.0001 19.2 9.1001 19.2C9.4001 19.2 9.6001 19 9.6001 18.7C9.6001 18.5 9.5001 18.3 8.9001 17.8C8.4001 17.3 8.2001 17.1 8.0001 17.1C7.8001 17.1 7.7001 17.2 7.1001 17.8C6.5001 18.4 6.2001 18.7 6.6001 19C6.9001 19.3 7.3001 19 7.5001 18.8C7.5001 19.5 7.7001 20.4 8.0001 21.2C9.0001 24.3 11.5001 26.7 14.5001 27.7C15.6001 28 16.5001 28.2 17.4001 28.2C17.9001 28.2 18.2001 28.2 18.2001 27.7C18.3001 27.4 17.9001 27.3 17.4001 27.3ZM28.9001 21.9C28.9001 21.6 27.7001 19.8 27.5001 19.7C27.2001 19.5 27.1001 19.6 26.6001 20L26.3001 20.2L26.1001 20C25.8001 19.8 25.2001 19.5 24.9001 19.5C24.8001 19.5 24.6001 19.6 24.6001 19.6C24.5001 19.8 24.4001 20 24.5001 20.2C24.5001 20.2 24.6001 20.3 25.0001 20.5C25.4001 20.7 25.8001 21 25.9001 21C26.2001 21.4 26.7001 21 26.9001 20.9C27.0001 20.8 27.1001 20.8 27.1001 20.8C27.3001 21 27.6001 21.5 27.7001 21.7C27.6001 21.7 27.6001 21.8 27.5001 21.9C27.2001 22.1 27.0001 22.2 27.0001 22.3C26.9001 22.4 26.9001 22.6 27.0001 22.9C27.1001 23.3 27.1001 24 27.0001 24.4C26.9001 24.7 26.9001 24.8 27.0001 25C27.1001 25.2 27.5001 25.4 27.5001 25.4C27.6001 25.5 27.7001 25.5 27.7001 25.6C27.6001 25.8 27.3001 26.3 27.1001 26.5C27.0001 26.5 27.0001 26.4 26.9001 26.3C26.4001 26 26.3001 26 26.2001 26C26.1001 26 25.9001 26.1 25.7001 26.2C25.4001 26.4 25.1001 26.6 24.8001 26.7C24.4001 26.8 24.4001 26.9 24.4001 27C24.4001 27 24.3001 27.1 24.3001 27.7V28H23.2001V27.7C23.2001 27.1 23.2001 26.9 22.7001 26.8C22.4001 26.7 21.9001 26.4 21.7001 26.2C21.5001 26 21.3001 26 21.2001 26C21.0001 26 20.7001 26.2 20.6001 26.3C20.5001 26.4 20.4001 26.4 20.4001 26.4C20.3001 26.3 20.2001 26.1 20.1001 26C20.1001 26 19.7001 25.4 19.6001 25.3C19.5001 25.2 19.3001 25.2 19.1001 25.3C18.9001 25.4 18.8001 25.5 18.8001 25.7C18.8001 25.9 19.8001 27.5 20.1001 27.6C20.3001 27.7 20.5001 27.6 21.0001 27.3L21.3001 27.1L21.4001 27.2C21.5001 27.3 21.8001 27.5 22.0001 27.6L22.3001 27.7V28.2C22.3001 28.5 22.3001 28.7 22.4001 28.8C22.6001 29 22.8001 29 23.4001 29C23.5001 29 23.5001 29 23.6001 29H23.9001C25.1001 29 25.2001 29 25.3001 28.9C25.4001 28.8 25.4001 28.6 25.4001 28.1V27.7L25.6001 27.6C25.8001 27.5 26.1001 27.4 26.3001 27.2L26.5001 27.1L26.8001 27.3C27.2001 27.6 27.5001 27.7 27.7001 27.6C27.8001 27.5 28.2001 26.9 28.4001 26.5C29.0001 25.6 29.0001 25.5 29.0001 25.3C29.0001 25.1 28.8001 25 28.4001 24.7L28.1001 24.5C28.2001 24.3 28.1001 23.1 28.1001 22.8V22.7L28.4001 22.5C28.7001 22.3 28.9001 22.1 28.9001 21.9ZM24.3001 25.1C24.1001 25.2 24.1001 25.2 23.7001 25.2C23.3001 25.2 23.2001 25.2 23.1001 25.1C22.8001 25 22.5001 24.7 22.4001 24.5C22.3001 24.3 22.2001 24.2 21.9001 24.2C21.6001 24.2 21.4001 24.4 21.4001 24.7C21.4001 25.1 22.0001 25.7 22.4001 25.9C22.8001 26.1 23.3001 26.3 23.8001 26.3C24.0001 26.3 24.2001 26.3 24.3001 26.2C25.7001 25.9 26.6001 24.5 26.3001 23.2C26.2001 22.7 26.0001 22.3 25.6001 21.9C25.2001 21.5 24.7001 21.2 24.3001 21.2C24.1001 21.2 24.0001 21.3 24.0001 21.3C23.9001 21.4 23.9001 21.5 23.9001 21.7C23.9001 21.8 24.0001 21.9 24.0001 22C24.1001 22.1 24.3001 22.2 24.4001 22.2C24.8001 22.4 25.1001 22.7 25.4001 23.1C25.5001 23.3 25.5001 23.4 25.5001 23.7C25.5001 24.1 25.5001 24.1 25.3001 24.4C24.9001 24.7 24.7001 24.9 24.3001 25.1Z" fill="black"/>
</svg>