<svg xmlns="http://www.w3.org/2000/svg" fill="none" viewBox="4 6.4 67.6 54.8">
<g id="send-alert">
<g id="Group 1171275772">
<g id="Group 1171275771">
<g id="Group 1171275766">
<g id="products">
<g id="Group 159054">
<path id="Rectangle 34624447" d="M55.4685 18.5354H7.43092V27.6855H55.4685V18.5354Z" fill="#E60000"/>
<path id="Rectangle 47 (Stroke)" fill-rule="evenodd" clip-rule="evenodd" d="M8.88 19.1457C8.20622 19.1457 7.66001 19.6919 7.66001 20.3657V25.8557C7.66001 26.5295 8.20622 27.0757 8.88 27.0757H54.0201C54.6938 27.0757 55.2401 26.5295 55.2401 25.8557V20.3657C55.2401 19.6919 54.6938 19.1457 54.0201 19.1457H8.88ZM4 20.3657C4 17.6705 6.18485 15.4856 8.88 15.4856H54.0201C56.7152 15.4856 58.9001 17.6705 58.9001 20.3657V25.8557C58.9001 28.5509 56.7152 30.7358 54.0201 30.7358H8.88C6.18485 30.7358 4 28.5509 4 25.8557V20.3657Z" fill="#4D0000"/>
<path id="Rectangle 48" d="M37.8934 36.8357H25.0072C24.7756 36.8357 24.5878 37.0235 24.5878 37.2551V42.5164C24.5878 42.748 24.7756 42.9358 25.0072 42.9358H37.8934C38.1251 42.9358 38.3128 42.748 38.3128 42.5164V37.2551C38.3128 37.0235 38.1251 36.8357 37.8934 36.8357Z" fill="#4D0000"/>
<path id="Subtract" fill-rule="evenodd" clip-rule="evenodd" d="M11.0907 31.3454V57.5758H51.8082V31.3454H11.0907ZM7.15262 31.3454C7.15262 27.9764 7.72172 26.8047 11.0907 26.8047L30.8752 26.8044H51.8082C55.7831 26.8047 55.7827 26.8044 55.7827 31.5489L55.7832 44.5963L55.7831 57.5758C55.7831 61.2023 55.7831 61.2023 51.8082 61.2023H32.0609H11.0903C7.15262 61.2023 7.15262 61.2702 7.15262 57.6437V44.5963V31.3454Z" fill="#4D0000"/>
</g>
</g>
</g>
<g id="Group 1171275769">
<circle id="Ellipse 2798" cx="54.7429" cy="23.2571" r="15.0574" fill="#E60000" stroke="#4D0000" stroke-width="3.6005"/>
<g id="Group 1171275758">
<g id="Vector">
<mask id="path-6-outside-1_7325_47161" maskUnits="userSpaceOnUse" x="51.411" y="12.292" width="6" height="15" fill="black">
<rect fill="white" x="51.411" y="12.292" width="6" height="15"/>
<path d="M54.4027 26.3608C53.3118 26.3608 52.3979 25.4541 52.3979 24.3741V15.2823C52.3979 14.2023 53.3118 13.292 54.4027 13.292C55.4935 13.292 56.411 14.2023 56.411 15.2823V24.3741C56.411 25.5119 55.4935 26.3608 54.4027 26.3608Z"/>
</mask>
<path d="M54.4027 26.3608C53.3118 26.3608 52.3979 25.4541 52.3979 24.3741V15.2823C52.3979 14.2023 53.3118 13.292 54.4027 13.292C55.4935 13.292 56.411 14.2023 56.411 15.2823V24.3741C56.411 25.5119 55.4935 26.3608 54.4027 26.3608Z" fill="#4D0000"/>
<path d="M54.4027 26.3608C53.3118 26.3608 52.3979 25.4541 52.3979 24.3741V15.2823C52.3979 14.2023 53.3118 13.292 54.4027 13.292C55.4935 13.292 56.411 14.2023 56.411 15.2823V24.3741C56.411 25.5119 55.4935 26.3608 54.4027 26.3608Z" stroke="#4D0000" stroke-width="0.126678" mask="url(#path-6-outside-1_7325_47161)"/>
</g>
<g id="Vector_2">
<mask id="path-7-outside-2_7325_47161" maskUnits="userSpaceOnUse" x="50.873" y="27.2966" width="7" height="6" fill="black">
<rect fill="white" x="50.873" y="27.2966" width="7" height="6"/>
<path d="M54.4023 28.2966C53.0405 28.2966 51.9352 29.3875 51.9352 30.7348C51.9352 32.0858 53.0405 33.1803 54.4023 33.1803C55.7677 33.1803 56.873 32.0858 56.873 30.7348C56.873 29.3875 55.7677 28.2966 54.4023 28.2966Z"/>
</mask>
<path d="M54.4023 28.2966C53.0405 28.2966 51.9352 29.3875 51.9352 30.7348C51.9352 32.0858 53.0405 33.1803 54.4023 33.1803C55.7677 33.1803 56.873 32.0858 56.873 30.7348C56.873 29.3875 55.7677 28.2966 54.4023 28.2966Z" fill="#4D0000"/>
<path d="M54.4023 28.2966C53.0405 28.2966 51.9352 29.3875 51.9352 30.7348C51.9352 32.0858 53.0405 33.1803 54.4023 33.1803C55.7677 33.1803 56.873 32.0858 56.873 30.7348C56.873 29.3875 55.7677 28.2966 54.4023 28.2966Z" stroke="#4D0000" stroke-width="0.126678" mask="url(#path-7-outside-2_7325_47161)"/>
</g>
</g>
</g>
</g>
</g>
</g>
</svg>