<svg xmlns="http://www.w3.org/2000/svg" fill="none" viewBox="4 7 64 57.8">
<g id="commision-lines">
<g id="Group 1171275035">
<g id="Group 1171275027">
<g id="Group">
<g id="Vector">
<path fill-rule="evenodd" clip-rule="evenodd" d="M6.93173 57.9507H37.5789C37.8568 59.5596 38.2717 61.1583 39.3237 62.2902H11.8524C9.30768 62.2902 7.53515 60.3661 6.93173 57.9507ZM58.2102 9.51775C60.7609 9.51775 62.5314 11.4398 63.1328 13.8573H53.2876C53.8891 11.4398 55.6656 9.51775 58.2102 9.51775ZM19.8337 9.51775H52.5433C51.2233 10.9445 50.3619 12.8645 50.3619 14.9811L50.3539 56.6877C50.3539 59.8114 47.9601 62.2902 44.9351 62.2902C41.91 62.2902 39.5103 59.8114 39.5103 56.6877C39.5063 55.9958 38.9644 55.437 38.2935 55.4329H14.4129V15.1182C14.4129 11.9966 16.8087 9.51775 19.8337 9.51775ZM19.8337 7C15.5026 7 11.9814 10.6436 11.9814 15.1182V55.4329H5.21279C4.54585 55.437 4 55.9958 4 56.6877C4 61.1624 7.52125 64.8018 11.8524 64.8018H44.9331C46.7314 64.8018 48.5814 64.0342 49.7882 63.0578C51.6223 61.5799 52.7894 59.273 52.7894 56.6877V16.3709H64.8498C65.5207 16.3709 66.0606 15.8101 66.0606 15.1182C66.0606 10.6436 62.5394 7 58.2102 7H19.8337Z" fill="#0B2D1F"/>
<path d="M58.2102 9.51775C60.7609 9.51775 62.5314 11.4398 63.1328 13.8573H53.2876C53.8891 11.4398 55.6656 9.51775 58.2102 9.51775Z" fill="#22885E"/>
<path d="M6.93173 57.9507H37.5789C37.8568 59.5596 38.2717 61.1583 39.3237 62.2902H11.8524C9.30768 62.2902 7.53515 60.3661 6.93173 57.9507Z" fill="#22885E"/>
</g>
</g>
<g id="Vector_2">
<path d="M32.3807 16.9913L40.2688 23.5026V36.4066H35.5625V30.4377C35.5625 28.4726 33.9885 26.8658 32.0889 26.8658C30.1874 26.8658 28.6074 28.4726 28.6074 30.4377V36.4066H24.4966V23.4985L32.3807 16.9913ZM32.3509 14.1296C32.0889 14.1378 31.8309 14.234 31.6244 14.3998L19.5958 24.3276C19.044 24.7492 18.9428 25.5639 19.3695 26.1186C19.7983 26.6775 20.5902 26.7532 21.1143 26.2906L22.065 25.5046V37.6573C22.065 38.3553 22.6049 38.9203 23.2759 38.9203H29.8261C30.497 38.9203 31.0429 38.3553 31.0389 37.6573V30.4398C31.0389 29.8339 31.4835 29.3774 32.0889 29.3774C32.6943 29.3774 33.131 29.8339 33.131 30.4398V37.6573C33.127 38.3553 33.6768 38.9223 34.3497 38.9203H41.4875C42.1564 38.9203 42.7023 38.3553 42.6983 37.6573V25.5127L43.6431 26.2906C44.1691 26.7532 44.9611 26.6775 45.3879 26.1186C45.8166 25.5639 45.7154 24.7492 45.1636 24.3296L33.1409 14.3998C32.9166 14.2156 32.6387 14.1194 32.3509 14.1296Z" fill="#0B2D1F"/>
<path d="M32.3807 16.9913L40.2688 23.5026V36.4066H35.5625V30.4377C35.5625 28.4726 33.9885 26.8658 32.0889 26.8658C30.1874 26.8658 28.6074 28.4726 28.6074 30.4377V36.4066H24.4966V23.4985L32.3807 16.9913Z" fill="#62C89E"/>
</g>
<path id="Vector_3" d="M21.295 42.7461C20.6182 42.7461 20.0703 43.309 20.0703 44.0029C20.0703 44.6989 20.6182 45.2618 21.295 45.2618H43.4666C44.1415 45.2618 44.6913 44.6989 44.6913 44.0029C44.6913 43.309 44.1415 42.7461 43.4666 42.7461H21.295Z" fill="#0B2D1F"/>
<path id="Vector_4" d="M21.1718 49.0937C19.6335 49.2473 19.7467 51.6054 21.2949 51.6013H43.4665C44.1711 51.6524 44.7686 51.0772 44.7686 50.3506C44.7686 49.6198 44.1711 49.0446 43.4665 49.0937H21.2949C21.2532 49.0937 21.2115 49.0937 21.1718 49.0937Z" fill="#0B2D1F"/>
</g>
<path id="Ellipse 2553" d="M66.7929 47.5C66.7929 54.3254 61.4368 59.7946 54.9073 59.7946C48.3778 59.7946 43.0218 54.3254 43.0218 47.5C43.0218 40.6746 48.3778 35.2054 54.9073 35.2054C61.4368 35.2054 66.7929 40.6746 66.7929 47.5Z" fill="#62C89E" stroke="#0B2D1F" stroke-width="2.41071"/>
<path id="Vector_5" d="M54.3727 39.1458C53.8965 39.403 53.7831 39.7381 53.7831 40.8762V41.8505L53.3599 42.0609C53.1255 42.1778 52.7552 42.4662 52.5284 42.6923C50.6842 44.5941 51.4778 47.7431 54.0023 48.5382C54.1913 48.6005 54.4709 48.6473 54.6145 48.6473C55.65 48.6551 56.2698 49.419 55.9297 50.2686C55.7407 50.7362 55.393 50.9857 54.9244 50.9857C54.2744 50.9857 53.8738 50.5803 53.7756 49.8321C53.6773 49.115 53.2389 48.6941 52.5889 48.7096C51.9767 48.7174 51.5156 49.2475 51.5156 49.9334C51.5156 51.1182 52.2563 52.3419 53.3372 52.9343L53.7831 53.1759V53.7995C53.7831 54.2671 53.8209 54.4932 53.9343 54.727C54.1081 55.0778 54.539 55.3506 54.9169 55.3506C55.2948 55.3506 55.7256 55.0778 55.8995 54.727C56.0128 54.4932 56.0506 54.2671 56.0506 53.7995V53.1759L56.5041 52.9265C56.7535 52.794 57.1239 52.4978 57.328 52.2717C59.2931 50.1283 58.0687 46.722 55.2116 46.3713C54.4936 46.2856 54.1988 46.1453 53.957 45.7633C53.4959 45.0618 54.025 44.0407 54.8564 44.0329C55.5064 44.0173 55.9448 44.4382 56.0431 45.1553C56.1413 45.9036 56.5419 46.3089 57.1844 46.3089C57.653 46.3089 57.9856 46.0829 58.1821 45.6308C58.3257 45.2956 58.3332 45.2099 58.2501 44.6799C58.1292 43.8692 57.7966 43.2145 57.2222 42.6611C56.9652 42.4117 56.5948 42.1311 56.4059 42.0375L56.0506 41.8661V40.8917C56.0506 40.0655 56.0279 39.8629 55.8995 39.6056C55.6198 39.0366 54.9395 38.834 54.3727 39.1458Z" fill="#0B2D1F"/>
</g>
</g>
</svg>