<svg xmlns="http://www.w3.org/2000/svg" fill="none" viewBox="6.06 6.97 60.25 57.41">
<g id="invoices-management">
<g id="payments">
<g id="Vector">
<path id="Vector_2" d="M49.7844 7.61947C45.4086 8.42979 41.5537 11.4396 39.7016 15.4912L39.25 16.4752H27.1762H15.1023L14.836 16.7415C14.5698 17.0077 14.5582 17.054 14.4887 20.307C14.454 22.1129 14.3845 29.7762 14.3498 37.3354L14.2803 51.088H10.8075C7.05685 51.088 6.74427 51.1343 6.59379 51.7131C6.55905 51.8634 6.54748 53.3569 6.57065 55.0355C6.61694 57.9989 6.61694 58.1147 6.91791 58.867C7.34623 59.9899 7.89033 60.8582 8.68908 61.6684C9.53413 62.5368 10.4718 63.1156 11.6989 63.5554L12.625 63.8795H29.0051H45.3855L46.1958 63.6133C48.4995 62.8494 50.2475 61.136 51.0925 58.8207L51.4051 57.9756L51.4397 46.3881L51.463 34.8002L53.0025 34.7308C54.1254 34.6845 54.8317 34.5918 55.6882 34.3604C60.8164 33.0059 64.7524 28.7113 65.6669 23.4789C65.9101 22.0432 65.8174 19.0915 65.4933 17.8643C64.5208 14.2294 62.3908 11.3238 59.2884 9.40221C58.1423 8.69605 56.9501 8.19829 55.5262 7.82783C54.1023 7.4574 51.2431 7.35323 49.7844 7.61947ZM54.4379 9.71475C57.992 10.444 60.9785 12.7361 62.5759 15.9543C64.8218 20.4806 63.9652 25.7593 60.3881 29.3364C55.8273 33.8973 48.5804 33.9088 43.9962 29.371C42.5493 27.9356 41.5189 26.1528 40.9055 24.0459C40.6738 23.2587 40.6393 22.8652 40.6393 21.1636C40.6393 19.462 40.6738 19.0567 40.9055 18.2117C42.0862 13.8706 45.6054 10.5714 49.9579 9.70318C51.0347 9.48323 53.373 9.4948 54.4379 9.71475ZM38.6829 18.7557C38.5209 19.5081 38.4745 21.7888 38.6018 22.7495C38.7523 23.9072 39.1112 25.3541 39.4238 26.0486L39.6437 26.5465H34.909H30.186L29.885 26.9054C29.503 27.3568 29.503 27.7042 29.885 28.1555L30.186 28.5144H35.4299H40.6738L41.1948 29.2437C42.8734 31.5936 45.5706 33.4805 48.372 34.2677L49.4951 34.5803V45.5312C49.4951 52.6275 49.4488 56.7371 49.3676 57.2233C48.9393 59.8857 46.601 61.8653 43.8805 61.8768C41.2181 61.8768 38.868 59.9205 38.3934 57.2926C38.324 56.9107 38.2662 55.4983 38.2662 54.1441C38.2662 51.8982 38.2429 51.6668 38.0463 51.4236L37.8264 51.1458L27.0372 51.111L16.2599 51.088L16.3177 46.77C16.3641 44.4084 16.4219 37.0576 16.4568 30.4477L16.5261 18.4431H27.6393H38.7523L38.6829 18.7557ZM36.3213 55.568C36.3561 57.7094 36.3907 58.0568 36.6339 58.728C36.958 59.6658 37.641 60.8234 38.2546 61.4834L38.706 61.981L25.9608 61.9462C13.2616 61.9116 13.2038 61.9116 12.486 61.6684C11.5368 61.3444 10.7612 60.8349 10.0435 60.071C8.86272 58.8207 8.51543 57.6979 8.51543 54.9891V53.1715H22.3952H36.275L36.3213 55.568Z" fill="#0B2D1F"/>
<g id="Vector_3">
<path d="M54.4379 9.71475C57.992 10.444 60.9785 12.7361 62.5759 15.9543C64.8218 20.4806 63.9652 25.7593 60.3881 29.3364C55.8273 33.8973 48.5804 33.9088 43.9962 29.371C42.5493 27.9356 41.5189 26.1528 40.9055 24.0459C40.6738 23.2587 40.6393 22.8652 40.6393 21.1636C40.6393 19.462 40.6738 19.0567 40.9055 18.2117C42.0862 13.8706 45.6054 10.5714 49.9579 9.70318C51.0347 9.48323 53.373 9.4948 54.4379 9.71475Z" fill="#62C89E"/>
<path d="M36.3213 55.568C36.3561 57.7094 36.3907 58.0568 36.6339 58.728C36.958 59.6658 37.641 60.8234 38.2546 61.4834L38.706 61.981L25.9608 61.9462L25.9359 61.9461C13.2616 61.9116 13.2033 61.9115 12.486 61.6684C11.5368 61.3443 10.7612 60.8349 10.0435 60.071C8.86272 58.8207 8.51543 57.6979 8.51543 54.9892V53.1715H22.3952H36.275L36.3213 55.568Z" fill="#22885E"/>
<path d="M49.7844 7.61947L49.6946 7.1276L49.6933 7.12783L49.7844 7.61947ZM39.7016 15.4912L40.156 15.6997L40.1563 15.699L39.7016 15.4912ZM39.25 16.4752V16.9752H39.5707L39.7044 16.6838L39.25 16.4752ZM15.1023 16.4752V15.9752H14.8952L14.7487 16.1217L15.1023 16.4752ZM14.836 16.7415L14.4825 16.3879L14.4824 16.3879L14.836 16.7415ZM14.4887 20.307L13.9888 20.2964L13.9888 20.2974L14.4887 20.307ZM14.3498 37.3354L14.8498 37.3379L14.8498 37.3377L14.3498 37.3354ZM14.2803 51.088V51.588H14.7778L14.7803 51.0905L14.2803 51.088ZM6.59379 51.7131L6.1097 51.5873L6.10664 51.6005L6.59379 51.7131ZM6.57065 55.0355L6.0707 55.0424L6.07071 55.0433L6.57065 55.0355ZM6.91791 58.867L7.38514 58.6888L7.38215 58.6813L6.91791 58.867ZM8.68908 61.6684L9.04741 61.3197L9.04515 61.3174L8.68908 61.6684ZM11.6989 63.5554L11.5302 64.0261L11.5337 64.0274L11.6989 63.5554ZM12.625 63.8795L12.4598 64.3515L12.54 64.3795H12.625V63.8795ZM45.3855 63.8795V64.3795H45.4656L45.5416 64.3545L45.3855 63.8795ZM46.1958 63.6133L46.3519 64.0883L46.3531 64.0879L46.1958 63.6133ZM51.0925 58.8207L50.6236 58.6472L50.6228 58.6493L51.0925 58.8207ZM51.4051 57.9756L51.8741 58.1491L51.9048 58.0659L51.9051 57.9771L51.4051 57.9756ZM51.4397 46.3881L51.9397 46.3895L51.9397 46.3891L51.4397 46.3881ZM51.463 34.8002L51.4405 34.3007L50.9639 34.3222L50.963 34.7992L51.463 34.8002ZM53.0025 34.7308L52.9819 34.2313L52.98 34.2313L53.0025 34.7308ZM55.6882 34.3604L55.5606 33.877L55.5578 33.8777L55.6882 34.3604ZM65.6669 23.4789L66.1594 23.565L66.1598 23.5624L65.6669 23.4789ZM65.4933 17.8643L65.9767 17.7366L65.9763 17.7351L65.4933 17.8643ZM59.2884 9.40221L59.5517 8.97714L59.5507 8.97652L59.2884 9.40221ZM55.5262 7.82783L55.6521 7.34394L55.6521 7.34394L55.5262 7.82783ZM54.4379 9.71475L54.3368 10.2044L54.3374 10.2045L54.4379 9.71475ZM62.5759 15.9543L63.0238 15.732L63.0238 15.732L62.5759 15.9543ZM43.9962 29.371L43.6441 29.7259L43.6445 29.7263L43.9962 29.371ZM40.9055 24.0459L41.3856 23.9062L41.3852 23.9047L40.9055 24.0459ZM40.9055 18.2117L41.3877 18.3439L41.388 18.3429L40.9055 18.2117ZM49.9579 9.70318L50.0557 10.1935L50.058 10.1931L49.9579 9.70318ZM38.6829 18.7557L38.1948 18.6473L38.1941 18.6504L38.6829 18.7557ZM38.6018 22.7495L39.0976 22.6851L39.0975 22.6839L38.6018 22.7495ZM39.4238 26.0486L39.8812 25.8466L39.8797 25.8434L39.4238 26.0486ZM39.6437 26.5465V27.0465H40.4111L40.1011 26.3445L39.6437 26.5465ZM30.186 26.5465V26.0465H29.9528L29.803 26.2252L30.186 26.5465ZM29.885 26.9054L30.2667 27.2284L30.2681 27.2268L29.885 26.9054ZM29.885 28.1555L30.2681 27.8342L30.2666 27.8325L29.885 28.1555ZM30.186 28.5144L29.803 28.8357L29.9528 29.0144H30.186V28.5144ZM40.6738 28.5144L41.0807 28.2238L40.9312 28.0144H40.6738V28.5144ZM41.1948 29.2437L40.7879 29.5344L40.7879 29.5344L41.1948 29.2437ZM48.372 34.2677L48.2368 34.7491L48.238 34.7494L48.372 34.2677ZM49.4951 34.5803H49.9951V34.2005L49.6292 34.0986L49.4951 34.5803ZM49.3676 57.2233L48.8744 57.1409L48.874 57.1438L49.3676 57.2233ZM43.8805 61.8768V62.3768L43.8826 62.3768L43.8805 61.8768ZM38.3934 57.2926L38.8854 57.2038L38.8853 57.2033L38.3934 57.2926ZM38.0463 51.4236L37.6542 51.734L37.6574 51.7379L38.0463 51.4236ZM37.8264 51.1458L38.2184 50.8355L38.0689 50.6466L37.828 50.6458L37.8264 51.1458ZM27.0372 51.111L27.0388 50.611L27.0383 50.611L27.0372 51.111ZM16.2599 51.088L15.7599 51.0813L15.7532 51.5869L16.2588 51.588L16.2599 51.088ZM16.3177 46.77L15.8178 46.7602L15.8178 46.7633L16.3177 46.77ZM16.4568 30.4477L15.9568 30.4448L15.9568 30.4451L16.4568 30.4477ZM16.5261 18.4431V17.9431H16.029L16.0261 18.4402L16.5261 18.4431ZM38.7523 18.4431L39.2404 18.5514L39.3754 17.9431H38.7523V18.4431ZM36.3213 55.568L36.8213 55.5598L36.8212 55.5583L36.3213 55.568ZM36.6339 58.728L37.1065 58.5647L37.104 58.5577L36.6339 58.728ZM38.2546 61.4834L38.625 61.1474L38.6208 61.1429L38.2546 61.4834ZM38.706 61.981L38.7046 62.481L39.8372 62.4841L39.0763 61.6451L38.706 61.981ZM12.486 61.6684L12.3245 62.1416L12.3256 62.142L12.486 61.6684ZM10.0435 60.071L10.4079 59.7286L10.407 59.7277L10.0435 60.071ZM8.51543 53.1715V52.6715H8.01543V53.1715H8.51543ZM36.275 53.1715L36.7749 53.1619L36.7654 52.6715H36.275V53.1715ZM49.6933 7.12783C45.1571 7.96786 41.1666 11.0837 39.2468 15.2833L40.1563 15.699C41.9408 11.7955 45.6601 8.89171 49.8754 8.11111L49.6933 7.12783ZM39.2471 15.2826L38.7955 16.2667L39.7044 16.6838L40.156 15.6997L39.2471 15.2826ZM39.25 15.9752H27.1762V16.9752H39.25V15.9752ZM27.1762 15.9752H15.1023V16.9752H27.1762V15.9752ZM14.7487 16.1217L14.4825 16.3879L15.1895 17.095L15.4558 16.8288L14.7487 16.1217ZM14.4824 16.3879C14.4103 16.46 14.2994 16.57 14.2195 16.7568C14.1487 16.9222 14.1146 17.1173 14.091 17.3548C14.0437 17.831 14.0233 18.6823 13.9888 20.2964L14.9886 20.3177C15.0236 18.6788 15.0437 17.8804 15.0861 17.4537C15.1074 17.2396 15.1304 17.1699 15.1389 17.1501C15.1406 17.1462 15.1402 17.1471 15.1411 17.146C15.146 17.1397 15.1552 17.1294 15.1895 17.095L14.4824 16.3879ZM13.9888 20.2974C13.954 22.1075 13.8845 29.7744 13.8498 37.3331L14.8498 37.3377C14.8845 29.7781 14.954 22.1183 14.9886 20.3167L13.9888 20.2974ZM13.8498 37.3329L13.7804 51.0854L14.7803 51.0905L14.8498 37.3379L13.8498 37.3329ZM14.2803 50.588H10.8075V51.588H14.2803V50.588ZM10.8075 50.588C8.95201 50.588 7.88907 50.5981 7.27721 50.6889C6.97156 50.7342 6.6937 50.8096 6.47922 50.9782C6.24163 51.1649 6.15725 51.4051 6.10988 51.5873L7.07771 51.8389C7.10558 51.7317 7.1167 51.749 7.09724 51.7643C7.09621 51.7651 7.11172 51.7524 7.16442 51.7346C7.21834 51.7164 7.30022 51.6964 7.42396 51.6781C7.94367 51.601 8.91234 51.588 10.8075 51.588V50.588ZM6.10664 51.6005C6.09125 51.6671 6.08587 51.7498 6.08282 51.7995C6.07876 51.8655 6.07536 51.9486 6.07249 52.0446C6.06672 52.2374 6.0627 52.4949 6.06052 52.7976C6.05615 53.4037 6.05908 54.2003 6.0707 55.0424L7.0706 55.0286C7.05906 54.1921 7.05619 53.4026 7.06049 52.8048C7.06265 52.5055 7.06659 52.2565 7.07204 52.0745C7.07477 51.9832 7.0778 51.9119 7.08093 51.8609C7.08507 51.7936 7.08765 51.7967 7.08095 51.8257L6.10664 51.6005ZM6.07071 55.0433C6.09367 56.5133 6.10526 57.3078 6.1507 57.8242C6.1997 58.3812 6.29157 58.6475 6.45368 59.0527L7.38215 58.6813C7.24328 58.3342 7.18466 58.1664 7.14685 57.7366C7.10547 57.2662 7.09392 56.5212 7.07059 55.0277L6.07071 55.0433ZM6.45075 59.0452C6.90163 60.2272 7.48168 61.1559 8.33301 62.0195L9.04515 61.3174C8.29898 60.5605 7.79083 59.7525 7.38508 58.6888L6.45075 59.0452ZM8.33075 62.0172C9.23504 62.9464 10.2402 63.5637 11.5302 64.0261L11.8676 63.0847C10.7034 62.6675 9.83323 62.1272 9.0474 61.3197L8.33075 62.0172ZM11.5337 64.0274L12.4598 64.3515L12.7901 63.4076L11.864 63.0835L11.5337 64.0274ZM12.625 64.3795H29.0051V63.3795H12.625V64.3795ZM29.0051 64.3795H45.3855V63.3795H29.0051V64.3795ZM45.5416 64.3545L46.3519 64.0883L46.0397 63.1383L45.2294 63.4045L45.5416 64.3545ZM46.3531 64.0879C48.8049 63.2749 50.6659 61.4478 51.5622 58.9921L50.6228 58.6493C49.829 60.8241 48.1942 62.4238 46.0384 63.1387L46.3531 64.0879ZM51.5615 58.9942L51.8741 58.1491L50.9362 57.8022L50.6236 58.6472L51.5615 58.9942ZM51.9051 57.9771L51.9397 46.3895L50.9397 46.3866L50.9051 57.9742L51.9051 57.9771ZM51.9397 46.3891L51.963 34.8012L50.963 34.7992L50.9397 46.3871L51.9397 46.3891ZM51.4855 35.2997L53.0251 35.2303L52.98 34.2313L51.4405 34.3007L51.4855 35.2997ZM53.0232 35.2304C54.1709 35.1831 54.9161 35.0869 55.8187 34.8431L55.5578 33.8777C54.7472 34.0967 54.0798 34.186 52.9819 34.2313L53.0232 35.2304ZM55.8159 34.8438C61.1334 33.4393 65.2115 28.9891 66.1594 23.565L65.1743 23.3928C64.2934 28.4334 60.4994 32.5725 55.5606 33.877L55.8159 34.8438ZM66.1598 23.5624C66.2896 22.7963 66.3262 21.6611 66.2926 20.5779C66.259 19.499 66.1539 18.4075 65.9767 17.7366L65.0099 17.9919C65.1568 18.5484 65.26 19.5463 65.2931 20.609C65.326 21.6674 65.2873 22.7258 65.1739 23.3954L66.1598 23.5624ZM65.9763 17.7351C64.972 13.9815 62.7661 10.9681 59.5517 8.97714L59.0251 9.82727C62.0156 11.6796 64.0695 14.4774 65.0103 17.9935L65.9763 17.7351ZM59.5507 8.97652C58.3582 8.2418 57.1192 7.72566 55.6521 7.34394L55.4003 8.31172C56.7809 8.67092 57.9263 9.15031 59.0261 9.82789L59.5507 8.97652ZM55.6521 7.34394C54.8888 7.14538 53.7765 7.02483 52.6865 6.98523C51.5963 6.94562 50.4756 6.98505 49.6946 7.1276L49.8741 8.11134C50.5518 7.98765 51.5901 7.94605 52.6502 7.98457C53.7105 8.0231 54.7397 8.13985 55.4003 8.31172L55.6521 7.34394ZM54.3374 10.2045C57.7421 10.9032 60.5997 13.0976 62.1281 16.1766L63.0238 15.732C61.3573 12.3746 58.2418 9.9849 54.5384 9.22496L54.3374 10.2045ZM62.128 16.1765C64.2788 20.5111 63.4595 25.558 60.0346 28.9829L60.7417 29.69C64.471 25.9607 65.3649 20.4501 63.0238 15.732L62.128 16.1765ZM60.0346 28.9829C55.6687 33.3488 48.737 33.3603 44.348 29.0156L43.6445 29.7263C48.4238 34.4574 55.9859 34.4458 60.7417 29.69L60.0346 28.9829ZM44.3484 29.016C42.9669 27.6455 41.9774 25.939 41.3856 23.9062L40.4255 24.1857C41.0604 26.3666 42.1317 28.2256 43.6441 29.7259L44.3484 29.016ZM41.3852 23.9047C41.175 23.1907 41.1393 22.8584 41.1393 21.1636H40.1393C40.1393 22.8721 40.1726 23.3267 40.4259 24.1871L41.3852 23.9047ZM41.1393 21.1636C41.1393 19.4718 41.1745 19.1218 41.3877 18.3439L40.4233 18.0795C40.1732 18.9917 40.1393 19.4521 40.1393 21.1636H41.1393ZM41.388 18.3429C42.5195 14.1825 45.8915 11.0242 50.0557 10.1935L49.8601 9.21284C45.3194 10.1186 41.6529 13.5587 40.423 18.0805L41.388 18.3429ZM50.058 10.1931C50.5456 10.0935 51.3587 10.0411 52.2007 10.044C53.0423 10.0469 53.8536 10.1046 54.3368 10.2044L54.5391 9.22509C53.9573 9.10493 53.067 9.04693 52.2041 9.04401C51.3415 9.04108 50.447 9.09295 49.8579 9.2133L50.058 10.1931ZM38.1941 18.6504C38.1018 19.0791 38.0499 19.8815 38.034 20.6643C38.0179 21.4544 38.0373 22.2958 38.1061 22.8152L39.0975 22.6839C39.039 22.2425 39.018 21.4632 39.0338 20.6846C39.0497 19.8988 39.102 19.1847 39.1717 18.861L38.1941 18.6504ZM38.106 22.814C38.2597 23.9964 38.6272 25.4969 38.9678 26.2538L39.8797 25.8434C39.5952 25.2112 39.2449 23.818 39.0976 22.6851L38.106 22.814ZM38.9664 26.2506L39.1863 26.7485L40.1011 26.3445L39.8812 25.8466L38.9664 26.2506ZM39.6437 26.0465H34.909V27.0465H39.6437V26.0465ZM34.909 26.0465H30.186V27.0465H34.909V26.0465ZM29.803 26.2252L29.5019 26.5841L30.2681 27.2268L30.5691 26.8679L29.803 26.2252ZM29.5033 26.5824C29.278 26.8486 29.0985 27.1606 29.0985 27.5305C29.0985 27.9004 29.278 28.2123 29.5033 28.4785L30.2666 27.8325C30.11 27.6474 30.0985 27.5599 30.0985 27.5305C30.0985 27.501 30.11 27.4135 30.2666 27.2284L29.5033 26.5824ZM29.5019 28.4768L29.803 28.8357L30.5691 28.1931L30.2681 27.8342L29.5019 28.4768ZM30.186 29.0144H35.4299V28.0144H30.186V29.0144ZM35.4299 29.0144H40.6738V28.0144H35.4299V29.0144ZM40.267 28.805L40.7879 29.5344L41.6017 28.9531L41.0807 28.2238L40.267 28.805ZM40.7879 29.5344C42.5334 31.9777 45.3268 33.9314 48.2368 34.7491L48.5073 33.7864C45.8144 33.0297 43.2134 31.2094 41.6017 28.9531L40.7879 29.5344ZM48.238 34.7494L49.361 35.062L49.6292 34.0986L48.5061 33.786L48.238 34.7494ZM48.9951 34.5803V45.5312H49.9951V34.5803H48.9951ZM48.9951 45.5312C48.9951 49.0787 48.9835 51.878 48.9618 53.8506C48.951 54.8371 48.9376 55.6149 48.922 56.1753C48.9057 56.7561 48.8876 57.0618 48.8744 57.1409L49.8608 57.3056C49.8882 57.1416 49.9063 56.7514 49.9216 56.2032C49.9374 55.6345 49.9509 54.8502 49.9618 53.8616C49.9835 51.8837 49.9951 49.0801 49.9951 45.5312H48.9951ZM48.874 57.1438C48.4852 59.5607 46.3583 61.3663 43.8784 61.3768L43.8826 62.3768C46.8438 62.3643 49.3935 60.2106 49.8613 57.3027L48.874 57.1438ZM43.8805 61.3768C41.4594 61.3768 39.317 59.5931 38.8854 57.2038L37.9014 57.3815C38.4191 60.2479 40.9768 62.3768 43.8805 62.3768V61.3768ZM38.8853 57.2033C38.8581 57.053 38.8268 56.6409 38.8034 56.0627C38.7805 55.4997 38.7662 54.8148 38.7662 54.1441H37.7662C37.7662 54.8276 37.7808 55.5261 37.8042 56.1032C37.827 56.6653 37.8594 57.1503 37.9014 57.382L38.8853 57.2033ZM38.7662 54.1441C38.7662 53.03 38.7607 52.3862 38.7283 51.9918C38.7119 51.7927 38.6865 51.6256 38.6387 51.4797C38.5857 51.318 38.5127 51.2052 38.4351 51.1092L37.6574 51.7379C37.6781 51.7635 37.6818 51.7709 37.6884 51.7912C37.7003 51.8273 37.7176 51.9039 37.7316 52.0739C37.7599 52.4175 37.7662 53.0123 37.7662 54.1441H38.7662ZM38.4383 51.1132L38.2184 50.8355L37.4343 51.4562L37.6542 51.7339L38.4383 51.1132ZM37.828 50.6458L27.0388 50.611L27.0356 51.611L37.8247 51.6458L37.828 50.6458ZM27.0383 50.611L16.261 50.588L16.2588 51.588L27.0362 51.611L27.0383 50.611ZM16.7598 51.0947L16.8177 46.7767L15.8178 46.7633L15.7599 51.0813L16.7598 51.0947ZM16.8177 46.7798C16.8641 44.4139 16.9219 37.0591 16.9567 30.4503L15.9568 30.4451C15.9219 37.0561 15.8641 44.403 15.8178 46.7602L16.8177 46.7798ZM16.9567 30.4506L17.0261 18.446L16.0261 18.4402L15.9568 30.4448L16.9567 30.4506ZM16.5261 18.9431H27.6393V17.9431H16.5261V18.9431ZM27.6393 18.9431H38.7523V17.9431H27.6393V18.9431ZM38.2642 18.3348L38.1948 18.6473L39.1711 18.864L39.2404 18.5514L38.2642 18.3348ZM35.8214 55.5761C35.856 57.7026 35.8874 58.1354 36.1638 58.8984L37.104 58.5577C36.894 57.9782 36.8563 57.7162 36.8213 55.5598L35.8214 55.5761ZM36.1613 58.8914C36.5062 59.8891 37.2234 61.1086 37.8885 61.8238L38.6208 61.1429C38.0586 60.5382 37.4098 59.4424 37.1065 58.5647L36.1613 58.8914ZM37.8843 61.8192L38.3356 62.3169L39.0763 61.6451L38.625 61.1475L37.8843 61.8192ZM38.7073 61.481L25.9621 61.4462L25.9594 62.4462L38.7046 62.481L38.7073 61.481ZM12.6476 61.1953C11.78 60.8991 11.073 60.4365 10.4079 59.7286L9.67907 60.4134C10.4494 61.2333 11.2935 61.7896 12.3245 62.1416L12.6476 61.1953ZM10.407 59.7277C9.8572 59.1455 9.52247 58.6178 9.31529 57.9323C9.10265 57.2288 9.01543 56.3305 9.01543 54.9892H8.01543C8.01543 56.3565 8.10186 57.374 8.35805 58.2216C8.6197 59.0873 9.04899 59.7462 9.67995 60.4143L10.407 59.7277ZM9.01543 54.9892V53.1715H8.01543V54.9892H9.01543ZM8.51543 53.6715H22.3952V52.6715H8.51543V53.6715ZM22.3952 53.6715H36.275V52.6715H22.3952V53.6715ZM35.7751 53.1812L35.8214 55.5776L36.8212 55.5583L36.7749 53.1619L35.7751 53.1812ZM25.9621 61.4462L25.9373 61.4461L25.9345 62.4461L25.9594 62.4462L25.9621 61.4462ZM25.9373 61.4461C19.5968 61.4289 16.4201 61.4202 14.7374 61.3856C13.893 61.3682 13.4433 61.3446 13.1645 61.3127C12.9079 61.2835 12.8066 61.2491 12.6465 61.1949L12.3256 62.142C12.5242 62.2093 12.699 62.2661 13.0512 62.3063C13.3811 62.3439 13.8726 62.368 14.7168 62.3854C16.4111 62.4202 19.6007 62.4289 25.9346 62.4461L25.9373 61.4461ZM25.9621 61.4462C25.958 61.4462 25.9539 61.4462 25.9497 61.4462C25.9456 61.4462 25.9414 61.4461 25.9373 61.4461L25.9346 62.4461C25.9387 62.4461 25.9428 62.4462 25.9469 62.4462C25.9511 62.4462 25.9552 62.4462 25.9594 62.4462L25.9621 61.4462Z" fill="#0B2D1F"/>
</g>
</g>
<g id="Vector_2_2">
<path id="Vector_4" d="M51.5783 12.2155C51.1964 12.4239 50.9995 12.8406 50.9995 13.4657V13.9867L50.2471 14.3687C48.9505 15.0401 48.1633 16.2093 48.0246 17.6562C47.8044 20.0178 49.7377 22.148 52.1108 22.148C53.1873 22.148 54.1944 23.1433 54.2292 24.2431C54.2407 24.4051 54.1135 24.7873 53.9515 25.1114C52.9559 27.0793 50.328 26.5005 50.0388 24.2431C49.9576 23.6297 49.6799 23.3171 49.1126 23.2245C48.7536 23.1666 48.6495 23.2129 48.3254 23.5255C47.9664 23.8842 47.9664 23.919 48.0361 24.602C48.1866 26.0722 49.1937 27.4846 50.467 28.0055L50.9995 28.2254V28.8851C50.9995 29.765 51.3351 30.1933 52.0297 30.1933C52.7127 30.1933 52.9789 29.8807 53.0716 28.9663C53.141 28.2485 53.141 28.2485 53.6041 28.0864C54.6808 27.7275 55.7921 26.5005 56.1047 25.3313C56.1741 25.0766 56.2089 24.4515 56.1856 23.9423C56.1508 23.1666 56.0699 22.9004 55.7458 22.2867C55.0628 21.0019 54.102 20.3767 52.4001 20.122C51.2543 19.9484 51.0804 19.8791 50.6291 19.4044C50.0039 18.7445 49.8882 17.7952 50.3629 16.9965C50.687 16.4292 50.9995 16.1978 51.671 16.0124C52.9211 15.6768 54.2407 16.7881 54.2407 18.1889C54.2407 18.9298 55.3638 19.3002 55.9193 18.7329C56.3013 18.3625 56.3131 17.4596 55.9542 16.5104C55.6183 15.6074 54.5418 14.5077 53.6967 14.2066L53.1064 13.9983L53.0601 13.3268C53.0022 12.5628 52.7705 12.2387 52.215 12.1345C52.0182 12.0998 51.7404 12.1345 51.5783 12.2155Z" fill="#0B2D1F"/>
<path id="Vector_5" d="M51.5783 12.2155C51.1964 12.4239 50.9995 12.8406 50.9995 13.4657V13.9867L50.2471 14.3687C48.9505 15.0401 48.1633 16.2093 48.0246 17.6562C47.8044 20.0178 49.7377 22.148 52.1108 22.148C53.1873 22.148 54.1944 23.1433 54.2292 24.2431C54.2407 24.4051 54.1135 24.7873 53.9515 25.1114C52.9559 27.0793 50.328 26.5005 50.0388 24.2431C49.9576 23.6297 49.6799 23.3171 49.1126 23.2245C48.7536 23.1666 48.6495 23.2129 48.3254 23.5255C47.9664 23.8842 47.9664 23.919 48.0361 24.602C48.1866 26.0722 49.1937 27.4846 50.467 28.0055L50.9995 28.2254V28.8851C50.9995 29.765 51.3351 30.1933 52.0297 30.1933C52.7127 30.1933 52.9789 29.8807 53.0716 28.9663C53.141 28.2485 53.141 28.2485 53.6041 28.0864C54.6808 27.7275 55.7921 26.5005 56.1047 25.3313C56.1741 25.0766 56.2089 24.4515 56.1856 23.9423C56.1508 23.1666 56.0699 22.9004 55.7458 22.2867C55.0628 21.0019 54.102 20.3767 52.4001 20.122C51.2543 19.9484 51.0804 19.8791 50.6291 19.4044C50.0039 18.7445 49.8882 17.7952 50.3629 16.9965C50.687 16.4292 50.9995 16.1978 51.671 16.0124C52.9211 15.6768 54.2407 16.7881 54.2407 18.1889C54.2407 18.9298 55.3638 19.3002 55.9193 18.7329C56.3013 18.3625 56.3131 17.4596 55.9542 16.5104C55.6183 15.6074 54.5418 14.5077 53.6967 14.2066L53.1064 13.9983L53.0601 13.3268C53.0022 12.5628 52.7705 12.2387 52.215 12.1345C52.0182 12.0998 51.7404 12.1345 51.5783 12.2155Z" stroke="#0B2D1F"/>
</g>
<g id="Vector_3_2">
<path id="Vector_6" d="M23.1581 24.8445C21.2711 25.7474 20.7734 28.0397 22.1392 29.556C22.834 30.3316 23.5979 30.6442 24.6628 30.5748C25.589 30.517 26.2142 30.239 26.7582 29.6486C27.3833 28.9889 27.5569 28.5489 27.5569 27.5881C27.5569 26.6273 27.3833 26.1875 26.7582 25.5275C26.1909 24.9139 25.589 24.6594 24.605 24.6131C23.8641 24.5783 23.6442 24.6131 23.1581 24.8445ZM25.149 26.8472C25.7396 27.2177 25.6121 28.0975 24.9406 28.4331C24.4893 28.653 24.0725 28.5721 23.6557 28.2017C23.378 27.9585 23.378 27.2177 23.6557 26.9747C24.1303 26.5462 24.605 26.5001 25.149 26.8472Z" fill="#0B2D1F"/>
<path id="Vector_7" d="M23.1581 24.8445C21.2711 25.7474 20.7734 28.0397 22.1392 29.556C22.834 30.3316 23.5979 30.6442 24.6628 30.5748C25.589 30.517 26.2142 30.239 26.7582 29.6486C27.3833 28.9889 27.5569 28.5489 27.5569 27.5881C27.5569 26.6273 27.3833 26.1875 26.7582 25.5275C26.1909 24.9139 25.589 24.6594 24.605 24.6131C23.8641 24.5783 23.6442 24.6131 23.1581 24.8445ZM25.149 26.8472C25.7396 27.2177 25.6121 28.0975 24.9406 28.4331C24.4893 28.653 24.0725 28.5721 23.6557 28.2017C23.378 27.9585 23.378 27.2177 23.6557 26.9747C24.1303 26.5462 24.605 26.5001 25.149 26.8472Z" stroke="#0B2D1F"/>
</g>
<g id="Vector_4_2">
<path id="Vector_8" d="M23.5657 33.017C21.4125 33.6767 20.6371 36.4088 22.1651 37.9832C22.7555 38.585 23.3688 38.8513 24.2951 38.9094C25.2558 38.9672 25.9388 38.7356 26.5988 38.1452C27.3164 37.497 27.548 36.9413 27.5596 35.9226C27.5596 35.1818 27.5132 34.9734 27.247 34.5103C26.8417 33.8388 26.2284 33.3181 25.5454 33.0864C25.0011 32.9013 24.0519 32.8665 23.5657 33.017ZM25.2443 35.286C25.7304 35.7606 25.5917 36.4666 24.9432 36.8025C23.9246 37.3235 22.8827 35.992 23.7393 35.2511C24.1678 34.8922 24.8739 34.904 25.2443 35.286Z" fill="#0B2D1F"/>
<path id="Vector_9" d="M23.5657 33.017C21.4125 33.6767 20.6371 36.4088 22.1651 37.9832C22.7555 38.585 23.3688 38.8513 24.2951 38.9094C25.2558 38.9672 25.9388 38.7356 26.5988 38.1452C27.3164 37.497 27.548 36.9413 27.5596 35.9226C27.5596 35.1818 27.5132 34.9734 27.247 34.5103C26.8417 33.8388 26.2284 33.3181 25.5454 33.0864C25.0011 32.9013 24.0519 32.8665 23.5657 33.017ZM25.2443 35.286C25.7304 35.7606 25.5917 36.4666 24.9432 36.8025C23.9246 37.3235 22.8827 35.992 23.7393 35.2511C24.1678 34.8922 24.8739 34.904 25.2443 35.286Z" stroke="#0B2D1F"/>
</g>
<g id="Vector_5_2">
<path id="Vector_10" d="M30.1636 35.0324C29.5269 35.3565 29.446 36.2827 30.0133 36.734C30.3141 36.9657 30.4301 36.9657 37.1442 36.9424L43.9625 36.9076L44.1824 36.6298C44.4023 36.3636 44.4719 35.7732 44.3329 35.4028C44.1361 34.8934 43.974 34.8818 37.0285 34.8818C31.9579 34.8818 30.3837 34.9167 30.1636 35.0324Z" fill="#0B2D1F"/>
<path id="Vector_11" d="M30.1636 35.0324C29.5269 35.3565 29.446 36.2827 30.0133 36.734C30.3141 36.9657 30.4301 36.9657 37.1442 36.9424L43.9625 36.9076L44.1824 36.6298C44.4023 36.3636 44.4719 35.7732 44.3329 35.4028C44.1361 34.8934 43.974 34.8818 37.0285 34.8818C31.9579 34.8818 30.3837 34.9167 30.1636 35.0324Z" stroke="#0B2D1F"/>
</g>
<g id="Vector_6_2">
<path id="Vector_12" d="M23.289 41.4793C22.5599 41.7686 21.9115 42.3938 21.5874 43.1462C21.3908 43.6093 21.356 43.8755 21.3908 44.4891C21.4602 45.3457 21.6686 45.8203 22.2358 46.3992C22.8144 46.978 23.289 47.1748 24.1689 47.2442C25.1993 47.3136 25.8705 47.117 26.5305 46.5382C27.1672 45.9824 27.5028 45.3457 27.5839 44.547C27.8154 42.3129 25.4538 40.6343 23.289 41.4793ZM25.2339 43.6208C25.6161 43.9797 25.6276 44.4776 25.2572 44.9174C24.5742 45.7161 23.1388 44.9753 23.4744 43.9912C23.7176 43.2967 24.6668 43.0998 25.2339 43.6208Z" fill="#0B2D1F"/>
<path id="Vector_13" d="M23.289 41.4793C22.5599 41.7686 21.9115 42.3938 21.5874 43.1462C21.3908 43.6093 21.356 43.8755 21.3908 44.4891C21.4602 45.3457 21.6686 45.8203 22.2358 46.3992C22.8144 46.978 23.289 47.1748 24.1689 47.2442C25.1993 47.3136 25.8705 47.117 26.5305 46.5382C27.1672 45.9824 27.5028 45.3457 27.5839 44.547C27.8154 42.3129 25.4538 40.6343 23.289 41.4793ZM25.2339 43.6208C25.6161 43.9797 25.6276 44.4776 25.2572 44.9174C24.5742 45.7161 23.1388 44.9753 23.4744 43.9912C23.7176 43.2967 24.6668 43.0998 25.2339 43.6208Z" stroke="#0B2D1F"/>
</g>
<g id="Vector_7_2">
<path id="Vector_14" d="M30.0145 43.5635C29.8525 43.6909 29.6905 43.9457 29.6441 44.1308C29.5632 44.5127 29.8177 45.1148 30.1072 45.2305C30.2114 45.2653 33.3602 45.2999 37.0991 45.2999H43.9059L44.1491 45.0337C44.531 44.6284 44.4965 43.8875 44.1027 43.5752C43.8017 43.332 43.6975 43.332 37.053 43.332C30.4777 43.332 30.3041 43.332 30.0145 43.5635Z" fill="#0B2D1F"/>
<path id="Vector_15" d="M30.0145 43.5635C29.8525 43.6909 29.6905 43.9457 29.6441 44.1308C29.5632 44.5127 29.8177 45.1148 30.1072 45.2305C30.2114 45.2653 33.3602 45.2999 37.0991 45.2999H43.9059L44.1491 45.0337C44.531 44.6284 44.4965 43.8875 44.1027 43.5752C43.8017 43.332 43.6975 43.332 37.053 43.332C30.4777 43.332 30.3041 43.332 30.0145 43.5635Z" stroke="#0B2D1F"/>
</g>
</g>
</g>
</svg>