<svg xmlns="http://www.w3.org/2000/svg" fill="none" viewBox="12 4 48.35 64">
<g id="property-analysis-report">
<g id="Vector">
<path d="M60.3468 14.784C60.3468 14.7489 60.3452 14.7122 60.3418 14.6756C60.3418 14.6689 60.3402 14.6606 60.3402 14.6522C60.3318 14.5688 60.3152 14.4871 60.2918 14.4054C60.2885 14.3971 60.2851 14.3887 60.2835 14.3804C60.2718 14.3471 60.2618 14.3154 60.2485 14.2837C60.2451 14.2754 60.2418 14.2687 60.2401 14.2603C60.2068 14.1836 60.1668 14.1103 60.1217 14.0402C60.1167 14.0319 60.1117 14.0252 60.1067 14.0186C60.0867 13.9902 60.0667 13.9635 60.0467 13.9368C60.04 13.9285 60.035 13.9218 60.0283 13.9135C60.0017 13.8818 59.9733 13.8501 59.9433 13.8201L50.5451 4.40521C50.5151 4.37686 50.485 4.34851 50.4534 4.3235C50.4434 4.31516 50.4333 4.30683 50.4233 4.29849C50.4017 4.28181 50.3783 4.26514 50.3566 4.24846C50.3433 4.24013 50.3316 4.23179 50.3183 4.22345C50.2949 4.20844 50.2716 4.19343 50.2466 4.18009C50.2232 4.16675 50.2016 4.15508 50.1782 4.14341C50.1582 4.13507 50.1382 4.12506 50.1182 4.11506C50.0965 4.10672 50.0732 4.09672 50.0515 4.08838C50.0398 4.08504 50.0281 4.08004 50.0165 4.07671C49.8714 4.02668 49.7213 4 49.5679 4H13.3824C13.199 4 13.0222 4.03502 12.8521 4.10505C12.6837 4.17509 12.5336 4.27514 12.4052 4.40521C12.2751 4.53528 12.1751 4.68536 12.1051 4.85378C12.035 5.02387 12 5.20063 12 5.38405V66.616C12 66.7994 12.035 66.9761 12.1051 67.1462C12.1751 67.3146 12.2751 67.4647 12.4052 67.5948C12.5336 67.7249 12.6837 67.8249 12.8521 67.8949C13.0222 67.965 13.199 68 13.3824 68H58.9661C59.1496 68 59.3263 67.965 59.4947 67.8949C59.6648 67.8249 59.8149 67.7249 59.9433 67.5948C60.0734 67.4647 60.1734 67.3146 60.2435 67.1462C60.3135 66.9761 60.3485 66.7994 60.3485 66.616V14.7973L60.3468 14.784ZM55.6311 13.4149H50.9503V8.72413L55.6311 13.4149ZM14.7631 65.2319V6.76811H48.1872V14.7973C48.1855 14.9824 48.2205 15.1575 48.2906 15.3276C48.3606 15.4977 48.4607 15.6477 48.5907 15.7761C48.7208 15.9062 48.8692 16.0063 49.0393 16.0763C49.2077 16.1463 49.3845 16.1813 49.5679 16.1813H57.5854V65.2319H14.7631Z" fill="#4D0000"/>
<path d="M55.6311 13.4149H50.9503V8.72413L55.6311 13.4149Z" fill="#FF8080"/>
</g>
<g id="Vector_2">
<path d="M41.3121 37.5641V30.2917C41.3121 29.5457 40.7212 28.9548 39.9723 28.9548H34.0865C33.3346 28.9548 32.7496 29.5457 32.7496 30.2917V37.6197H28.4668V24.2479L37.0265 17.3002L45.5948 24.2479V37.6197H41.3121V37.5641ZM38.6354 37.5641H35.4234V31.6315H38.6354V37.5641ZM48.2657 38.901V26.3922L50.1935 27.9368C50.7289 28.4195 51.586 28.3697 52.0657 27.7788C52.5484 27.2435 52.4929 26.3922 51.9078 25.9095L51.8522 25.8568L37.8836 14.5181C37.4038 14.1437 36.7076 14.1437 36.1723 14.5181L22.2095 25.9095C21.6186 26.3366 21.5133 27.1908 21.9374 27.7788C22.3675 28.3697 23.2246 28.475 23.8126 28.0479L23.8682 27.9924L25.7901 26.4419V38.9566C25.7901 39.7026 26.3811 40.2906 27.127 40.2906H46.9259C47.6777 40.2379 48.2657 39.6499 48.2657 38.901Z" fill="#4D0000"/>
<path d="M41.3121 37.5641V30.2917C41.3121 29.5457 40.7212 28.9548 39.9723 28.9548H34.0865C33.3346 28.9548 32.7496 29.5457 32.7496 30.2917V37.6197H28.4668V24.2479L37.0265 17.3002L45.5948 24.2479V37.6197H41.3121V37.5641Z" fill="#E60000"/>
</g>
<path id="Vector_3" d="M22.8873 58.7847C23.1086 58.7847 23.3028 58.7119 23.4697 58.5662L33.0029 50.2843L37.7399 55.7367C37.8176 55.825 37.9088 55.8959 38.0137 55.9483C38.1195 56.0007 38.2301 56.0308 38.3476 56.0395C38.465 56.0473 38.5796 56.0327 38.6912 55.9958C38.8028 55.958 38.9028 55.9007 38.9912 55.824L47.5789 48.3691L47.3265 51.9509C47.3188 52.0684 47.3333 52.182 47.3702 52.2936C47.4071 52.4052 47.4644 52.5062 47.542 52.5945C47.6187 52.6838 47.71 52.7547 47.8148 52.8071C47.9206 52.8595 48.0313 52.8906 48.1487 52.8983H48.2128C48.3254 52.8983 48.4341 52.878 48.5389 52.8372C48.6428 52.7964 48.737 52.7372 48.8195 52.6605C48.902 52.5838 48.967 52.4955 49.0155 52.3936C49.0641 52.2926 49.0922 52.1849 49.1 52.0733L49.498 46.3597C49.5164 46.1141 49.4446 45.8977 49.2825 45.7113C49.2048 45.623 49.1136 45.5531 49.0078 45.5007C48.902 45.4453 48.7894 45.4133 48.671 45.4046L42.9555 45.0037C42.8371 44.993 42.7215 45.0056 42.6089 45.0415C42.4963 45.0774 42.3954 45.1347 42.3061 45.2124C42.2168 45.29 42.1459 45.3822 42.0945 45.488C42.0421 45.5948 42.0129 45.7074 42.0071 45.8249C41.9994 45.9423 42.0129 46.0569 42.0508 46.1685C42.0877 46.2801 42.145 46.3801 42.2216 46.4694C42.2993 46.5578 42.3905 46.6286 42.4954 46.681C42.6002 46.7344 42.7118 46.7645 42.8293 46.7733L46.4131 47.0247L38.498 53.9011L33.761 48.4506C33.6834 48.3633 33.5931 48.2934 33.4883 48.2419C33.3844 48.1895 33.2738 48.1594 33.1573 48.1516C33.0418 48.1429 32.9282 48.1575 32.8175 48.1934C32.7069 48.2303 32.6069 48.2856 32.5186 48.3613L22.3049 57.2277C22.2165 57.3053 22.1457 57.3966 22.0933 57.5014C22.0409 57.6072 22.0108 57.7179 22.002 57.8353C21.9943 57.9528 22.0088 58.0673 22.0457 58.1789C22.0836 58.2906 22.1408 58.3906 22.2175 58.4789C22.302 58.576 22.4029 58.6507 22.5194 58.7041C22.6359 58.7575 22.7592 58.7847 22.8873 58.7847Z" fill="#4D0000"/>
</g>
</svg>