<svg xmlns="http://www.w3.org/2000/svg" fill="none" viewBox="4 8 64 56.22">
<g id="purchaser">
<g id="Group 1171275021">
<g id="Group 159022">
<g id="Group">
<path id="Vector" d="M4.975 8.26288C4.4375 8.53788 4 9.27538 4 9.87538C4 10.5004 4.4375 11.2129 5 11.5004C5.4625 11.7379 5.725 11.7504 9.5875 11.7504H13.7L18.2125 27.5754L22.7375 43.4004L22.375 44.1254C21.75 45.3629 21.475 46.3379 21.475 47.3754C21.475 49.9754 23.1625 52.1504 25.6875 52.8129C26.225 52.9504 27.125 53.0004 29 53.0129C31.3125 53.0254 31.5 53.0379 30.9375 53.1754C29.8875 53.4379 29.1 53.8879 28.3 54.6879C26.0875 56.8879 26.0875 60.3504 28.3125 62.5629C31.5375 65.8004 37 64.0379 37.775 59.5129C38.075 57.7504 37.5 56.0004 36.1875 54.6754C35.4 53.8879 34.4 53.3129 33.4625 53.1254C33.1625 53.0754 36.7375 53.0254 41.6875 53.0254C48.9375 53.0254 50.325 53.0504 49.8125 53.1754C48.7625 53.4379 47.975 53.8879 47.175 54.6879C44.9625 56.8879 44.9625 60.3629 47.175 62.5629C50.425 65.8004 55.875 64.0379 56.65 59.5129C57.1375 56.6754 55.2625 53.8629 52.4375 53.1754C51.9 53.0379 52.3 53.0254 55.4125 53.0129C58.7625 53.0004 59.05 52.9879 59.5 52.7504C60.0625 52.4629 60.5 51.7504 60.5 51.1254C60.5 50.5004 60.0625 49.7879 59.5 49.5004C59.0125 49.2504 58.8 49.2504 42.85 49.2504C27.7125 49.2504 26.6625 49.2379 26.25 49.0254C25.2375 48.5254 24.9875 47.4254 25.5875 46.1879L25.925 45.5004H42.4625C58.8625 45.5004 59.0125 45.5004 59.5125 45.2504C59.8625 45.0629 60.0875 44.8379 60.25 44.4629C60.5875 43.7629 68 17.7254 68 17.2879C68 16.7754 67.5 16.0004 67 15.7379C66.5875 15.5129 65.7 15.5004 42.6125 15.5004H18.6625L17.825 12.5254C16.7875 8.91288 16.6625 8.60038 15.95 8.26288C15.4375 8.01288 15.225 8.00038 10.425 8.00038C5.7125 8.01288 5.4125 8.02538 4.975 8.26288ZM63.575 19.4629C63.5375 19.5879 62.1 24.6504 60.3625 30.7129L57.2125 41.7504H41.6875H26.1625L23.0125 30.7129C21.275 24.6504 19.8375 19.5879 19.8 19.4629C19.7375 19.2629 20.8375 19.2504 41.6875 19.2504C62.5375 19.2504 63.6375 19.2629 63.575 19.4629ZM33.125 57.0004C33.6875 57.2879 34.125 58.0004 34.125 58.6379C34.125 59.5629 33.175 60.5004 32.2375 60.5004C31.6625 60.5004 30.8875 60.0129 30.6125 59.4754C30.15 58.5754 30.4375 57.5879 31.325 57.0504C31.925 56.6879 32.475 56.6754 33.125 57.0004ZM52 57.0004C52.5625 57.2879 53 58.0004 53 58.6379C53 59.5629 52.05 60.5004 51.1125 60.5004C50.5375 60.5004 49.7625 60.0129 49.4875 59.4754C49.025 58.5754 49.3125 57.5879 50.2 57.0504C50.8 56.6879 51.35 56.6754 52 57.0004Z" fill="#0D313B"/>
</g>
</g>
<g id="Vector_2">
<path d="M40.3229 22.2227C43.8895 22.2227 46.7789 25.1134 46.7789 28.6785C46.7807 29.8529 46.4606 31.0054 45.8533 32.0107L48.9834 35.1407L48.9725 35.1516C49.3065 35.4714 49.5117 35.9253 49.5117 36.4384C49.5119 37.4295 48.7223 38.2046 47.7321 38.2044C47.2264 38.2042 46.7741 38.0019 46.4513 37.6726L46.4434 37.6805L43.2139 34.4508C42.3168 34.9012 41.3267 35.1353 40.3229 35.1343C36.756 35.1343 33.8673 32.2439 33.8673 28.6785C33.8673 25.1134 36.7562 22.2227 40.3229 22.2227ZM40.2837 32.5957C42.513 32.5957 44.3188 30.7893 44.3188 28.5609C44.3188 26.3328 42.513 24.526 40.2837 24.526C38.0545 24.526 36.2491 26.3326 36.2491 28.5609C36.2489 30.7893 38.0545 32.5957 40.2837 32.5957Z" fill="#0D313B"/>
<path d="M40.2837 32.5957C42.513 32.5957 44.3188 30.7893 44.3188 28.5609C44.3188 26.3328 42.513 24.526 40.2837 24.526C38.0545 24.526 36.2491 26.3326 36.2491 28.5609C36.2489 30.7893 38.0545 32.5957 40.2837 32.5957Z" fill="#68D4F4"/>
</g>
</g>
</g>
</svg>