<svg xmlns="http://www.w3.org/2000/svg" fill="none" viewBox="4 4.17 63.95 64">
<g id="revenue-forecast">
<g id="Group">
<g id="Vector">
<path d="M27.1678 4.32897C25.655 4.70406 24.2671 5.77933 23.5919 7.09216L23.1668 7.90487H20.0035C17.1028 7.90487 16.8027 7.92988 16.3651 8.15493C15.7525 8.45501 15.2898 9.33023 15.3899 9.96789C15.4274 10.2054 16.1401 12.481 16.9653 15.0317C17.803 17.5698 18.4781 19.7329 18.4781 19.8204C18.4781 19.9204 18.2031 20.1705 17.853 20.3955C15.2898 22.0584 14.6147 25.5718 16.3776 28.21C16.6027 28.5601 16.7152 28.8477 16.6402 28.8852C16.5777 28.9352 16.3026 29.1102 16.0275 29.2728C14.2771 30.3605 11.5139 32.8612 10.0135 34.7116C5.71242 40.0255 3.52437 46.8272 4.08701 53.1663C4.4371 57.1298 5.67491 59.993 8.10052 62.4311C11.2013 65.5819 15.3273 67.1573 22.4792 67.9325C24.4171 68.1576 32.2941 68.1576 34.3571 67.945C37.4579 67.6324 40.2586 67.0823 42.1591 66.4321L42.8843 66.1696L43.4845 66.7072C44.1846 67.3324 45.1724 67.8325 46.0851 68.0325C46.9603 68.2201 62.4142 68.2201 63.377 68.045C66.7653 67.3949 68.8033 63.819 67.603 60.6057C67.4655 60.2431 67.1904 59.6929 66.9779 59.3679L66.5903 58.7927L66.9779 58.2176C67.6781 57.1673 67.9031 56.3671 67.9031 55.0418C67.9031 53.7164 67.6781 52.9162 66.9779 51.866L66.5903 51.2908L66.9779 50.7157C67.6781 49.6654 67.9031 48.8652 67.9031 47.5399C67.9031 46.2145 67.6781 45.4143 66.9779 44.3641L66.5903 43.7889L66.9779 43.2138C69.2159 39.8129 67.3405 35.2868 63.377 34.5366C62.9644 34.4616 59.626 34.4116 54.6998 34.4116H46.6978L45.3974 33.0487C44.0846 31.6609 42.5967 30.398 41.1089 29.4103C40.6587 29.1102 40.2711 28.8602 40.2461 28.8352C40.2211 28.8101 40.3837 28.5351 40.5962 28.21C42.3467 25.5718 41.6715 22.0584 39.1083 20.3955C38.7583 20.1705 38.4832 19.9204 38.4832 19.8204C38.4832 19.7329 39.1584 17.5698 39.9961 15.0317C40.8213 12.481 41.534 10.2054 41.5715 9.96789C41.6715 9.33023 41.2089 8.45501 40.5962 8.15493C40.1586 7.92988 39.8585 7.90487 36.9578 7.90487H33.7945L33.3694 7.09216C32.2566 4.92911 29.5809 3.72882 27.1678 4.32897ZM29.3559 8.15493C30.2311 8.60505 30.3561 9.03015 30.3561 11.6558C30.3561 13.6688 30.3811 13.9689 30.6062 14.4065C30.8938 14.9692 31.6065 15.4068 32.2316 15.4068C32.8568 15.4068 33.5695 14.9692 33.857 14.4065C34.0571 14.0189 34.1071 13.6688 34.1071 12.7811V11.6558H35.6075C36.4327 11.6558 37.1078 11.6933 37.1078 11.7433C37.1078 11.8059 36.5452 13.5313 35.87 15.5943L34.6447 19.3453H28.4807H22.3166L21.0913 15.5943C20.4161 13.5313 19.8535 11.8059 19.8535 11.7433C19.8535 11.6933 21.0413 11.6558 22.4792 11.6558C24.8798 11.6558 25.1548 11.6308 25.6049 11.4058C26.1676 11.1182 26.6052 10.4055 26.6052 9.78034C26.6052 9.18019 27.0428 8.4425 27.5804 8.16743C28.1806 7.84235 28.7432 7.84236 29.3559 8.15493ZM36.8578 23.4088C37.4204 23.6964 37.858 24.409 37.858 25.0342C37.858 25.6593 37.4204 26.372 36.8578 26.6596C36.3827 26.8972 36.1326 26.9097 28.4807 26.9097C20.8287 26.9097 20.5787 26.8972 20.1036 26.6596C19.5409 26.372 19.1033 25.6593 19.1033 25.0342C19.1033 24.434 19.5409 23.6964 20.0785 23.4213C20.5287 23.1837 20.8287 23.1712 28.4557 23.1587C36.1451 23.1587 36.3827 23.1712 36.8578 23.4088ZM36.2826 30.9607C37.3204 31.4233 38.6832 32.236 39.9211 33.1612C41.0964 34.0365 43.1094 35.8619 43.1094 36.0495C43.1094 36.112 42.9218 36.4496 42.6842 36.7872C41.9466 37.8624 41.6965 38.6876 41.6965 40.038C41.6965 41.3633 41.9216 42.1635 42.6217 43.2138L43.0093 43.7889L42.6217 44.3641C41.9216 45.4143 41.6965 46.2145 41.6965 47.5399C41.6965 48.8652 41.9216 49.6654 42.6217 50.7157L43.0093 51.2908L42.6217 51.866C41.9216 52.9162 41.6965 53.7164 41.6965 55.0418C41.6965 56.3671 41.9216 57.1673 42.6217 58.2176L43.0093 58.7927L42.6217 59.3679C42.1216 60.1305 41.784 61.0558 41.6715 61.956L41.584 62.6687L40.4337 63.0313C37.8705 63.8565 34.7948 64.2441 29.981 64.3691C17.953 64.6817 11.1388 62.2936 8.7882 56.9672C7.13778 53.2413 7.47536 47.3523 9.6134 42.4511C10.8137 39.7004 12.2516 37.6249 14.5396 35.3493C16.3776 33.4988 17.8155 32.4361 19.8785 31.3733L21.2914 30.6606H28.4432H35.595L36.2826 30.9607ZM63.2394 38.4126C63.8021 38.7001 64.2397 39.4128 64.2397 40.038C64.2397 40.6631 63.8021 41.3758 63.2394 41.6634C62.7643 41.9009 62.5143 41.9135 54.7998 41.9135C47.0854 41.9135 46.8353 41.9009 46.3602 41.6634C45.7975 41.3758 45.3599 40.6631 45.3599 40.038C45.3599 39.4378 45.7975 38.7001 46.3352 38.4251C46.7853 38.1875 47.0854 38.175 54.7748 38.1625C62.5268 38.1625 62.7643 38.175 63.2394 38.4126ZM63.2394 45.9145C63.8021 46.202 64.2397 46.9147 64.2397 47.5399C64.2397 48.165 63.8021 48.8777 63.2394 49.1653C62.7643 49.4028 62.5143 49.4153 54.7998 49.4153C47.0854 49.4153 46.8353 49.4028 46.3602 49.1653C45.7975 48.8777 45.3599 48.165 45.3599 47.5399C45.3599 46.9397 45.7975 46.202 46.3352 45.927C46.7853 45.6894 47.0854 45.6769 54.7748 45.6644C62.5268 45.6644 62.7643 45.6769 63.2394 45.9145ZM63.2394 53.4164C63.8021 53.7039 64.2397 54.4166 64.2397 55.0418C64.2397 55.6669 63.8021 56.3796 63.2394 56.6672C62.7643 56.9047 62.5143 56.9172 54.7998 56.9172C47.0854 56.9172 46.8353 56.9047 46.3602 56.6672C45.7975 56.3796 45.3599 55.6669 45.3599 55.0418C45.3599 54.4416 45.7975 53.7039 46.3352 53.4289C46.7853 53.1913 47.0854 53.1788 54.7748 53.1663C62.5268 53.1663 62.7643 53.1788 63.2394 53.4164ZM63.2394 60.9182C63.8021 61.2058 64.2397 61.9185 64.2397 62.5437C64.2397 63.1688 63.8021 63.8815 63.2394 64.1691C62.7643 64.4066 62.5143 64.4191 54.7998 64.4191C47.0854 64.4191 46.8353 64.4066 46.3602 64.1691C45.7975 63.8815 45.3599 63.1688 45.3599 62.5437C45.3599 61.9435 45.7975 61.2058 46.3352 60.9307C46.7853 60.6932 47.0854 60.6807 54.7748 60.6682C62.5268 60.6682 62.7643 60.6807 63.2394 60.9182Z" fill="#4D0000"/>
<path d="M63.2394 38.4126C63.8021 38.7001 64.2397 39.4128 64.2397 40.038C64.2397 40.6631 63.8021 41.3758 63.2394 41.6634C62.7643 41.9009 62.5143 41.9135 54.7998 41.9135C47.0854 41.9135 46.8353 41.9009 46.3602 41.6634C45.7975 41.3758 45.3599 40.6631 45.3599 40.038C45.3599 39.4378 45.7975 38.7001 46.3352 38.4251C46.7853 38.1875 47.0854 38.175 54.7748 38.1625C62.5268 38.1625 62.7643 38.175 63.2394 38.4126Z" fill="#E60000"/>
<path d="M63.2394 53.4164C63.8021 53.7039 64.2397 54.4166 64.2397 55.0418C64.2397 55.6669 63.8021 56.3796 63.2394 56.6672C62.7643 56.9047 62.5143 56.9172 54.7998 56.9172C47.0854 56.9172 46.8353 56.9047 46.3602 56.6672C45.7975 56.3796 45.3599 55.6669 45.3599 55.0418C45.3599 54.4416 45.7975 53.7039 46.3352 53.4289C46.7853 53.1913 47.0854 53.1788 54.7748 53.1663C62.5268 53.1663 62.7643 53.1788 63.2394 53.4164Z" fill="#E60000"/>
<path d="M63.2394 60.9182C63.8021 61.2058 64.2397 61.9185 64.2397 62.5437C64.2397 63.1688 63.8021 63.8815 63.2394 64.1691C62.7643 64.4066 62.5143 64.4191 54.7998 64.4191C47.0854 64.4191 46.8353 64.4066 46.3602 64.1691C45.7975 63.8815 45.3599 63.1688 45.3599 62.5437C45.3599 61.9435 45.7975 61.2058 46.3352 60.9307C46.7853 60.6932 47.0854 60.6807 54.7748 60.6682C62.5268 60.6682 62.7643 60.6807 63.2394 60.9182Z" fill="#E60000"/>
<path d="M63.2394 45.9145C63.8021 46.202 64.2397 46.9147 64.2397 47.5399C64.2397 48.165 63.8021 48.8777 63.2394 49.1653C62.7643 49.4028 62.5143 49.4153 54.7998 49.4153C47.0854 49.4153 46.8353 49.4028 46.3602 49.1653C45.7975 48.8777 45.3599 48.165 45.3599 47.5399C45.3599 46.9397 45.7975 46.202 46.3352 45.927C46.7853 45.6894 47.0854 45.6769 54.7748 45.6644C62.5268 45.6644 62.7643 45.6769 63.2394 45.9145Z" fill="#E60000"/>
<path d="M36.8578 23.4088C37.4204 23.6964 37.858 24.409 37.858 25.0342C37.858 25.6593 37.4204 26.372 36.8578 26.6596C36.3827 26.8972 36.1326 26.9097 28.4807 26.9097C20.8287 26.9097 20.5787 26.8972 20.1036 26.6596C19.5409 26.372 19.1033 25.6593 19.1033 25.0342C19.1033 24.434 19.5409 23.6964 20.0785 23.4213C20.5287 23.1837 20.8287 23.1712 28.4557 23.1587C36.1451 23.1587 36.3827 23.1712 36.8578 23.4088Z" fill="#E60000"/>
</g>
<path id="Vector_2" d="M27.5817 34.6739C26.794 35.0865 26.6064 35.6241 26.6064 37.4496V39.0125L25.9062 39.3501C25.5186 39.5376 24.906 40.0003 24.5309 40.3628C21.4801 43.4136 22.793 48.4649 26.969 49.7402C27.2816 49.8402 27.7442 49.9153 27.9818 49.9153C29.6947 49.9278 30.72 51.1531 30.1573 52.5159C29.8447 53.2661 29.2696 53.6662 28.4944 53.6662C27.4191 53.6662 26.7565 53.016 26.5939 51.8157C26.4314 50.6654 25.7062 49.9903 24.6309 50.0153C23.6182 50.0278 22.8555 50.878 22.8555 51.9783C22.8555 53.8788 24.0808 55.8418 25.8687 56.792L26.6064 57.1796V58.1798C26.6064 58.93 26.6689 59.2926 26.8565 59.6677C27.1441 60.2304 27.8567 60.668 28.4819 60.668C29.107 60.668 29.8197 60.2304 30.1073 59.6677C30.2948 59.2926 30.3574 58.93 30.3574 58.1798V57.1796L31.1076 56.7795C31.5202 56.5669 32.1328 56.0918 32.4704 55.7292C35.7212 52.2909 33.6957 46.827 28.9695 46.2643C27.7817 46.1268 27.2941 45.9017 26.894 45.2891C26.1313 44.1638 27.0065 42.5259 28.3819 42.5134C29.4571 42.4884 30.1823 43.1636 30.3449 44.3138C30.5074 45.5141 31.1701 46.1643 32.2328 46.1643C33.008 46.1643 33.5582 45.8017 33.8833 45.0765C34.1208 44.5389 34.1333 44.4014 33.9958 43.5511C33.7957 42.2508 33.2456 41.2006 32.2954 40.3128C31.8702 39.9127 31.2576 39.4626 30.945 39.3126L30.3574 39.0375V37.4746C30.3574 36.1493 30.3199 35.8242 30.1073 35.4116C29.6447 34.4989 28.5194 34.1738 27.5817 34.6739Z" fill="#4D0000"/>
</g>
</g>
</svg>