<svg xmlns="http://www.w3.org/2000/svg" fill="none" viewBox="7 2 34 44">
<path fill-rule="evenodd" clip-rule="evenodd" d="M7 10C7 7.79086 8.79086 6 11 6H37C39.2091 6 41 7.79086 41 10V42C41 44.2091 39.2091 46 37 46H11C8.79086 46 7 44.2091 7 42V10ZM37 10H11V42H37V10Z" fill="#121212"/>
<path fill-rule="evenodd" clip-rule="evenodd" d="M18 2C19.1046 2 20 2.89543 20 4V10C20 11.1046 19.1046 12 18 12C16.8954 12 16 11.1046 16 10V4C16 2.89543 16.8954 2 18 2ZM30 2C31.1046 2 32 2.89543 32 4V10C32 11.1046 31.1046 12 30 12C28.8954 12 28 11.1046 28 10V4C28 2.89543 28.8954 2 30 2ZM14 19C14 17.8954 14.8954 17 16 17H32C33.1046 17 34 17.8954 34 19C34 20.1046 33.1046 21 32 21H16C14.8954 21 14 20.1046 14 19ZM14 27C14 25.8954 14.8954 25 16 25H28C29.1046 25 30 25.8954 30 27C30 28.1046 29.1046 29 28 29H16C14.8954 29 14 28.1046 14 27ZM14 35C14 33.8954 14.8954 33 16 33H24C25.1046 33 26 33.8954 26 35C26 36.1046 25.1046 37 24 37H16C14.8954 37 14 36.1046 14 35Z" fill="#121212"/>
</svg>