<svg xmlns="http://www.w3.org/2000/svg" fill="none" viewBox="0 0 200 200">
<mask id="mask0_522_1771" style="mask-type:alpha" maskUnits="userSpaceOnUse" x="0" y="0" width="200" height="200">
<rect width="200" height="200" fill="#D9D9D9"/>
</mask>
<g mask="url(#mask0_522_1771)">
<path d="M100 183.333C80.5556 183.333 63.7848 176.944 49.6875 164.167C35.5903 151.389 27.5 135.556 25.4167 116.667C25.1389 114.444 25.7987 112.5 27.3959 110.833C28.9931 109.167 30.9723 108.333 33.3334 108.333C35.5556 108.333 37.5348 109.132 39.2709 110.729C41.007 112.326 42.0139 114.306 42.2917 116.667C44.2362 130.972 50.625 142.882 61.4584 152.396C72.2917 161.91 85.1389 166.667 100 166.667C116.25 166.667 130.035 161.007 141.354 149.688C152.674 138.368 158.333 124.583 158.333 108.333C158.333 92.0833 152.674 78.2986 141.354 66.9792C130.035 55.6597 116.25 50 100 50H98.75L106.042 57.2917C107.569 58.8195 108.333 60.7639 108.333 63.125C108.333 65.4861 107.569 67.4306 106.042 68.9583C104.375 70.625 102.361 71.4583 100 71.4583C97.6389 71.4583 95.6945 70.625 94.1667 68.9583L72.5 47.5C71.6667 46.6667 71.0764 45.7639 70.7292 44.7917C70.382 43.8194 70.2084 42.7778 70.2084 41.6667C70.2084 40.5556 70.382 39.5139 70.7292 38.5417C71.0764 37.5694 71.6667 36.6667 72.5 35.8333L94.1667 14.1667C95.6945 12.6389 97.6389 11.875 100 11.875C102.361 11.875 104.375 12.6389 106.042 14.1667C107.569 15.8333 108.333 17.8472 108.333 20.2083C108.333 22.5694 107.569 24.5139 106.042 26.0417L98.75 33.3333H100C110.417 33.3333 120.174 35.3125 129.271 39.2708C138.368 43.2292 146.285 48.5764 153.021 55.3125C159.757 62.0486 165.104 69.9653 169.063 79.0625C173.021 88.1597 175 97.9167 175 108.333C175 118.75 173.021 128.507 169.063 137.604C165.104 146.701 159.757 154.618 153.021 161.354C146.285 168.09 138.368 173.438 129.271 177.396C120.174 181.354 110.417 183.333 100 183.333Z" fill="#1F1F1F"/>
</g>
</svg>