<svg xmlns="http://www.w3.org/2000/svg" fill="none" viewBox="0 0 200 200">
<mask id="mask0_522_1784" style="mask-type:alpha" maskUnits="userSpaceOnUse" x="0" y="0" width="200" height="200">
<rect width="200" height="200" transform="matrix(1 0 0 -1 0 200)" fill="#D9D9D9"/>
</mask>
<g mask="url(#mask0_522_1784)">
<path d="M100.001 75.4166C98.89 75.4166 97.8483 75.5902 96.8761 75.9375C95.9039 76.2847 95.0011 76.8749 94.1678 77.7083L55.6261 116.25C54.0983 117.778 53.3692 119.687 53.4386 121.979C53.5081 124.271 54.3067 126.181 55.8344 127.708C57.3622 129.236 59.3067 130 61.6678 130C64.0289 130 65.9733 129.236 67.5011 127.708L100.001 95.2083L132.709 127.917C134.237 129.444 136.147 130.174 138.439 130.104C140.73 130.035 142.64 129.236 144.168 127.708C145.696 126.181 146.459 124.236 146.459 121.875C146.459 119.514 145.696 117.569 144.168 116.042L105.834 77.7083C105.001 76.8749 104.098 76.2847 103.126 75.9375C102.154 75.5902 101.112 75.4166 100.001 75.4166Z" fill="#1F1F1F"/>
</g>
</svg>