<svg xmlns="http://www.w3.org/2000/svg" fill="none" viewBox="10 6 16.13 23.1">
<path d="M14.6001 8.8L14.1001 10.1V10.6H22.1001V9.6L21.1001 8.6L19.7001 8.3L19.4001 7.8L19.2001 7L17.9001 6.5L16.9001 7L16.6001 8L15.6001 8.3L14.6001 8.8Z" fill="#FFA600"/>
<path d="M22.3003 10.9H13.8003V10L14.4003 8.60001L15.5003 8.00001L16.4003 7.80001L16.6003 6.80001L17.8003 6.20001L19.3003 6.80001L19.6003 7.70001L19.8003 8.10001L21.2003 8.30001L22.4003 9.50001V10.9H22.3003ZM14.3003 10.4H21.8003V9.70001L20.9003 8.80001L19.6003 8.50001L19.3003 7.90001L19.1003 7.20001L18.0003 6.80001L17.2003 7.20001L16.9003 8.30001L15.7003 8.60001L14.8003 9.10001L14.3003 10.2V10.4Z" fill="black"/>
<path d="M15.6 12.7H13V15.3H15.6V12.7Z" fill="#FFA600"/>
<path d="M15.6 17.8H13V20.4H15.6V17.8Z" fill="#FFA600"/>
<path d="M15.6 22.4H13V25H15.6V22.4Z" fill="#FFA600"/>
<path d="M14.5 9.9H21.6C21.5 9.6 21.4 9.4 21.2 9.2C20.9 8.9 20.5 8.7 20 8.7H19.6C19.3 8.7 19.1 8.5 19.1 8.2V8C19.1 7.7 19 7.5 18.8 7.3C18.6 7.1 18.4 7 18.1 7C17.8 7 17.6 7.1 17.4 7.3C17.2 7.5 17.1 7.7 17.1 8V8.2C17.1 8.5 16.9 8.7 16.6 8.7H16.2C15.7 8.7 15.3 8.9 15 9.2C14.8 9.4 14.6 9.7 14.5 9.9ZM22.2 10.9H14C13.7 10.9 13.5 10.7 13.5 10.4C13.5 9.7 13.8 9 14.3 8.5C14.8 8 15.4 7.7 16.1 7.7C16.2 7.3 16.4 6.9 16.7 6.6C17.1 6.2 17.6 6 18.1 6C18.6 6 19.1 6.2 19.5 6.6C19.8 6.9 20 7.3 20.1 7.8C20.8 7.8 21.5 8.1 21.9 8.6C22.4 9.1 22.7 9.8 22.7 10.5C22.7 10.7 22.5 10.9 22.2 10.9Z" fill="black"/>
<path d="M25.8 9.19999C25.5 8.89999 25.2 8.79999 24.8 8.79999H21.9C21.6 8.79999 21.4 8.99999 21.4 9.29999C21.4 9.59999 21.6 9.79999 21.9 9.79999H24.8C24.9 9.79999 25.1 9.89999 25.1 9.89999C25.2 9.99999 25.2 10.1 25.2 10.2V27.7C25.2 27.8 25.1 28 25.1 28C25.1 28 24.9 28.1 24.8 28.1H11.4C11.3 28.1 11.1 28 11.1 28C11 27.9 11 27.8 11 27.7V10.2C11 10.1 11.1 9.89999 11.1 9.89999C11.2 9.79999 11.3 9.79999 11.4 9.79999H14.3C14.6 9.79999 14.8 9.59999 14.8 9.29999C14.8 8.99999 14.6 8.79999 14.3 8.79999H11.4C11 8.79999 10.6 8.99999 10.4 9.19999C10.1 9.49999 10 9.79999 10 10.2V27.7C10 28.1 10.2 28.5 10.4 28.7C10.7 29 11 29.1 11.4 29.1H24.7C25.1 29.1 25.5 28.9 25.7 28.7C26 28.4 26.1 28.1 26.1 27.7V10.2C26.2 9.79999 26 9.49999 25.8 9.19999Z" fill="black"/>
<path d="M12.7002 12.8V15.5C12.7002 15.6 12.8002 15.7 12.9002 15.7H15.6002C15.7002 15.7 15.8002 15.6 15.8002 15.5V12.8C15.8002 12.7 15.7002 12.6 15.6002 12.6H12.9002C12.8002 12.6 12.7002 12.7 12.7002 12.8ZM13.2002 13H15.4002V15.3H13.2002V13Z" fill="black"/>
<path d="M14.9001 13.5L14.0001 14.3L13.6001 13.9C13.5001 13.8 13.4001 13.8 13.3001 13.9C13.2001 14 13.2001 14.1 13.3001 14.2L13.8001 14.7C13.8001 14.7 13.9001 14.8 14.0001 14.8C14.1001 14.8 14.1001 14.8 14.2001 14.7L15.2001 13.7C15.3001 13.6 15.3001 13.5 15.2001 13.4C15.2001 13.4 15.0001 13.4 14.9001 13.5Z" fill="black"/>
<path d="M15.8998 17.6C15.8998 17.5 15.7998 17.4 15.6998 17.4H12.9998C12.8998 17.4 12.7998 17.5 12.7998 17.6V20.3C12.7998 20.4 12.8998 20.5 12.9998 20.5H15.6998C15.7998 20.5 15.8998 20.4 15.8998 20.3V17.6ZM15.3998 20.1H13.1998V17.9H15.3998V20.1Z" fill="black"/>
<path d="M13.9001 19.6C14.0001 19.7 14.1001 19.7 14.2001 19.6L15.2001 18.6C15.3001 18.5 15.3001 18.4 15.2001 18.3C15.1001 18.2 15.0001 18.2 14.9001 18.3L14.0001 19.2L13.6001 18.8C13.5001 18.7 13.4001 18.7 13.3001 18.8C13.2001 18.9 13.2001 19 13.3001 19.1L13.9001 19.6Z" fill="black"/>
<path d="M15.6002 22.2H12.9002C12.8002 22.2 12.7002 22.3 12.7002 22.4V25.1C12.7002 25.2 12.8002 25.3 12.9002 25.3H15.6002C15.7002 25.3 15.8002 25.2 15.8002 25.1V22.4C15.9002 22.3 15.8002 22.2 15.6002 22.2ZM15.4002 24.9H13.2002V22.7H15.4002V24.9Z" fill="black"/>
<path d="M13.9002 24.4C13.9002 24.4 14.0002 24.5 14.1002 24.5C14.2002 24.5 14.2002 24.5 14.3002 24.4L15.3002 23.4C15.4002 23.3 15.4002 23.2 15.3002 23.1C15.2002 23 15.1002 23 15.0002 23.1L14.1002 24L13.7002 23.6C13.6002 23.5 13.5002 23.5 13.4002 23.6C13.3002 23.7 13.3002 23.8 13.4002 23.9L13.9002 24.4Z" fill="black"/>
<path d="M23.2001 14.6H16.6001C16.3001 14.6 16.1001 14.4 16.1001 14.1C16.1001 13.8 16.3001 13.6 16.6001 13.6H23.2001C23.5001 13.6 23.7001 13.8 23.7001 14.1C23.7001 14.4 23.5001 14.6 23.2001 14.6Z" fill="black"/>
<path d="M23.2001 19.4H16.6001C16.3001 19.4 16.1001 19.2 16.1001 18.9C16.1001 18.6 16.3001 18.4 16.6001 18.4H23.2001C23.5001 18.4 23.7001 18.6 23.7001 18.9C23.7001 19.2 23.5001 19.4 23.2001 19.4Z" fill="black"/>
<path d="M23.2001 24.3H16.6001C16.3001 24.3 16.1001 24.1 16.1001 23.8C16.1001 23.5 16.3001 23.3 16.6001 23.3H23.2001C23.5001 23.3 23.7001 23.5 23.7001 23.8C23.7001 24.1 23.5001 24.3 23.2001 24.3Z" fill="black"/>
</svg>