<svg xmlns="http://www.w3.org/2000/svg" fill="none" viewBox="6.69 3.09 21.6 30.15">
<path d="M15.8453 7.20412L8.43262 7.20166L8.42353 31.7159L15.8362 31.7183L15.8453 7.20412Z" fill="#FFA600"/>
<path d="M26.9644 7.20242L19.5518 7.19995L19.5427 31.7142L26.9553 31.7166L26.9644 7.20242Z" fill="#FFA600"/>
<path d="M21.3072 7.71682L13.8945 7.71436L13.8934 10.7174L21.3061 10.7199L21.3072 7.71682Z" fill="#FFA600"/>
<path d="M21.2994 12.8596L13.8867 12.8572L13.8856 15.8603L21.2983 15.8627L21.2994 12.8596Z" fill="#FFA600"/>
<path d="M21.2994 18.0025L13.8867 18L13.8856 21.0031L21.2983 21.0055L21.2994 18.0025Z" fill="#FFA600"/>
<path d="M21.2994 22.6311L13.8867 22.6287L13.8856 25.6317L21.2983 25.6342L21.2994 22.6311Z" fill="#FFA600"/>
<path d="M21.2994 27.7739L13.8867 27.7715L13.8851 32.2321L21.2977 32.2345L21.2994 27.7739Z" fill="#FFA600"/>
<path d="M26.3342 29.2361C26.3342 30.4176 25.325 31.3789 24.0847 31.3789H10.8867C9.64648 31.3789 8.63722 30.4176 8.63722 29.2361V9.91808C8.63722 8.73659 9.64648 7.77494 10.8867 7.77494H24.0847C25.325 7.77494 26.3342 8.73659 26.3342 9.91808V29.2361ZM24.0847 5.9161H21.9869L22.0606 5.56536C22.2109 4.84966 21.6364 4.18156 20.8699 4.18156H18.7364C18.6453 3.56272 18.0873 3.08569 17.4116 3.08569C16.7362 3.08569 16.1783 3.56272 16.0865 4.18156H13.953C13.1865 4.18156 12.6123 4.84966 12.7622 5.56536L12.836 5.9161H10.8867C8.57037 5.9161 6.68555 7.71081 6.68555 9.91808V29.2361C6.68555 31.4424 8.57037 33.2377 10.8867 33.2377H24.0847C26.4007 33.2377 28.2855 31.4424 28.2855 29.2361V9.91808C28.2855 7.71081 26.4007 5.9161 24.0847 5.9161Z" fill="black"/>
<path d="M18.9107 12.5376C18.9171 12.1582 18.917 11.7552 18.9103 11.3064C18.18 11.3031 17.4486 11.3031 16.718 11.3064C16.7146 11.6558 16.7146 12.0317 16.7181 12.5238V12.5243C16.7181 12.5291 16.7181 12.5337 16.7182 12.538L18.9107 12.5376ZM18.9107 12.5376C18.7908 12.5395 18.6604 12.5404 18.5053 12.5404H18.5052L17.8239 12.5393H17.8237L17.1555 12.5404C17.1554 12.5404 17.1554 12.5404 17.1554 12.5404C17.0207 12.5404 16.8865 12.5404 16.751 12.5393L18.9107 12.5376ZM15.7986 12.5307V12.5306V12.5307ZM15.7986 12.5307C15.801 12.8118 15.8797 13.0356 16.0438 13.1888C16.2072 13.3413 16.4445 13.4138 16.743 13.4161C16.8794 13.4172 17.017 13.4172 17.154 13.4172H17.1541H17.1542M15.7986 12.5307L17.1542 13.4172L15.7986 12.5307ZM17.1542 13.4172L17.8248 13.4161H17.825L18.5051 13.4172H18.5052C18.6836 13.4172 18.8298 13.4161 18.9675 13.4138H18.9677C19.2252 13.409 19.4396 13.3323 19.5913 13.1889C19.7434 13.045 19.8252 12.8407 19.8297 12.5951V12.5949C19.8356 12.1882 19.8356 11.7556 19.8297 11.2726V11.2724C19.8259 11.01 19.7455 10.797 19.5874 10.6499C19.43 10.5034 19.2047 10.4309 18.9283 10.4297L17.1542 13.4172ZM15.8659 12.5301C15.8706 13.0684 16.1656 13.3443 16.7435 13.3488L16.7123 10.497C16.1729 10.4992 15.8729 10.782 15.867 11.2927C15.8621 11.6487 15.8621 12.0296 15.8659 12.5301ZM16.0435 10.6552C15.8837 10.8057 15.8029 11.0234 15.7998 11.2918L16.712 10.4297C16.4311 10.4309 16.2027 10.5052 16.0435 10.6552ZM18.9282 10.4297C18.1898 10.4261 17.4516 10.4261 16.712 10.4297H18.9282Z" fill="black"/>
<path d="M15.7986 12.5307C15.801 12.8118 15.8797 13.0356 16.0438 13.1888C16.2072 13.3413 16.4445 13.4138 16.743 13.4161C16.8794 13.4172 17.017 13.4172 17.154 13.4172H17.1541H17.1542M15.7986 12.5307L17.1542 13.4172M18.9107 12.5376C18.9171 12.1582 18.917 11.7552 18.9103 11.3064C18.18 11.3031 17.4486 11.3031 16.718 11.3064C16.7146 11.6558 16.7146 12.0317 16.7181 12.5238V12.5243C16.7181 12.5291 16.7181 12.5337 16.7182 12.538L18.9107 12.5376ZM18.9107 12.5376C18.7908 12.5395 18.6604 12.5404 18.5053 12.5404H18.5052L17.8239 12.5393H17.8237L17.1555 12.5404C17.1554 12.5404 17.1554 12.5404 17.1554 12.5404C17.0207 12.5404 16.8865 12.5404 16.751 12.5393L18.9107 12.5376ZM15.7986 12.5307V12.5306V12.5307ZM17.1542 13.4172L17.8248 13.4161H17.825L18.5051 13.4172H18.5052C18.6836 13.4172 18.8298 13.4161 18.9675 13.4138H18.9677C19.2252 13.409 19.4396 13.3323 19.5913 13.1889C19.7434 13.045 19.8252 12.8407 19.8297 12.5951V12.5949C19.8356 12.1882 19.8356 11.7556 19.8297 11.2726V11.2724C19.8259 11.01 19.7455 10.797 19.5874 10.6499C19.43 10.5034 19.2047 10.4309 18.9283 10.4297L17.1542 13.4172ZM15.8659 12.5301C15.8706 13.0684 16.1656 13.3443 16.7435 13.3488L16.7123 10.497C16.1729 10.4992 15.8729 10.782 15.867 11.2927C15.8621 11.6487 15.8621 12.0296 15.8659 12.5301ZM16.0435 10.6552C15.8837 10.8057 15.8029 11.0234 15.7998 11.2918L16.712 10.4297C16.4311 10.4309 16.2027 10.5052 16.0435 10.6552ZM18.9282 10.4297C18.1898 10.4261 17.4516 10.4261 16.712 10.4297H18.9282Z" stroke="black" stroke-width="0.134555"/>
<path d="M17.1372 18.4427H17.1371C16.9898 18.4427 16.8426 18.4416 16.6964 18.4394L17.1372 18.4427ZM17.1372 18.4427L17.8149 18.4416H17.8151L18.4891 18.4427H18.4892M17.1372 18.4427H18.4892H17.1372ZM18.4892 18.4427C18.6425 18.4427 18.7968 18.4416 18.9502 18.4394H18.9503M18.4892 18.4427L18.9503 18.4394L18.4892 18.4427ZM18.9503 18.4394C19.2172 18.4352 19.4368 18.3601 19.591 18.2152C19.7459 18.0698 19.8267 17.8619 19.8306 17.6089V17.6088M18.9503 18.4394L19.8306 17.6088L18.9503 18.4394ZM19.8306 17.6088C19.8364 17.1659 19.8364 16.7204 19.8306 16.2867V16.2866M19.8306 17.6088V16.2866V17.6088ZM19.8306 16.2866C19.8267 16.0336 19.7431 15.8242 19.5871 15.678L19.8306 16.2866ZM19.8306 16.2866L19.5871 15.678L19.8306 16.2866ZM16.7019 15.4539H16.7021H16.7019ZM16.7019 15.4539C16.4289 15.4558 16.204 15.531 16.0461 15.6785L16.7019 15.4539ZM16.7019 15.4539L16.0461 15.6785L16.7019 15.4539ZM19.5871 15.678C19.4315 15.5322 19.2114 15.4563 18.9473 15.455L19.5871 15.678ZM16.0461 15.6785C15.8876 15.8265 15.8051 16.0394 15.8018 16.299L16.0461 15.6785ZM16.7199 16.3319C17.4499 16.3274 18.1813 16.3273 18.9114 16.3318C18.9179 16.7363 18.918 17.1507 18.9125 17.5626C18.776 17.5636 18.6398 17.5646 18.5038 17.5646C18.5038 17.5646 18.5038 17.5646 18.5037 17.5646L17.8151 17.5635H17.8149L17.1357 17.5646H17.1356C16.9967 17.5646 16.8583 17.5646 16.7199 17.5626C16.7144 17.1367 16.7155 16.7239 16.7199 16.3319Z" fill="black"/>
<path d="M17.1372 18.4427L17.8149 18.4416H17.8151L18.4891 18.4427H18.4892M17.1372 18.4427H18.4892M18.4892 18.4427C18.6425 18.4427 18.7968 18.4416 18.9502 18.4394H18.9503M18.4892 18.4427L18.9503 18.4394M18.9503 18.4394C19.2172 18.4352 19.4368 18.3601 19.591 18.2152C19.7459 18.0698 19.8267 17.8619 19.8306 17.6089V17.6088M18.9503 18.4394L19.8306 17.6088M19.8306 17.6088C19.8364 17.1659 19.8364 16.7204 19.8306 16.2867V16.2866M19.8306 17.6088V16.2866M19.8306 16.2866C19.8267 16.0336 19.7431 15.8242 19.5871 15.678M19.8306 16.2866L19.5871 15.678M16.7019 15.4539C16.4289 15.4558 16.204 15.531 16.0461 15.6785M16.7019 15.4539L16.0461 15.6785M17.1372 18.4427H17.1371C16.9898 18.4427 16.8426 18.4416 16.6964 18.4394L17.1372 18.4427ZM16.7019 15.4539H16.7021H16.7019ZM19.5871 15.678C19.4315 15.5322 19.2114 15.4563 18.9473 15.455L19.5871 15.678ZM16.0461 15.6785C15.8876 15.8265 15.8051 16.0394 15.8018 16.299L16.0461 15.6785ZM16.7199 16.3319C17.4499 16.3274 18.1813 16.3273 18.9114 16.3318C18.9179 16.7363 18.918 17.1507 18.9125 17.5626C18.776 17.5636 18.6398 17.5646 18.5038 17.5646C18.5038 17.5646 18.5038 17.5646 18.5037 17.5646L17.8151 17.5635H17.8149L17.1357 17.5646H17.1356C16.9967 17.5646 16.8583 17.5646 16.7199 17.5626C16.7144 17.1367 16.7155 16.7239 16.7199 16.3319Z" stroke="black" stroke-width="0.134555"/>
<path d="M18.9267 20.4325H18.927C19.2056 20.4361 19.4324 20.5121 19.5904 20.6628C19.7489 20.814 19.8291 21.0317 19.8317 21.2997V21.2998L18.9267 20.4325ZM18.9267 20.4325C18.7905 20.4314 18.653 20.4314 18.5169 20.4314H18.5168H18.5167M18.9267 20.4325L18.5167 20.4314L18.9267 20.4325ZM18.5167 20.4314L17.874 20.4325H17.8739L17.1468 20.4314H17.1467H17.1466C16.9997 20.4314 16.8525 20.4314 16.7042 20.4325H16.7037C16.4251 20.4367 16.1986 20.5129 16.041 20.6639C15.8828 20.8152 15.8031 21.0329 15.8006 21.3008M18.5167 20.4314L15.8006 21.3008L18.5167 20.4314ZM15.8679 22.566C15.8737 23.069 16.1676 23.3471 16.695 23.3518L15.8679 22.566ZM15.8679 22.566C15.8629 22.1613 15.8629 21.7473 15.8679 21.3015C15.8725 20.7917 16.17 20.5078 16.7047 20.4998L16.695 23.3518M15.8679 22.566L15.8006 22.5668L15.8679 22.566ZM15.8679 22.566L15.8006 22.5668L15.8679 22.566ZM16.695 23.3518C17.054 23.354 17.4284 23.3551 17.8089 23.3551L16.695 23.3518ZM16.695 23.3518L17.8089 23.3551L16.695 23.3518ZM15.8006 21.3008C15.7956 21.7471 15.7956 22.1616 15.8006 22.5668V21.3008ZM15.8006 22.5668C15.8037 22.8313 15.8829 23.0459 16.0395 23.1946C16.1957 23.3428 16.4195 23.4166 16.6945 23.4191H16.6946C17.0537 23.4213 17.4282 23.4224 17.8089 23.4224C18.186 23.4224 18.5628 23.4213 18.94 23.4191C19.2114 23.4173 19.4348 23.3414 19.5912 23.1921C19.748 23.0424 19.8291 22.8272 19.8317 22.5646L15.8006 22.5668ZM17.8089 23.3551C18.1858 23.3551 18.5626 23.354 18.9396 23.3518L17.8089 23.3551ZM18.9121 22.5411C18.1738 22.5456 17.4199 22.5456 16.7199 22.5411C16.7154 22.1465 16.7154 21.744 16.7201 21.3105C16.8628 21.3083 17.0032 21.3083 17.1453 21.3083L17.816 21.3094H17.8162L18.4856 21.3083C18.6279 21.3083 18.7692 21.3094 18.912 21.3105C18.9168 21.7462 18.9169 22.1488 18.9121 22.5411Z" fill="black"/>
<path d="M18.9267 20.4325C18.7905 20.4314 18.653 20.4314 18.5169 20.4314H18.5168H18.5167M18.9267 20.4325L18.5167 20.4314M18.5167 20.4314L17.874 20.4325H17.8739L17.1468 20.4314H17.1467H17.1466C16.9997 20.4314 16.8525 20.4314 16.7042 20.4325H16.7037C16.4251 20.4367 16.1986 20.5129 16.041 20.6639C15.8828 20.8152 15.8031 21.0329 15.8006 21.3008M18.5167 20.4314L15.8006 21.3008M15.8679 22.566C15.8737 23.069 16.1676 23.3471 16.695 23.3518M15.8679 22.566C15.8629 22.1613 15.8629 21.7473 15.8679 21.3015C15.8725 20.7917 16.17 20.5078 16.7047 20.4998L16.695 23.3518M15.8679 22.566L15.8006 22.5668M15.8679 22.566L15.8006 22.5668M16.695 23.3518C17.054 23.354 17.4284 23.3551 17.8089 23.3551M16.695 23.3518L17.8089 23.3551M18.9267 20.4325H18.927C19.2056 20.4361 19.4324 20.5121 19.5904 20.6628C19.7489 20.814 19.8291 21.0317 19.8317 21.2997V21.2998L18.9267 20.4325ZM15.8006 21.3008C15.7956 21.7471 15.7956 22.1616 15.8006 22.5668V21.3008ZM15.8006 22.5668C15.8037 22.8313 15.8829 23.0459 16.0395 23.1946C16.1957 23.3428 16.4195 23.4166 16.6945 23.4191H16.6946C17.0537 23.4213 17.4282 23.4224 17.8089 23.4224C18.186 23.4224 18.5628 23.4213 18.94 23.4191C19.2114 23.4173 19.4348 23.3414 19.5912 23.1921C19.748 23.0424 19.8291 22.8272 19.8317 22.5646L15.8006 22.5668ZM17.8089 23.3551C18.1858 23.3551 18.5626 23.354 18.9396 23.3518L17.8089 23.3551ZM18.9121 22.5411C18.1738 22.5456 17.4199 22.5456 16.7199 22.5411C16.7154 22.1465 16.7154 21.744 16.7201 21.3105C16.8628 21.3083 17.0032 21.3083 17.1453 21.3083L17.816 21.3094H17.8162L18.4856 21.3083C18.6279 21.3083 18.7692 21.3094 18.912 21.3105C18.9168 21.7462 18.9169 22.1488 18.9121 22.5411Z" stroke="black" stroke-width="0.134555"/>
<path d="M18.4686 25.2434H18.4687H18.4689H18.4686ZM18.4686 25.2434L17.7643 25.2445H17.7641L17.1346 25.2434H17.1345H17.1342C16.9912 25.2434 16.8474 25.2434 16.7037 25.2456M18.4686 25.2434L16.7037 25.2456L18.4686 25.2434ZM15.8679 27.378C15.8737 27.881 16.1676 28.1592 16.695 28.1638L15.8679 27.378ZM15.8679 27.378C15.8629 26.9732 15.8629 26.5594 15.8679 26.1133L16.695 28.1638M15.8679 27.378L15.8006 27.3789L15.8679 27.378ZM15.8679 27.378L15.8006 27.3789L15.8679 27.378ZM16.695 28.1638C17.054 28.166 17.4284 28.1672 17.8089 28.1672L16.695 28.1638ZM16.695 28.1638L17.8089 28.1672L16.695 28.1638ZM16.7037 25.2456C16.4252 25.2492 16.1987 25.3252 16.041 25.476C15.8828 25.6272 15.8031 25.8448 15.8006 26.1126C15.7956 26.5591 15.7956 26.9734 15.8006 27.3788L16.7037 25.2456ZM15.8006 27.3789C15.8037 27.6433 15.8829 27.8579 16.0395 28.0066C16.1957 28.1548 16.4195 28.2287 16.6945 28.2311H16.6946C17.0537 28.2333 17.4282 28.2344 17.8089 28.2344C18.186 28.2344 18.5628 28.2333 18.94 28.2311C19.2115 28.2292 19.4347 28.1533 19.5912 28.0042C19.748 27.8547 19.8291 27.6399 19.8317 27.3777L15.8006 27.3789ZM17.8089 28.1672C18.1858 28.1672 18.5626 28.166 18.9396 28.1638L17.8089 28.1672ZM18.9121 27.3543C18.1738 27.3585 17.4199 27.3585 16.7199 27.3532C16.7154 26.9599 16.7154 26.5573 16.7201 26.1226C16.8618 26.1215 17.0034 26.1215 17.1453 26.1215H18.4832C18.6258 26.1215 18.7695 26.1215 18.912 26.1225C18.9168 26.5584 18.9169 26.9609 18.9121 27.3543ZM19.5904 25.4749C19.4324 25.3244 19.2057 25.2487 18.9272 25.2456L19.8317 26.1115C19.8291 25.8437 19.7489 25.626 19.5904 25.4749Z" fill="black"/>
<path d="M18.4686 25.2434L17.7643 25.2445H17.7641L17.1346 25.2434H17.1345H17.1342C16.9912 25.2434 16.8474 25.2434 16.7037 25.2456M18.4686 25.2434L16.7037 25.2456M15.8679 27.378C15.8737 27.881 16.1676 28.1592 16.695 28.1638M15.8679 27.378C15.8629 26.9732 15.8629 26.5594 15.8679 26.1133L16.695 28.1638M15.8679 27.378L15.8006 27.3789M15.8679 27.378L15.8006 27.3789M16.695 28.1638C17.054 28.166 17.4284 28.1672 17.8089 28.1672M16.695 28.1638L17.8089 28.1672M18.4686 25.2434H18.4687H18.4689H18.4686ZM16.7037 25.2456C16.4252 25.2492 16.1987 25.3252 16.041 25.476C15.8828 25.6272 15.8031 25.8448 15.8006 26.1126C15.7956 26.5591 15.7956 26.9734 15.8006 27.3788L16.7037 25.2456ZM15.8006 27.3789C15.8037 27.6433 15.8829 27.8579 16.0395 28.0066C16.1957 28.1548 16.4195 28.2287 16.6945 28.2311H16.6946C17.0537 28.2333 17.4282 28.2344 17.8089 28.2344C18.186 28.2344 18.5628 28.2333 18.94 28.2311C19.2115 28.2292 19.4347 28.1533 19.5912 28.0042C19.748 27.8547 19.8291 27.6399 19.8317 27.3777L15.8006 27.3789ZM17.8089 28.1672C18.1858 28.1672 18.5626 28.166 18.9396 28.1638L17.8089 28.1672ZM18.9121 27.3543C18.1738 27.3585 17.4199 27.3585 16.7199 27.3532C16.7154 26.9599 16.7154 26.5573 16.7201 26.1226C16.8618 26.1215 17.0034 26.1215 17.1453 26.1215H18.4832C18.6258 26.1215 18.7695 26.1215 18.912 26.1225C18.9168 26.5584 18.9169 26.9609 18.9121 27.3543ZM19.5904 25.4749C19.4324 25.3244 19.2057 25.2487 18.9272 25.2456L19.8317 26.1115C19.8291 25.8437 19.7489 25.626 19.5904 25.4749Z" stroke="black" stroke-width="0.134555"/>
<path d="M24.7329 17.7464C24.7437 18.8702 24.7437 20.0063 24.7329 21.1265C24.7278 21.7218 24.155 22.2113 23.5004 22.2137M24.7329 17.7464L23.4999 22.1464L24.7329 17.7464ZM24.7329 17.7464C24.7296 17.4347 24.5727 17.1363 24.3409 16.9171C24.109 16.6978 23.7962 16.5521 23.4722 16.552L23.4702 16.5521L23.4342 16.5532H23.4341C23.297 16.5578 22.8433 16.5601 22.1202 16.5601H21.435H21.4347C21.2977 16.5601 21.1601 16.5601 21.0223 16.5623M24.7329 17.7464L23.394 17.4279L24.7329 17.7464ZM23.5004 22.2137C23.5003 22.2137 23.5002 22.2137 23.5002 22.2137L23.4999 22.1464M23.5004 22.2137H23.5005L23.4999 22.1464M23.5004 22.2137C23.2569 22.2159 23.0232 22.2159 22.8175 22.2159H22.8173H22.8172L22.1468 22.215M23.4999 22.1464C23.2567 22.1486 23.0232 22.1486 22.8173 22.1486L22.0793 22.1477C22.1011 22.1694 22.1237 22.192 22.1468 22.215M22.1468 22.215C22.3272 22.3951 22.5357 22.6024 22.6108 22.6735L22.6114 22.674C22.7468 22.8054 22.8093 22.9373 22.8129 23.0607C22.8166 23.1844 22.7609 23.2876 22.6837 23.3598C22.6016 23.4365 22.4985 23.4773 22.3861 23.4773C22.2447 23.4773 22.1065 23.4129 21.9858 23.3036L21.9856 23.3034L20.7261 22.154M22.1468 22.215L22.0515 22.2149C22.241 22.4042 22.482 22.6441 22.5645 22.7223L20.7261 22.154M20.7261 22.154C20.6202 22.0576 20.5586 21.9306 20.5586 21.7976C20.5586 21.6685 20.6161 21.5483 20.7153 21.4581L20.7151 21.4583L20.7606 21.5078M20.7261 22.154L20.7714 22.1042L20.7261 22.154ZM23.4363 16.6205L23.4722 16.6193L23.4363 16.6205ZM23.4363 16.6205V16.6204V16.6205ZM23.4363 16.6205C23.2978 16.6251 22.8427 16.6273 22.1202 16.6273H21.435C21.2977 16.6273 21.1604 16.6273 21.023 16.6296C20.8113 16.6307 20.674 16.747 20.6378 16.9546L23.4363 16.6205ZM22.5246 20.8988C22.6065 20.819 22.6488 20.7187 22.6439 20.6173L22.5246 20.8988ZM22.5246 20.8988C22.4569 20.9652 22.2407 21.1711 22.0601 21.3415L22.1579 21.3416M22.5246 20.8988L22.5716 20.947L22.5246 20.8988ZM22.5246 20.8988L22.5717 20.9469C22.5716 20.9469 22.5716 20.947 22.5716 20.947M22.6439 20.6173L23.3941 17.3606C23.7962 17.3618 23.8889 17.4471 23.8889 17.82V21.0471C23.8889 21.3518 23.8288 21.4087 23.511 21.4087L22.8824 21.4098L22.0867 21.4088C22.1099 21.387 22.1337 21.3645 22.1579 21.3416M22.6439 20.6173C22.6378 20.5182 22.5873 20.4279 22.503 20.3619L22.6439 20.6173ZM22.6439 20.6173L20.7714 22.1042L22.6439 20.6173ZM22.1579 21.3416L22.8822 21.3425H22.8824L23.5108 21.3414H23.511C23.5893 21.3414 23.6473 21.3378 23.6909 21.3291C23.7339 21.3204 23.7577 21.3078 23.7726 21.2935C23.7873 21.2795 23.8 21.2576 23.8088 21.2177C23.8178 21.1768 23.8216 21.1221 23.8216 21.0471V17.82C23.8216 17.6327 23.7965 17.5466 23.7465 17.5002C23.7215 17.4771 23.6848 17.4586 23.6269 17.4462C23.5685 17.4337 23.4929 17.4282 23.394 17.4279M22.1579 21.3416C22.3262 21.1825 22.5096 21.0077 22.5716 20.947L22.1579 21.3416ZM23.394 17.4279L22.6378 23.3106C22.568 23.3758 22.4814 23.41 22.3861 23.41C22.2657 23.41 22.1429 23.3551 22.031 23.2537L20.7714 22.1042M23.394 17.4279L21.1857 17.429C21.1063 17.429 21.0233 17.4281 20.9404 17.4118L20.9401 17.4117C20.7087 17.3655 20.5321 17.1628 20.5716 16.9429C20.5918 16.8269 20.6415 16.7305 20.7212 16.6632C20.8008 16.596 20.9042 16.563 21.0223 16.5623M22.5716 20.947C22.6655 20.8555 22.717 20.7371 22.7111 20.6141L22.711 20.6132C22.7036 20.4928 22.6423 20.3856 22.5447 20.309M22.5447 20.309C22.3591 20.1622 22.096 20.1935 21.905 20.3667L21.9048 20.367L20.7154 21.4581L20.7606 21.5078M22.5447 20.309C22.5447 20.3091 22.5447 20.3091 22.5448 20.3091L22.503 20.3619M22.5447 20.309C22.5446 20.309 22.5446 20.309 22.5445 20.3089L22.503 20.3619M20.7606 21.5078C20.674 21.5866 20.6259 21.6893 20.6259 21.7976C20.6259 21.9092 20.6775 22.0188 20.7714 22.1042M20.7606 21.5078L21.9502 20.4166C22.1225 20.2603 22.3488 20.2398 22.503 20.3619M21.0223 16.5623C21.0224 16.5623 21.0226 16.5623 21.0227 16.5623L21.023 16.6296L21.022 16.5623C21.0221 16.5623 21.0222 16.5623 21.0223 16.5623Z" fill="black"/>
<path d="M24.7329 17.7464C24.7437 18.8702 24.7437 20.0063 24.7329 21.1265C24.7278 21.7218 24.155 22.2113 23.5004 22.2137M24.7329 17.7464L23.4999 22.1464M24.7329 17.7464C24.7296 17.4347 24.5727 17.1363 24.3409 16.9171C24.109 16.6978 23.7962 16.5521 23.4722 16.552L23.4702 16.5521L23.4342 16.5532H23.4341C23.297 16.5578 22.8433 16.5601 22.1202 16.5601H21.435H21.4347C21.2977 16.5601 21.1601 16.5601 21.0223 16.5623M24.7329 17.7464L23.394 17.4279M23.5004 22.2137C23.5003 22.2137 23.5002 22.2137 23.5002 22.2137L23.4999 22.1464M23.5004 22.2137H23.5005L23.4999 22.1464M23.5004 22.2137C23.2569 22.2159 23.0232 22.2159 22.8175 22.2159H22.8173H22.8172L22.1468 22.215M23.4999 22.1464C23.2567 22.1486 23.0232 22.1486 22.8173 22.1486L22.0793 22.1477C22.1011 22.1694 22.1237 22.192 22.1468 22.215M22.1468 22.215C22.3272 22.3951 22.5357 22.6024 22.6108 22.6735L22.6114 22.674C22.7468 22.8054 22.8093 22.9373 22.8129 23.0607C22.8166 23.1844 22.7609 23.2876 22.6837 23.3598C22.6016 23.4365 22.4985 23.4773 22.3861 23.4773C22.2447 23.4773 22.1065 23.4129 21.9858 23.3036L21.9856 23.3034L20.7261 22.154M22.1468 22.215L22.0515 22.2149C22.241 22.4042 22.482 22.6441 22.5645 22.7223L20.7261 22.154M20.7261 22.154C20.6202 22.0576 20.5586 21.9306 20.5586 21.7976C20.5586 21.6685 20.6161 21.5483 20.7153 21.4581L20.7151 21.4583L20.7606 21.5078M20.7261 22.154L20.7714 22.1042M22.5246 20.8988C22.6065 20.819 22.6488 20.7187 22.6439 20.6173M22.5246 20.8988C22.4569 20.9652 22.2407 21.1711 22.0601 21.3415L22.1579 21.3416M22.5246 20.8988L22.5716 20.947M22.5246 20.8988L22.5717 20.9469C22.5716 20.9469 22.5716 20.947 22.5716 20.947M22.6439 20.6173L23.3941 17.3606C23.7962 17.3618 23.8889 17.4471 23.8889 17.82V21.0471C23.8889 21.3518 23.8288 21.4087 23.511 21.4087L22.8824 21.4098L22.0867 21.4088C22.1099 21.387 22.1337 21.3645 22.1579 21.3416M22.6439 20.6173C22.6378 20.5182 22.5873 20.4279 22.503 20.3619M22.6439 20.6173L20.7714 22.1042M22.1579 21.3416L22.8822 21.3425H22.8824L23.5108 21.3414H23.511C23.5893 21.3414 23.6473 21.3378 23.6909 21.3291C23.7339 21.3204 23.7577 21.3078 23.7726 21.2935C23.7873 21.2795 23.8 21.2576 23.8088 21.2177C23.8178 21.1768 23.8216 21.1221 23.8216 21.0471V17.82C23.8216 17.6327 23.7965 17.5466 23.7465 17.5002C23.7215 17.4771 23.6848 17.4586 23.6269 17.4462C23.5685 17.4337 23.4929 17.4282 23.394 17.4279M22.1579 21.3416C22.3262 21.1825 22.5096 21.0077 22.5716 20.947M23.394 17.4279L22.6378 23.3106C22.568 23.3758 22.4814 23.41 22.3861 23.41C22.2657 23.41 22.1429 23.3551 22.031 23.2537L20.7714 22.1042M23.394 17.4279L21.1857 17.429C21.1063 17.429 21.0233 17.4281 20.9404 17.4118L20.9401 17.4117C20.7087 17.3655 20.5321 17.1628 20.5716 16.9429C20.5918 16.8269 20.6415 16.7305 20.7212 16.6632C20.8008 16.596 20.9042 16.563 21.0223 16.5623M22.5716 20.947C22.6655 20.8555 22.717 20.7371 22.7111 20.6141L22.711 20.6132C22.7036 20.4928 22.6423 20.3856 22.5447 20.309M22.5447 20.309C22.3591 20.1622 22.096 20.1935 21.905 20.3667L21.9048 20.367L20.7154 21.4581L20.7606 21.5078M22.5447 20.309C22.5447 20.3091 22.5447 20.3091 22.5448 20.3091L22.503 20.3619M22.5447 20.309C22.5446 20.309 22.5446 20.309 22.5445 20.3089L22.503 20.3619M20.7606 21.5078C20.674 21.5866 20.6259 21.6893 20.6259 21.7976C20.6259 21.9092 20.6775 22.0188 20.7714 22.1042M20.7606 21.5078L21.9502 20.4166C22.1225 20.2603 22.3488 20.2398 22.503 20.3619M23.4363 16.6205L23.4722 16.6193L23.4363 16.6205ZM23.4363 16.6205V16.6204V16.6205ZM23.4363 16.6205C23.2978 16.6251 22.8427 16.6273 22.1202 16.6273H21.435C21.2977 16.6273 21.1604 16.6273 21.023 16.6296C20.8113 16.6307 20.674 16.747 20.6378 16.9546L23.4363 16.6205ZM21.0223 16.5623C21.0224 16.5623 21.0226 16.5623 21.0227 16.5623L21.023 16.6296L21.022 16.5623C21.0221 16.5623 21.0222 16.5623 21.0223 16.5623Z" stroke="black" stroke-width="0.134555"/>
<path d="M13.8 15.4986L13.8003 15.4988L14.9911 16.5912V16.5913C15.0892 16.6813 15.1467 16.8015 15.1467 16.9305C15.1467 17.064 15.0847 17.1894 14.9805 17.2857L14.9802 17.2859L13.7206 18.4353L13.7205 18.4354C13.5983 18.5463 13.4601 18.6091 13.3189 18.6091C13.2069 18.6091 13.1038 18.5685 13.0219 18.4934L13.021 18.4927C12.9443 18.4199 12.8886 18.3165 12.8922 18.1929C12.8959 18.0694 12.9584 17.9377 13.094 17.8069C13.1686 17.7344 13.3779 17.5275 13.5583 17.348H12.9349H12.9347C12.7179 17.348 12.4673 17.348 12.2048 17.3467C11.5499 17.3443 10.9775 16.8536 10.9722 16.2583L13.8 15.4986ZM13.8 15.4986C13.6104 15.3266 13.3484 15.2943 13.1607 15.4407L13.16 15.4412C13.0629 15.5188 13.0015 15.6256 12.994 15.7462V15.7472C12.9883 15.8692 13.0398 15.9865 13.1332 16.0788M13.8 15.4986L13.1332 16.0788L13.8 15.4986ZM13.1332 16.0788C13.1952 16.1402 13.3787 16.3153 13.5469 16.4744H12.1943C12.116 16.4744 12.058 16.4707 12.0144 16.4619C11.9714 16.4532 11.9475 16.4405 11.9325 16.4261C11.9178 16.412 11.905 16.39 11.8962 16.3502C11.8872 16.3094 11.8835 16.2547 11.8835 16.1801V12.9532C11.8835 12.7652 11.9086 12.6789 11.9586 12.6325C11.9835 12.6093 12.0202 12.5909 12.078 12.5786C12.1364 12.5662 12.2121 12.5609 12.311 12.5609H14.5193C14.5988 12.5609 14.6816 12.5599 14.7659 12.5436H14.766C14.9969 12.4987 15.1728 12.2957 15.1335 12.075C15.1134 11.9589 15.0637 11.8628 14.984 11.7956C14.9043 11.7285 14.8009 11.6955 14.6828 11.6941H14.6826H14.6825C14.5452 11.693 14.4077 11.6919 14.2689 11.6919H14.2688L13.5851 11.693L13.1332 16.0788ZM12.269 11.7523C12.4075 11.7581 12.8626 11.7603 13.5851 11.7603L12.269 11.7523ZM12.269 11.7523H12.2328H12.269ZM12.269 11.7523H12.2328H12.269ZM12.2328 11.7523C11.6246 11.7523 11.0456 12.2997 11.0394 12.8789L12.2328 11.7523Z" fill="black"/>
<path d="M13.8 15.4986C13.6104 15.3266 13.3484 15.2943 13.1607 15.4407L13.16 15.4412C13.0629 15.5188 13.0015 15.6256 12.994 15.7462V15.7472C12.9883 15.8692 13.0398 15.9865 13.1332 16.0788M13.8 15.4986L13.1332 16.0788M12.269 11.7523H12.2328M12.269 11.7523H12.2328M13.8 15.4986L13.8003 15.4988L14.9911 16.5912V16.5913C15.0892 16.6813 15.1467 16.8015 15.1467 16.9305C15.1467 17.064 15.0847 17.1894 14.9805 17.2857L14.9802 17.2859L13.7206 18.4353L13.7205 18.4354C13.5983 18.5463 13.4601 18.6091 13.3189 18.6091C13.2069 18.6091 13.1038 18.5685 13.0219 18.4934L13.021 18.4927C12.9443 18.4199 12.8886 18.3165 12.8922 18.1929C12.8959 18.0694 12.9584 17.9377 13.094 17.8069C13.1686 17.7344 13.3779 17.5275 13.5583 17.348H12.9349H12.9347C12.7179 17.348 12.4673 17.348 12.2048 17.3467C11.5499 17.3443 10.9775 16.8536 10.9722 16.2583L13.8 15.4986ZM13.1332 16.0788C13.1952 16.1402 13.3787 16.3153 13.5469 16.4744H12.1943C12.116 16.4744 12.058 16.4707 12.0144 16.4619C11.9714 16.4532 11.9475 16.4405 11.9325 16.4261C11.9178 16.412 11.905 16.39 11.8962 16.3502C11.8872 16.3094 11.8835 16.2547 11.8835 16.1801V12.9532C11.8835 12.7652 11.9086 12.6789 11.9586 12.6325C11.9835 12.6093 12.0202 12.5909 12.078 12.5786C12.1364 12.5662 12.2121 12.5609 12.311 12.5609H14.5193C14.5988 12.5609 14.6816 12.5599 14.7659 12.5436H14.766C14.9969 12.4987 15.1728 12.2957 15.1335 12.075C15.1134 11.9589 15.0637 11.8628 14.984 11.7956C14.9043 11.7285 14.8009 11.6955 14.6828 11.6941H14.6826H14.6825C14.5452 11.693 14.4077 11.6919 14.2689 11.6919H14.2688L13.5851 11.693L13.1332 16.0788ZM12.269 11.7523C12.4075 11.7581 12.8626 11.7603 13.5851 11.7603L12.269 11.7523ZM12.2328 11.7523C11.6246 11.7523 11.0456 12.2997 11.0394 12.8789L12.2328 11.7523Z" stroke="black" stroke-width="0.134555"/>
<path d="M14.6191 26.1029L14.9911 26.4449C15.0892 26.535 15.1467 26.6551 15.1467 26.7841C15.1467 26.9174 15.0849 27.044 14.9805 27.1404L14.9802 27.1407L13.7206 28.29L13.7202 28.2903C13.5981 28.4 13.46 28.4628 13.3189 28.4628C13.2069 28.4628 13.1038 28.4221 13.0219 28.3471L13.021 28.3463C12.9443 28.2736 12.8886 28.1701 12.8922 28.0465C12.8959 27.923 12.9584 27.7913 13.0941 27.6605L13.0945 27.66C13.1696 27.5889 13.3781 27.3815 13.5585 27.2014H12.8877C12.6819 27.2014 12.4482 27.2014 12.2049 27.2003L14.6191 26.1029ZM14.6191 26.1029C14.4723 25.968 14.3255 25.8336 14.1787 25.6992C14.0526 25.5837 13.9264 25.4682 13.8003 25.3525L13.8002 25.3524C13.6104 25.179 13.3446 25.1488 13.1614 25.2946M14.6191 26.1029L13.1614 25.2946L14.6191 26.1029ZM13.1614 25.2946C13.063 25.3723 13.0015 25.4792 12.994 25.5998V25.6008C12.9883 25.723 13.0398 25.8398 13.1328 25.9331L13.1334 25.9338C13.1952 25.9941 13.3788 26.169 13.5471 26.3282L12.8228 26.3291H12.8226L12.1944 26.328H12.1943C12.116 26.328 12.058 26.3243 12.0144 26.3155C11.9714 26.3068 11.9475 26.2941 11.9325 26.2797C11.9178 26.2656 11.905 26.2436 11.8962 26.2038C11.8872 26.163 11.8835 26.1084 11.8835 26.0337V22.8068C11.8835 22.6195 11.9085 22.5333 11.9586 22.4869C11.9836 22.4637 12.0203 22.4453 12.0782 22.4328C12.1365 22.4203 12.2122 22.4148 12.3111 22.4145L14.5193 22.4156C14.5953 22.4156 14.6804 22.4146 14.7657 22.3984L14.7667 22.3982C14.9964 22.3508 15.1729 22.1498 15.1335 21.9297C15.1134 21.8137 15.0638 21.7173 14.9841 21.6498C14.9045 21.5824 14.801 21.549 14.6827 21.5478H14.6826H14.6824C14.5452 21.5466 14.4076 21.5455 14.2689 21.5455H14.2688L13.5851 21.5466C12.8617 21.5466 12.4085 21.5444 12.2718 21.5387V21.5386H12.269H12.2328C11.9089 21.5386 11.5961 21.6841 11.3641 21.9033C11.1323 22.1224 10.9755 22.4208 10.9722 22.733L13.1614 25.2946ZM11.0394 26.1113C11.0287 24.9927 11.0287 23.8558 11.0394 22.7337L10.9722 26.1119L11.0394 26.1113ZM11.0394 26.1113L10.9722 26.112L11.0394 26.1113ZM11.0394 26.1113L10.9722 26.112L11.0394 26.1113ZM10.9722 26.112C10.9775 26.7072 11.5499 27.1979 12.2048 27.2003L10.9722 26.112Z" fill="black"/>
<path d="M14.6191 26.1029C14.4723 25.968 14.3255 25.8336 14.1787 25.6992C14.0526 25.5837 13.9264 25.4682 13.8003 25.3525L13.8002 25.3524C13.6104 25.179 13.3446 25.1488 13.1614 25.2946M14.6191 26.1029L13.1614 25.2946M11.0394 26.1113L10.9722 26.112M11.0394 26.1113L10.9722 26.112M14.6191 26.1029L14.9911 26.4449C15.0892 26.535 15.1467 26.6551 15.1467 26.7841C15.1467 26.9174 15.0849 27.044 14.9805 27.1404L14.9802 27.1407L13.7206 28.29L13.7202 28.2903C13.5981 28.4 13.46 28.4628 13.3189 28.4628C13.2069 28.4628 13.1038 28.4221 13.0219 28.3471L13.021 28.3463C12.9443 28.2736 12.8886 28.1701 12.8922 28.0465C12.8959 27.923 12.9584 27.7913 13.0941 27.6605L13.0945 27.66C13.1696 27.5889 13.3781 27.3815 13.5585 27.2014H12.8877C12.6819 27.2014 12.4482 27.2014 12.2049 27.2003L14.6191 26.1029ZM13.1614 25.2946C13.063 25.3723 13.0015 25.4792 12.994 25.5998V25.6008C12.9883 25.723 13.0398 25.8398 13.1328 25.9331L13.1334 25.9338C13.1952 25.9941 13.3788 26.169 13.5471 26.3282L12.8228 26.3291H12.8226L12.1944 26.328H12.1943C12.116 26.328 12.058 26.3243 12.0144 26.3155C11.9714 26.3068 11.9475 26.2941 11.9325 26.2797C11.9178 26.2656 11.905 26.2436 11.8962 26.2038C11.8872 26.163 11.8835 26.1084 11.8835 26.0337V22.8068C11.8835 22.6195 11.9085 22.5333 11.9586 22.4869C11.9836 22.4637 12.0203 22.4453 12.0782 22.4328C12.1365 22.4203 12.2122 22.4148 12.3111 22.4145L14.5193 22.4156C14.5953 22.4156 14.6804 22.4146 14.7657 22.3984L14.7667 22.3982C14.9964 22.3508 15.1729 22.1498 15.1335 21.9297C15.1134 21.8137 15.0638 21.7173 14.9841 21.6498C14.9045 21.5824 14.801 21.549 14.6827 21.5478H14.6826H14.6824C14.5452 21.5466 14.4076 21.5455 14.2689 21.5455H14.2688L13.5851 21.5466C12.8617 21.5466 12.4085 21.5444 12.2718 21.5387V21.5386H12.269H12.2328C11.9089 21.5386 11.5961 21.6841 11.3641 21.9033C11.1323 22.1224 10.9755 22.4208 10.9722 22.733L13.1614 25.2946ZM11.0394 26.1113C11.0287 24.9927 11.0287 23.8558 11.0394 22.7337L10.9722 26.1119L11.0394 26.1113ZM10.9722 26.112C10.9775 26.7072 11.5499 27.1979 12.2048 27.2003L10.9722 26.112Z" stroke="black" stroke-width="0.134555"/>
</svg>