<svg xmlns="http://www.w3.org/2000/svg" fill="none" viewBox="5.1 7.2 25.26 24.5">
<path d="M30 31L25.1 22L20 31H30Z" fill="#FFA600"/>
<path d="M25.7 9.40002H7.5V13H25.8V9.40002H25.7Z" fill="#FFA600"/>
<path d="M26.7001 8.20001H6.5001C6.3001 8.20001 6.1001 8.40001 6.1001 8.60001V13.9C6.1001 14.1 6.3001 14.3 6.5001 14.3H26.7001C26.9001 14.3 27.1001 14.1 27.1001 13.9V8.60001C27.0001 8.40001 26.9001 8.20001 26.7001 8.20001Z" fill="#FFA600"/>
<path d="M26.7001 15.2H6.5001C5.8001 15.2 5.1001 14.6 5.1001 13.8V8.60001C5.1001 7.90001 5.7001 7.20001 6.5001 7.20001H26.7001C27.4001 7.20001 28.1001 7.80001 28.1001 8.60001V13.9C28.0001 14.6 27.4001 15.2 26.7001 15.2ZM7.2001 13.2H26.0001V9.20001H7.2001V13.2Z" fill="black"/>
<path d="M18 16.6H15.2C14.5 16.6 14 17.1 14 17.8C14 18.5 14.5 19 15.2 19H18C18.7 19 19.2 18.5 19.2 17.8C19.2 17.2 18.7 16.6 18 16.6Z" fill="black"/>
<path fill-rule="evenodd" clip-rule="evenodd" d="M8.9999 25.7V15.6H24.1999V21.3C24.2999 21.3 24.3999 21.3 24.4999 21.3C24.8999 21.3 25.3999 21.4 25.6999 21.5V14.5C25.6999 14.3 25.4999 14.1 25.2999 14.1H7.7999C7.5999 14.1 7.3999 14.3 7.3999 14.5V27C7.3999 27.2 7.5999 27.4 7.7999 27.4H20.2999C20.1999 26.9 20.0999 26.5 20.0999 26V25.9H8.9999V25.7Z" fill="black"/>
<path d="M25.3002 28.1C25.0002 28.1 24.7002 27.8 24.7002 27.5V26.1C24.7002 25.8 24.9002 25.5 25.3002 25.5C25.6002 25.5 25.9002 25.7 25.9002 26.1C25.9002 26.6 25.9002 27.1 25.9002 27.5C25.9002 27.9 25.7002 28.1 25.3002 28.1Z" fill="black"/>
<path d="M25.3998 29.7C25.2998 29.7 25.1998 29.7 25.0998 29.6C24.9998 29.6 24.8998 29.5 24.8998 29.4C24.7998 29.3 24.7998 29.3 24.7998 29.2C24.7998 29.1 24.7998 29 24.7998 28.9C24.7998 28.7 24.8998 28.6 24.9998 28.4C25.0998 28.3 25.2998 28.2 25.4998 28.2C25.6998 28.2 25.7998 28.3 25.9998 28.4C26.0998 28.5 26.1998 28.7 26.1998 28.9C26.1998 29.1 26.0998 29.3 25.9998 29.4C25.7998 29.7 25.5998 29.7 25.3998 29.7ZM25.3998 29V29.4V29Z" fill="black"/>
<path d="M29.3999 31.7H20.6999C20.1999 31.5 19.8999 31.2 19.6999 30.7C19.5999 30.3 19.5999 29.9 19.8999 29.5C20.9999 27.6 22.0999 25.7 23.0999 23.8L23.7999 22.5C24.0999 22 24.4999 21.7 24.9999 21.7C25.4999 21.7 25.9999 22 26.1999 22.5L27.3999 24.6C28.2999 26.2 29.1999 27.8 30.0999 29.4C30.3999 29.9 30.3999 30.4 30.2999 30.9C30.2999 31.2 29.8999 31.5 29.3999 31.7ZM20.9999 30.3H21.0999H28.9999C29.0999 30.3 29.0999 30.3 29.0999 30.3C29.0999 30.3 29.0999 30.2 28.9999 30.2L24.9999 23.2C24.9999 23.2 24.9999 23.1 24.8999 23.1C24.8999 23.1 24.8999 23.1 24.7999 23.2L20.7999 30.2C20.9999 30.2 20.9999 30.3 20.9999 30.3Z" fill="black"/>
</svg>