<svg xmlns="http://www.w3.org/2000/svg" fill="none" viewBox="6.69 6.69 23.14 22.86">
<g id="import">
<g id="Group 1000001528">
<rect id="Rectangle 34624512" x="9.00018" y="15.0286" width="18.5143" height="13.3714" fill="#FFA600"/>
<path id="Vector" d="M17.6839 24.3344C17.9903 24.6749 18.5243 24.6749 18.8307 24.3344L22.2414 20.5447C22.6882 20.0483 22.3359 19.2572 21.668 19.2572H20.3144C19.8884 19.2572 19.543 18.9118 19.543 18.4858V7.45722C19.543 7.03117 19.1976 6.68579 18.7716 6.68579H17.743C17.317 6.68579 16.9716 7.03117 16.9716 7.45722V18.4858C16.9716 18.9118 16.6262 19.2572 16.2002 19.2572H14.8466C14.1787 19.2572 13.8264 20.0483 14.2732 20.5447L17.6839 24.3344Z" fill="black"/>
<path id="Vector_2" d="M27.2573 14.6858H23.1431C22.575 14.6858 22.1145 15.1463 22.1145 15.7144V15.9429C22.1145 16.511 22.575 16.9715 23.1431 16.9715H26.2288C26.7968 16.9715 27.2573 17.432 27.2573 18.0001V26.2286C27.2573 26.7967 26.7968 27.2572 26.2288 27.2572H10.2859C9.71785 27.2572 9.25734 26.7967 9.25734 26.2286V18.0001C9.25734 17.432 9.71785 16.9715 10.2859 16.9715H13.3716C13.9397 16.9715 14.4002 16.511 14.4002 15.9429V15.7144C14.4002 15.1463 13.9397 14.6858 13.3716 14.6858H9.25734C7.8392 14.6858 6.68591 15.7109 6.68591 16.9715V27.2572C6.68591 28.5178 7.8392 29.5429 9.25734 29.5429H27.2573C28.6755 29.5429 29.8288 28.5178 29.8288 27.2572V16.9715C29.8288 15.7109 28.6755 14.6858 27.2573 14.6858Z" fill="black"/>
</g>
</g>
</svg>