<svg xmlns="http://www.w3.org/2000/svg" fill="none" viewBox="30 5 460.85 510">
<path d="M67.0132 5.98429C49.4026 9.37145 34.4538 24.1153 31.0752 41.6486C29.6416 49.0206 29.6416 411.044 31.0752 418.416C34.5562 436.349 49.4026 450.795 67.8331 454.181C70.9045 454.68 77.4567 455.177 82.3719 455.177H91.4843V464.043C91.4843 468.824 91.9968 475.202 92.5081 478.189C95.9889 496.121 110.836 510.567 129.266 513.953C136.844 515.349 445.442 515.349 453.019 513.953C471.449 510.567 486.294 496.121 489.778 478.189C491.211 470.818 491.211 108.794 489.778 101.422C486.294 83.4902 471.449 69.0445 453.019 65.6568C449.947 65.1596 443.394 64.661 438.48 64.661H429.368V55.7948C429.368 51.0131 428.854 44.6373 428.343 41.6486C424.861 23.7167 410.016 9.27162 391.586 5.88459C384.726 4.68902 73.6687 4.68902 67.0132 5.98429ZM390.459 36.7672C396.603 39.8554 398.649 44.5377 398.649 55.6952V64.661H287.866C166.944 64.661 170.017 64.5616 158.653 70.3399C151.381 74.1254 101.211 122.94 97.3212 130.014C91.279 141.17 91.4843 135.095 91.4843 286.519V425.291H82.2699C70.8013 425.291 65.9894 423.299 62.8159 417.322C60.7683 413.436 60.7683 411.842 60.7683 230.032C60.7683 48.3233 60.7683 46.6297 62.8159 42.7444C64.0438 40.3536 66.3987 38.0622 68.7536 36.8668C72.4396 34.8742 75.2051 34.8744 229.504 34.7747C384.827 34.7747 386.467 34.7747 390.459 36.7672ZM183.634 124.434V154.32H152.918H122.2V151.93C122.2 150.534 122.713 148.244 123.224 146.65C124.659 143.063 170.835 97.8352 174.932 95.9431C176.672 95.2457 179.231 94.6465 180.869 94.547H183.634V124.434ZM451.892 96.5398C454.554 97.8352 456.705 99.9275 458.035 102.517C460.084 106.403 460.084 107.996 460.084 289.807C460.084 471.615 460.084 473.209 458.035 477.094C456.705 479.685 454.554 481.776 451.892 483.071C447.899 485.063 446.159 485.063 291.142 485.063C136.126 485.063 134.385 485.063 130.391 483.071C127.731 481.776 125.58 479.685 124.248 477.094C122.2 473.209 122.2 471.515 122.2 328.657V184.206H162.133C200.221 184.206 202.372 184.107 206.159 182.215C208.821 180.921 210.972 178.827 212.303 176.238C214.248 172.551 214.352 170.459 214.352 133.4V94.547H331.073C446.159 94.547 447.899 94.547 451.892 96.5398Z" fill="black"/>
<path d="M160.908 218.185C156.506 220.375 152.923 226.254 152.923 231.036C152.923 236.017 156.506 241.695 161.113 243.986C165.105 245.979 166.847 245.979 291.148 245.979C415.446 245.979 417.187 245.979 421.18 243.986C425.788 241.695 429.372 236.017 429.372 231.036C429.372 226.054 425.788 220.375 421.18 218.085C417.187 216.093 415.447 216.091 290.943 216.091C167.256 216.193 164.594 216.193 160.908 218.185Z" fill="black"/>
<path d="M160.908 277.959C156.506 280.151 152.923 286.028 152.923 290.81C152.923 295.792 156.506 301.47 161.113 303.762C165.105 305.753 166.847 305.753 291.148 305.753C415.446 305.753 417.187 305.753 421.18 303.762C425.788 301.47 429.372 295.792 429.372 290.81C429.372 285.83 425.788 280.151 421.18 277.859C417.187 275.867 415.447 275.867 290.943 275.867C167.256 275.967 164.594 275.967 160.908 277.959Z" fill="black"/>
<path d="M160.908 337.73C156.506 339.922 152.923 345.801 152.923 350.582C152.923 355.564 156.506 361.243 161.113 363.533C165.105 365.527 166.847 365.527 291.148 365.527C415.446 365.527 417.187 365.527 421.18 363.533C425.788 361.243 429.372 355.564 429.372 350.582C429.372 345.601 425.788 339.922 421.18 337.632C417.187 335.638 415.447 335.638 290.943 335.638C167.256 335.739 164.594 335.739 160.908 337.73Z" fill="black"/>
<path d="M160.908 397.501C156.506 399.693 152.923 405.572 152.923 410.353C152.923 415.334 156.506 421.011 161.113 423.303C165.105 425.295 166.847 425.295 291.148 425.295C415.446 425.295 417.187 425.295 421.18 423.303C425.788 421.011 429.372 415.334 429.372 410.353C429.372 405.372 425.788 399.693 421.18 397.4C417.187 395.409 415.447 395.409 290.943 395.409C167.256 395.508 164.594 395.508 160.908 397.501Z" fill="black"/>
</svg>